%
M48
M72
T01C0.0118
T02C0.0138
T03C0.0315
T04C0.0400
T05C0.0470
T06C0.0472
T07C0.1378
%
T01
X9250Y2300
X9600Y2300
T02
X10150Y5650
X9650Y8150
X11200Y9050
X6900Y7450
X6150Y7850
X4600Y9600
X9650Y17150
X9650Y18150
T03
X13981Y18449
X13981Y17662
X13981Y16874
X13981Y16087
X13981Y15300
X13981Y14512
X13981Y13725
X13981Y12937
X17650Y13166
X17650Y15134
X13981Y19237
X13981Y20024
X5319Y20024
X5319Y19237
X5319Y18449
X5319Y17662
X5319Y16874
X5319Y16087
X5319Y15300
X5319Y14512
X5319Y13725
X5319Y12937
T04
X4150Y8650
X4150Y7650
X4150Y6650
X3150Y6650
X3150Y7650
X3150Y8650
X12150Y7150
X13150Y7150
X14150Y7150
X14150Y10150
X13150Y10150
X12150Y10150
T05
X12150Y2900
X14150Y2900
T06
X16666Y12772
X16666Y15528
T07
X1650Y2150
X1650Y19650
X17150Y19650
X17150Y2150
M30
