G75*
%MOIN*%
%OFA0B0*%
%FSLAX25Y25*%
%IPPOS*%
%LPD*%
%AMOC8*
5,1,8,0,0,1.08239X$1,22.5*
%
%ADD10C,0.07400*%
%ADD11C,0.01000*%
D10*
X0011000Y0031000D03*
X0011000Y0041000D03*
X0011000Y0051000D03*
X0011000Y0061000D03*
X0021000Y0061000D03*
X0021000Y0051000D03*
X0021000Y0041000D03*
X0021000Y0031000D03*
X0036000Y0031000D03*
X0036000Y0021000D03*
X0036000Y0011000D03*
X0036000Y0041000D03*
X0036000Y0051000D03*
X0036000Y0061000D03*
X0036000Y0071000D03*
X0036000Y0081000D03*
D11*
X0036000Y0021000D02*
X0009500Y0021000D01*
X0006000Y0024500D01*
X0006000Y0056000D01*
X0011000Y0061000D01*
X0021000Y0051000D02*
X0026000Y0051000D01*
X0029500Y0054500D01*
X0029500Y0059500D01*
X0031000Y0061000D01*
X0036000Y0061000D01*
X0043000Y0067500D02*
X0039500Y0071000D01*
X0036000Y0071000D01*
X0036000Y0081000D02*
X0041000Y0081000D01*
X0046000Y0076000D01*
X0046000Y0031000D01*
X0041000Y0026000D01*
X0031000Y0026000D01*
X0026000Y0031000D01*
X0021000Y0031000D01*
X0016000Y0036000D02*
X0031000Y0036000D01*
X0036000Y0031000D01*
X0040000Y0046000D02*
X0026000Y0046000D01*
X0021000Y0041000D01*
X0016000Y0036000D02*
X0011000Y0041000D01*
X0040000Y0046000D02*
X0043000Y0049000D01*
X0043000Y0067500D01*
M02*
