%
M48
M72
T01C0.0400
%
T01
X1100Y3100
X1100Y4100
X1100Y5100
X1100Y6100
X2100Y6100
X2100Y5100
X2100Y4100
X2100Y3100
X3600Y3100
X3600Y2100
X3600Y1100
X3600Y4100
X3600Y5100
X3600Y6100
X3600Y7100
X3600Y8100
M30
