%
M48
M72
T01C0.0138
T02C0.0315
T03C0.0354
T04C0.0400
%
T01
X9200Y9950
X11050Y11400
X10150Y12350
X9550Y13000
T02
X2650Y3150
X3650Y3150
X4650Y3150
X5650Y3150
X6650Y3150
X7650Y3150
X8650Y3150
X9650Y3150
X10650Y3150
X11650Y3150
X12650Y3150
X13650Y3150
X14650Y3150
X15650Y3150
X16650Y3150
X16150Y5150
X17150Y5150
X17150Y6150
X16150Y6150
X16150Y7150
X17150Y7150
X16650Y9150
X15650Y9150
X14650Y9150
X13650Y9150
X12650Y9150
X11650Y9150
X10650Y9150
X9650Y9150
X8650Y9150
X7650Y9150
X6650Y9150
X5650Y9150
X4650Y9150
X3650Y9150
X2650Y9150
T03
X19851Y7150
X21150Y7150
X21150Y6150
X19851Y6150
X19851Y5150
X21150Y5150
T04
X21150Y12150
X20150Y12150
X19150Y12150
X19150Y13150
X20150Y13150
X21150Y13150
X15150Y13150
X14150Y13150
X13150Y13150
X13150Y12150
X14150Y12150
X15150Y12150
M30
