G75*
%MOIN*%
%OFA0B0*%
%FSLAX25Y25*%
%IPPOS*%
%LPD*%
%AMOC8*
5,1,8,0,0,1.08239X$1,22.5*
%
%ADD10R,0.06000X0.16000*%
%ADD11R,0.03937X0.04331*%
%ADD12R,0.04331X0.03937*%
%ADD13R,0.03150X0.01378*%
%ADD14C,0.02953*%
%ADD15R,0.03543X0.03150*%
%ADD16C,0.07400*%
%ADD17R,0.02559X0.05118*%
%ADD18R,0.01890X0.07087*%
%ADD19R,0.04055X0.03937*%
%ADD20R,0.02362X0.04724*%
%ADD21R,0.03937X0.05512*%
%ADD22R,0.05906X0.09843*%
%ADD23C,0.02781*%
%ADD24C,0.01000*%
%ADD25C,0.03175*%
%ADD26C,0.01260*%
%ADD27C,0.03200*%
%ADD28C,0.02400*%
%ADD29C,0.01200*%
%ADD30C,0.01600*%
D10*
X0122000Y0305800D03*
X0132000Y0305800D03*
X0142000Y0305800D03*
D11*
X0051000Y0253146D03*
X0051000Y0246454D03*
X0045000Y0246454D03*
X0039000Y0246454D03*
X0039000Y0253146D03*
X0045000Y0253146D03*
X0073500Y0166646D03*
X0073500Y0159954D03*
X0080500Y0159954D03*
X0080500Y0166646D03*
X0100000Y0166146D03*
X0100000Y0159454D03*
X0113000Y0159954D03*
X0113000Y0166646D03*
X0120000Y0166646D03*
X0120000Y0159954D03*
X0140500Y0159454D03*
X0140500Y0166146D03*
X0118346Y0113300D03*
X0111654Y0113300D03*
X0114654Y0103800D03*
X0121346Y0103800D03*
X0143154Y0104300D03*
X0149846Y0104300D03*
D12*
X0149654Y0112800D03*
X0156346Y0112800D03*
X0133346Y0141800D03*
X0126654Y0141800D03*
X0108846Y0103800D03*
X0102154Y0103800D03*
X0030346Y0255300D03*
X0023654Y0255300D03*
X0092154Y0302300D03*
X0098846Y0302300D03*
D13*
X0063740Y0258359D03*
X0063740Y0255800D03*
X0063740Y0253241D03*
X0056260Y0253241D03*
X0056260Y0255800D03*
X0056260Y0258359D03*
D14*
X0076165Y0258497D02*
X0076165Y0258497D01*
X0069669Y0258497D01*
X0069669Y0258497D01*
X0076165Y0258497D01*
X0076165Y0262828D02*
X0076165Y0262828D01*
X0069669Y0262828D01*
X0069669Y0262828D01*
X0076165Y0262828D01*
X0076165Y0254166D02*
X0076165Y0254166D01*
X0069669Y0254166D01*
X0069669Y0254166D01*
X0076165Y0254166D01*
X0076165Y0249835D02*
X0076165Y0249835D01*
X0069669Y0249835D01*
X0069669Y0249835D01*
X0076165Y0249835D01*
X0076165Y0245505D02*
X0076165Y0245505D01*
X0069669Y0245505D01*
X0069669Y0245505D01*
X0076165Y0245505D01*
X0076165Y0225820D02*
X0076165Y0225820D01*
X0069669Y0225820D01*
X0069669Y0225820D01*
X0076165Y0225820D01*
X0076165Y0221489D02*
X0076165Y0221489D01*
X0069669Y0221489D01*
X0069669Y0221489D01*
X0076165Y0221489D01*
X0076165Y0217158D02*
X0076165Y0217158D01*
X0069669Y0217158D01*
X0069669Y0217158D01*
X0076165Y0217158D01*
X0076165Y0212828D02*
X0076165Y0212828D01*
X0069669Y0212828D01*
X0069669Y0212828D01*
X0076165Y0212828D01*
X0076165Y0208497D02*
X0076165Y0208497D01*
X0069669Y0208497D01*
X0069669Y0208497D01*
X0076165Y0208497D01*
X0076165Y0204166D02*
X0076165Y0204166D01*
X0069669Y0204166D01*
X0069669Y0204166D01*
X0076165Y0204166D01*
X0087681Y0184186D02*
X0087681Y0184186D01*
X0087681Y0190682D01*
X0087681Y0190682D01*
X0087681Y0184186D01*
X0087681Y0187138D02*
X0087681Y0187138D01*
X0087681Y0190090D02*
X0087681Y0190090D01*
X0092012Y0184186D02*
X0092012Y0184186D01*
X0092012Y0190682D01*
X0092012Y0190682D01*
X0092012Y0184186D01*
X0092012Y0187138D02*
X0092012Y0187138D01*
X0092012Y0190090D02*
X0092012Y0190090D01*
X0096343Y0184186D02*
X0096343Y0184186D01*
X0096343Y0190682D01*
X0096343Y0190682D01*
X0096343Y0184186D01*
X0096343Y0187138D02*
X0096343Y0187138D01*
X0096343Y0190090D02*
X0096343Y0190090D01*
X0100673Y0184186D02*
X0100673Y0184186D01*
X0100673Y0190682D01*
X0100673Y0190682D01*
X0100673Y0184186D01*
X0100673Y0187138D02*
X0100673Y0187138D01*
X0100673Y0190090D02*
X0100673Y0190090D01*
X0105004Y0184186D02*
X0105004Y0184186D01*
X0105004Y0190682D01*
X0105004Y0190682D01*
X0105004Y0184186D01*
X0105004Y0187138D02*
X0105004Y0187138D01*
X0105004Y0190090D02*
X0105004Y0190090D01*
X0123508Y0184186D02*
X0123508Y0184186D01*
X0123508Y0190682D01*
X0123508Y0190682D01*
X0123508Y0184186D01*
X0123508Y0187138D02*
X0123508Y0187138D01*
X0123508Y0190090D02*
X0123508Y0190090D01*
X0127839Y0184186D02*
X0127839Y0184186D01*
X0127839Y0190682D01*
X0127839Y0190682D01*
X0127839Y0184186D01*
X0127839Y0187138D02*
X0127839Y0187138D01*
X0127839Y0190090D02*
X0127839Y0190090D01*
X0132169Y0184186D02*
X0132169Y0184186D01*
X0132169Y0190682D01*
X0132169Y0190682D01*
X0132169Y0184186D01*
X0132169Y0187138D02*
X0132169Y0187138D01*
X0132169Y0190090D02*
X0132169Y0190090D01*
X0136500Y0184186D02*
X0136500Y0184186D01*
X0136500Y0190682D01*
X0136500Y0190682D01*
X0136500Y0184186D01*
X0136500Y0187138D02*
X0136500Y0187138D01*
X0136500Y0190090D02*
X0136500Y0190090D01*
X0153331Y0204166D02*
X0153331Y0204166D01*
X0146835Y0204166D01*
X0146835Y0204166D01*
X0153331Y0204166D01*
X0153331Y0208497D02*
X0153331Y0208497D01*
X0146835Y0208497D01*
X0146835Y0208497D01*
X0153331Y0208497D01*
X0153331Y0212828D02*
X0153331Y0212828D01*
X0146835Y0212828D01*
X0146835Y0212828D01*
X0153331Y0212828D01*
X0153331Y0217158D02*
X0153331Y0217158D01*
X0146835Y0217158D01*
X0146835Y0217158D01*
X0153331Y0217158D01*
X0153331Y0221489D02*
X0153331Y0221489D01*
X0146835Y0221489D01*
X0146835Y0221489D01*
X0153331Y0221489D01*
X0153331Y0225820D02*
X0153331Y0225820D01*
X0146835Y0225820D01*
X0146835Y0225820D01*
X0153331Y0225820D01*
X0153331Y0245505D02*
X0153331Y0245505D01*
X0146835Y0245505D01*
X0146835Y0245505D01*
X0153331Y0245505D01*
X0153331Y0249835D02*
X0153331Y0249835D01*
X0146835Y0249835D01*
X0146835Y0249835D01*
X0153331Y0249835D01*
X0153331Y0254166D02*
X0153331Y0254166D01*
X0146835Y0254166D01*
X0146835Y0254166D01*
X0153331Y0254166D01*
X0153331Y0258497D02*
X0153331Y0258497D01*
X0146835Y0258497D01*
X0146835Y0258497D01*
X0153331Y0258497D01*
X0153331Y0262828D02*
X0153331Y0262828D01*
X0146835Y0262828D01*
X0146835Y0262828D01*
X0153331Y0262828D01*
X0136500Y0275918D02*
X0136500Y0275918D01*
X0136500Y0282414D01*
X0136500Y0282414D01*
X0136500Y0275918D01*
X0136500Y0278870D02*
X0136500Y0278870D01*
X0136500Y0281822D02*
X0136500Y0281822D01*
X0132169Y0275918D02*
X0132169Y0275918D01*
X0132169Y0282414D01*
X0132169Y0282414D01*
X0132169Y0275918D01*
X0132169Y0278870D02*
X0132169Y0278870D01*
X0132169Y0281822D02*
X0132169Y0281822D01*
X0127839Y0275918D02*
X0127839Y0275918D01*
X0127839Y0282414D01*
X0127839Y0282414D01*
X0127839Y0275918D01*
X0127839Y0278870D02*
X0127839Y0278870D01*
X0127839Y0281822D02*
X0127839Y0281822D01*
X0123508Y0275918D02*
X0123508Y0275918D01*
X0123508Y0282414D01*
X0123508Y0282414D01*
X0123508Y0275918D01*
X0123508Y0278870D02*
X0123508Y0278870D01*
X0123508Y0281822D02*
X0123508Y0281822D01*
X0105004Y0275918D02*
X0105004Y0275918D01*
X0105004Y0282414D01*
X0105004Y0282414D01*
X0105004Y0275918D01*
X0105004Y0278870D02*
X0105004Y0278870D01*
X0105004Y0281822D02*
X0105004Y0281822D01*
X0100673Y0275918D02*
X0100673Y0275918D01*
X0100673Y0282414D01*
X0100673Y0282414D01*
X0100673Y0275918D01*
X0100673Y0278870D02*
X0100673Y0278870D01*
X0100673Y0281822D02*
X0100673Y0281822D01*
X0096343Y0275918D02*
X0096343Y0275918D01*
X0096343Y0282414D01*
X0096343Y0282414D01*
X0096343Y0275918D01*
X0096343Y0278870D02*
X0096343Y0278870D01*
X0096343Y0281822D02*
X0096343Y0281822D01*
X0092012Y0275918D02*
X0092012Y0275918D01*
X0092012Y0282414D01*
X0092012Y0282414D01*
X0092012Y0275918D01*
X0092012Y0278870D02*
X0092012Y0278870D01*
X0092012Y0281822D02*
X0092012Y0281822D01*
X0087681Y0275918D02*
X0087681Y0275918D01*
X0087681Y0282414D01*
X0087681Y0282414D01*
X0087681Y0275918D01*
X0087681Y0278870D02*
X0087681Y0278870D01*
X0087681Y0281822D02*
X0087681Y0281822D01*
D15*
X0086563Y0167040D03*
X0086563Y0159560D03*
X0094831Y0163300D03*
X0126063Y0159560D03*
X0126063Y0167040D03*
X0134331Y0163300D03*
D16*
X0152000Y0123800D03*
X0162000Y0123800D03*
X0172000Y0123800D03*
X0172000Y0183800D03*
X0172000Y0193800D03*
X0172000Y0203800D03*
X0172000Y0213800D03*
X0172000Y0223800D03*
X0047000Y0223800D03*
X0047000Y0213800D03*
X0047000Y0203800D03*
X0047000Y0193800D03*
X0047000Y0183800D03*
X0041500Y0169300D03*
X0041500Y0159300D03*
X0041500Y0149300D03*
X0027000Y0149300D03*
X0027000Y0159300D03*
X0027000Y0169300D03*
D17*
X0028980Y0263505D03*
X0033980Y0263505D03*
X0038980Y0263505D03*
X0043980Y0263505D03*
X0048980Y0263505D03*
X0023980Y0263505D03*
D18*
X0018114Y0266143D03*
X0018114Y0288780D03*
X0054846Y0288780D03*
X0054846Y0266143D03*
D19*
X0054079Y0311300D03*
X0018921Y0311300D03*
D20*
X0124000Y0135324D03*
X0129000Y0135324D03*
X0134000Y0135324D03*
X0139000Y0135324D03*
X0139000Y0113276D03*
X0134000Y0113276D03*
X0129000Y0113276D03*
X0124000Y0113276D03*
D21*
X0127760Y0103631D03*
X0131500Y0094969D03*
X0135240Y0103631D03*
D22*
X0140752Y0089300D03*
X0156500Y0089300D03*
X0125004Y0089300D03*
X0109256Y0089300D03*
X0093508Y0089300D03*
X0077760Y0089300D03*
X0062012Y0089300D03*
X0046264Y0089300D03*
D23*
X0039000Y0087300D03*
X0039000Y0091300D03*
X0034500Y0091300D03*
X0034500Y0087300D03*
X0034500Y0083300D03*
X0030000Y0083300D03*
X0030000Y0087300D03*
X0030000Y0091300D03*
X0025500Y0091300D03*
X0025500Y0087300D03*
X0025500Y0083300D03*
X0039000Y0083300D03*
X0068500Y0136300D03*
X0068500Y0140300D03*
X0068500Y0144800D03*
X0068500Y0149300D03*
X0073000Y0140300D03*
X0073000Y0136300D03*
X0077500Y0136300D03*
X0077500Y0140300D03*
X0080000Y0154300D03*
X0081500Y0126300D03*
X0106500Y0166800D03*
X0117750Y0146300D03*
X0121500Y0146300D03*
X0125250Y0146300D03*
X0125250Y0149800D03*
X0125250Y0153300D03*
X0129000Y0149800D03*
X0129000Y0146300D03*
X0133000Y0146300D03*
X0141500Y0146800D03*
X0140000Y0151800D03*
X0145000Y0146800D03*
X0148500Y0146800D03*
X0152000Y0146800D03*
X0145000Y0141800D03*
X0145000Y0136800D03*
X0161000Y0146800D03*
X0166000Y0146800D03*
X0171500Y0146800D03*
X0176500Y0146800D03*
X0176500Y0139300D03*
X0171500Y0139300D03*
X0171500Y0132800D03*
X0176500Y0132800D03*
X0162250Y0158050D03*
X0156000Y0165550D03*
X0152250Y0169300D03*
X0157250Y0176800D03*
X0163500Y0176800D03*
X0145500Y0194300D03*
X0135500Y0168300D03*
X0121500Y0099300D03*
X0071539Y0189339D03*
X0057750Y0231800D03*
X0054000Y0231800D03*
X0050250Y0231800D03*
X0046500Y0241987D03*
X0060000Y0255800D03*
X0062000Y0262800D03*
X0063750Y0267050D03*
X0058750Y0267050D03*
X0071500Y0290800D03*
X0071500Y0295300D03*
X0071500Y0299800D03*
X0071500Y0304300D03*
X0076500Y0304300D03*
X0081500Y0304300D03*
X0086500Y0304300D03*
X0085000Y0311800D03*
X0075000Y0311800D03*
X0065000Y0311800D03*
X0076500Y0290800D03*
X0082000Y0290800D03*
X0087500Y0290800D03*
X0095000Y0311800D03*
X0105000Y0311800D03*
X0115000Y0311800D03*
X0115000Y0307800D03*
X0115000Y0302800D03*
X0115000Y0297800D03*
X0121500Y0294800D03*
X0127500Y0295800D03*
X0127500Y0291800D03*
X0127500Y0287800D03*
X0136000Y0287800D03*
X0136000Y0291800D03*
X0136000Y0295800D03*
X0142500Y0294800D03*
X0149000Y0297800D03*
X0149000Y0302800D03*
X0149000Y0307800D03*
X0149000Y0311800D03*
X0159000Y0311800D03*
X0169000Y0311800D03*
X0179000Y0311800D03*
X0179000Y0306800D03*
X0179000Y0296800D03*
X0179000Y0286800D03*
X0179000Y0276800D03*
X0179000Y0266800D03*
X0010000Y0266800D03*
X0010000Y0256800D03*
X0010000Y0246800D03*
X0010000Y0236800D03*
X0010000Y0226800D03*
X0010000Y0216800D03*
X0010000Y0206800D03*
X0010000Y0196800D03*
X0010000Y0186800D03*
X0010000Y0176800D03*
X0010000Y0276800D03*
X0010000Y0286800D03*
X0010000Y0296800D03*
X0010000Y0306800D03*
X0010000Y0311800D03*
D24*
X0009000Y0081800D02*
X0020500Y0081800D01*
X0020500Y0098878D01*
X0021672Y0100050D01*
X0052328Y0100050D01*
X0053500Y0098878D01*
X0053500Y0081800D01*
X0182701Y0081800D01*
X0182701Y0314011D01*
X0136500Y0314011D01*
X0136500Y0297179D01*
X0135621Y0296300D01*
X0134299Y0296300D01*
X0134299Y0284493D01*
X0134693Y0284100D01*
X0135146Y0283006D01*
X0135146Y0275326D01*
X0134693Y0274232D01*
X0133855Y0273395D01*
X0132761Y0272942D01*
X0131577Y0272942D01*
X0130483Y0273395D01*
X0129646Y0274232D01*
X0129193Y0275326D01*
X0129193Y0283006D01*
X0129646Y0284100D01*
X0130039Y0284493D01*
X0130039Y0296300D01*
X0128379Y0296300D01*
X0127500Y0297179D01*
X0127500Y0314011D01*
X0057485Y0314011D01*
X0057606Y0313890D01*
X0057606Y0308710D01*
X0056728Y0307831D01*
X0051430Y0307831D01*
X0050551Y0308710D01*
X0050551Y0313890D01*
X0050672Y0314011D01*
X0022328Y0314011D01*
X0022449Y0313890D01*
X0022449Y0308710D01*
X0021570Y0307831D01*
X0016272Y0307831D01*
X0015394Y0308710D01*
X0015394Y0313890D01*
X0015515Y0314011D01*
X0009000Y0314011D01*
X0009000Y0081800D01*
X0009000Y0082281D02*
X0020500Y0082281D01*
X0020500Y0083279D02*
X0009000Y0083279D01*
X0009000Y0084278D02*
X0020500Y0084278D01*
X0020500Y0085276D02*
X0009000Y0085276D01*
X0009000Y0086275D02*
X0020500Y0086275D01*
X0020500Y0087273D02*
X0009000Y0087273D01*
X0009000Y0088272D02*
X0020500Y0088272D01*
X0020500Y0089270D02*
X0009000Y0089270D01*
X0009000Y0090269D02*
X0020500Y0090269D01*
X0020500Y0091267D02*
X0009000Y0091267D01*
X0009000Y0092266D02*
X0020500Y0092266D01*
X0020500Y0093264D02*
X0009000Y0093264D01*
X0009000Y0094263D02*
X0020500Y0094263D01*
X0020500Y0095261D02*
X0009000Y0095261D01*
X0009000Y0096260D02*
X0020500Y0096260D01*
X0020500Y0097258D02*
X0009000Y0097258D01*
X0009000Y0098257D02*
X0020500Y0098257D01*
X0020877Y0099255D02*
X0009000Y0099255D01*
X0009000Y0100254D02*
X0079201Y0100254D01*
X0079200Y0100253D02*
X0075460Y0096513D01*
X0075460Y0095721D01*
X0074186Y0095721D01*
X0073307Y0094843D01*
X0073307Y0083757D01*
X0074186Y0082879D01*
X0081334Y0082879D01*
X0082213Y0083757D01*
X0082213Y0094843D01*
X0081334Y0095721D01*
X0081174Y0095721D01*
X0082453Y0097000D01*
X0116601Y0097000D01*
X0119391Y0094209D01*
X0120551Y0094209D01*
X0120551Y0083757D01*
X0121430Y0082879D01*
X0128578Y0082879D01*
X0129457Y0083757D01*
X0129457Y0094843D01*
X0128578Y0095721D01*
X0125120Y0095721D01*
X0126399Y0097000D01*
X0134953Y0097000D01*
X0137327Y0099375D01*
X0137830Y0099375D01*
X0138709Y0100253D01*
X0138709Y0101800D01*
X0139685Y0101800D01*
X0139685Y0101513D01*
X0140564Y0100635D01*
X0145743Y0100635D01*
X0146500Y0101391D01*
X0147257Y0100635D01*
X0152436Y0100635D01*
X0153315Y0101513D01*
X0153315Y0107087D01*
X0152436Y0107965D01*
X0151754Y0107965D01*
X0151754Y0109331D01*
X0152440Y0109331D01*
X0153319Y0110210D01*
X0153319Y0115390D01*
X0152440Y0116268D01*
X0146867Y0116268D01*
X0145988Y0115390D01*
X0145988Y0110210D01*
X0146867Y0109331D01*
X0147554Y0109331D01*
X0147554Y0107965D01*
X0147257Y0107965D01*
X0146500Y0107209D01*
X0145743Y0107965D01*
X0140564Y0107965D01*
X0139685Y0107087D01*
X0139685Y0106000D01*
X0138709Y0106000D01*
X0138709Y0107008D01*
X0137830Y0107887D01*
X0137340Y0107887D01*
X0137340Y0108430D01*
X0136100Y0109670D01*
X0136100Y0109712D01*
X0136500Y0110112D01*
X0137198Y0109414D01*
X0140802Y0109414D01*
X0141681Y0110293D01*
X0141681Y0116260D01*
X0140802Y0117139D01*
X0137198Y0117139D01*
X0136500Y0116441D01*
X0135802Y0117139D01*
X0132198Y0117139D01*
X0131500Y0116441D01*
X0130802Y0117139D01*
X0127198Y0117139D01*
X0126500Y0116441D01*
X0125802Y0117139D01*
X0122198Y0117139D01*
X0121480Y0116421D01*
X0120936Y0116965D01*
X0115757Y0116965D01*
X0114878Y0116087D01*
X0114878Y0110513D01*
X0115757Y0109635D01*
X0120936Y0109635D01*
X0121457Y0110155D01*
X0122198Y0109414D01*
X0125802Y0109414D01*
X0126500Y0110112D01*
X0126900Y0109712D01*
X0126900Y0109670D01*
X0125900Y0108670D01*
X0125900Y0107887D01*
X0125170Y0107887D01*
X0124343Y0107059D01*
X0123936Y0107465D01*
X0118757Y0107465D01*
X0118000Y0106709D01*
X0117243Y0107465D01*
X0112064Y0107465D01*
X0111750Y0107152D01*
X0111633Y0107268D01*
X0106060Y0107268D01*
X0105181Y0106390D01*
X0105181Y0101600D01*
X0080547Y0101600D01*
X0079200Y0100253D01*
X0078203Y0099255D02*
X0053123Y0099255D01*
X0053500Y0098257D02*
X0077204Y0098257D01*
X0076206Y0097258D02*
X0053500Y0097258D01*
X0053500Y0096260D02*
X0075460Y0096260D01*
X0073726Y0095261D02*
X0066046Y0095261D01*
X0066465Y0094843D02*
X0065586Y0095721D01*
X0058438Y0095721D01*
X0057559Y0094843D01*
X0057559Y0083757D01*
X0058438Y0082879D01*
X0065586Y0082879D01*
X0066465Y0083757D01*
X0066465Y0094843D01*
X0066465Y0094263D02*
X0073307Y0094263D01*
X0073307Y0093264D02*
X0066465Y0093264D01*
X0066465Y0092266D02*
X0073307Y0092266D01*
X0073307Y0091267D02*
X0066465Y0091267D01*
X0066465Y0090269D02*
X0073307Y0090269D01*
X0073307Y0089270D02*
X0066465Y0089270D01*
X0066465Y0088272D02*
X0073307Y0088272D01*
X0073307Y0087273D02*
X0066465Y0087273D01*
X0066465Y0086275D02*
X0073307Y0086275D01*
X0073307Y0085276D02*
X0066465Y0085276D01*
X0066465Y0084278D02*
X0073307Y0084278D01*
X0073785Y0083279D02*
X0065986Y0083279D01*
X0058037Y0083279D02*
X0053500Y0083279D01*
X0053500Y0082281D02*
X0182701Y0082281D01*
X0182701Y0083279D02*
X0160474Y0083279D01*
X0160074Y0082879D02*
X0160953Y0083757D01*
X0160953Y0094843D01*
X0160074Y0095721D01*
X0152926Y0095721D01*
X0152047Y0094843D01*
X0152047Y0083757D01*
X0152926Y0082879D01*
X0160074Y0082879D01*
X0160953Y0084278D02*
X0182701Y0084278D01*
X0182701Y0085276D02*
X0160953Y0085276D01*
X0160953Y0086275D02*
X0182701Y0086275D01*
X0182701Y0087273D02*
X0160953Y0087273D01*
X0160953Y0088272D02*
X0182701Y0088272D01*
X0182701Y0089270D02*
X0160953Y0089270D01*
X0160953Y0090269D02*
X0182701Y0090269D01*
X0182701Y0091267D02*
X0160953Y0091267D01*
X0160953Y0092266D02*
X0182701Y0092266D01*
X0182701Y0093264D02*
X0160953Y0093264D01*
X0160953Y0094263D02*
X0182701Y0094263D01*
X0182701Y0095261D02*
X0160534Y0095261D01*
X0152466Y0095261D02*
X0144786Y0095261D01*
X0145205Y0094843D02*
X0144326Y0095721D01*
X0137178Y0095721D01*
X0136299Y0094843D01*
X0136299Y0083757D01*
X0137178Y0082879D01*
X0144326Y0082879D01*
X0145205Y0083757D01*
X0145205Y0094843D01*
X0145205Y0094263D02*
X0152047Y0094263D01*
X0152047Y0093264D02*
X0145205Y0093264D01*
X0145205Y0092266D02*
X0152047Y0092266D01*
X0152047Y0091267D02*
X0145205Y0091267D01*
X0145205Y0090269D02*
X0152047Y0090269D01*
X0152047Y0089270D02*
X0145205Y0089270D01*
X0145205Y0088272D02*
X0152047Y0088272D01*
X0152047Y0087273D02*
X0145205Y0087273D01*
X0145205Y0086275D02*
X0152047Y0086275D01*
X0152047Y0085276D02*
X0145205Y0085276D01*
X0145205Y0084278D02*
X0152047Y0084278D01*
X0152525Y0083279D02*
X0144726Y0083279D01*
X0136777Y0083279D02*
X0128978Y0083279D01*
X0129457Y0084278D02*
X0136299Y0084278D01*
X0136299Y0085276D02*
X0129457Y0085276D01*
X0129457Y0086275D02*
X0136299Y0086275D01*
X0136299Y0087273D02*
X0129457Y0087273D01*
X0129457Y0088272D02*
X0136299Y0088272D01*
X0136299Y0089270D02*
X0129457Y0089270D01*
X0129457Y0090269D02*
X0136299Y0090269D01*
X0136299Y0091267D02*
X0129457Y0091267D01*
X0129457Y0092266D02*
X0136299Y0092266D01*
X0136299Y0093264D02*
X0129457Y0093264D01*
X0129457Y0094263D02*
X0136299Y0094263D01*
X0136718Y0095261D02*
X0129038Y0095261D01*
X0125659Y0096260D02*
X0182701Y0096260D01*
X0182701Y0097258D02*
X0135211Y0097258D01*
X0136210Y0098257D02*
X0182701Y0098257D01*
X0182701Y0099255D02*
X0137208Y0099255D01*
X0138709Y0100254D02*
X0182701Y0100254D01*
X0182701Y0101252D02*
X0153054Y0101252D01*
X0153315Y0102251D02*
X0182701Y0102251D01*
X0182701Y0103249D02*
X0153315Y0103249D01*
X0153315Y0104248D02*
X0182701Y0104248D01*
X0182701Y0105246D02*
X0153315Y0105246D01*
X0153315Y0106245D02*
X0182701Y0106245D01*
X0182701Y0107243D02*
X0153158Y0107243D01*
X0151754Y0108242D02*
X0182701Y0108242D01*
X0182701Y0109240D02*
X0151754Y0109240D01*
X0153319Y0110239D02*
X0182701Y0110239D01*
X0182701Y0111237D02*
X0153319Y0111237D01*
X0153319Y0112236D02*
X0182701Y0112236D01*
X0182701Y0113234D02*
X0153319Y0113234D01*
X0153319Y0114233D02*
X0182701Y0114233D01*
X0182701Y0115232D02*
X0153319Y0115232D01*
X0152479Y0116230D02*
X0182701Y0116230D01*
X0182701Y0117229D02*
X0009000Y0117229D01*
X0009000Y0118227D02*
X0182701Y0118227D01*
X0182701Y0119226D02*
X0174545Y0119226D01*
X0174946Y0119392D02*
X0176408Y0120854D01*
X0177200Y0122766D01*
X0177200Y0124834D01*
X0176408Y0126746D01*
X0174946Y0128208D01*
X0173034Y0129000D01*
X0170966Y0129000D01*
X0170020Y0128608D01*
X0166500Y0132128D01*
X0165328Y0133300D01*
X0143852Y0133300D01*
X0141681Y0135471D01*
X0141681Y0138307D01*
X0140802Y0139186D01*
X0137198Y0139186D01*
X0136500Y0138488D01*
X0136395Y0138593D01*
X0137012Y0139210D01*
X0137012Y0142130D01*
X0138079Y0143154D01*
X0138106Y0143154D01*
X0138763Y0143811D01*
X0139433Y0144454D01*
X0139434Y0144481D01*
X0139453Y0144500D01*
X0139582Y0144630D01*
X0139863Y0144350D01*
X0140925Y0143909D01*
X0142075Y0143909D01*
X0143137Y0144350D01*
X0143250Y0144462D01*
X0143363Y0144350D01*
X0143482Y0144300D01*
X0143363Y0144250D01*
X0142550Y0143437D01*
X0142109Y0142375D01*
X0142109Y0141225D01*
X0142550Y0140163D01*
X0143363Y0139350D01*
X0143482Y0139300D01*
X0143363Y0139250D01*
X0142550Y0138437D01*
X0142109Y0137375D01*
X0142109Y0136225D01*
X0142550Y0135163D01*
X0143363Y0134350D01*
X0144425Y0133909D01*
X0145575Y0133909D01*
X0146637Y0134350D01*
X0147450Y0135163D01*
X0147891Y0136225D01*
X0147891Y0137375D01*
X0147450Y0138437D01*
X0146637Y0139250D01*
X0146518Y0139300D01*
X0146637Y0139350D01*
X0147450Y0140163D01*
X0147891Y0141225D01*
X0147891Y0142375D01*
X0147450Y0143437D01*
X0146637Y0144250D01*
X0146518Y0144300D01*
X0146637Y0144350D01*
X0146750Y0144462D01*
X0146863Y0144350D01*
X0147925Y0143909D01*
X0149075Y0143909D01*
X0150137Y0144350D01*
X0150250Y0144462D01*
X0150363Y0144350D01*
X0151425Y0143909D01*
X0152575Y0143909D01*
X0153637Y0144350D01*
X0154450Y0145163D01*
X0154891Y0146225D01*
X0154891Y0147375D01*
X0154450Y0148437D01*
X0153637Y0149250D01*
X0152575Y0149691D01*
X0151425Y0149691D01*
X0150363Y0149250D01*
X0150250Y0149138D01*
X0150137Y0149250D01*
X0149075Y0149691D01*
X0147925Y0149691D01*
X0146863Y0149250D01*
X0146750Y0149138D01*
X0146637Y0149250D01*
X0145575Y0149691D01*
X0144425Y0149691D01*
X0143363Y0149250D01*
X0143250Y0149138D01*
X0143137Y0149250D01*
X0142075Y0149691D01*
X0141978Y0149691D01*
X0142450Y0150163D01*
X0142891Y0151225D01*
X0142891Y0152375D01*
X0142450Y0153437D01*
X0141637Y0154250D01*
X0140575Y0154691D01*
X0139425Y0154691D01*
X0138363Y0154250D01*
X0137550Y0153437D01*
X0137109Y0152375D01*
X0137109Y0152162D01*
X0136200Y0151253D01*
X0136200Y0147753D01*
X0135724Y0147277D01*
X0135450Y0147937D01*
X0134637Y0148750D01*
X0133575Y0149191D01*
X0132425Y0149191D01*
X0131763Y0148916D01*
X0131891Y0149225D01*
X0131891Y0150375D01*
X0131450Y0151437D01*
X0130637Y0152250D01*
X0129575Y0152691D01*
X0128425Y0152691D01*
X0128064Y0152541D01*
X0128141Y0152725D01*
X0128141Y0153875D01*
X0127700Y0154937D01*
X0126887Y0155750D01*
X0125825Y0156191D01*
X0124675Y0156191D01*
X0123613Y0155750D01*
X0122800Y0154937D01*
X0122359Y0153875D01*
X0122359Y0152725D01*
X0122800Y0151663D01*
X0122912Y0151550D01*
X0122800Y0151437D01*
X0122359Y0150375D01*
X0122359Y0149225D01*
X0122436Y0149041D01*
X0122075Y0149191D01*
X0120925Y0149191D01*
X0119863Y0148750D01*
X0119625Y0148513D01*
X0119387Y0148750D01*
X0118325Y0149191D01*
X0117175Y0149191D01*
X0116113Y0148750D01*
X0115300Y0147937D01*
X0114859Y0146875D01*
X0114859Y0145725D01*
X0115300Y0144663D01*
X0116113Y0143850D01*
X0117175Y0143409D01*
X0118325Y0143409D01*
X0119387Y0143850D01*
X0119625Y0144087D01*
X0119863Y0143850D01*
X0120925Y0143409D01*
X0122075Y0143409D01*
X0123137Y0143850D01*
X0123375Y0144087D01*
X0123613Y0143850D01*
X0124675Y0143409D01*
X0125825Y0143409D01*
X0126887Y0143850D01*
X0127125Y0144087D01*
X0127363Y0143850D01*
X0128425Y0143409D01*
X0129575Y0143409D01*
X0129681Y0143453D01*
X0129681Y0139210D01*
X0130560Y0138331D01*
X0131343Y0138331D01*
X0131319Y0138307D01*
X0131319Y0132340D01*
X0132198Y0131461D01*
X0135802Y0131461D01*
X0136500Y0132159D01*
X0137198Y0131461D01*
X0140034Y0131461D01*
X0141024Y0130472D01*
X0142195Y0129300D01*
X0145672Y0129300D01*
X0142172Y0125800D01*
X0127828Y0125800D01*
X0126000Y0127628D01*
X0126000Y0131659D01*
X0126681Y0132340D01*
X0126681Y0138307D01*
X0125802Y0139186D01*
X0122198Y0139186D01*
X0121319Y0138307D01*
X0121319Y0132340D01*
X0122000Y0131659D01*
X0122000Y0125972D01*
X0125000Y0122972D01*
X0126172Y0121800D01*
X0143828Y0121800D01*
X0149328Y0127300D01*
X0158146Y0127300D01*
X0157592Y0126746D01*
X0156800Y0124834D01*
X0156800Y0122766D01*
X0157592Y0120854D01*
X0159054Y0119392D01*
X0160966Y0118600D01*
X0163034Y0118600D01*
X0164946Y0119392D01*
X0166408Y0120854D01*
X0167000Y0122283D01*
X0167592Y0120854D01*
X0169054Y0119392D01*
X0170966Y0118600D01*
X0173034Y0118600D01*
X0174946Y0119392D01*
X0175778Y0120224D02*
X0182701Y0120224D01*
X0182701Y0121223D02*
X0176561Y0121223D01*
X0176974Y0122221D02*
X0182701Y0122221D01*
X0182701Y0123220D02*
X0177200Y0123220D01*
X0177200Y0124218D02*
X0182701Y0124218D01*
X0182701Y0125217D02*
X0177042Y0125217D01*
X0176628Y0126215D02*
X0182701Y0126215D01*
X0182701Y0127214D02*
X0175940Y0127214D01*
X0174936Y0128212D02*
X0182701Y0128212D01*
X0182701Y0129211D02*
X0169418Y0129211D01*
X0168419Y0130209D02*
X0182701Y0130209D01*
X0182701Y0131208D02*
X0167421Y0131208D01*
X0166422Y0132206D02*
X0182701Y0132206D01*
X0182701Y0133205D02*
X0165424Y0133205D01*
X0164500Y0131300D02*
X0143024Y0131300D01*
X0139000Y0135324D01*
X0141681Y0136200D02*
X0142120Y0136200D01*
X0142109Y0137199D02*
X0141681Y0137199D01*
X0141681Y0138197D02*
X0142450Y0138197D01*
X0143308Y0139196D02*
X0136997Y0139196D01*
X0137012Y0140194D02*
X0142536Y0140194D01*
X0142123Y0141193D02*
X0137012Y0141193D01*
X0137076Y0142191D02*
X0142109Y0142191D01*
X0142447Y0143190D02*
X0138143Y0143190D01*
X0139157Y0144188D02*
X0140252Y0144188D01*
X0142748Y0144188D02*
X0143300Y0144188D01*
X0143207Y0149181D02*
X0143293Y0149181D01*
X0142457Y0150179D02*
X0182701Y0150179D01*
X0182701Y0149181D02*
X0153707Y0149181D01*
X0154556Y0148182D02*
X0182701Y0148182D01*
X0182701Y0147184D02*
X0154891Y0147184D01*
X0154874Y0146185D02*
X0182701Y0146185D01*
X0182701Y0145187D02*
X0154461Y0145187D01*
X0153248Y0144188D02*
X0182701Y0144188D01*
X0182701Y0143190D02*
X0147553Y0143190D01*
X0147252Y0144188D02*
X0146699Y0144188D01*
X0147891Y0142191D02*
X0182701Y0142191D01*
X0182701Y0141193D02*
X0147877Y0141193D01*
X0147464Y0140194D02*
X0182701Y0140194D01*
X0182701Y0139196D02*
X0146692Y0139196D01*
X0147550Y0138197D02*
X0182701Y0138197D01*
X0182701Y0137199D02*
X0147891Y0137199D01*
X0147880Y0136200D02*
X0182701Y0136200D01*
X0182701Y0135202D02*
X0147467Y0135202D01*
X0146284Y0134203D02*
X0182701Y0134203D01*
X0172000Y0123800D02*
X0164500Y0131300D01*
X0162000Y0126800D02*
X0162000Y0123800D01*
X0162000Y0126800D02*
X0159500Y0129300D01*
X0148500Y0129300D01*
X0143000Y0123800D01*
X0127000Y0123800D01*
X0124000Y0126800D01*
X0124000Y0135324D01*
X0126681Y0135202D02*
X0131319Y0135202D01*
X0131319Y0136200D02*
X0126681Y0136200D01*
X0126681Y0137199D02*
X0131319Y0137199D01*
X0131319Y0138197D02*
X0126681Y0138197D01*
X0129695Y0139196D02*
X0083500Y0139196D01*
X0083500Y0140194D02*
X0129681Y0140194D01*
X0129681Y0141193D02*
X0083500Y0141193D01*
X0083500Y0142191D02*
X0129681Y0142191D01*
X0129681Y0143190D02*
X0083500Y0143190D01*
X0083500Y0144188D02*
X0115774Y0144188D01*
X0115082Y0145187D02*
X0083500Y0145187D01*
X0083500Y0146185D02*
X0114859Y0146185D01*
X0114987Y0147184D02*
X0083500Y0147184D01*
X0083500Y0148182D02*
X0115545Y0148182D01*
X0117152Y0149181D02*
X0083500Y0149181D01*
X0083500Y0150179D02*
X0122359Y0150179D01*
X0122378Y0149181D02*
X0122098Y0149181D01*
X0120902Y0149181D02*
X0118348Y0149181D01*
X0122587Y0152176D02*
X0083500Y0152176D01*
X0083500Y0151178D02*
X0122692Y0151178D01*
X0122359Y0153175D02*
X0083500Y0153175D01*
X0083500Y0153628D02*
X0082891Y0154238D01*
X0082891Y0154875D01*
X0082450Y0155937D01*
X0082100Y0156288D01*
X0083090Y0156288D01*
X0083728Y0156927D01*
X0084170Y0156485D01*
X0088956Y0156485D01*
X0089835Y0157364D01*
X0089835Y0161756D01*
X0088956Y0162635D01*
X0084170Y0162635D01*
X0083968Y0162433D01*
X0083968Y0162740D01*
X0083090Y0163619D01*
X0077910Y0163619D01*
X0077031Y0162740D01*
X0077031Y0161954D01*
X0076968Y0161954D01*
X0076968Y0162740D01*
X0076409Y0163300D01*
X0076968Y0163860D01*
X0076968Y0169433D01*
X0076090Y0170312D01*
X0075500Y0170312D01*
X0075500Y0170472D01*
X0077328Y0172300D01*
X0107328Y0172300D01*
X0112328Y0177300D01*
X0131672Y0177300D01*
X0130672Y0176300D01*
X0115172Y0176300D01*
X0111500Y0172628D01*
X0111500Y0170312D01*
X0110410Y0170312D01*
X0109531Y0169433D01*
X0109531Y0163860D01*
X0110091Y0163300D01*
X0109531Y0162740D01*
X0109531Y0157167D01*
X0110410Y0156288D01*
X0115590Y0156288D01*
X0116468Y0157167D01*
X0116468Y0157954D01*
X0116531Y0157954D01*
X0116531Y0157167D01*
X0117410Y0156288D01*
X0122590Y0156288D01*
X0123228Y0156927D01*
X0123670Y0156485D01*
X0128456Y0156485D01*
X0129335Y0157364D01*
X0129335Y0161756D01*
X0128456Y0162635D01*
X0123670Y0162635D01*
X0123468Y0162433D01*
X0123468Y0162740D01*
X0122590Y0163619D01*
X0117410Y0163619D01*
X0116531Y0162740D01*
X0116531Y0161954D01*
X0116468Y0161954D01*
X0116468Y0162740D01*
X0115909Y0163300D01*
X0116468Y0163860D01*
X0116468Y0169433D01*
X0115590Y0170312D01*
X0115500Y0170312D01*
X0115500Y0170972D01*
X0116828Y0172300D01*
X0132328Y0172300D01*
X0138500Y0178472D01*
X0138500Y0181977D01*
X0139023Y0182500D01*
X0139476Y0183594D01*
X0139476Y0191274D01*
X0139023Y0192368D01*
X0138186Y0193205D01*
X0137092Y0193658D01*
X0135908Y0193658D01*
X0134814Y0193205D01*
X0134335Y0192726D01*
X0133855Y0193205D01*
X0132761Y0193658D01*
X0131577Y0193658D01*
X0130483Y0193205D01*
X0130004Y0192726D01*
X0129839Y0192891D01*
X0129839Y0194290D01*
X0129000Y0195128D01*
X0127828Y0196300D01*
X0119909Y0196300D01*
X0107980Y0184371D01*
X0107980Y0191274D01*
X0107527Y0192368D01*
X0106690Y0193205D01*
X0105596Y0193658D01*
X0104412Y0193658D01*
X0103318Y0193205D01*
X0102839Y0192726D01*
X0102359Y0193205D01*
X0101265Y0193658D01*
X0100081Y0193658D01*
X0098987Y0193205D01*
X0098508Y0192726D01*
X0098028Y0193205D01*
X0096935Y0193658D01*
X0095750Y0193658D01*
X0094657Y0193205D01*
X0094177Y0192726D01*
X0093698Y0193205D01*
X0092604Y0193658D01*
X0091420Y0193658D01*
X0090326Y0193205D01*
X0089846Y0192726D01*
X0089367Y0193205D01*
X0088273Y0193658D01*
X0087089Y0193658D01*
X0085995Y0193205D01*
X0085158Y0192368D01*
X0084705Y0191274D01*
X0084705Y0183594D01*
X0085158Y0182500D01*
X0085995Y0181663D01*
X0087089Y0181209D01*
X0088273Y0181209D01*
X0089367Y0181663D01*
X0089846Y0182142D01*
X0090326Y0181663D01*
X0091420Y0181209D01*
X0092604Y0181209D01*
X0093698Y0181663D01*
X0094177Y0182142D01*
X0094657Y0181663D01*
X0095750Y0181209D01*
X0096935Y0181209D01*
X0098028Y0181663D01*
X0098508Y0182142D01*
X0098987Y0181663D01*
X0100081Y0181209D01*
X0101265Y0181209D01*
X0102359Y0181663D01*
X0102839Y0182142D01*
X0103318Y0181663D01*
X0104412Y0181209D01*
X0104818Y0181209D01*
X0104509Y0180900D01*
X0040772Y0180900D01*
X0039600Y0179728D01*
X0034672Y0174800D01*
X0033500Y0173628D01*
X0033500Y0164472D01*
X0036692Y0161280D01*
X0036300Y0160334D01*
X0036300Y0158266D01*
X0037092Y0156354D01*
X0038554Y0154892D01*
X0040466Y0154100D01*
X0042534Y0154100D01*
X0044446Y0154892D01*
X0045908Y0156354D01*
X0046700Y0158266D01*
X0046700Y0160334D01*
X0045908Y0162246D01*
X0044446Y0163708D01*
X0043017Y0164300D01*
X0044446Y0164892D01*
X0045908Y0166354D01*
X0046700Y0168266D01*
X0046700Y0170334D01*
X0046308Y0171280D01*
X0050328Y0175300D01*
X0074672Y0175300D01*
X0072672Y0173300D01*
X0071500Y0172128D01*
X0071500Y0170312D01*
X0070910Y0170312D01*
X0070031Y0169433D01*
X0070031Y0163860D01*
X0070591Y0163300D01*
X0070031Y0162740D01*
X0070031Y0157167D01*
X0070910Y0156288D01*
X0076090Y0156288D01*
X0076968Y0157167D01*
X0076968Y0157954D01*
X0077031Y0157954D01*
X0077031Y0157167D01*
X0077905Y0156293D01*
X0077550Y0155937D01*
X0077109Y0154875D01*
X0077109Y0153725D01*
X0077550Y0152663D01*
X0078363Y0151850D01*
X0079425Y0151409D01*
X0079500Y0151409D01*
X0079500Y0128388D01*
X0079050Y0127937D01*
X0078609Y0126875D01*
X0078609Y0125725D01*
X0079050Y0124663D01*
X0079863Y0123850D01*
X0080925Y0123409D01*
X0082075Y0123409D01*
X0083137Y0123850D01*
X0083950Y0124663D01*
X0084391Y0125725D01*
X0084391Y0126875D01*
X0083950Y0127937D01*
X0083500Y0128388D01*
X0083500Y0153628D01*
X0082955Y0154173D02*
X0122483Y0154173D01*
X0123034Y0155172D02*
X0082768Y0155172D01*
X0082217Y0156170D02*
X0097028Y0156170D01*
X0097410Y0155788D02*
X0102590Y0155788D01*
X0103468Y0156667D01*
X0103468Y0162240D01*
X0102909Y0162800D01*
X0103468Y0163360D01*
X0103468Y0164800D01*
X0104412Y0164800D01*
X0104863Y0164350D01*
X0105925Y0163909D01*
X0107075Y0163909D01*
X0108137Y0164350D01*
X0108950Y0165163D01*
X0109391Y0166225D01*
X0109391Y0167375D01*
X0108950Y0168437D01*
X0108137Y0169250D01*
X0107075Y0169691D01*
X0105925Y0169691D01*
X0104863Y0169250D01*
X0104412Y0168800D01*
X0103468Y0168800D01*
X0103468Y0168933D01*
X0102590Y0169812D01*
X0097410Y0169812D01*
X0096531Y0168933D01*
X0096531Y0166375D01*
X0092438Y0166375D01*
X0091559Y0165496D01*
X0091559Y0161104D01*
X0092438Y0160225D01*
X0092831Y0160225D01*
X0092831Y0160141D01*
X0094500Y0158472D01*
X0095672Y0157300D01*
X0096531Y0157300D01*
X0096531Y0156667D01*
X0097410Y0155788D01*
X0096531Y0157169D02*
X0089640Y0157169D01*
X0089835Y0158168D02*
X0094804Y0158168D01*
X0093806Y0159166D02*
X0089835Y0159166D01*
X0089835Y0160165D02*
X0092831Y0160165D01*
X0091559Y0161163D02*
X0089835Y0161163D01*
X0089429Y0162162D02*
X0091559Y0162162D01*
X0091559Y0163160D02*
X0083549Y0163160D01*
X0086169Y0159954D02*
X0080500Y0159954D01*
X0073500Y0159954D01*
X0070031Y0160165D02*
X0046700Y0160165D01*
X0046700Y0159166D02*
X0070031Y0159166D01*
X0070031Y0158168D02*
X0046659Y0158168D01*
X0046246Y0157169D02*
X0070031Y0157169D01*
X0070031Y0161163D02*
X0046357Y0161163D01*
X0045943Y0162162D02*
X0070031Y0162162D01*
X0070451Y0163160D02*
X0044994Y0163160D01*
X0043359Y0164159D02*
X0070031Y0164159D01*
X0070031Y0165157D02*
X0044711Y0165157D01*
X0045710Y0166156D02*
X0070031Y0166156D01*
X0070031Y0167154D02*
X0046240Y0167154D01*
X0046653Y0168153D02*
X0070031Y0168153D01*
X0070031Y0169151D02*
X0046700Y0169151D01*
X0046700Y0170150D02*
X0070748Y0170150D01*
X0071500Y0171148D02*
X0046363Y0171148D01*
X0047175Y0172147D02*
X0071518Y0172147D01*
X0072517Y0173145D02*
X0048174Y0173145D01*
X0049172Y0174144D02*
X0073515Y0174144D01*
X0074514Y0175142D02*
X0050171Y0175142D01*
X0049500Y0177300D02*
X0041500Y0169300D01*
X0037011Y0177139D02*
X0029000Y0177139D01*
X0029000Y0176141D02*
X0036012Y0176141D01*
X0035014Y0175142D02*
X0029000Y0175142D01*
X0029000Y0174144D02*
X0034015Y0174144D01*
X0033500Y0173145D02*
X0030509Y0173145D01*
X0029946Y0173708D02*
X0029000Y0174100D01*
X0029000Y0185972D01*
X0043237Y0200209D01*
X0044054Y0199392D01*
X0045483Y0198800D01*
X0044054Y0198208D01*
X0042592Y0196746D01*
X0041800Y0194834D01*
X0041800Y0192766D01*
X0042592Y0190854D01*
X0044054Y0189392D01*
X0045966Y0188600D01*
X0048034Y0188600D01*
X0049946Y0189392D01*
X0051408Y0190854D01*
X0052200Y0192766D01*
X0052200Y0194834D01*
X0051408Y0196746D01*
X0049946Y0198208D01*
X0048517Y0198800D01*
X0049946Y0199392D01*
X0051408Y0200854D01*
X0052200Y0202766D01*
X0052200Y0204834D01*
X0051408Y0206746D01*
X0049946Y0208208D01*
X0048517Y0208800D01*
X0049946Y0209392D01*
X0051408Y0210854D01*
X0052200Y0212766D01*
X0052200Y0214834D01*
X0051408Y0216746D01*
X0049946Y0218208D01*
X0048517Y0218800D01*
X0049946Y0219392D01*
X0051408Y0220854D01*
X0051800Y0221800D01*
X0053672Y0221800D01*
X0056500Y0218972D01*
X0056500Y0209472D01*
X0057672Y0208300D01*
X0059475Y0206497D01*
X0067460Y0206497D01*
X0067625Y0206331D01*
X0067146Y0205852D01*
X0066693Y0204758D01*
X0066693Y0203574D01*
X0067146Y0202480D01*
X0067983Y0201643D01*
X0069077Y0201190D01*
X0070917Y0201190D01*
X0070917Y0192210D01*
X0069902Y0191789D01*
X0069088Y0190976D01*
X0068648Y0189914D01*
X0068648Y0188764D01*
X0069088Y0187702D01*
X0069902Y0186888D01*
X0070964Y0186448D01*
X0072114Y0186448D01*
X0073176Y0186888D01*
X0073989Y0187702D01*
X0074429Y0188764D01*
X0074429Y0189401D01*
X0074917Y0189889D01*
X0074917Y0201190D01*
X0076757Y0201190D01*
X0077851Y0201643D01*
X0078689Y0202480D01*
X0079142Y0203574D01*
X0079142Y0204758D01*
X0078689Y0205852D01*
X0078209Y0206331D01*
X0078689Y0206811D01*
X0079142Y0207905D01*
X0079142Y0209089D01*
X0078689Y0210183D01*
X0078209Y0210662D01*
X0078689Y0211142D01*
X0079142Y0212236D01*
X0079142Y0213420D01*
X0078689Y0214514D01*
X0078209Y0214993D01*
X0078689Y0215472D01*
X0079142Y0216566D01*
X0079142Y0217750D01*
X0078689Y0218844D01*
X0078209Y0219324D01*
X0078689Y0219803D01*
X0079142Y0220897D01*
X0079142Y0222081D01*
X0078689Y0223175D01*
X0078209Y0223654D01*
X0078689Y0224134D01*
X0079142Y0225228D01*
X0079142Y0226412D01*
X0078689Y0227506D01*
X0078611Y0227583D01*
X0079500Y0228472D01*
X0087000Y0235972D01*
X0087000Y0250934D01*
X0087617Y0251551D01*
X0088087Y0252686D01*
X0088087Y0253914D01*
X0087617Y0255049D01*
X0086749Y0255917D01*
X0085614Y0256387D01*
X0084386Y0256387D01*
X0083251Y0255917D01*
X0082383Y0255049D01*
X0081913Y0253914D01*
X0081913Y0252686D01*
X0082383Y0251551D01*
X0083000Y0250934D01*
X0083000Y0237628D01*
X0076672Y0231300D01*
X0065172Y0231300D01*
X0064672Y0230800D01*
X0060464Y0230800D01*
X0060641Y0231225D01*
X0060641Y0232375D01*
X0060200Y0233437D01*
X0059387Y0234250D01*
X0059268Y0234300D01*
X0065828Y0234300D01*
X0067000Y0235472D01*
X0073746Y0242217D01*
X0074057Y0242528D01*
X0076757Y0242528D01*
X0077851Y0242981D01*
X0078689Y0243819D01*
X0079142Y0244913D01*
X0079142Y0246097D01*
X0078689Y0247191D01*
X0078209Y0247670D01*
X0078689Y0248149D01*
X0079142Y0249243D01*
X0079142Y0250427D01*
X0078689Y0251521D01*
X0078209Y0252001D01*
X0078689Y0252480D01*
X0079142Y0253574D01*
X0079142Y0254758D01*
X0078689Y0255852D01*
X0078209Y0256331D01*
X0078689Y0256811D01*
X0079142Y0257905D01*
X0079142Y0259089D01*
X0078689Y0260183D01*
X0078209Y0260662D01*
X0078689Y0261142D01*
X0079142Y0262236D01*
X0079142Y0263420D01*
X0078689Y0264514D01*
X0077851Y0265351D01*
X0076757Y0265804D01*
X0072769Y0265804D01*
X0065945Y0272628D01*
X0064773Y0273800D01*
X0026172Y0273800D01*
X0021980Y0269609D01*
X0021980Y0267465D01*
X0021201Y0266685D01*
X0021201Y0260324D01*
X0021980Y0259545D01*
X0021980Y0258768D01*
X0020867Y0258768D01*
X0019988Y0257890D01*
X0019988Y0252710D01*
X0020867Y0251831D01*
X0026440Y0251831D01*
X0027000Y0252391D01*
X0027560Y0251831D01*
X0028346Y0251831D01*
X0028346Y0241625D01*
X0034500Y0235472D01*
X0034500Y0235472D01*
X0035672Y0234300D01*
X0048732Y0234300D01*
X0048613Y0234250D01*
X0047800Y0233437D01*
X0047359Y0232375D01*
X0047359Y0231225D01*
X0047536Y0230800D01*
X0042172Y0230800D01*
X0039172Y0227800D01*
X0038000Y0226628D01*
X0038000Y0206972D01*
X0041172Y0203800D01*
X0025000Y0187628D01*
X0025000Y0174100D01*
X0024054Y0173708D01*
X0022592Y0172246D01*
X0021800Y0170334D01*
X0021800Y0168266D01*
X0022592Y0166354D01*
X0024054Y0164892D01*
X0025483Y0164300D01*
X0024054Y0163708D01*
X0022592Y0162246D01*
X0021800Y0160334D01*
X0021800Y0158266D01*
X0022592Y0156354D01*
X0024054Y0154892D01*
X0025966Y0154100D01*
X0028034Y0154100D01*
X0029946Y0154892D01*
X0031408Y0156354D01*
X0032200Y0158266D01*
X0032200Y0160334D01*
X0031408Y0162246D01*
X0029946Y0163708D01*
X0028517Y0164300D01*
X0029946Y0164892D01*
X0031408Y0166354D01*
X0032200Y0168266D01*
X0032200Y0170334D01*
X0031408Y0172246D01*
X0029946Y0173708D01*
X0031449Y0172147D02*
X0033500Y0172147D01*
X0033500Y0171148D02*
X0031863Y0171148D01*
X0032200Y0170150D02*
X0033500Y0170150D01*
X0033500Y0169151D02*
X0032200Y0169151D01*
X0032153Y0168153D02*
X0033500Y0168153D01*
X0033500Y0167154D02*
X0031740Y0167154D01*
X0031210Y0166156D02*
X0033500Y0166156D01*
X0033500Y0165157D02*
X0030211Y0165157D01*
X0028859Y0164159D02*
X0033813Y0164159D01*
X0034812Y0163160D02*
X0030494Y0163160D01*
X0031443Y0162162D02*
X0035810Y0162162D01*
X0036643Y0161163D02*
X0031857Y0161163D01*
X0032200Y0160165D02*
X0036300Y0160165D01*
X0036300Y0159166D02*
X0032200Y0159166D01*
X0032159Y0158168D02*
X0036341Y0158168D01*
X0036754Y0157169D02*
X0031746Y0157169D01*
X0031224Y0156170D02*
X0037276Y0156170D01*
X0038274Y0155172D02*
X0030226Y0155172D01*
X0028212Y0154173D02*
X0040288Y0154173D01*
X0042712Y0154173D02*
X0077109Y0154173D01*
X0077232Y0155172D02*
X0044726Y0155172D01*
X0045724Y0156170D02*
X0077783Y0156170D01*
X0077031Y0157169D02*
X0076968Y0157169D01*
X0077337Y0153175D02*
X0009000Y0153175D01*
X0009000Y0154173D02*
X0025788Y0154173D01*
X0023774Y0155172D02*
X0009000Y0155172D01*
X0009000Y0156170D02*
X0022776Y0156170D01*
X0022254Y0157169D02*
X0009000Y0157169D01*
X0009000Y0158168D02*
X0021841Y0158168D01*
X0021800Y0159166D02*
X0009000Y0159166D01*
X0009000Y0160165D02*
X0021800Y0160165D01*
X0022143Y0161163D02*
X0009000Y0161163D01*
X0009000Y0162162D02*
X0022557Y0162162D01*
X0023506Y0163160D02*
X0009000Y0163160D01*
X0009000Y0164159D02*
X0025141Y0164159D01*
X0023789Y0165157D02*
X0009000Y0165157D01*
X0009000Y0166156D02*
X0022790Y0166156D01*
X0022260Y0167154D02*
X0009000Y0167154D01*
X0009000Y0168153D02*
X0021847Y0168153D01*
X0021800Y0169151D02*
X0009000Y0169151D01*
X0009000Y0170150D02*
X0021800Y0170150D01*
X0022137Y0171148D02*
X0009000Y0171148D01*
X0009000Y0172147D02*
X0022551Y0172147D01*
X0023491Y0173145D02*
X0009000Y0173145D01*
X0009000Y0174144D02*
X0025000Y0174144D01*
X0025000Y0175142D02*
X0009000Y0175142D01*
X0009000Y0176141D02*
X0025000Y0176141D01*
X0025000Y0177139D02*
X0009000Y0177139D01*
X0009000Y0178138D02*
X0025000Y0178138D01*
X0025000Y0179136D02*
X0009000Y0179136D01*
X0009000Y0180135D02*
X0025000Y0180135D01*
X0025000Y0181133D02*
X0009000Y0181133D01*
X0009000Y0182132D02*
X0025000Y0182132D01*
X0025000Y0183130D02*
X0009000Y0183130D01*
X0009000Y0184129D02*
X0025000Y0184129D01*
X0025000Y0185127D02*
X0009000Y0185127D01*
X0009000Y0186126D02*
X0025000Y0186126D01*
X0025000Y0187124D02*
X0009000Y0187124D01*
X0009000Y0188123D02*
X0025494Y0188123D01*
X0026493Y0189121D02*
X0009000Y0189121D01*
X0009000Y0190120D02*
X0027491Y0190120D01*
X0028490Y0191118D02*
X0009000Y0191118D01*
X0009000Y0192117D02*
X0029488Y0192117D01*
X0030487Y0193115D02*
X0009000Y0193115D01*
X0009000Y0194114D02*
X0031485Y0194114D01*
X0032484Y0195112D02*
X0009000Y0195112D01*
X0009000Y0196111D02*
X0033483Y0196111D01*
X0034481Y0197109D02*
X0009000Y0197109D01*
X0009000Y0198108D02*
X0035480Y0198108D01*
X0036478Y0199106D02*
X0009000Y0199106D01*
X0009000Y0200105D02*
X0037477Y0200105D01*
X0038475Y0201103D02*
X0009000Y0201103D01*
X0009000Y0202102D02*
X0039474Y0202102D01*
X0040472Y0203101D02*
X0009000Y0203101D01*
X0009000Y0204099D02*
X0040873Y0204099D01*
X0039874Y0205098D02*
X0009000Y0205098D01*
X0009000Y0206096D02*
X0038876Y0206096D01*
X0038000Y0207095D02*
X0009000Y0207095D01*
X0009000Y0208093D02*
X0038000Y0208093D01*
X0038000Y0209092D02*
X0009000Y0209092D01*
X0009000Y0210090D02*
X0038000Y0210090D01*
X0038000Y0211089D02*
X0009000Y0211089D01*
X0009000Y0212087D02*
X0038000Y0212087D01*
X0038000Y0213086D02*
X0009000Y0213086D01*
X0009000Y0214084D02*
X0038000Y0214084D01*
X0038000Y0215083D02*
X0009000Y0215083D01*
X0009000Y0216081D02*
X0038000Y0216081D01*
X0038000Y0217080D02*
X0009000Y0217080D01*
X0009000Y0218078D02*
X0038000Y0218078D01*
X0038000Y0219077D02*
X0009000Y0219077D01*
X0009000Y0220075D02*
X0038000Y0220075D01*
X0038000Y0221074D02*
X0009000Y0221074D01*
X0009000Y0222072D02*
X0038000Y0222072D01*
X0038000Y0223071D02*
X0009000Y0223071D01*
X0009000Y0224069D02*
X0038000Y0224069D01*
X0038000Y0225068D02*
X0009000Y0225068D01*
X0009000Y0226066D02*
X0038000Y0226066D01*
X0038436Y0227065D02*
X0009000Y0227065D01*
X0009000Y0228063D02*
X0039435Y0228063D01*
X0040433Y0229062D02*
X0009000Y0229062D01*
X0009000Y0230060D02*
X0041432Y0230060D01*
X0043000Y0228800D02*
X0040000Y0225800D01*
X0040000Y0207800D01*
X0044000Y0203800D01*
X0027000Y0186800D01*
X0027000Y0169300D01*
X0029000Y0178138D02*
X0038009Y0178138D01*
X0039008Y0179136D02*
X0029000Y0179136D01*
X0029000Y0180135D02*
X0040006Y0180135D01*
X0041600Y0178900D02*
X0105337Y0178900D01*
X0120737Y0194300D01*
X0127000Y0194300D01*
X0127839Y0193461D01*
X0127839Y0187434D01*
X0132169Y0187434D02*
X0132169Y0179969D01*
X0131500Y0179300D01*
X0111500Y0179300D01*
X0106500Y0174300D01*
X0076500Y0174300D01*
X0073500Y0171300D01*
X0073500Y0166646D01*
X0076252Y0170150D02*
X0110248Y0170150D01*
X0109531Y0169151D02*
X0108237Y0169151D01*
X0109068Y0168153D02*
X0109531Y0168153D01*
X0109531Y0167154D02*
X0109391Y0167154D01*
X0109362Y0166156D02*
X0109531Y0166156D01*
X0109531Y0165157D02*
X0108945Y0165157D01*
X0109531Y0164159D02*
X0107676Y0164159D01*
X0105324Y0164159D02*
X0103468Y0164159D01*
X0103269Y0163160D02*
X0109951Y0163160D01*
X0109531Y0162162D02*
X0103468Y0162162D01*
X0103468Y0161163D02*
X0109531Y0161163D01*
X0109531Y0160165D02*
X0103468Y0160165D01*
X0103468Y0159166D02*
X0109531Y0159166D01*
X0109531Y0158168D02*
X0103468Y0158168D01*
X0103468Y0157169D02*
X0109531Y0157169D01*
X0113000Y0159954D02*
X0120000Y0159954D01*
X0125669Y0159954D01*
X0126063Y0159560D01*
X0129335Y0159166D02*
X0133806Y0159166D01*
X0134500Y0158472D02*
X0135672Y0157300D01*
X0137031Y0157300D01*
X0137031Y0156667D01*
X0137910Y0155788D01*
X0143090Y0155788D01*
X0143968Y0156667D01*
X0143968Y0162240D01*
X0143409Y0162800D01*
X0143968Y0163360D01*
X0143968Y0168933D01*
X0143090Y0169812D01*
X0139663Y0169812D01*
X0139175Y0170300D01*
X0137588Y0170300D01*
X0137137Y0170750D01*
X0136075Y0171191D01*
X0134925Y0171191D01*
X0133863Y0170750D01*
X0133050Y0169937D01*
X0132609Y0168875D01*
X0132609Y0167725D01*
X0133050Y0166663D01*
X0133337Y0166375D01*
X0131938Y0166375D01*
X0131059Y0165496D01*
X0131059Y0161104D01*
X0131938Y0160225D01*
X0132746Y0160225D01*
X0134500Y0158472D01*
X0134804Y0158168D02*
X0129335Y0158168D01*
X0129140Y0157169D02*
X0137031Y0157169D01*
X0137528Y0156170D02*
X0125873Y0156170D01*
X0124627Y0156170D02*
X0102972Y0156170D01*
X0099846Y0159300D02*
X0100000Y0159454D01*
X0099846Y0159300D02*
X0096500Y0159300D01*
X0094831Y0160969D01*
X0094831Y0163300D01*
X0091559Y0164159D02*
X0076968Y0164159D01*
X0076968Y0165157D02*
X0091559Y0165157D01*
X0092219Y0166156D02*
X0076968Y0166156D01*
X0076968Y0167154D02*
X0096531Y0167154D01*
X0096531Y0168153D02*
X0076968Y0168153D01*
X0076968Y0169151D02*
X0096749Y0169151D01*
X0100000Y0166146D02*
X0100654Y0166800D01*
X0106500Y0166800D01*
X0104763Y0169151D02*
X0103250Y0169151D01*
X0108174Y0173145D02*
X0112017Y0173145D01*
X0111500Y0172147D02*
X0077175Y0172147D01*
X0076177Y0171148D02*
X0111500Y0171148D01*
X0113500Y0171800D02*
X0113500Y0167146D01*
X0113000Y0166646D01*
X0116468Y0166156D02*
X0131719Y0166156D01*
X0131059Y0165157D02*
X0116468Y0165157D01*
X0116468Y0164159D02*
X0131059Y0164159D01*
X0131059Y0163160D02*
X0123049Y0163160D01*
X0128929Y0162162D02*
X0131059Y0162162D01*
X0131059Y0161163D02*
X0129335Y0161163D01*
X0129335Y0160165D02*
X0132807Y0160165D01*
X0134331Y0161469D02*
X0136500Y0159300D01*
X0140346Y0159300D01*
X0140500Y0159454D01*
X0143968Y0159166D02*
X0182701Y0159166D01*
X0182701Y0158168D02*
X0143968Y0158168D01*
X0143968Y0157169D02*
X0182701Y0157169D01*
X0182701Y0156170D02*
X0143472Y0156170D01*
X0141714Y0154173D02*
X0182701Y0154173D01*
X0182701Y0153175D02*
X0142559Y0153175D01*
X0142891Y0152176D02*
X0182701Y0152176D01*
X0182701Y0151178D02*
X0142871Y0151178D01*
X0146707Y0149181D02*
X0146793Y0149181D01*
X0150207Y0149181D02*
X0150293Y0149181D01*
X0150752Y0144188D02*
X0149748Y0144188D01*
X0142533Y0135202D02*
X0141950Y0135202D01*
X0142949Y0134203D02*
X0143716Y0134203D01*
X0140288Y0131208D02*
X0126000Y0131208D01*
X0126000Y0130209D02*
X0141286Y0130209D01*
X0141024Y0130472D02*
X0141024Y0130472D01*
X0143585Y0127214D02*
X0126415Y0127214D01*
X0126000Y0128212D02*
X0144584Y0128212D01*
X0145582Y0129211D02*
X0126000Y0129211D01*
X0126547Y0132206D02*
X0131453Y0132206D01*
X0131319Y0133205D02*
X0126681Y0133205D01*
X0126681Y0134203D02*
X0131319Y0134203D01*
X0134000Y0135324D02*
X0134000Y0141146D01*
X0133346Y0141800D01*
X0135205Y0148182D02*
X0136200Y0148182D01*
X0136200Y0149181D02*
X0133598Y0149181D01*
X0132402Y0149181D02*
X0131872Y0149181D01*
X0131891Y0150179D02*
X0136200Y0150179D01*
X0136200Y0151178D02*
X0131558Y0151178D01*
X0130711Y0152176D02*
X0137109Y0152176D01*
X0137441Y0153175D02*
X0128141Y0153175D01*
X0128017Y0154173D02*
X0138286Y0154173D01*
X0143968Y0160165D02*
X0182701Y0160165D01*
X0182701Y0161163D02*
X0143968Y0161163D01*
X0143968Y0162162D02*
X0182701Y0162162D01*
X0182701Y0163160D02*
X0143769Y0163160D01*
X0143968Y0164159D02*
X0182701Y0164159D01*
X0182701Y0165157D02*
X0143968Y0165157D01*
X0143968Y0166156D02*
X0182701Y0166156D01*
X0182701Y0167154D02*
X0143968Y0167154D01*
X0143968Y0168153D02*
X0182701Y0168153D01*
X0182701Y0169151D02*
X0143750Y0169151D01*
X0140500Y0166146D02*
X0138346Y0168300D01*
X0135500Y0168300D01*
X0132846Y0167154D02*
X0116468Y0167154D01*
X0116468Y0168153D02*
X0132609Y0168153D01*
X0132724Y0169151D02*
X0116468Y0169151D01*
X0115752Y0170150D02*
X0133262Y0170150D01*
X0134823Y0171148D02*
X0115677Y0171148D01*
X0116675Y0172147D02*
X0182701Y0172147D01*
X0182701Y0173145D02*
X0133174Y0173145D01*
X0134172Y0174144D02*
X0182701Y0174144D01*
X0182701Y0175142D02*
X0135171Y0175142D01*
X0136169Y0176141D02*
X0182701Y0176141D01*
X0182701Y0177139D02*
X0137168Y0177139D01*
X0138166Y0178138D02*
X0182701Y0178138D01*
X0182701Y0179136D02*
X0174329Y0179136D01*
X0174946Y0179392D02*
X0176408Y0180854D01*
X0177200Y0182766D01*
X0177200Y0184834D01*
X0176408Y0186746D01*
X0174946Y0188208D01*
X0173517Y0188800D01*
X0174946Y0189392D01*
X0176408Y0190854D01*
X0177200Y0192766D01*
X0177200Y0194834D01*
X0176408Y0196746D01*
X0174946Y0198208D01*
X0173517Y0198800D01*
X0174946Y0199392D01*
X0176408Y0200854D01*
X0177200Y0202766D01*
X0177200Y0204834D01*
X0176408Y0206746D01*
X0174946Y0208208D01*
X0173517Y0208800D01*
X0174946Y0209392D01*
X0176408Y0210854D01*
X0177200Y0212766D01*
X0177200Y0214834D01*
X0176408Y0216746D01*
X0174946Y0218208D01*
X0173517Y0218800D01*
X0174946Y0219392D01*
X0176408Y0220854D01*
X0177200Y0222766D01*
X0177200Y0224834D01*
X0176408Y0226746D01*
X0174946Y0228208D01*
X0173034Y0229000D01*
X0170966Y0229000D01*
X0169054Y0228208D01*
X0167592Y0226746D01*
X0166800Y0224834D01*
X0166800Y0222766D01*
X0167592Y0220854D01*
X0169054Y0219392D01*
X0170483Y0218800D01*
X0169054Y0218208D01*
X0167592Y0216746D01*
X0166800Y0214834D01*
X0166800Y0212766D01*
X0167592Y0210854D01*
X0169054Y0209392D01*
X0170483Y0208800D01*
X0169054Y0208208D01*
X0167592Y0206746D01*
X0166800Y0204834D01*
X0166800Y0202766D01*
X0167592Y0200854D01*
X0169054Y0199392D01*
X0170483Y0198800D01*
X0169054Y0198208D01*
X0167592Y0196746D01*
X0166800Y0194834D01*
X0166800Y0192766D01*
X0167592Y0190854D01*
X0169054Y0189392D01*
X0170483Y0188800D01*
X0169054Y0188208D01*
X0167592Y0186746D01*
X0166800Y0184834D01*
X0166800Y0182766D01*
X0167592Y0180854D01*
X0169054Y0179392D01*
X0170966Y0178600D01*
X0173034Y0178600D01*
X0174946Y0179392D01*
X0175689Y0180135D02*
X0182701Y0180135D01*
X0182701Y0181133D02*
X0176524Y0181133D01*
X0176937Y0182132D02*
X0182701Y0182132D01*
X0182701Y0183130D02*
X0177200Y0183130D01*
X0177200Y0184129D02*
X0182701Y0184129D01*
X0182701Y0185127D02*
X0177079Y0185127D01*
X0176665Y0186126D02*
X0182701Y0186126D01*
X0182701Y0187124D02*
X0176030Y0187124D01*
X0175031Y0188123D02*
X0182701Y0188123D01*
X0182701Y0189121D02*
X0174293Y0189121D01*
X0175674Y0190120D02*
X0182701Y0190120D01*
X0182701Y0191118D02*
X0176518Y0191118D01*
X0176931Y0192117D02*
X0182701Y0192117D01*
X0182701Y0193115D02*
X0177200Y0193115D01*
X0177200Y0194114D02*
X0182701Y0194114D01*
X0182701Y0195112D02*
X0177085Y0195112D01*
X0176671Y0196111D02*
X0182701Y0196111D01*
X0182701Y0197109D02*
X0176044Y0197109D01*
X0175046Y0198108D02*
X0182701Y0198108D01*
X0182701Y0199106D02*
X0174257Y0199106D01*
X0175659Y0200105D02*
X0182701Y0200105D01*
X0182701Y0201103D02*
X0176512Y0201103D01*
X0176925Y0202102D02*
X0182701Y0202102D01*
X0182701Y0203101D02*
X0177200Y0203101D01*
X0177200Y0204099D02*
X0182701Y0204099D01*
X0182701Y0205098D02*
X0177091Y0205098D01*
X0176677Y0206096D02*
X0182701Y0206096D01*
X0182701Y0207095D02*
X0176059Y0207095D01*
X0175061Y0208093D02*
X0182701Y0208093D01*
X0182701Y0209092D02*
X0174221Y0209092D01*
X0175644Y0210090D02*
X0182701Y0210090D01*
X0182701Y0211089D02*
X0176505Y0211089D01*
X0176919Y0212087D02*
X0182701Y0212087D01*
X0182701Y0213086D02*
X0177200Y0213086D01*
X0177200Y0214084D02*
X0182701Y0214084D01*
X0182701Y0215083D02*
X0177097Y0215083D01*
X0176684Y0216081D02*
X0182701Y0216081D01*
X0182701Y0217080D02*
X0176074Y0217080D01*
X0175076Y0218078D02*
X0182701Y0218078D01*
X0182701Y0219077D02*
X0174185Y0219077D01*
X0175629Y0220075D02*
X0182701Y0220075D01*
X0182701Y0221074D02*
X0176499Y0221074D01*
X0176913Y0222072D02*
X0182701Y0222072D01*
X0182701Y0223071D02*
X0177200Y0223071D01*
X0177200Y0224069D02*
X0182701Y0224069D01*
X0182701Y0225068D02*
X0177103Y0225068D01*
X0176690Y0226066D02*
X0182701Y0226066D01*
X0182701Y0227065D02*
X0176089Y0227065D01*
X0175091Y0228063D02*
X0182701Y0228063D01*
X0182701Y0229062D02*
X0080090Y0229062D01*
X0079092Y0228063D02*
X0144869Y0228063D01*
X0145149Y0228343D02*
X0144311Y0227506D01*
X0143858Y0226412D01*
X0143858Y0225228D01*
X0144311Y0224134D01*
X0144791Y0223654D01*
X0144311Y0223175D01*
X0143858Y0222081D01*
X0143858Y0220897D01*
X0144311Y0219803D01*
X0144791Y0219324D01*
X0144311Y0218844D01*
X0143858Y0217750D01*
X0143858Y0216566D01*
X0144311Y0215472D01*
X0144791Y0214993D01*
X0144311Y0214514D01*
X0143858Y0213420D01*
X0143858Y0212236D01*
X0144311Y0211142D01*
X0144791Y0210662D01*
X0144311Y0210183D01*
X0144140Y0209768D01*
X0139500Y0205128D01*
X0139500Y0197472D01*
X0140672Y0196300D01*
X0142609Y0194362D01*
X0142609Y0193725D01*
X0143050Y0192663D01*
X0143863Y0191850D01*
X0144925Y0191409D01*
X0146075Y0191409D01*
X0147137Y0191850D01*
X0147950Y0192663D01*
X0148391Y0193725D01*
X0148391Y0194875D01*
X0147950Y0195937D01*
X0147137Y0196750D01*
X0146075Y0197191D01*
X0145438Y0197191D01*
X0143500Y0199128D01*
X0143500Y0203472D01*
X0143858Y0203830D01*
X0143858Y0203574D01*
X0144311Y0202480D01*
X0145149Y0201643D01*
X0146243Y0201190D01*
X0153923Y0201190D01*
X0155017Y0201643D01*
X0155854Y0202480D01*
X0156307Y0203574D01*
X0156307Y0204758D01*
X0155854Y0205852D01*
X0155375Y0206331D01*
X0155854Y0206811D01*
X0156307Y0207905D01*
X0156307Y0209089D01*
X0155854Y0210183D01*
X0155375Y0210662D01*
X0155854Y0211142D01*
X0156307Y0212236D01*
X0156307Y0213420D01*
X0155854Y0214514D01*
X0155375Y0214993D01*
X0155854Y0215472D01*
X0156307Y0216566D01*
X0156307Y0217750D01*
X0155854Y0218844D01*
X0155375Y0219324D01*
X0155854Y0219803D01*
X0156307Y0220897D01*
X0156307Y0222081D01*
X0155854Y0223175D01*
X0155375Y0223654D01*
X0155854Y0224134D01*
X0156307Y0225228D01*
X0156307Y0226412D01*
X0155854Y0227506D01*
X0155017Y0228343D01*
X0153923Y0228796D01*
X0146243Y0228796D01*
X0145149Y0228343D01*
X0144129Y0227065D02*
X0078871Y0227065D01*
X0079142Y0226066D02*
X0143858Y0226066D01*
X0143924Y0225068D02*
X0079075Y0225068D01*
X0078624Y0224069D02*
X0144376Y0224069D01*
X0144268Y0223071D02*
X0078732Y0223071D01*
X0079142Y0222072D02*
X0143858Y0222072D01*
X0143858Y0221074D02*
X0079142Y0221074D01*
X0078801Y0220075D02*
X0144199Y0220075D01*
X0144544Y0219077D02*
X0078456Y0219077D01*
X0079006Y0218078D02*
X0143994Y0218078D01*
X0143858Y0217080D02*
X0079142Y0217080D01*
X0078941Y0216081D02*
X0144059Y0216081D01*
X0144701Y0215083D02*
X0078299Y0215083D01*
X0078866Y0214084D02*
X0144134Y0214084D01*
X0143858Y0213086D02*
X0079142Y0213086D01*
X0079080Y0212087D02*
X0143920Y0212087D01*
X0144364Y0211089D02*
X0078636Y0211089D01*
X0078727Y0210090D02*
X0144273Y0210090D01*
X0143463Y0209092D02*
X0079141Y0209092D01*
X0079142Y0208093D02*
X0142465Y0208093D01*
X0141466Y0207095D02*
X0078806Y0207095D01*
X0078445Y0206096D02*
X0140468Y0206096D01*
X0139500Y0205098D02*
X0079001Y0205098D01*
X0079142Y0204099D02*
X0139500Y0204099D01*
X0139500Y0203101D02*
X0078946Y0203101D01*
X0078310Y0202102D02*
X0139500Y0202102D01*
X0139500Y0201103D02*
X0074917Y0201103D01*
X0074917Y0200105D02*
X0139500Y0200105D01*
X0139500Y0199106D02*
X0074917Y0199106D01*
X0074917Y0198108D02*
X0139500Y0198108D01*
X0139862Y0197109D02*
X0074917Y0197109D01*
X0074917Y0196111D02*
X0119720Y0196111D01*
X0118721Y0195112D02*
X0074917Y0195112D01*
X0074917Y0194114D02*
X0117723Y0194114D01*
X0116724Y0193115D02*
X0106780Y0193115D01*
X0107631Y0192117D02*
X0115726Y0192117D01*
X0114727Y0191118D02*
X0107980Y0191118D01*
X0107980Y0190120D02*
X0113729Y0190120D01*
X0112730Y0189121D02*
X0107980Y0189121D01*
X0107980Y0188123D02*
X0111732Y0188123D01*
X0110733Y0187124D02*
X0107980Y0187124D01*
X0107980Y0186126D02*
X0109735Y0186126D01*
X0108736Y0185127D02*
X0107980Y0185127D01*
X0104742Y0181133D02*
X0029000Y0181133D01*
X0029000Y0182132D02*
X0085526Y0182132D01*
X0084897Y0183130D02*
X0029000Y0183130D01*
X0029000Y0184129D02*
X0084705Y0184129D01*
X0084705Y0185127D02*
X0029000Y0185127D01*
X0029154Y0186126D02*
X0084705Y0186126D01*
X0084705Y0187124D02*
X0073412Y0187124D01*
X0074164Y0188123D02*
X0084705Y0188123D01*
X0084705Y0189121D02*
X0074429Y0189121D01*
X0074917Y0190120D02*
X0084705Y0190120D01*
X0084705Y0191118D02*
X0074917Y0191118D01*
X0074917Y0192117D02*
X0085054Y0192117D01*
X0085905Y0193115D02*
X0074917Y0193115D01*
X0072917Y0190717D02*
X0071539Y0189339D01*
X0071500Y0189300D01*
X0072917Y0190717D02*
X0072917Y0204166D01*
X0070917Y0201103D02*
X0051512Y0201103D01*
X0051925Y0202102D02*
X0067524Y0202102D01*
X0066889Y0203101D02*
X0052200Y0203101D01*
X0052200Y0204099D02*
X0066693Y0204099D01*
X0066833Y0205098D02*
X0052091Y0205098D01*
X0051677Y0206096D02*
X0067390Y0206096D01*
X0072917Y0208497D02*
X0060303Y0208497D01*
X0058500Y0210300D01*
X0058500Y0219800D01*
X0054500Y0223800D01*
X0047000Y0223800D01*
X0049185Y0219077D02*
X0056395Y0219077D01*
X0056500Y0218078D02*
X0050076Y0218078D01*
X0051074Y0217080D02*
X0056500Y0217080D01*
X0056500Y0216081D02*
X0051684Y0216081D01*
X0052097Y0215083D02*
X0056500Y0215083D01*
X0056500Y0214084D02*
X0052200Y0214084D01*
X0052200Y0213086D02*
X0056500Y0213086D01*
X0056500Y0212087D02*
X0051919Y0212087D01*
X0051505Y0211089D02*
X0056500Y0211089D01*
X0056500Y0210090D02*
X0050644Y0210090D01*
X0049221Y0209092D02*
X0056880Y0209092D01*
X0057672Y0208300D02*
X0057672Y0208300D01*
X0057878Y0208093D02*
X0050061Y0208093D01*
X0051059Y0207095D02*
X0058877Y0207095D01*
X0050659Y0200105D02*
X0070917Y0200105D01*
X0070917Y0199106D02*
X0049257Y0199106D01*
X0050046Y0198108D02*
X0070917Y0198108D01*
X0070917Y0197109D02*
X0051044Y0197109D01*
X0051671Y0196111D02*
X0070917Y0196111D01*
X0070917Y0195112D02*
X0052085Y0195112D01*
X0052200Y0194114D02*
X0070917Y0194114D01*
X0070917Y0193115D02*
X0052200Y0193115D01*
X0051931Y0192117D02*
X0070692Y0192117D01*
X0069231Y0191118D02*
X0051518Y0191118D01*
X0050674Y0190120D02*
X0068734Y0190120D01*
X0068648Y0189121D02*
X0049293Y0189121D01*
X0044707Y0189121D02*
X0032150Y0189121D01*
X0031151Y0188123D02*
X0068914Y0188123D01*
X0069666Y0187124D02*
X0030153Y0187124D01*
X0033148Y0190120D02*
X0043326Y0190120D01*
X0042482Y0191118D02*
X0034147Y0191118D01*
X0035145Y0192117D02*
X0042069Y0192117D01*
X0041800Y0193115D02*
X0036144Y0193115D01*
X0037142Y0194114D02*
X0041800Y0194114D01*
X0041915Y0195112D02*
X0038141Y0195112D01*
X0039139Y0196111D02*
X0042329Y0196111D01*
X0042956Y0197109D02*
X0040138Y0197109D01*
X0041136Y0198108D02*
X0043954Y0198108D01*
X0044743Y0199106D02*
X0042135Y0199106D01*
X0043133Y0200105D02*
X0043341Y0200105D01*
X0044000Y0203800D02*
X0047000Y0203800D01*
X0050629Y0220075D02*
X0055396Y0220075D01*
X0054398Y0221074D02*
X0051499Y0221074D01*
X0047428Y0231059D02*
X0009000Y0231059D01*
X0009000Y0232057D02*
X0047359Y0232057D01*
X0047641Y0233056D02*
X0009000Y0233056D01*
X0009000Y0234054D02*
X0048417Y0234054D01*
X0046500Y0241987D02*
X0045813Y0241987D01*
X0045000Y0242800D01*
X0045000Y0246454D01*
X0046000Y0249800D02*
X0045000Y0250800D01*
X0045000Y0253146D01*
X0045000Y0255800D01*
X0043980Y0256820D01*
X0043980Y0263505D01*
X0039000Y0263524D02*
X0039000Y0267800D01*
X0040000Y0268800D01*
X0050500Y0268800D01*
X0052500Y0266800D01*
X0052500Y0259800D01*
X0053941Y0258359D01*
X0056260Y0258359D01*
X0056413Y0261099D02*
X0054500Y0261099D01*
X0054500Y0260628D01*
X0054580Y0260548D01*
X0058456Y0260548D01*
X0059335Y0259669D01*
X0059335Y0257049D01*
X0058456Y0256170D01*
X0054232Y0256170D01*
X0054468Y0255933D01*
X0054468Y0255430D01*
X0058456Y0255430D01*
X0059335Y0254551D01*
X0059335Y0251963D01*
X0060665Y0253294D01*
X0060665Y0259669D01*
X0061058Y0260062D01*
X0060363Y0260350D01*
X0059550Y0261163D01*
X0059109Y0262225D01*
X0059109Y0263375D01*
X0059550Y0264437D01*
X0060363Y0265250D01*
X0061425Y0265691D01*
X0062575Y0265691D01*
X0063637Y0265250D01*
X0064088Y0264800D01*
X0065828Y0264800D01*
X0066844Y0263784D01*
X0067146Y0264514D01*
X0067774Y0265142D01*
X0063116Y0269800D01*
X0057291Y0269800D01*
X0057291Y0261978D01*
X0056413Y0261099D01*
X0057291Y0262013D02*
X0059197Y0262013D01*
X0059109Y0263011D02*
X0057291Y0263011D01*
X0057291Y0264010D02*
X0059372Y0264010D01*
X0060120Y0265008D02*
X0057291Y0265008D01*
X0057291Y0266007D02*
X0066910Y0266007D01*
X0067641Y0265008D02*
X0063880Y0265008D01*
X0065000Y0262800D02*
X0062000Y0262800D01*
X0059698Y0261014D02*
X0054500Y0261014D01*
X0057291Y0267005D02*
X0065911Y0267005D01*
X0064913Y0268004D02*
X0057291Y0268004D01*
X0057291Y0269002D02*
X0063914Y0269002D01*
X0063945Y0271800D02*
X0027000Y0271800D01*
X0023980Y0268780D01*
X0023980Y0263505D01*
X0023980Y0255627D01*
X0023654Y0255300D01*
X0019988Y0255023D02*
X0009000Y0255023D01*
X0009000Y0254025D02*
X0019988Y0254025D01*
X0019988Y0253026D02*
X0009000Y0253026D01*
X0009000Y0252028D02*
X0020671Y0252028D01*
X0019988Y0256022D02*
X0009000Y0256022D01*
X0009000Y0257020D02*
X0019988Y0257020D01*
X0020117Y0258019D02*
X0009000Y0258019D01*
X0009000Y0259017D02*
X0021980Y0259017D01*
X0021509Y0260016D02*
X0009000Y0260016D01*
X0009000Y0261014D02*
X0021201Y0261014D01*
X0021201Y0262013D02*
X0020559Y0262013D01*
X0020559Y0261978D02*
X0019680Y0261099D01*
X0016548Y0261099D01*
X0015669Y0261978D01*
X0015669Y0270307D01*
X0016548Y0271186D01*
X0019680Y0271186D01*
X0020559Y0270307D01*
X0020559Y0261978D01*
X0020559Y0263011D02*
X0021201Y0263011D01*
X0021201Y0264010D02*
X0020559Y0264010D01*
X0020559Y0265008D02*
X0021201Y0265008D01*
X0021201Y0266007D02*
X0020559Y0266007D01*
X0020559Y0267005D02*
X0021521Y0267005D01*
X0021980Y0268004D02*
X0020559Y0268004D01*
X0020559Y0269002D02*
X0021980Y0269002D01*
X0022372Y0270001D02*
X0020559Y0270001D01*
X0019867Y0270999D02*
X0023371Y0270999D01*
X0024369Y0271998D02*
X0009000Y0271998D01*
X0009000Y0272996D02*
X0025368Y0272996D01*
X0028980Y0263505D02*
X0028980Y0258820D01*
X0030346Y0257454D01*
X0030346Y0255300D01*
X0030346Y0242454D01*
X0036500Y0236300D01*
X0065000Y0236300D01*
X0072917Y0244217D01*
X0072917Y0245505D01*
X0073746Y0242217D02*
X0073746Y0242217D01*
X0073571Y0242042D02*
X0083000Y0242042D01*
X0083000Y0241044D02*
X0072572Y0241044D01*
X0071574Y0240045D02*
X0083000Y0240045D01*
X0083000Y0239047D02*
X0070575Y0239047D01*
X0069577Y0238048D02*
X0083000Y0238048D01*
X0082421Y0237050D02*
X0068578Y0237050D01*
X0067580Y0236051D02*
X0081423Y0236051D01*
X0080424Y0235053D02*
X0066581Y0235053D01*
X0067000Y0235472D02*
X0067000Y0235472D01*
X0064930Y0231059D02*
X0060572Y0231059D01*
X0060641Y0232057D02*
X0077429Y0232057D01*
X0078427Y0233056D02*
X0060359Y0233056D01*
X0059583Y0234054D02*
X0079426Y0234054D01*
X0082087Y0231059D02*
X0182701Y0231059D01*
X0182701Y0232057D02*
X0083086Y0232057D01*
X0084084Y0233056D02*
X0182701Y0233056D01*
X0182701Y0234054D02*
X0085083Y0234054D01*
X0086081Y0235053D02*
X0182701Y0235053D01*
X0182701Y0236051D02*
X0087000Y0236051D01*
X0087000Y0237050D02*
X0182701Y0237050D01*
X0182701Y0238048D02*
X0087000Y0238048D01*
X0087000Y0239047D02*
X0182701Y0239047D01*
X0182701Y0240045D02*
X0087000Y0240045D01*
X0087000Y0241044D02*
X0182701Y0241044D01*
X0182701Y0242042D02*
X0087000Y0242042D01*
X0087000Y0243041D02*
X0145089Y0243041D01*
X0145149Y0242981D02*
X0146243Y0242528D01*
X0153923Y0242528D01*
X0155017Y0242981D01*
X0155854Y0243819D01*
X0156307Y0244913D01*
X0156307Y0246097D01*
X0155854Y0247191D01*
X0155375Y0247670D01*
X0155854Y0248149D01*
X0156307Y0249243D01*
X0156307Y0250427D01*
X0155854Y0251521D01*
X0155375Y0252001D01*
X0155854Y0252480D01*
X0156307Y0253574D01*
X0156307Y0254758D01*
X0155854Y0255852D01*
X0155375Y0256331D01*
X0155854Y0256811D01*
X0156307Y0257905D01*
X0156307Y0259089D01*
X0155854Y0260183D01*
X0155375Y0260662D01*
X0155854Y0261142D01*
X0156307Y0262236D01*
X0156307Y0263420D01*
X0155854Y0264514D01*
X0155017Y0265351D01*
X0153923Y0265804D01*
X0146243Y0265804D01*
X0145149Y0265351D01*
X0144311Y0264514D01*
X0143858Y0263420D01*
X0143858Y0262236D01*
X0144311Y0261142D01*
X0144791Y0260662D01*
X0144311Y0260183D01*
X0143858Y0259089D01*
X0143858Y0257905D01*
X0144311Y0256811D01*
X0144791Y0256331D01*
X0144311Y0255852D01*
X0143858Y0254758D01*
X0143858Y0253574D01*
X0144311Y0252480D01*
X0144791Y0252001D01*
X0144311Y0251521D01*
X0143858Y0250427D01*
X0143858Y0249243D01*
X0144311Y0248149D01*
X0144791Y0247670D01*
X0144311Y0247191D01*
X0143858Y0246097D01*
X0143858Y0244913D01*
X0144311Y0243819D01*
X0145149Y0242981D01*
X0144220Y0244039D02*
X0087000Y0244039D01*
X0087000Y0245038D02*
X0143858Y0245038D01*
X0143858Y0246037D02*
X0087000Y0246037D01*
X0087000Y0247035D02*
X0144247Y0247035D01*
X0144427Y0248034D02*
X0087000Y0248034D01*
X0087000Y0249032D02*
X0143946Y0249032D01*
X0143858Y0250031D02*
X0087000Y0250031D01*
X0087095Y0251029D02*
X0144107Y0251029D01*
X0144764Y0252028D02*
X0087815Y0252028D01*
X0088087Y0253026D02*
X0144085Y0253026D01*
X0143858Y0254025D02*
X0088042Y0254025D01*
X0087628Y0255023D02*
X0143968Y0255023D01*
X0144481Y0256022D02*
X0086497Y0256022D01*
X0083503Y0256022D02*
X0078519Y0256022D01*
X0078775Y0257020D02*
X0144225Y0257020D01*
X0143858Y0258019D02*
X0079142Y0258019D01*
X0079142Y0259017D02*
X0143858Y0259017D01*
X0144242Y0260016D02*
X0078758Y0260016D01*
X0078561Y0261014D02*
X0144439Y0261014D01*
X0143951Y0262013D02*
X0079049Y0262013D01*
X0079142Y0263011D02*
X0143858Y0263011D01*
X0144103Y0264010D02*
X0078897Y0264010D01*
X0078194Y0265008D02*
X0144806Y0265008D01*
X0155359Y0265008D02*
X0182701Y0265008D01*
X0182701Y0264010D02*
X0156063Y0264010D01*
X0156307Y0263011D02*
X0182701Y0263011D01*
X0182701Y0262013D02*
X0156215Y0262013D01*
X0155727Y0261014D02*
X0182701Y0261014D01*
X0182701Y0260016D02*
X0155923Y0260016D01*
X0156307Y0259017D02*
X0182701Y0259017D01*
X0182701Y0258019D02*
X0156307Y0258019D01*
X0155941Y0257020D02*
X0182701Y0257020D01*
X0182701Y0256022D02*
X0155684Y0256022D01*
X0156197Y0255023D02*
X0182701Y0255023D01*
X0182701Y0254025D02*
X0156307Y0254025D01*
X0156080Y0253026D02*
X0182701Y0253026D01*
X0182701Y0252028D02*
X0155401Y0252028D01*
X0156058Y0251029D02*
X0182701Y0251029D01*
X0182701Y0250031D02*
X0156307Y0250031D01*
X0156220Y0249032D02*
X0182701Y0249032D01*
X0182701Y0248034D02*
X0155738Y0248034D01*
X0155918Y0247035D02*
X0182701Y0247035D01*
X0182701Y0246037D02*
X0156307Y0246037D01*
X0156307Y0245038D02*
X0182701Y0245038D01*
X0182701Y0244039D02*
X0155945Y0244039D01*
X0155076Y0243041D02*
X0182701Y0243041D01*
X0182701Y0230060D02*
X0081089Y0230060D01*
X0077500Y0229300D02*
X0066000Y0229300D01*
X0065500Y0228800D01*
X0043000Y0228800D01*
X0034919Y0235053D02*
X0009000Y0235053D01*
X0009000Y0236051D02*
X0033920Y0236051D01*
X0032922Y0237050D02*
X0009000Y0237050D01*
X0009000Y0238048D02*
X0031923Y0238048D01*
X0030925Y0239047D02*
X0009000Y0239047D01*
X0009000Y0240045D02*
X0029926Y0240045D01*
X0028928Y0241044D02*
X0009000Y0241044D01*
X0009000Y0242042D02*
X0028346Y0242042D01*
X0028346Y0243041D02*
X0009000Y0243041D01*
X0009000Y0244039D02*
X0028346Y0244039D01*
X0028346Y0245038D02*
X0009000Y0245038D01*
X0009000Y0246037D02*
X0028346Y0246037D01*
X0028346Y0247035D02*
X0009000Y0247035D01*
X0009000Y0248034D02*
X0028346Y0248034D01*
X0028346Y0249032D02*
X0009000Y0249032D01*
X0009000Y0250031D02*
X0028346Y0250031D01*
X0028346Y0251029D02*
X0009000Y0251029D01*
X0009000Y0262013D02*
X0015669Y0262013D01*
X0015669Y0263011D02*
X0009000Y0263011D01*
X0009000Y0264010D02*
X0015669Y0264010D01*
X0015669Y0265008D02*
X0009000Y0265008D01*
X0009000Y0266007D02*
X0015669Y0266007D01*
X0015669Y0267005D02*
X0009000Y0267005D01*
X0009000Y0268004D02*
X0015669Y0268004D01*
X0015669Y0269002D02*
X0009000Y0269002D01*
X0009000Y0270001D02*
X0015669Y0270001D01*
X0016361Y0270999D02*
X0009000Y0270999D01*
X0009000Y0273995D02*
X0085395Y0273995D01*
X0085158Y0274232D02*
X0085995Y0273395D01*
X0087089Y0272942D01*
X0088273Y0272942D01*
X0089000Y0273243D01*
X0089000Y0271972D01*
X0090172Y0270800D01*
X0098328Y0270800D01*
X0099500Y0271972D01*
X0099500Y0283634D01*
X0099609Y0284288D01*
X0099500Y0284441D01*
X0099500Y0284628D01*
X0099031Y0285097D01*
X0097000Y0287941D01*
X0097000Y0307128D01*
X0095828Y0308300D01*
X0067172Y0308300D01*
X0066000Y0307128D01*
X0066000Y0287972D01*
X0067172Y0286800D01*
X0089000Y0286800D01*
X0089000Y0285089D01*
X0088273Y0285391D01*
X0087089Y0285391D01*
X0085995Y0284937D01*
X0085158Y0284100D01*
X0084705Y0283006D01*
X0084705Y0275326D01*
X0085158Y0274232D01*
X0084843Y0274993D02*
X0009000Y0274993D01*
X0009000Y0275992D02*
X0084705Y0275992D01*
X0084705Y0276990D02*
X0009000Y0276990D01*
X0009000Y0277989D02*
X0084705Y0277989D01*
X0084705Y0278987D02*
X0009000Y0278987D01*
X0009000Y0279986D02*
X0084705Y0279986D01*
X0084705Y0280984D02*
X0009000Y0280984D01*
X0009000Y0281983D02*
X0084705Y0281983D01*
X0084705Y0282981D02*
X0009000Y0282981D01*
X0009000Y0283980D02*
X0016305Y0283980D01*
X0016548Y0283737D02*
X0019680Y0283737D01*
X0020559Y0284616D01*
X0020559Y0292945D01*
X0019680Y0293824D01*
X0016548Y0293824D01*
X0015669Y0292945D01*
X0015669Y0284616D01*
X0016548Y0283737D01*
X0015669Y0284978D02*
X0009000Y0284978D01*
X0009000Y0285977D02*
X0015669Y0285977D01*
X0015669Y0286975D02*
X0009000Y0286975D01*
X0009000Y0287974D02*
X0015669Y0287974D01*
X0015669Y0288972D02*
X0009000Y0288972D01*
X0009000Y0289971D02*
X0015669Y0289971D01*
X0015669Y0290970D02*
X0009000Y0290970D01*
X0009000Y0291968D02*
X0015669Y0291968D01*
X0015691Y0292967D02*
X0009000Y0292967D01*
X0009000Y0293965D02*
X0066000Y0293965D01*
X0066000Y0292967D02*
X0057270Y0292967D01*
X0057291Y0292945D02*
X0056413Y0293824D01*
X0053280Y0293824D01*
X0052402Y0292945D01*
X0052402Y0284616D01*
X0053280Y0283737D01*
X0056413Y0283737D01*
X0057291Y0284616D01*
X0057291Y0292945D01*
X0057291Y0291968D02*
X0066000Y0291968D01*
X0066000Y0290970D02*
X0057291Y0290970D01*
X0057291Y0289971D02*
X0066000Y0289971D01*
X0066000Y0288972D02*
X0057291Y0288972D01*
X0057291Y0287974D02*
X0066000Y0287974D01*
X0066996Y0286975D02*
X0057291Y0286975D01*
X0057291Y0285977D02*
X0089000Y0285977D01*
X0091000Y0285977D02*
X0095945Y0285977D01*
X0095232Y0286975D02*
X0091000Y0286975D01*
X0091000Y0287974D02*
X0095000Y0287974D01*
X0095000Y0287300D02*
X0097500Y0283800D01*
X0097500Y0272800D01*
X0091000Y0272800D01*
X0091000Y0288800D01*
X0068000Y0288800D01*
X0068000Y0306300D01*
X0095000Y0306300D01*
X0095000Y0287300D01*
X0095000Y0288972D02*
X0068000Y0288972D01*
X0068000Y0289971D02*
X0095000Y0289971D01*
X0095000Y0290970D02*
X0068000Y0290970D01*
X0068000Y0291968D02*
X0095000Y0291968D01*
X0095000Y0292967D02*
X0068000Y0292967D01*
X0068000Y0293965D02*
X0095000Y0293965D01*
X0095000Y0294964D02*
X0068000Y0294964D01*
X0068000Y0295962D02*
X0095000Y0295962D01*
X0095000Y0296961D02*
X0068000Y0296961D01*
X0068000Y0297959D02*
X0095000Y0297959D01*
X0095000Y0298958D02*
X0068000Y0298958D01*
X0068000Y0299956D02*
X0095000Y0299956D01*
X0095000Y0300955D02*
X0068000Y0300955D01*
X0068000Y0301953D02*
X0095000Y0301953D01*
X0095000Y0302952D02*
X0068000Y0302952D01*
X0068000Y0303950D02*
X0095000Y0303950D01*
X0095000Y0304949D02*
X0068000Y0304949D01*
X0068000Y0305947D02*
X0095000Y0305947D01*
X0097000Y0305947D02*
X0127500Y0305947D01*
X0127500Y0304949D02*
X0097000Y0304949D01*
X0097000Y0303950D02*
X0127500Y0303950D01*
X0127500Y0302952D02*
X0097000Y0302952D01*
X0097000Y0301953D02*
X0127500Y0301953D01*
X0127500Y0300955D02*
X0097000Y0300955D01*
X0097000Y0299956D02*
X0127500Y0299956D01*
X0127500Y0298958D02*
X0097000Y0298958D01*
X0097000Y0297959D02*
X0127500Y0297959D01*
X0127718Y0296961D02*
X0097000Y0296961D01*
X0097000Y0295962D02*
X0130039Y0295962D01*
X0130039Y0294964D02*
X0097000Y0294964D01*
X0097000Y0293965D02*
X0130039Y0293965D01*
X0130039Y0292967D02*
X0097000Y0292967D01*
X0097000Y0291968D02*
X0130039Y0291968D01*
X0130039Y0290970D02*
X0097000Y0290970D01*
X0097000Y0289971D02*
X0130039Y0289971D01*
X0130039Y0288972D02*
X0097000Y0288972D01*
X0097000Y0287974D02*
X0130039Y0287974D01*
X0130039Y0286975D02*
X0097690Y0286975D01*
X0098403Y0285977D02*
X0130039Y0285977D01*
X0130039Y0284978D02*
X0099150Y0284978D01*
X0099558Y0283980D02*
X0129596Y0283980D01*
X0129193Y0282981D02*
X0099500Y0282981D01*
X0099500Y0281983D02*
X0129193Y0281983D01*
X0129193Y0280984D02*
X0099500Y0280984D01*
X0099500Y0279986D02*
X0129193Y0279986D01*
X0129193Y0278987D02*
X0099500Y0278987D01*
X0099500Y0277989D02*
X0129193Y0277989D01*
X0129193Y0276990D02*
X0099500Y0276990D01*
X0099500Y0275992D02*
X0129193Y0275992D01*
X0129331Y0274993D02*
X0099500Y0274993D01*
X0099500Y0273995D02*
X0129883Y0273995D01*
X0131445Y0272996D02*
X0099500Y0272996D01*
X0099500Y0271998D02*
X0182701Y0271998D01*
X0182701Y0272996D02*
X0132893Y0272996D01*
X0134455Y0273995D02*
X0182701Y0273995D01*
X0182701Y0274993D02*
X0135008Y0274993D01*
X0135146Y0275992D02*
X0182701Y0275992D01*
X0182701Y0276990D02*
X0135146Y0276990D01*
X0135146Y0277989D02*
X0182701Y0277989D01*
X0182701Y0278987D02*
X0135146Y0278987D01*
X0135146Y0279986D02*
X0182701Y0279986D01*
X0182701Y0280984D02*
X0135146Y0280984D01*
X0135146Y0281983D02*
X0182701Y0281983D01*
X0182701Y0282981D02*
X0135146Y0282981D01*
X0134742Y0283980D02*
X0182701Y0283980D01*
X0182701Y0284978D02*
X0134299Y0284978D01*
X0134299Y0285977D02*
X0182701Y0285977D01*
X0182701Y0286975D02*
X0134299Y0286975D01*
X0134299Y0287974D02*
X0182701Y0287974D01*
X0182701Y0288972D02*
X0134299Y0288972D01*
X0134299Y0289971D02*
X0182701Y0289971D01*
X0182701Y0290970D02*
X0134299Y0290970D01*
X0134299Y0291968D02*
X0182701Y0291968D01*
X0182701Y0292967D02*
X0134299Y0292967D01*
X0134299Y0293965D02*
X0182701Y0293965D01*
X0182701Y0294964D02*
X0134299Y0294964D01*
X0134299Y0295962D02*
X0182701Y0295962D01*
X0182701Y0296961D02*
X0136282Y0296961D01*
X0136500Y0297959D02*
X0182701Y0297959D01*
X0182701Y0298958D02*
X0136500Y0298958D01*
X0136500Y0299956D02*
X0182701Y0299956D01*
X0182701Y0300955D02*
X0136500Y0300955D01*
X0136500Y0301953D02*
X0182701Y0301953D01*
X0182701Y0302952D02*
X0136500Y0302952D01*
X0136500Y0303950D02*
X0182701Y0303950D01*
X0182701Y0304949D02*
X0136500Y0304949D01*
X0136500Y0305947D02*
X0182701Y0305947D01*
X0182701Y0306946D02*
X0136500Y0306946D01*
X0136500Y0307944D02*
X0182701Y0307944D01*
X0182701Y0308943D02*
X0136500Y0308943D01*
X0136500Y0309941D02*
X0182701Y0309941D01*
X0182701Y0310940D02*
X0136500Y0310940D01*
X0136500Y0311938D02*
X0182701Y0311938D01*
X0182701Y0312937D02*
X0136500Y0312937D01*
X0136500Y0313935D02*
X0182701Y0313935D01*
X0182701Y0270999D02*
X0098528Y0270999D01*
X0097500Y0272996D02*
X0091000Y0272996D01*
X0091000Y0273995D02*
X0097500Y0273995D01*
X0097500Y0274993D02*
X0091000Y0274993D01*
X0091000Y0275992D02*
X0097500Y0275992D01*
X0097500Y0276990D02*
X0091000Y0276990D01*
X0091000Y0277989D02*
X0097500Y0277989D01*
X0097500Y0278987D02*
X0091000Y0278987D01*
X0091000Y0279986D02*
X0097500Y0279986D01*
X0097500Y0280984D02*
X0091000Y0280984D01*
X0091000Y0281983D02*
X0097500Y0281983D01*
X0097500Y0282981D02*
X0091000Y0282981D01*
X0091000Y0283980D02*
X0097371Y0283980D01*
X0096658Y0284978D02*
X0091000Y0284978D01*
X0086094Y0284978D02*
X0057291Y0284978D01*
X0056656Y0283980D02*
X0085108Y0283980D01*
X0086957Y0272996D02*
X0065577Y0272996D01*
X0066575Y0271998D02*
X0089000Y0271998D01*
X0089000Y0272996D02*
X0088405Y0272996D01*
X0089972Y0270999D02*
X0067574Y0270999D01*
X0068573Y0270001D02*
X0182701Y0270001D01*
X0182701Y0269002D02*
X0069571Y0269002D01*
X0070570Y0268004D02*
X0182701Y0268004D01*
X0182701Y0267005D02*
X0071568Y0267005D01*
X0072567Y0266007D02*
X0182701Y0266007D01*
X0168909Y0228063D02*
X0155296Y0228063D01*
X0156037Y0227065D02*
X0167911Y0227065D01*
X0167310Y0226066D02*
X0156307Y0226066D01*
X0156241Y0225068D02*
X0166897Y0225068D01*
X0166800Y0224069D02*
X0155789Y0224069D01*
X0155897Y0223071D02*
X0166800Y0223071D01*
X0167087Y0222072D02*
X0156307Y0222072D01*
X0156307Y0221074D02*
X0167501Y0221074D01*
X0168371Y0220075D02*
X0155967Y0220075D01*
X0155621Y0219077D02*
X0169815Y0219077D01*
X0168924Y0218078D02*
X0156171Y0218078D01*
X0156307Y0217080D02*
X0167926Y0217080D01*
X0167316Y0216081D02*
X0156106Y0216081D01*
X0155464Y0215083D02*
X0166903Y0215083D01*
X0166800Y0214084D02*
X0156032Y0214084D01*
X0156307Y0213086D02*
X0166800Y0213086D01*
X0167081Y0212087D02*
X0156246Y0212087D01*
X0155801Y0211089D02*
X0167495Y0211089D01*
X0168356Y0210090D02*
X0155892Y0210090D01*
X0156306Y0209092D02*
X0169779Y0209092D01*
X0168939Y0208093D02*
X0156307Y0208093D01*
X0155971Y0207095D02*
X0167941Y0207095D01*
X0167323Y0206096D02*
X0155610Y0206096D01*
X0156167Y0205098D02*
X0166909Y0205098D01*
X0166800Y0204099D02*
X0156307Y0204099D01*
X0156111Y0203101D02*
X0166800Y0203101D01*
X0167075Y0202102D02*
X0155476Y0202102D01*
X0150083Y0208497D02*
X0145697Y0208497D01*
X0141500Y0204300D01*
X0141500Y0198300D01*
X0145500Y0194300D01*
X0148138Y0193115D02*
X0166800Y0193115D01*
X0166800Y0194114D02*
X0148391Y0194114D01*
X0148292Y0195112D02*
X0166915Y0195112D01*
X0167329Y0196111D02*
X0147777Y0196111D01*
X0146271Y0197109D02*
X0167956Y0197109D01*
X0168954Y0198108D02*
X0144520Y0198108D01*
X0143522Y0199106D02*
X0169743Y0199106D01*
X0168341Y0200105D02*
X0143500Y0200105D01*
X0143500Y0201103D02*
X0167488Y0201103D01*
X0167069Y0192117D02*
X0147405Y0192117D01*
X0143595Y0192117D02*
X0139127Y0192117D01*
X0139476Y0191118D02*
X0167482Y0191118D01*
X0168326Y0190120D02*
X0139476Y0190120D01*
X0139476Y0189121D02*
X0169707Y0189121D01*
X0168969Y0188123D02*
X0139476Y0188123D01*
X0139476Y0187124D02*
X0167970Y0187124D01*
X0167335Y0186126D02*
X0139476Y0186126D01*
X0139476Y0185127D02*
X0166921Y0185127D01*
X0166800Y0184129D02*
X0139476Y0184129D01*
X0139284Y0183130D02*
X0166800Y0183130D01*
X0167063Y0182132D02*
X0138655Y0182132D01*
X0138500Y0181133D02*
X0167476Y0181133D01*
X0168311Y0180135D02*
X0138500Y0180135D01*
X0138500Y0179136D02*
X0169671Y0179136D01*
X0182701Y0171148D02*
X0136177Y0171148D01*
X0139325Y0170150D02*
X0182701Y0170150D01*
X0182701Y0155172D02*
X0127466Y0155172D01*
X0134331Y0161469D02*
X0134331Y0163300D01*
X0131500Y0174300D02*
X0116000Y0174300D01*
X0113500Y0171800D01*
X0113015Y0174144D02*
X0109172Y0174144D01*
X0110171Y0175142D02*
X0114014Y0175142D01*
X0115012Y0176141D02*
X0111169Y0176141D01*
X0112168Y0177139D02*
X0131511Y0177139D01*
X0131500Y0174300D02*
X0136500Y0179300D01*
X0136500Y0187434D01*
X0134724Y0193115D02*
X0133945Y0193115D01*
X0130394Y0193115D02*
X0129839Y0193115D01*
X0129839Y0194114D02*
X0142609Y0194114D01*
X0142862Y0193115D02*
X0138276Y0193115D01*
X0140861Y0196111D02*
X0128017Y0196111D01*
X0129016Y0195112D02*
X0141859Y0195112D01*
X0143500Y0202102D02*
X0144690Y0202102D01*
X0144054Y0203101D02*
X0143500Y0203101D01*
X0123508Y0187434D02*
X0116134Y0187434D01*
X0106000Y0177300D01*
X0049500Y0177300D01*
X0041600Y0178900D02*
X0035500Y0172800D01*
X0035500Y0165300D01*
X0041500Y0159300D01*
X0009000Y0152176D02*
X0078036Y0152176D01*
X0079500Y0151178D02*
X0009000Y0151178D01*
X0009000Y0150179D02*
X0079500Y0150179D01*
X0079500Y0149181D02*
X0009000Y0149181D01*
X0009000Y0148182D02*
X0079500Y0148182D01*
X0079500Y0147184D02*
X0009000Y0147184D01*
X0009000Y0146185D02*
X0079500Y0146185D01*
X0079500Y0145187D02*
X0009000Y0145187D01*
X0009000Y0144188D02*
X0079500Y0144188D01*
X0079500Y0143190D02*
X0009000Y0143190D01*
X0009000Y0142191D02*
X0079500Y0142191D01*
X0079500Y0141193D02*
X0009000Y0141193D01*
X0009000Y0140194D02*
X0079500Y0140194D01*
X0079500Y0139196D02*
X0009000Y0139196D01*
X0009000Y0138197D02*
X0079500Y0138197D01*
X0079500Y0137199D02*
X0009000Y0137199D01*
X0009000Y0136200D02*
X0079500Y0136200D01*
X0079500Y0135202D02*
X0009000Y0135202D01*
X0009000Y0134203D02*
X0079500Y0134203D01*
X0079500Y0133205D02*
X0009000Y0133205D01*
X0009000Y0132206D02*
X0079500Y0132206D01*
X0079500Y0131208D02*
X0009000Y0131208D01*
X0009000Y0130209D02*
X0079500Y0130209D01*
X0079500Y0129211D02*
X0009000Y0129211D01*
X0009000Y0128212D02*
X0079324Y0128212D01*
X0078750Y0127214D02*
X0009000Y0127214D01*
X0009000Y0126215D02*
X0078609Y0126215D01*
X0078820Y0125217D02*
X0009000Y0125217D01*
X0009000Y0124218D02*
X0079494Y0124218D01*
X0081500Y0126300D02*
X0081500Y0152800D01*
X0080000Y0154300D01*
X0086169Y0159954D02*
X0086563Y0159560D01*
X0077451Y0163160D02*
X0076549Y0163160D01*
X0076968Y0162162D02*
X0077031Y0162162D01*
X0089836Y0182132D02*
X0089857Y0182132D01*
X0094167Y0182132D02*
X0094187Y0182132D01*
X0098498Y0182132D02*
X0098518Y0182132D01*
X0102828Y0182132D02*
X0102849Y0182132D01*
X0103228Y0193115D02*
X0102449Y0193115D01*
X0098898Y0193115D02*
X0098118Y0193115D01*
X0094567Y0193115D02*
X0093788Y0193115D01*
X0090236Y0193115D02*
X0089457Y0193115D01*
X0072917Y0217158D02*
X0063012Y0217158D01*
X0077500Y0229300D02*
X0085000Y0236800D01*
X0085000Y0253300D01*
X0082185Y0252028D02*
X0078236Y0252028D01*
X0078893Y0251029D02*
X0082905Y0251029D01*
X0083000Y0250031D02*
X0079142Y0250031D01*
X0079054Y0249032D02*
X0083000Y0249032D01*
X0083000Y0248034D02*
X0078573Y0248034D01*
X0078753Y0247035D02*
X0083000Y0247035D01*
X0083000Y0246037D02*
X0079142Y0246037D01*
X0079142Y0245038D02*
X0083000Y0245038D01*
X0083000Y0244039D02*
X0078780Y0244039D01*
X0077911Y0243041D02*
X0083000Y0243041D01*
X0081913Y0253026D02*
X0078915Y0253026D01*
X0079142Y0254025D02*
X0081958Y0254025D01*
X0082372Y0255023D02*
X0079032Y0255023D01*
X0072917Y0254166D02*
X0069366Y0254166D01*
X0061654Y0246454D01*
X0051000Y0246454D01*
X0046000Y0249800D02*
X0060000Y0249800D01*
X0063441Y0253241D01*
X0063740Y0253241D01*
X0060665Y0254025D02*
X0059335Y0254025D01*
X0059335Y0253026D02*
X0060398Y0253026D01*
X0059399Y0252028D02*
X0059335Y0252028D01*
X0058863Y0255023D02*
X0060665Y0255023D01*
X0060665Y0256022D02*
X0054380Y0256022D01*
X0056260Y0253241D02*
X0051094Y0253241D01*
X0051000Y0253146D01*
X0051000Y0256300D01*
X0048980Y0258320D01*
X0048980Y0263505D01*
X0039000Y0263524D02*
X0038980Y0263505D01*
X0038980Y0253166D01*
X0039000Y0253146D01*
X0039000Y0246454D02*
X0039000Y0241800D01*
X0041500Y0239300D01*
X0057500Y0239300D01*
X0067500Y0249300D01*
X0072382Y0249300D01*
X0072917Y0249835D01*
X0072917Y0258497D02*
X0069303Y0258497D01*
X0065000Y0262800D01*
X0066619Y0264010D02*
X0066937Y0264010D01*
X0061012Y0260016D02*
X0058988Y0260016D01*
X0059335Y0259017D02*
X0060665Y0259017D01*
X0060665Y0258019D02*
X0059335Y0258019D01*
X0059306Y0257020D02*
X0060665Y0257020D01*
X0072917Y0262828D02*
X0063945Y0271800D01*
X0053037Y0283980D02*
X0019923Y0283980D01*
X0020559Y0284978D02*
X0052402Y0284978D01*
X0052402Y0285977D02*
X0020559Y0285977D01*
X0020559Y0286975D02*
X0052402Y0286975D01*
X0052402Y0287974D02*
X0020559Y0287974D01*
X0020559Y0288972D02*
X0052402Y0288972D01*
X0052402Y0289971D02*
X0020559Y0289971D01*
X0020559Y0290970D02*
X0052402Y0290970D01*
X0052402Y0291968D02*
X0020559Y0291968D01*
X0020537Y0292967D02*
X0052423Y0292967D01*
X0051317Y0307944D02*
X0021683Y0307944D01*
X0022449Y0308943D02*
X0050551Y0308943D01*
X0050551Y0309941D02*
X0022449Y0309941D01*
X0022449Y0310940D02*
X0050551Y0310940D01*
X0050551Y0311938D02*
X0022449Y0311938D01*
X0022449Y0312937D02*
X0050551Y0312937D01*
X0050597Y0313935D02*
X0022403Y0313935D01*
X0015439Y0313935D02*
X0009000Y0313935D01*
X0009000Y0312937D02*
X0015394Y0312937D01*
X0015394Y0311938D02*
X0009000Y0311938D01*
X0009000Y0310940D02*
X0015394Y0310940D01*
X0015394Y0309941D02*
X0009000Y0309941D01*
X0009000Y0308943D02*
X0015394Y0308943D01*
X0016160Y0307944D02*
X0009000Y0307944D01*
X0009000Y0306946D02*
X0066000Y0306946D01*
X0066000Y0305947D02*
X0009000Y0305947D01*
X0009000Y0304949D02*
X0066000Y0304949D01*
X0066000Y0303950D02*
X0009000Y0303950D01*
X0009000Y0302952D02*
X0066000Y0302952D01*
X0066000Y0301953D02*
X0009000Y0301953D01*
X0009000Y0300955D02*
X0066000Y0300955D01*
X0066000Y0299956D02*
X0009000Y0299956D01*
X0009000Y0298958D02*
X0066000Y0298958D01*
X0066000Y0297959D02*
X0009000Y0297959D01*
X0009000Y0296961D02*
X0066000Y0296961D01*
X0066000Y0295962D02*
X0009000Y0295962D01*
X0009000Y0294964D02*
X0066000Y0294964D01*
X0066816Y0307944D02*
X0056840Y0307944D01*
X0057606Y0308943D02*
X0127500Y0308943D01*
X0127500Y0309941D02*
X0057606Y0309941D01*
X0057606Y0310940D02*
X0127500Y0310940D01*
X0127500Y0311938D02*
X0057606Y0311938D01*
X0057606Y0312937D02*
X0127500Y0312937D01*
X0127500Y0313935D02*
X0057561Y0313935D01*
X0096184Y0307944D02*
X0127500Y0307944D01*
X0127500Y0306946D02*
X0097000Y0306946D01*
X0027364Y0252028D02*
X0026636Y0252028D01*
X0083500Y0138197D02*
X0121319Y0138197D01*
X0121319Y0137199D02*
X0083500Y0137199D01*
X0083500Y0136200D02*
X0121319Y0136200D01*
X0121319Y0135202D02*
X0083500Y0135202D01*
X0083500Y0134203D02*
X0121319Y0134203D01*
X0121319Y0133205D02*
X0083500Y0133205D01*
X0083500Y0132206D02*
X0121453Y0132206D01*
X0122000Y0131208D02*
X0083500Y0131208D01*
X0083500Y0130209D02*
X0122000Y0130209D01*
X0122000Y0129211D02*
X0083500Y0129211D01*
X0083676Y0128212D02*
X0122000Y0128212D01*
X0122000Y0127214D02*
X0084250Y0127214D01*
X0084391Y0126215D02*
X0122000Y0126215D01*
X0122755Y0125217D02*
X0084180Y0125217D01*
X0083506Y0124218D02*
X0123753Y0124218D01*
X0124752Y0123220D02*
X0009000Y0123220D01*
X0009000Y0122221D02*
X0125750Y0122221D01*
X0127413Y0126215D02*
X0142587Y0126215D01*
X0145248Y0123220D02*
X0156800Y0123220D01*
X0156800Y0124218D02*
X0146247Y0124218D01*
X0147245Y0125217D02*
X0156958Y0125217D01*
X0157372Y0126215D02*
X0148244Y0126215D01*
X0149242Y0127214D02*
X0158060Y0127214D01*
X0157026Y0122221D02*
X0144250Y0122221D01*
X0141681Y0116230D02*
X0146828Y0116230D01*
X0145988Y0115232D02*
X0141681Y0115232D01*
X0141681Y0114233D02*
X0145988Y0114233D01*
X0145988Y0113234D02*
X0141681Y0113234D01*
X0141681Y0112236D02*
X0145988Y0112236D01*
X0145988Y0111237D02*
X0141681Y0111237D01*
X0141627Y0110239D02*
X0145988Y0110239D01*
X0147554Y0109240D02*
X0136529Y0109240D01*
X0137340Y0108242D02*
X0147554Y0108242D01*
X0146535Y0107243D02*
X0146465Y0107243D01*
X0146361Y0101252D02*
X0146639Y0101252D01*
X0139946Y0101252D02*
X0138709Y0101252D01*
X0138709Y0106245D02*
X0139685Y0106245D01*
X0139842Y0107243D02*
X0138473Y0107243D01*
X0126471Y0109240D02*
X0009000Y0109240D01*
X0009000Y0108242D02*
X0125900Y0108242D01*
X0124527Y0107243D02*
X0124158Y0107243D01*
X0118535Y0107243D02*
X0117465Y0107243D01*
X0115152Y0110239D02*
X0009000Y0110239D01*
X0009000Y0111237D02*
X0114878Y0111237D01*
X0114878Y0112236D02*
X0009000Y0112236D01*
X0009000Y0113234D02*
X0114878Y0113234D01*
X0114878Y0114233D02*
X0009000Y0114233D01*
X0009000Y0115232D02*
X0114878Y0115232D01*
X0115021Y0116230D02*
X0009000Y0116230D01*
X0009000Y0119226D02*
X0159455Y0119226D01*
X0158222Y0120224D02*
X0009000Y0120224D01*
X0009000Y0121223D02*
X0157439Y0121223D01*
X0164545Y0119226D02*
X0169455Y0119226D01*
X0168222Y0120224D02*
X0165778Y0120224D01*
X0166561Y0121223D02*
X0167439Y0121223D01*
X0167026Y0122221D02*
X0166974Y0122221D01*
X0124000Y0113276D02*
X0123976Y0113300D01*
X0118346Y0113300D01*
X0111842Y0107243D02*
X0111658Y0107243D01*
X0106035Y0107243D02*
X0009000Y0107243D01*
X0009000Y0106245D02*
X0105181Y0106245D01*
X0105181Y0105246D02*
X0009000Y0105246D01*
X0009000Y0104248D02*
X0105181Y0104248D01*
X0105181Y0103249D02*
X0009000Y0103249D01*
X0009000Y0102251D02*
X0105181Y0102251D01*
X0105682Y0095721D02*
X0104803Y0094843D01*
X0104803Y0083757D01*
X0105682Y0082879D01*
X0112830Y0082879D01*
X0113709Y0083757D01*
X0113709Y0094843D01*
X0112830Y0095721D01*
X0105682Y0095721D01*
X0105222Y0095261D02*
X0097542Y0095261D01*
X0097961Y0094843D02*
X0097082Y0095721D01*
X0089934Y0095721D01*
X0089055Y0094843D01*
X0089055Y0083757D01*
X0089934Y0082879D01*
X0097082Y0082879D01*
X0097961Y0083757D01*
X0097961Y0094843D01*
X0097961Y0094263D02*
X0104803Y0094263D01*
X0104803Y0093264D02*
X0097961Y0093264D01*
X0097961Y0092266D02*
X0104803Y0092266D01*
X0104803Y0091267D02*
X0097961Y0091267D01*
X0097961Y0090269D02*
X0104803Y0090269D01*
X0104803Y0089270D02*
X0097961Y0089270D01*
X0097961Y0088272D02*
X0104803Y0088272D01*
X0104803Y0087273D02*
X0097961Y0087273D01*
X0097961Y0086275D02*
X0104803Y0086275D01*
X0104803Y0085276D02*
X0097961Y0085276D01*
X0097961Y0084278D02*
X0104803Y0084278D01*
X0105281Y0083279D02*
X0097482Y0083279D01*
X0089533Y0083279D02*
X0081734Y0083279D01*
X0082213Y0084278D02*
X0089055Y0084278D01*
X0089055Y0085276D02*
X0082213Y0085276D01*
X0082213Y0086275D02*
X0089055Y0086275D01*
X0089055Y0087273D02*
X0082213Y0087273D01*
X0082213Y0088272D02*
X0089055Y0088272D01*
X0089055Y0089270D02*
X0082213Y0089270D01*
X0082213Y0090269D02*
X0089055Y0090269D01*
X0089055Y0091267D02*
X0082213Y0091267D01*
X0082213Y0092266D02*
X0089055Y0092266D01*
X0089055Y0093264D02*
X0082213Y0093264D01*
X0082213Y0094263D02*
X0089055Y0094263D01*
X0089474Y0095261D02*
X0081794Y0095261D01*
X0081712Y0096260D02*
X0117341Y0096260D01*
X0118340Y0095261D02*
X0113290Y0095261D01*
X0113709Y0094263D02*
X0119338Y0094263D01*
X0120551Y0093264D02*
X0113709Y0093264D01*
X0113709Y0092266D02*
X0120551Y0092266D01*
X0120551Y0091267D02*
X0113709Y0091267D01*
X0113709Y0090269D02*
X0120551Y0090269D01*
X0120551Y0089270D02*
X0113709Y0089270D01*
X0113709Y0088272D02*
X0120551Y0088272D01*
X0120551Y0087273D02*
X0113709Y0087273D01*
X0113709Y0086275D02*
X0120551Y0086275D01*
X0120551Y0085276D02*
X0113709Y0085276D01*
X0113709Y0084278D02*
X0120551Y0084278D01*
X0121029Y0083279D02*
X0113230Y0083279D01*
X0080200Y0101252D02*
X0009000Y0101252D01*
X0022500Y0098050D02*
X0022500Y0081800D01*
X0051500Y0081800D01*
X0051500Y0098050D01*
X0022500Y0098050D01*
X0022500Y0097258D02*
X0051500Y0097258D01*
X0051500Y0096260D02*
X0022500Y0096260D01*
X0022500Y0095261D02*
X0051500Y0095261D01*
X0051500Y0094263D02*
X0022500Y0094263D01*
X0022500Y0093264D02*
X0051500Y0093264D01*
X0051500Y0092266D02*
X0022500Y0092266D01*
X0022500Y0091267D02*
X0051500Y0091267D01*
X0051500Y0090269D02*
X0022500Y0090269D01*
X0022500Y0089270D02*
X0051500Y0089270D01*
X0051500Y0088272D02*
X0022500Y0088272D01*
X0022500Y0087273D02*
X0051500Y0087273D01*
X0051500Y0086275D02*
X0022500Y0086275D01*
X0022500Y0085276D02*
X0051500Y0085276D01*
X0051500Y0084278D02*
X0022500Y0084278D01*
X0022500Y0083279D02*
X0051500Y0083279D01*
X0051500Y0082281D02*
X0022500Y0082281D01*
X0053500Y0084278D02*
X0057559Y0084278D01*
X0057559Y0085276D02*
X0053500Y0085276D01*
X0053500Y0086275D02*
X0057559Y0086275D01*
X0057559Y0087273D02*
X0053500Y0087273D01*
X0053500Y0088272D02*
X0057559Y0088272D01*
X0057559Y0089270D02*
X0053500Y0089270D01*
X0053500Y0090269D02*
X0057559Y0090269D01*
X0057559Y0091267D02*
X0053500Y0091267D01*
X0053500Y0092266D02*
X0057559Y0092266D01*
X0057559Y0093264D02*
X0053500Y0093264D01*
X0053500Y0094263D02*
X0057559Y0094263D01*
X0057978Y0095261D02*
X0053500Y0095261D01*
X0116468Y0157169D02*
X0116531Y0157169D01*
X0116468Y0162162D02*
X0116531Y0162162D01*
X0116951Y0163160D02*
X0116049Y0163160D01*
D25*
X0101500Y0137800D03*
X0101500Y0134300D03*
X0101500Y0130800D03*
X0096500Y0130800D03*
X0096500Y0134300D03*
X0096500Y0137800D03*
X0091500Y0137800D03*
X0091500Y0134300D03*
X0091500Y0130800D03*
X0063012Y0217158D03*
X0085000Y0253300D03*
D26*
X0132169Y0279166D02*
X0132169Y0305631D01*
D27*
X0132000Y0305800D01*
D28*
X0092154Y0302300D02*
X0092012Y0302158D01*
X0092012Y0279166D01*
D29*
X0129000Y0113276D02*
X0129000Y0108800D01*
X0128000Y0107800D01*
X0128000Y0103871D01*
X0127760Y0103631D01*
X0121516Y0103631D01*
X0121346Y0103800D01*
X0114654Y0103800D02*
X0108846Y0103800D01*
X0134000Y0108800D02*
X0135240Y0107560D01*
X0135240Y0103900D01*
X0142754Y0103900D01*
X0143154Y0104300D01*
X0149654Y0104493D02*
X0149654Y0112800D01*
X0149654Y0104493D02*
X0149846Y0104300D01*
X0135240Y0103900D02*
X0135240Y0103631D01*
X0134000Y0108800D02*
X0134000Y0113276D01*
D30*
X0135240Y0103631D02*
X0135240Y0100540D01*
X0134000Y0099300D01*
X0125446Y0099300D01*
X0122656Y0096509D01*
X0120344Y0096509D01*
X0117554Y0099300D01*
X0081500Y0099300D01*
X0077760Y0095560D01*
X0077760Y0089300D01*
X0121500Y0099300D02*
X0121500Y0103615D01*
X0121516Y0103631D01*
X0133346Y0141800D02*
X0137154Y0145454D01*
X0138500Y0146800D01*
X0138500Y0150300D01*
X0140000Y0151800D01*
M02*
