<?xml version="1.0" encoding="utf-8"?>
<!DOCTYPE eagle SYSTEM "eagle.dtd">
<eagle version="8.5.2">
<drawing>
<settings>
<setting alwaysvectorfont="yes"/>
<setting verticaltext="up"/>
</settings>
<grid distance="0.1" unitdist="inch" unit="inch" style="lines" multiple="1" display="no" altdistance="0.01" altunitdist="inch" altunit="inch"/>
<layers>
<layer number="1" name="Top" color="4" fill="1" visible="no" active="no"/>
<layer number="2" name="Route2" color="1" fill="3" visible="no" active="no"/>
<layer number="3" name="Route3" color="4" fill="3" visible="no" active="no"/>
<layer number="4" name="Route4" color="1" fill="4" visible="no" active="no"/>
<layer number="5" name="Route5" color="4" fill="4" visible="no" active="no"/>
<layer number="6" name="Route6" color="1" fill="8" visible="no" active="no"/>
<layer number="7" name="Route7" color="4" fill="8" visible="no" active="no"/>
<layer number="8" name="Route8" color="1" fill="2" visible="no" active="no"/>
<layer number="9" name="Route9" color="4" fill="2" visible="no" active="no"/>
<layer number="10" name="Route10" color="1" fill="7" visible="no" active="no"/>
<layer number="11" name="Route11" color="4" fill="7" visible="no" active="no"/>
<layer number="12" name="Route12" color="1" fill="5" visible="no" active="no"/>
<layer number="13" name="Route13" color="4" fill="5" visible="no" active="no"/>
<layer number="14" name="Route14" color="1" fill="6" visible="no" active="no"/>
<layer number="15" name="Route15" color="4" fill="6" visible="no" active="no"/>
<layer number="16" name="Bottom" color="1" fill="1" visible="no" active="no"/>
<layer number="17" name="Pads" color="2" fill="1" visible="no" active="no"/>
<layer number="18" name="Vias" color="2" fill="1" visible="no" active="no"/>
<layer number="19" name="Unrouted" color="6" fill="1" visible="no" active="no"/>
<layer number="20" name="Dimension" color="15" fill="1" visible="no" active="no"/>
<layer number="21" name="tPlace" color="16" fill="1" visible="no" active="no"/>
<layer number="22" name="bPlace" color="7" fill="1" visible="no" active="no"/>
<layer number="23" name="tOrigins" color="15" fill="1" visible="no" active="no"/>
<layer number="24" name="bOrigins" color="15" fill="1" visible="no" active="no"/>
<layer number="25" name="tNames" color="7" fill="1" visible="no" active="no"/>
<layer number="26" name="bNames" color="7" fill="1" visible="no" active="no"/>
<layer number="27" name="tValues" color="7" fill="1" visible="no" active="no"/>
<layer number="28" name="bValues" color="7" fill="1" visible="no" active="no"/>
<layer number="29" name="tStop" color="7" fill="3" visible="no" active="no"/>
<layer number="30" name="bStop" color="7" fill="6" visible="no" active="no"/>
<layer number="31" name="tCream" color="7" fill="4" visible="no" active="no"/>
<layer number="32" name="bCream" color="7" fill="5" visible="no" active="no"/>
<layer number="33" name="tFinish" color="6" fill="3" visible="no" active="no"/>
<layer number="34" name="bFinish" color="6" fill="6" visible="no" active="no"/>
<layer number="35" name="tGlue" color="7" fill="4" visible="no" active="no"/>
<layer number="36" name="bGlue" color="7" fill="5" visible="no" active="no"/>
<layer number="37" name="tTest" color="7" fill="1" visible="no" active="no"/>
<layer number="38" name="bTest" color="7" fill="1" visible="no" active="no"/>
<layer number="39" name="tKeepout" color="4" fill="11" visible="no" active="no"/>
<layer number="40" name="bKeepout" color="1" fill="11" visible="no" active="no"/>
<layer number="41" name="tRestrict" color="4" fill="10" visible="no" active="no"/>
<layer number="42" name="bRestrict" color="1" fill="10" visible="no" active="no"/>
<layer number="43" name="vRestrict" color="2" fill="10" visible="no" active="no"/>
<layer number="44" name="Drills" color="7" fill="1" visible="no" active="no"/>
<layer number="45" name="Holes" color="7" fill="1" visible="no" active="no"/>
<layer number="46" name="Milling" color="3" fill="1" visible="no" active="no"/>
<layer number="47" name="Measures" color="7" fill="1" visible="no" active="no"/>
<layer number="48" name="Document" color="7" fill="1" visible="no" active="no"/>
<layer number="49" name="Reference" color="7" fill="1" visible="no" active="no"/>
<layer number="50" name="dxf" color="7" fill="1" visible="no" active="no"/>
<layer number="51" name="tDocu" color="14" fill="1" visible="no" active="no"/>
<layer number="52" name="bDocu" color="7" fill="1" visible="no" active="no"/>
<layer number="53" name="tGND_GNDA" color="7" fill="9" visible="no" active="no"/>
<layer number="54" name="bGND_GNDA" color="1" fill="9" visible="no" active="no"/>
<layer number="56" name="wert" color="7" fill="1" visible="no" active="no"/>
<layer number="57" name="tCAD" color="7" fill="1" visible="no" active="no"/>
<layer number="59" name="tCarbon" color="7" fill="1" visible="no" active="no"/>
<layer number="60" name="bCarbon" color="7" fill="1" visible="no" active="no"/>
<layer number="88" name="SimResults" color="9" fill="1" visible="yes" active="yes"/>
<layer number="89" name="SimProbes" color="9" fill="1" visible="yes" active="yes"/>
<layer number="90" name="Modules" color="5" fill="1" visible="yes" active="yes"/>
<layer number="91" name="Nets" color="2" fill="1" visible="yes" active="yes"/>
<layer number="92" name="Busses" color="1" fill="1" visible="yes" active="yes"/>
<layer number="93" name="Pins" color="2" fill="1" visible="no" active="yes"/>
<layer number="94" name="Symbols" color="4" fill="1" visible="yes" active="yes"/>
<layer number="95" name="Names" color="7" fill="1" visible="yes" active="yes"/>
<layer number="96" name="Values" color="7" fill="1" visible="yes" active="yes"/>
<layer number="97" name="Info" color="7" fill="1" visible="yes" active="yes"/>
<layer number="98" name="Guide" color="6" fill="1" visible="yes" active="yes"/>
<layer number="99" name="SpiceOrder" color="7" fill="1" visible="yes" active="yes"/>
<layer number="100" name="Muster" color="7" fill="1" visible="no" active="no"/>
<layer number="101" name="Patch_Top" color="12" fill="4" visible="yes" active="yes"/>
<layer number="102" name="Vscore" color="7" fill="1" visible="yes" active="yes"/>
<layer number="103" name="tMap" color="7" fill="1" visible="yes" active="yes"/>
<layer number="104" name="Name" color="16" fill="1" visible="yes" active="yes"/>
<layer number="105" name="tPlate" color="7" fill="1" visible="yes" active="yes"/>
<layer number="106" name="bPlate" color="7" fill="1" visible="yes" active="yes"/>
<layer number="107" name="Crop" color="7" fill="1" visible="yes" active="yes"/>
<layer number="108" name="tplace-old" color="10" fill="1" visible="yes" active="yes"/>
<layer number="109" name="ref-old" color="11" fill="1" visible="yes" active="yes"/>
<layer number="110" name="fp0" color="7" fill="1" visible="yes" active="yes"/>
<layer number="111" name="LPC17xx" color="7" fill="1" visible="yes" active="yes"/>
<layer number="112" name="tSilk" color="7" fill="1" visible="yes" active="yes"/>
<layer number="113" name="IDFDebug" color="4" fill="1" visible="yes" active="yes"/>
<layer number="114" name="Badge_Outline" color="7" fill="1" visible="yes" active="yes"/>
<layer number="115" name="ReferenceISLANDS" color="7" fill="1" visible="yes" active="yes"/>
<layer number="116" name="Patch_BOT" color="9" fill="4" visible="yes" active="yes"/>
<layer number="118" name="Rect_Pads" color="7" fill="1" visible="yes" active="yes"/>
<layer number="121" name="_tsilk" color="7" fill="1" visible="yes" active="yes"/>
<layer number="122" name="_bsilk" color="7" fill="1" visible="yes" active="yes"/>
<layer number="123" name="tTestmark" color="7" fill="1" visible="yes" active="yes"/>
<layer number="124" name="bTestmark" color="7" fill="1" visible="yes" active="yes"/>
<layer number="125" name="_tNames" color="7" fill="1" visible="yes" active="yes"/>
<layer number="126" name="_bNames" color="7" fill="1" visible="yes" active="yes"/>
<layer number="127" name="_tValues" color="7" fill="1" visible="yes" active="yes"/>
<layer number="128" name="_bValues" color="7" fill="1" visible="yes" active="yes"/>
<layer number="129" name="Mask" color="7" fill="1" visible="yes" active="yes"/>
<layer number="131" name="tAdjust" color="7" fill="1" visible="yes" active="yes"/>
<layer number="132" name="bAdjust" color="7" fill="1" visible="yes" active="yes"/>
<layer number="144" name="Drill_legend" color="7" fill="1" visible="yes" active="yes"/>
<layer number="150" name="Notes" color="7" fill="1" visible="yes" active="yes"/>
<layer number="151" name="HeatSink" color="7" fill="1" visible="yes" active="yes"/>
<layer number="152" name="_bDocu" color="7" fill="1" visible="yes" active="yes"/>
<layer number="153" name="FabDoc1" color="7" fill="1" visible="yes" active="yes"/>
<layer number="154" name="FabDoc2" color="7" fill="1" visible="yes" active="yes"/>
<layer number="155" name="FabDoc3" color="7" fill="1" visible="yes" active="yes"/>
<layer number="199" name="Contour" color="7" fill="1" visible="yes" active="yes"/>
<layer number="200" name="200bmp" color="1" fill="10" visible="yes" active="yes"/>
<layer number="201" name="201bmp" color="2" fill="10" visible="yes" active="yes"/>
<layer number="202" name="202bmp" color="3" fill="10" visible="yes" active="yes"/>
<layer number="203" name="203bmp" color="4" fill="10" visible="yes" active="yes"/>
<layer number="204" name="204bmp" color="5" fill="10" visible="yes" active="yes"/>
<layer number="205" name="205bmp" color="6" fill="10" visible="yes" active="yes"/>
<layer number="206" name="206bmp" color="7" fill="10" visible="yes" active="yes"/>
<layer number="207" name="207bmp" color="8" fill="10" visible="yes" active="yes"/>
<layer number="208" name="208bmp" color="9" fill="10" visible="yes" active="yes"/>
<layer number="209" name="209bmp" color="7" fill="1" visible="yes" active="yes"/>
<layer number="210" name="210bmp" color="7" fill="1" visible="yes" active="yes"/>
<layer number="211" name="211bmp" color="7" fill="1" visible="yes" active="yes"/>
<layer number="212" name="212bmp" color="7" fill="1" visible="yes" active="yes"/>
<layer number="213" name="213bmp" color="7" fill="1" visible="yes" active="yes"/>
<layer number="214" name="214bmp" color="7" fill="1" visible="yes" active="yes"/>
<layer number="215" name="215bmp" color="7" fill="1" visible="yes" active="yes"/>
<layer number="216" name="216bmp" color="7" fill="1" visible="yes" active="yes"/>
<layer number="217" name="217bmp" color="18" fill="1" visible="no" active="no"/>
<layer number="218" name="218bmp" color="19" fill="1" visible="no" active="no"/>
<layer number="219" name="219bmp" color="20" fill="1" visible="no" active="no"/>
<layer number="220" name="220bmp" color="21" fill="1" visible="no" active="no"/>
<layer number="221" name="221bmp" color="22" fill="1" visible="no" active="no"/>
<layer number="222" name="222bmp" color="23" fill="1" visible="no" active="no"/>
<layer number="223" name="223bmp" color="24" fill="1" visible="no" active="no"/>
<layer number="224" name="224bmp" color="25" fill="1" visible="no" active="no"/>
<layer number="225" name="225bmp" color="7" fill="1" visible="yes" active="yes"/>
<layer number="226" name="226bmp" color="7" fill="1" visible="yes" active="yes"/>
<layer number="227" name="227bmp" color="7" fill="1" visible="yes" active="yes"/>
<layer number="228" name="228bmp" color="7" fill="1" visible="yes" active="yes"/>
<layer number="229" name="229bmp" color="7" fill="1" visible="yes" active="yes"/>
<layer number="230" name="230bmp" color="7" fill="1" visible="yes" active="yes"/>
<layer number="231" name="231bmp" color="7" fill="1" visible="yes" active="yes"/>
<layer number="248" name="Housing" color="7" fill="1" visible="yes" active="yes"/>
<layer number="249" name="Edge" color="7" fill="1" visible="yes" active="yes"/>
<layer number="250" name="Descript" color="3" fill="1" visible="no" active="no"/>
<layer number="251" name="SMDround" color="12" fill="11" visible="no" active="no"/>
<layer number="254" name="cooling" color="7" fill="1" visible="yes" active="yes"/>
<layer number="255" name="routoute" color="7" fill="1" visible="yes" active="yes"/>
</layers>
<schematic xreflabel="%F%N/%S.%C%R" xrefpart="/%S.%C%R">
<libraries>
<library name="SparkFun-LED">
<description>&lt;h3&gt;SparkFun LEDs&lt;/h3&gt;
This library contains discrete LEDs for illumination or indication, but no displays.
&lt;br&gt;
&lt;br&gt;
We've spent an enormous amount of time creating and checking these footprints and parts, but it is &lt;b&gt; the end user's responsibility&lt;/b&gt; to ensure correctness and suitablity for a given componet or application. 
&lt;br&gt;
&lt;br&gt;If you enjoy using this library, please buy one of our products at &lt;a href=" www.sparkfun.com"&gt;SparkFun.com&lt;/a&gt;.
&lt;br&gt;
&lt;br&gt;
&lt;b&gt;Licensing:&lt;/b&gt; Creative Commons ShareAlike 4.0 International - https://creativecommons.org/licenses/by-sa/4.0/ 
&lt;br&gt;
&lt;br&gt;
You are welcome to use this library for commercial purposes. For attribution, we ask that when you begin to sell your device using our footprint, you email us with a link to the product being sold. We want bragging rights that we helped (in a very small part) to create your 8th world wonder. We would like the opportunity to feature your device on our homepage.</description>
<packages>
<package name="LED_5MM">
<description>&lt;B&gt;LED 5mm PTH&lt;/B&gt;&lt;p&gt;
5 mm, round
&lt;p&gt;Specifications:
&lt;ul&gt;&lt;li&gt;Pin count: 2&lt;/li&gt;
&lt;li&gt;Pin pitch: 0.1inch&lt;/li&gt;
&lt;li&gt;Diameter: 5mm&lt;/li&gt;
&lt;/ul&gt;&lt;/p&gt;
&lt;p&gt;Example device(s):
&lt;ul&gt;&lt;li&gt;LED-IR-THRU&lt;/li&gt;</description>
<wire x1="2.54" y1="-1.905" x2="2.54" y2="1.905" width="0.2032" layer="22"/>
<wire x1="-1.143" y1="0" x2="0" y2="1.143" width="0.1524" layer="51" curve="-90" cap="flat"/>
<wire x1="0" y1="-1.143" x2="1.143" y2="0" width="0.1524" layer="51" curve="90" cap="flat"/>
<wire x1="-1.651" y1="0" x2="0" y2="1.651" width="0.1524" layer="51" curve="-90" cap="flat"/>
<wire x1="0" y1="-1.651" x2="1.651" y2="0" width="0.1524" layer="51" curve="90" cap="flat"/>
<wire x1="-2.159" y1="0" x2="0" y2="2.159" width="0.1524" layer="51" curve="-90" cap="flat"/>
<wire x1="0" y1="-2.159" x2="2.159" y2="0" width="0.1524" layer="51" curve="90" cap="flat"/>
<pad name="A" x="-1.27" y="0" drill="0.8128" diameter="1.8796"/>
<pad name="K" x="1.27" y="0" drill="0.8128" diameter="1.8796"/>
<text x="0" y="3.3909" size="0.6096" layer="25" font="vector" ratio="20" align="bottom-center">&gt;NAME</text>
<text x="0.0254" y="-3.3909" size="0.6096" layer="27" font="vector" ratio="20" align="top-center">&gt;VALUE</text>
<wire x1="2.54" y1="-1.905" x2="2.54" y2="1.905" width="0.2032" layer="21"/>
<wire x1="2.54" y1="-1.905" x2="2.54" y2="1.905" width="0.254" layer="21" curve="-286.260205" cap="flat"/>
<circle x="0" y="0" radius="2.54" width="0.1524" layer="21"/>
<wire x1="2.54" y1="-1.905" x2="2.54" y2="1.905" width="0.2032" layer="51"/>
</package>
<package name="LED_3MM">
<description>&lt;h3&gt;LED 3MM PTH&lt;/h3&gt;

3 mm, round.

&lt;p&gt;Specifications:
&lt;ul&gt;&lt;li&gt;Pin count: 2&lt;/li&gt;
&lt;li&gt;Pin pitch: 0.1inch&lt;/li&gt;
&lt;li&gt;Diameter: 3mm&lt;/li&gt;
&lt;/ul&gt;&lt;/p&gt;
&lt;p&gt;Example device(s):
&lt;ul&gt;&lt;li&gt;LED&lt;/li&gt;&lt;/ul&gt;</description>
<wire x1="1.5748" y1="-1.27" x2="1.5748" y2="1.27" width="0.254" layer="51"/>
<wire x1="0" y1="2.032" x2="1.561" y2="1.3009" width="0.254" layer="22" curve="-50.193108" cap="flat"/>
<wire x1="-1.7929" y1="0.9562" x2="0" y2="2.032" width="0.254" layer="22" curve="-61.926949" cap="flat"/>
<wire x1="0" y1="-2.032" x2="1.5512" y2="-1.3126" width="0.254" layer="22" curve="49.763022" cap="flat"/>
<wire x1="-1.7643" y1="-1.0082" x2="0" y2="-2.032" width="0.254" layer="22" curve="60.255215" cap="flat"/>
<wire x1="-2.032" y1="0" x2="-1.7891" y2="0.9634" width="0.254" layer="51" curve="-28.301701" cap="flat"/>
<wire x1="-2.032" y1="0" x2="-1.7306" y2="-1.065" width="0.254" layer="51" curve="31.60822" cap="flat"/>
<wire x1="1.5748" y1="1.2954" x2="1.5748" y2="0.7874" width="0.254" layer="22"/>
<wire x1="1.5748" y1="-1.2954" x2="1.5748" y2="-0.8382" width="0.254" layer="22"/>
<pad name="A" x="-1.27" y="0" drill="0.8128" diameter="1.8796"/>
<pad name="K" x="1.27" y="0" drill="0.8128" diameter="1.8796"/>
<text x="0" y="2.286" size="0.6096" layer="25" font="vector" ratio="20" align="bottom-center">&gt;NAME</text>
<text x="0" y="-2.286" size="0.6096" layer="27" font="vector" ratio="20" align="top-center">&gt;VALUE</text>
<wire x1="0" y1="2.032" x2="1.561" y2="1.3009" width="0.254" layer="21" curve="-50.193108" cap="flat"/>
<wire x1="-1.7929" y1="0.9562" x2="0" y2="2.032" width="0.254" layer="21" curve="-61.926949" cap="flat"/>
<wire x1="0" y1="-2.032" x2="1.5512" y2="-1.3126" width="0.254" layer="21" curve="49.763022" cap="flat"/>
<wire x1="-1.7643" y1="-1.0082" x2="0" y2="-2.032" width="0.254" layer="21" curve="60.255215" cap="flat"/>
<wire x1="1.5748" y1="1.2954" x2="1.5748" y2="0.7874" width="0.254" layer="21"/>
<wire x1="1.5748" y1="-1.2954" x2="1.5748" y2="-0.8382" width="0.254" layer="21"/>
</package>
<package name="LED-1206">
<description>&lt;h3&gt;LED 1206 SMT&lt;/h3&gt;

1206, surface mount. 

&lt;p&gt;Specifications:
&lt;ul&gt;&lt;li&gt;Pin count: 2&lt;/li&gt;
&lt;li&gt;Pin pitch: &lt;/li&gt;
&lt;li&gt;Area: 0.125" x 0.06"&lt;/li&gt;
&lt;/ul&gt;&lt;/p&gt;
&lt;p&gt;Example device(s):
&lt;ul&gt;&lt;li&gt;LED&lt;/li&gt;&lt;/ul&gt;</description>
<wire x1="2.4" y1="0.6825" x2="2.4" y2="-0.6825" width="0.2032" layer="21"/>
<smd name="A" x="-1.5" y="0" dx="1.2" dy="1.4" layer="1"/>
<smd name="C" x="1.5" y="0" dx="1.2" dy="1.4" layer="1"/>
<text x="0" y="0.9525" size="0.6096" layer="25" font="vector" ratio="20" align="bottom-center">&gt;NAME</text>
<text x="0" y="-0.9525" size="0.6096" layer="27" font="vector" ratio="20" align="top-center">&gt;VALUE</text>
<wire x1="0.65375" y1="0.6825" x2="0.65375" y2="-0.6825" width="0.2032" layer="51"/>
<wire x1="0.635" y1="0" x2="0.15875" y2="0.47625" width="0.2032" layer="51"/>
<wire x1="0.635" y1="0" x2="0.15875" y2="-0.47625" width="0.2032" layer="51"/>
</package>
<package name="LED-0603">
<description>&lt;B&gt;LED 0603 SMT&lt;/B&gt;&lt;p&gt;
0603, surface mount.
&lt;p&gt;Specifications:
&lt;ul&gt;&lt;li&gt;Pin count: 2&lt;/li&gt;
&lt;li&gt;Pin pitch:0.075inch &lt;/li&gt;
&lt;li&gt;Area: 0.06" x 0.03"&lt;/li&gt;
&lt;/ul&gt;&lt;/p&gt;
&lt;p&gt;Example device(s):
&lt;ul&gt;&lt;li&gt;LED - BLUE&lt;/li&gt;</description>
<smd name="C" x="0.877" y="0" dx="1" dy="1" layer="1" roundness="30" rot="R270"/>
<smd name="A" x="-0.877" y="0" dx="1" dy="1" layer="1" roundness="30" rot="R270"/>
<text x="0" y="0.635" size="0.6096" layer="25" font="vector" ratio="20" align="bottom-center">&gt;NAME</text>
<text x="0" y="-0.635" size="0.6096" layer="27" font="vector" ratio="20" align="top-center">&gt;VALUE</text>
<wire x1="1.5875" y1="0.47625" x2="1.5875" y2="-0.47625" width="0.127" layer="21"/>
<wire x1="0.15875" y1="0.47625" x2="0.15875" y2="0" width="0.127" layer="51"/>
<wire x1="0.15875" y1="0" x2="0.15875" y2="-0.47625" width="0.127" layer="51"/>
<wire x1="0.15875" y1="0" x2="-0.15875" y2="0.3175" width="0.127" layer="51"/>
<wire x1="0.15875" y1="0" x2="-0.15875" y2="-0.3175" width="0.127" layer="51"/>
</package>
<package name="LED_10MM">
<description>&lt;B&gt;LED 10mm PTH&lt;/B&gt;&lt;p&gt;
10 mm, round
&lt;p&gt;Specifications:
&lt;ul&gt;&lt;li&gt;Pin count: 2&lt;/li&gt;
&lt;li&gt;Pin pitch: 0.2inch&lt;/li&gt;
&lt;li&gt;Diameter: 10mm&lt;/li&gt;
&lt;/ul&gt;&lt;/p&gt;
&lt;p&gt;Example device(s):
&lt;ul&gt;&lt;li&gt;LED&lt;/li&gt;</description>
<wire x1="-5" y1="-2" x2="-5" y2="2" width="0.2032" layer="21" curve="316.862624"/>
<wire x1="-5" y1="2" x2="-5" y2="-2" width="0.2032" layer="21"/>
<pad name="A" x="2.54" y="0" drill="2.4" diameter="3.7"/>
<pad name="C" x="-2.54" y="0" drill="2.4" diameter="3.7"/>
<text x="2.159" y="2.54" size="1.016" layer="51" ratio="15">L</text>
<text x="-2.921" y="2.54" size="1.016" layer="51" ratio="15">S</text>
<wire x1="-5" y1="2" x2="-5" y2="-2" width="0.2032" layer="22"/>
<text x="0" y="5.715" size="0.6096" layer="25" font="vector" ratio="20" align="bottom-center">&gt;NAME</text>
<text x="0" y="-5.715" size="0.6096" layer="27" font="vector" ratio="20" align="top-center">&gt;VALUE</text>
<wire x1="-5" y1="2" x2="-5" y2="-2" width="0.2032" layer="51"/>
</package>
<package name="FKIT-LED-1206">
<description>&lt;B&gt;LED 1206 SMT&lt;/B&gt;&lt;p&gt;
1206, surface mount
&lt;p&gt;Specifications:
&lt;ul&gt;&lt;li&gt;Pin count: 2&lt;/li&gt;
&lt;li&gt;Area: 0.125"x 0.06" &lt;/li&gt;
&lt;/ul&gt;&lt;/p&gt;
&lt;p&gt;Example device(s):
&lt;ul&gt;&lt;li&gt;LED&lt;/li&gt;</description>
<wire x1="1.55" y1="-0.75" x2="-1.55" y2="-0.75" width="0.1016" layer="51"/>
<wire x1="-1.55" y1="-0.75" x2="-1.55" y2="0.75" width="0.1016" layer="51"/>
<wire x1="-1.55" y1="0.75" x2="1.55" y2="0.75" width="0.1016" layer="51"/>
<wire x1="1.55" y1="0.75" x2="1.55" y2="-0.75" width="0.1016" layer="51"/>
<wire x1="-0.55" y1="0.5" x2="-0.55" y2="-0.5" width="0.1016" layer="51" curve="84.547378"/>
<wire x1="0.55" y1="-0.5" x2="0.55" y2="0.5" width="0.1016" layer="51" curve="84.547378"/>
<smd name="A" x="-1.422" y="0" dx="1.6" dy="1.803" layer="1"/>
<smd name="C" x="1.422" y="0" dx="1.6" dy="1.803" layer="1"/>
<text x="0" y="1.11125" size="0.6096" layer="25" font="vector" ratio="20" align="bottom-center">&gt;NAME</text>
<text x="0" y="-1.11125" size="0.6096" layer="27" font="vector" ratio="20" align="top-center">&gt;VALUE</text>
<rectangle x1="0.45" y1="-0.7" x2="0.8" y2="-0.45" layer="51"/>
<rectangle x1="0.8" y1="-0.7" x2="0.9" y2="0.5" layer="51"/>
<rectangle x1="0.8" y1="0.55" x2="0.9" y2="0.7" layer="51"/>
<rectangle x1="-0.9" y1="-0.7" x2="-0.8" y2="0.5" layer="51"/>
<rectangle x1="-0.9" y1="0.55" x2="-0.8" y2="0.7" layer="51"/>
<wire x1="2.54" y1="0.9525" x2="2.54" y2="-0.9525" width="0.2032" layer="21"/>
<wire x1="0.3175" y1="0.635" x2="0.3175" y2="0" width="0.2032" layer="51"/>
<wire x1="0.3175" y1="0" x2="0.3175" y2="-0.635" width="0.2032" layer="51"/>
<wire x1="0.3175" y1="0" x2="0" y2="0.3175" width="0.2032" layer="51"/>
<wire x1="0.3175" y1="0" x2="0" y2="-0.3175" width="0.2032" layer="51"/>
</package>
<package name="LED_3MM-NS">
<description>&lt;h3&gt;LED 3MM PTH- No Silk&lt;/h3&gt;

3 mm, round, no silk outline of package

&lt;p&gt;Specifications:
&lt;ul&gt;&lt;li&gt;Pin count: 2&lt;/li&gt;
&lt;li&gt;Pin pitch: 0.1inch&lt;/li&gt;
&lt;li&gt;Diameter: 3mm&lt;/li&gt;
&lt;/ul&gt;&lt;/p&gt;
&lt;p&gt;Example device(s):
&lt;ul&gt;&lt;li&gt;LED&lt;/li&gt;&lt;/ul&gt;</description>
<wire x1="1.5748" y1="-1.27" x2="1.5748" y2="1.27" width="0.254" layer="51"/>
<wire x1="0" y1="2.032" x2="1.561" y2="1.3009" width="0.254" layer="51" curve="-50.193108" cap="flat"/>
<wire x1="-1.7929" y1="0.9562" x2="0" y2="2.032" width="0.254" layer="51" curve="-61.926949" cap="flat"/>
<wire x1="0" y1="-2.032" x2="1.5512" y2="-1.3126" width="0.254" layer="51" curve="49.763022" cap="flat"/>
<wire x1="-1.7643" y1="-1.0082" x2="0" y2="-2.032" width="0.254" layer="51" curve="60.255215" cap="flat"/>
<wire x1="-2.032" y1="0" x2="-1.7891" y2="0.9634" width="0.254" layer="51" curve="-28.301701" cap="flat"/>
<wire x1="-2.032" y1="0" x2="-1.7306" y2="-1.065" width="0.254" layer="51" curve="31.60822" cap="flat"/>
<wire x1="1.5748" y1="1.2954" x2="1.5748" y2="0.7874" width="0.254" layer="51"/>
<wire x1="1.5748" y1="-1.2954" x2="1.5748" y2="-0.8382" width="0.254" layer="51"/>
<pad name="A" x="-1.27" y="0" drill="0.8128"/>
<pad name="K" x="1.27" y="0" drill="0.8128"/>
<text x="0" y="2.286" size="0.6096" layer="25" font="vector" ratio="20" align="bottom-center">&gt;NAME</text>
<text x="0" y="-2.286" size="0.6096" layer="27" font="vector" ratio="20" align="top-center">&gt;VALUE</text>
<wire x1="1.8923" y1="1.2954" x2="1.8923" y2="0.7874" width="0.254" layer="21"/>
<wire x1="1.8923" y1="-1.2954" x2="1.8923" y2="-0.8382" width="0.254" layer="21"/>
</package>
<package name="LED_5MM-KIT">
<description>&lt;h3&gt;LED 5mm KIT PTH&lt;/h3&gt;
&lt;p&gt;
&lt;b&gt;Warning:&lt;/b&gt; This is the KIT version of this package. This package has a smaller diameter top stop mask, which doesn't cover the diameter of the pad. This means only the bottom side of the pads' copper will be exposed. You'll only be able to solder to the bottom side.&lt;/p&gt;

&lt;p&gt;Specifications:
&lt;ul&gt;&lt;li&gt;Pin count: 2&lt;/li&gt;
&lt;li&gt;Pin pitch: 0.1inch&lt;/li&gt;
&lt;li&gt;Diameter: 5mm&lt;/li&gt;
&lt;/ul&gt;&lt;/p&gt;
&lt;p&gt;Example Device:
&lt;ul&gt;&lt;li&gt;LED&lt;/li&gt;
&lt;/ul&gt;&lt;/p&gt;</description>
<wire x1="2.54" y1="-1.905" x2="2.54" y2="1.905" width="0.2032" layer="22"/>
<wire x1="-1.143" y1="0" x2="0" y2="1.143" width="0.1524" layer="51" curve="-90" cap="flat"/>
<wire x1="0" y1="-1.143" x2="1.143" y2="0" width="0.1524" layer="51" curve="90" cap="flat"/>
<wire x1="-1.651" y1="0" x2="0" y2="1.651" width="0.1524" layer="51" curve="-90" cap="flat"/>
<wire x1="0" y1="-1.651" x2="1.651" y2="0" width="0.1524" layer="51" curve="90" cap="flat"/>
<wire x1="-2.159" y1="0" x2="0" y2="2.159" width="0.1524" layer="51" curve="-90" cap="flat"/>
<wire x1="0" y1="-2.159" x2="2.159" y2="0" width="0.1524" layer="51" curve="90" cap="flat"/>
<pad name="A" x="-1.27" y="0" drill="0.8128" diameter="1.8796" stop="no"/>
<pad name="K" x="1.27" y="0" drill="0.8128" diameter="1.8796" stop="no"/>
<text x="0" y="3.3909" size="0.6096" layer="25" font="vector" ratio="20" align="bottom-center">&gt;NAME</text>
<text x="0.0254" y="-3.3909" size="0.6096" layer="27" font="vector" ratio="20" align="top-center">&gt;VALUE</text>
<polygon width="0.127" layer="30">
<vertex x="-1.2675" y="-0.9525" curve="-90"/>
<vertex x="-2.2224" y="-0.0228" curve="-90.011749"/>
<vertex x="-1.27" y="0.9526" curve="-90"/>
<vertex x="-0.32" y="-0.0254" curve="-90.024193"/>
</polygon>
<polygon width="0.127" layer="29">
<vertex x="-1.27" y="-0.4445" curve="-90.012891"/>
<vertex x="-1.7145" y="-0.0203" curve="-90"/>
<vertex x="-1.27" y="0.447" curve="-90"/>
<vertex x="-0.8281" y="-0.0101" curve="-90.012967"/>
</polygon>
<polygon width="0.127" layer="30">
<vertex x="1.2725" y="-0.9525" curve="-90"/>
<vertex x="0.3176" y="-0.0228" curve="-90.011749"/>
<vertex x="1.27" y="0.9526" curve="-90"/>
<vertex x="2.22" y="-0.0254" curve="-90.024193"/>
</polygon>
<polygon width="0.127" layer="29">
<vertex x="1.27" y="-0.4445" curve="-90.012891"/>
<vertex x="0.8255" y="-0.0203" curve="-90"/>
<vertex x="1.27" y="0.447" curve="-90"/>
<vertex x="1.7119" y="-0.0101" curve="-90.012967"/>
</polygon>
<wire x1="2.54" y1="-1.905" x2="2.54" y2="1.905" width="0.2032" layer="21"/>
<wire x1="2.54" y1="-1.905" x2="2.54" y2="1.905" width="0.254" layer="21" curve="-286.260205" cap="flat"/>
<circle x="0" y="0" radius="2.54" width="0.1524" layer="21"/>
<wire x1="2.54" y1="-1.905" x2="2.54" y2="1.905" width="0.2032" layer="51"/>
</package>
<package name="LED-1206-BOTTOM">
<description>&lt;h3&gt;LED 1206 SMT&lt;/h3&gt;

1206, surface mount. 

&lt;p&gt;Specifications:
&lt;ul&gt;&lt;li&gt;Pin count: 2&lt;/li&gt;
&lt;li&gt;Area: 0.125" x 0.06"&lt;/li&gt;
&lt;/ul&gt;&lt;/p&gt;
&lt;p&gt;Example device(s):
&lt;ul&gt;&lt;li&gt;LED&lt;/li&gt;&lt;/ul&gt;</description>
<wire x1="-2" y1="0.4" x2="-2" y2="-0.4" width="0.127" layer="49"/>
<wire x1="-2.4" y1="0" x2="-1.6" y2="0" width="0.127" layer="49"/>
<wire x1="1.6" y1="0" x2="2.4" y2="0" width="0.127" layer="49"/>
<wire x1="-1.27" y1="0" x2="-0.381" y2="0" width="0.127" layer="49"/>
<wire x1="-0.381" y1="0" x2="-0.381" y2="0.635" width="0.127" layer="49"/>
<wire x1="-0.381" y1="0.635" x2="0.254" y2="0" width="0.127" layer="49"/>
<wire x1="0.254" y1="0" x2="-0.381" y2="-0.635" width="0.127" layer="49"/>
<wire x1="-0.381" y1="-0.635" x2="-0.381" y2="0" width="0.127" layer="49"/>
<wire x1="0.254" y1="0" x2="0.254" y2="0.635" width="0.127" layer="49"/>
<wire x1="0.254" y1="0" x2="0.254" y2="-0.635" width="0.127" layer="49"/>
<wire x1="0.254" y1="0" x2="1.27" y2="0" width="0.127" layer="49"/>
<rectangle x1="-0.75" y1="-0.75" x2="0.75" y2="0.75" layer="51"/>
<smd name="A" x="-1.8" y="0" dx="1.5" dy="1.6" layer="1"/>
<smd name="C" x="1.8" y="0" dx="1.5" dy="1.6" layer="1"/>
<hole x="0" y="0" drill="2.3"/>
<polygon width="0" layer="51">
<vertex x="1.1" y="-0.5"/>
<vertex x="1.1" y="0.5"/>
<vertex x="1.6" y="0.5"/>
<vertex x="1.6" y="0.25" curve="90"/>
<vertex x="1.4" y="0.05"/>
<vertex x="1.4" y="-0.05" curve="90"/>
<vertex x="1.6" y="-0.25"/>
<vertex x="1.6" y="-0.5"/>
</polygon>
<polygon width="0" layer="51">
<vertex x="-1.1" y="0.5"/>
<vertex x="-1.1" y="-0.5"/>
<vertex x="-1.6" y="-0.5"/>
<vertex x="-1.6" y="-0.25" curve="90"/>
<vertex x="-1.4" y="-0.05"/>
<vertex x="-1.4" y="0.05" curve="90"/>
<vertex x="-1.6" y="0.25"/>
<vertex x="-1.6" y="0.5"/>
</polygon>
<wire x1="2.7686" y1="1.016" x2="2.7686" y2="-1.016" width="0.127" layer="21"/>
<text x="0" y="1.27" size="0.6096" layer="25" font="vector" ratio="20" align="bottom-center">&gt;NAME</text>
<text x="0" y="-1.27" size="0.6096" layer="27" font="vector" ratio="20" align="top-center">&gt;VALUE</text>
<wire x1="2.7686" y1="1.016" x2="2.7686" y2="-1.016" width="0.127" layer="22"/>
</package>
</packages>
<symbols>
<symbol name="LED">
<description>&lt;h3&gt;LED&lt;/h3&gt;
&lt;p&gt;&lt;/p&gt;</description>
<wire x1="1.27" y1="0" x2="0" y2="-2.54" width="0.254" layer="94"/>
<wire x1="0" y1="-2.54" x2="-1.27" y2="0" width="0.254" layer="94"/>
<wire x1="1.27" y1="-2.54" x2="0" y2="-2.54" width="0.254" layer="94"/>
<wire x1="0" y1="-2.54" x2="-1.27" y2="-2.54" width="0.254" layer="94"/>
<wire x1="1.27" y1="0" x2="-1.27" y2="0" width="0.254" layer="94"/>
<wire x1="-2.032" y1="-0.762" x2="-3.429" y2="-2.159" width="0.1524" layer="94"/>
<wire x1="-1.905" y1="-1.905" x2="-3.302" y2="-3.302" width="0.1524" layer="94"/>
<text x="-3.429" y="-4.572" size="1.778" layer="95" font="vector" rot="R90">&gt;NAME</text>
<text x="1.905" y="-4.572" size="1.778" layer="96" font="vector" rot="R90" align="top-left">&gt;VALUE</text>
<pin name="C" x="0" y="-5.08" visible="off" length="short" direction="pas" rot="R90"/>
<pin name="A" x="0" y="2.54" visible="off" length="short" direction="pas" rot="R270"/>
<polygon width="0.1524" layer="94">
<vertex x="-3.429" y="-2.159"/>
<vertex x="-3.048" y="-1.27"/>
<vertex x="-2.54" y="-1.778"/>
</polygon>
<polygon width="0.1524" layer="94">
<vertex x="-3.302" y="-3.302"/>
<vertex x="-2.921" y="-2.413"/>
<vertex x="-2.413" y="-2.921"/>
</polygon>
</symbol>
</symbols>
<devicesets>
<deviceset name="LED" prefix="D" uservalue="yes">
<description>&lt;b&gt;LED (Generic)&lt;/b&gt;
&lt;p&gt;Standard schematic elements and footprints for 5mm, 3mm, 1206, and 0603 sized LEDs. Generic LEDs with no color specified.&lt;/p&gt;</description>
<gates>
<gate name="G$1" symbol="LED" x="0" y="0"/>
</gates>
<devices>
<device name="5MM" package="LED_5MM">
<connects>
<connect gate="G$1" pin="A" pad="A"/>
<connect gate="G$1" pin="C" pad="K"/>
</connects>
<technologies>
<technology name=""/>
</technologies>
</device>
<device name="3MM" package="LED_3MM">
<connects>
<connect gate="G$1" pin="A" pad="A"/>
<connect gate="G$1" pin="C" pad="K"/>
</connects>
<technologies>
<technology name="">
<attribute name="PROD_ID" value="DIO-08794" constant="no"/>
</technology>
</technologies>
</device>
<device name="1206" package="LED-1206">
<connects>
<connect gate="G$1" pin="A" pad="A"/>
<connect gate="G$1" pin="C" pad="C"/>
</connects>
<technologies>
<technology name=""/>
</technologies>
</device>
<device name="0603" package="LED-0603">
<connects>
<connect gate="G$1" pin="A" pad="A"/>
<connect gate="G$1" pin="C" pad="C"/>
</connects>
<technologies>
<technology name=""/>
</technologies>
</device>
<device name="10MM" package="LED_10MM">
<connects>
<connect gate="G$1" pin="A" pad="A"/>
<connect gate="G$1" pin="C" pad="C"/>
</connects>
<technologies>
<technology name=""/>
</technologies>
</device>
<device name="-FKIT-1206" package="FKIT-LED-1206">
<connects>
<connect gate="G$1" pin="A" pad="A"/>
<connect gate="G$1" pin="C" pad="C"/>
</connects>
<technologies>
<technology name=""/>
</technologies>
</device>
<device name="-3MM-NO_SILK" package="LED_3MM-NS">
<connects>
<connect gate="G$1" pin="A" pad="A"/>
<connect gate="G$1" pin="C" pad="K"/>
</connects>
<technologies>
<technology name=""/>
</technologies>
</device>
<device name="5MM-KIT" package="LED_5MM-KIT">
<connects>
<connect gate="G$1" pin="A" pad="A"/>
<connect gate="G$1" pin="C" pad="K"/>
</connects>
<technologies>
<technology name=""/>
</technologies>
</device>
<device name="1206-BOTTOM" package="LED-1206-BOTTOM">
<connects>
<connect gate="G$1" pin="A" pad="A"/>
<connect gate="G$1" pin="C" pad="C"/>
</connects>
<technologies>
<technology name=""/>
</technologies>
</device>
</devices>
</deviceset>
</devicesets>
</library>
<library name="SparkFun-Connectors">
<description>&lt;h3&gt;SparkFun Connectors&lt;/h3&gt;
This library contains electrically-functional connectors. 
&lt;br&gt;
&lt;br&gt;
We've spent an enormous amount of time creating and checking these footprints and parts, but it is &lt;b&gt; the end user's responsibility&lt;/b&gt; to ensure correctness and suitablity for a given componet or application. 
&lt;br&gt;
&lt;br&gt;If you enjoy using this library, please buy one of our products at &lt;a href=" www.sparkfun.com"&gt;SparkFun.com&lt;/a&gt;.
&lt;br&gt;
&lt;br&gt;
&lt;b&gt;Licensing:&lt;/b&gt; Creative Commons ShareAlike 4.0 International - https://creativecommons.org/licenses/by-sa/4.0/ 
&lt;br&gt;
&lt;br&gt;
You are welcome to use this library for commercial purposes. For attribution, we ask that when you begin to sell your device using our footprint, you email us with a link to the product being sold. We want bragging rights that we helped (in a very small part) to create your 8th world wonder. We would like the opportunity to feature your device on our homepage.</description>
<packages>
<package name="1X04">
<description>&lt;h3&gt;Plated Through Hole - 4 Pin&lt;/h3&gt;
&lt;p&gt;Specifications:
&lt;ul&gt;&lt;li&gt;Pin count:4&lt;/li&gt;
&lt;li&gt;Pin pitch:0.1"&lt;/li&gt;
&lt;/ul&gt;&lt;/p&gt;
&lt;p&gt;Example device(s):
&lt;ul&gt;&lt;li&gt;CONN_04&lt;/li&gt;
&lt;/ul&gt;&lt;/p&gt;</description>
<wire x1="6.985" y1="1.27" x2="8.255" y2="1.27" width="0.2032" layer="21"/>
<wire x1="8.255" y1="1.27" x2="8.89" y2="0.635" width="0.2032" layer="21"/>
<wire x1="8.89" y1="-0.635" x2="8.255" y2="-1.27" width="0.2032" layer="21"/>
<wire x1="3.81" y1="0.635" x2="4.445" y2="1.27" width="0.2032" layer="21"/>
<wire x1="4.445" y1="1.27" x2="5.715" y2="1.27" width="0.2032" layer="21"/>
<wire x1="5.715" y1="1.27" x2="6.35" y2="0.635" width="0.2032" layer="21"/>
<wire x1="6.35" y1="-0.635" x2="5.715" y2="-1.27" width="0.2032" layer="21"/>
<wire x1="5.715" y1="-1.27" x2="4.445" y2="-1.27" width="0.2032" layer="21"/>
<wire x1="4.445" y1="-1.27" x2="3.81" y2="-0.635" width="0.2032" layer="21"/>
<wire x1="6.985" y1="1.27" x2="6.35" y2="0.635" width="0.2032" layer="21"/>
<wire x1="6.35" y1="-0.635" x2="6.985" y2="-1.27" width="0.2032" layer="21"/>
<wire x1="8.255" y1="-1.27" x2="6.985" y2="-1.27" width="0.2032" layer="21"/>
<wire x1="-0.635" y1="1.27" x2="0.635" y2="1.27" width="0.2032" layer="21"/>
<wire x1="0.635" y1="1.27" x2="1.27" y2="0.635" width="0.2032" layer="21"/>
<wire x1="1.27" y1="-0.635" x2="0.635" y2="-1.27" width="0.2032" layer="21"/>
<wire x1="1.27" y1="0.635" x2="1.905" y2="1.27" width="0.2032" layer="21"/>
<wire x1="1.905" y1="1.27" x2="3.175" y2="1.27" width="0.2032" layer="21"/>
<wire x1="3.175" y1="1.27" x2="3.81" y2="0.635" width="0.2032" layer="21"/>
<wire x1="3.81" y1="-0.635" x2="3.175" y2="-1.27" width="0.2032" layer="21"/>
<wire x1="3.175" y1="-1.27" x2="1.905" y2="-1.27" width="0.2032" layer="21"/>
<wire x1="1.905" y1="-1.27" x2="1.27" y2="-0.635" width="0.2032" layer="21"/>
<wire x1="-1.27" y1="0.635" x2="-1.27" y2="-0.635" width="0.2032" layer="21"/>
<wire x1="-0.635" y1="1.27" x2="-1.27" y2="0.635" width="0.2032" layer="21"/>
<wire x1="-1.27" y1="-0.635" x2="-0.635" y2="-1.27" width="0.2032" layer="21"/>
<wire x1="0.635" y1="-1.27" x2="-0.635" y2="-1.27" width="0.2032" layer="21"/>
<wire x1="8.89" y1="0.635" x2="8.89" y2="-0.635" width="0.2032" layer="21"/>
<pad name="1" x="0" y="0" drill="1.016" diameter="1.8796" rot="R90"/>
<pad name="2" x="2.54" y="0" drill="1.016" diameter="1.8796" rot="R90"/>
<pad name="3" x="5.08" y="0" drill="1.016" diameter="1.8796" rot="R90"/>
<pad name="4" x="7.62" y="0" drill="1.016" diameter="1.8796" rot="R90"/>
<rectangle x1="7.366" y1="-0.254" x2="7.874" y2="0.254" layer="51"/>
<rectangle x1="4.826" y1="-0.254" x2="5.334" y2="0.254" layer="51"/>
<rectangle x1="2.286" y1="-0.254" x2="2.794" y2="0.254" layer="51"/>
<rectangle x1="-0.254" y1="-0.254" x2="0.254" y2="0.254" layer="51"/>
<text x="-1.27" y="1.397" size="0.6096" layer="25" font="vector" ratio="20">&gt;NAME</text>
<text x="-1.27" y="-2.032" size="0.6096" layer="27" font="vector" ratio="20">&gt;VALUE</text>
</package>
<package name="MOLEX-1X4">
<description>&lt;h3&gt;Molex 4-Pin Plated Through-Hole&lt;/h3&gt;
&lt;p&gt;Specifications:
&lt;ul&gt;&lt;li&gt;Pin count:4&lt;/li&gt;
&lt;li&gt;Pin pitch:0.1"&lt;/li&gt;
&lt;/ul&gt;&lt;/p&gt;
&lt;p&gt;&lt;a href=”https://www.sparkfun.com/datasheets/Prototyping/2pin_molex_set_19iv10.pdf”&gt;Datasheet referenced for footprint&lt;/a&gt;&lt;/p&gt;
&lt;p&gt;Example device(s):
&lt;ul&gt;&lt;li&gt;CONN_04&lt;/li&gt;
&lt;/ul&gt;&lt;/p&gt;</description>
<wire x1="-1.27" y1="3.048" x2="-1.27" y2="-2.54" width="0.127" layer="21"/>
<wire x1="8.89" y1="3.048" x2="8.89" y2="-2.54" width="0.127" layer="21"/>
<wire x1="8.89" y1="3.048" x2="-1.27" y2="3.048" width="0.127" layer="21"/>
<wire x1="8.89" y1="-2.54" x2="7.62" y2="-2.54" width="0.127" layer="21"/>
<wire x1="7.62" y1="-2.54" x2="0" y2="-2.54" width="0.127" layer="21"/>
<wire x1="0" y1="-2.54" x2="-1.27" y2="-2.54" width="0.127" layer="21"/>
<wire x1="0" y1="-2.54" x2="0" y2="-1.27" width="0.127" layer="21"/>
<wire x1="0" y1="-1.27" x2="7.62" y2="-1.27" width="0.127" layer="21"/>
<wire x1="7.62" y1="-1.27" x2="7.62" y2="-2.54" width="0.127" layer="21"/>
<pad name="1" x="0" y="0" drill="1.016" diameter="1.8796" shape="square"/>
<pad name="2" x="2.54" y="0" drill="1.016" diameter="1.8796"/>
<pad name="3" x="5.08" y="0" drill="1.016" diameter="1.8796"/>
<pad name="4" x="7.62" y="0" drill="1.016" diameter="1.8796"/>
<text x="2.286" y="3.302" size="0.6096" layer="25" font="vector" ratio="20">&gt;NAME</text>
<text x="2.286" y="-3.429" size="0.6096" layer="27" font="vector" ratio="20">&gt;VALUE</text>
</package>
<package name="SCREWTERMINAL-3.5MM-4">
<description>&lt;h3&gt;Screw Terminal  3.5mm Pitch -4 Pin PTH&lt;/h3&gt;
&lt;p&gt;Specifications:
&lt;ul&gt;&lt;li&gt;Pin count: 4&lt;/li&gt;
&lt;li&gt;Pin pitch: 3.5mm/138mil&lt;/li&gt;
&lt;/ul&gt;&lt;/p&gt;
&lt;p&gt;&lt;a href=”https://www.sparkfun.com/datasheets/Prototyping/Screw-Terminal-3.5mm.pdf”&gt;Datasheet referenced for footprint&lt;/a&gt;&lt;/p&gt;
&lt;p&gt;Example device(s):
&lt;ul&gt;&lt;li&gt;CONN_04&lt;/li&gt;
&lt;/ul&gt;&lt;/p&gt;</description>
<wire x1="-1.75" y1="3.4" x2="12.25" y2="3.4" width="0.2032" layer="21"/>
<wire x1="12.25" y1="3.4" x2="12.25" y2="-2.8" width="0.2032" layer="21"/>
<wire x1="12.25" y1="-2.8" x2="12.25" y2="-3.6" width="0.2032" layer="21"/>
<wire x1="12.25" y1="-3.6" x2="-1.75" y2="-3.6" width="0.2032" layer="21"/>
<wire x1="-1.75" y1="-3.6" x2="-1.75" y2="-2.8" width="0.2032" layer="21"/>
<wire x1="-1.75" y1="-2.8" x2="-1.75" y2="3.4" width="0.2032" layer="21"/>
<wire x1="12.25" y1="-2.8" x2="-1.75" y2="-2.8" width="0.2032" layer="21"/>
<wire x1="-1.75" y1="-1.35" x2="-2.25" y2="-1.35" width="0.2032" layer="51"/>
<wire x1="-2.25" y1="-1.35" x2="-2.25" y2="-2.35" width="0.2032" layer="51"/>
<wire x1="-2.25" y1="-2.35" x2="-1.75" y2="-2.35" width="0.2032" layer="51"/>
<wire x1="12.25" y1="3.15" x2="12.75" y2="3.15" width="0.2032" layer="51"/>
<wire x1="12.75" y1="3.15" x2="12.75" y2="2.15" width="0.2032" layer="51"/>
<wire x1="12.75" y1="2.15" x2="12.25" y2="2.15" width="0.2032" layer="51"/>
<circle x="0" y="0" radius="0.425" width="0.001" layer="51"/>
<circle x="3.5" y="0" radius="0.425" width="0.001" layer="51"/>
<circle x="7" y="0" radius="0.425" width="0.001" layer="51"/>
<circle x="10.5" y="0" radius="0.425" width="0.001" layer="51"/>
<pad name="1" x="0" y="0" drill="1.2" diameter="2.032" shape="square"/>
<pad name="2" x="3.5" y="0" drill="1.2" diameter="2.032"/>
<pad name="3" x="7" y="0" drill="1.2" diameter="2.032"/>
<pad name="4" x="10.5" y="0" drill="1.2" diameter="2.032"/>
<text x="0" y="2.413" size="0.6096" layer="25" font="vector" ratio="20">&gt;NAME</text>
<text x="0" y="-2.286" size="0.6096" layer="27" font="vector" ratio="20">&gt;VALUE</text>
</package>
<package name="1X04_1.27MM">
<description>&lt;h3&gt;Plated Through Hole - 4 Pin&lt;/h3&gt;
&lt;p&gt;Specifications:
&lt;ul&gt;&lt;li&gt;Pin count:4&lt;/li&gt;
&lt;li&gt;Pin pitch: 1.27mm&lt;/li&gt;
&lt;/ul&gt;&lt;/p&gt;
&lt;p&gt;Example device(s):
&lt;ul&gt;&lt;li&gt;CONN_04&lt;/li&gt;
&lt;/ul&gt;&lt;/p&gt;</description>
<wire x1="-0.381" y1="-0.889" x2="0.381" y2="-0.889" width="0.127" layer="21"/>
<wire x1="0.381" y1="-0.889" x2="0.635" y2="-0.635" width="0.127" layer="21"/>
<wire x1="0.635" y1="-0.635" x2="0.889" y2="-0.889" width="0.127" layer="21"/>
<wire x1="0.889" y1="-0.889" x2="1.651" y2="-0.889" width="0.127" layer="21"/>
<wire x1="1.651" y1="-0.889" x2="1.905" y2="-0.635" width="0.127" layer="21"/>
<wire x1="1.905" y1="-0.635" x2="2.159" y2="-0.889" width="0.127" layer="21"/>
<wire x1="2.159" y1="-0.889" x2="2.921" y2="-0.889" width="0.127" layer="21"/>
<wire x1="2.921" y1="-0.889" x2="3.175" y2="-0.635" width="0.127" layer="21"/>
<wire x1="3.175" y1="-0.635" x2="3.429" y2="-0.889" width="0.127" layer="21"/>
<wire x1="3.429" y1="-0.889" x2="4.191" y2="-0.889" width="0.127" layer="21"/>
<wire x1="4.191" y1="0.889" x2="3.429" y2="0.889" width="0.127" layer="21"/>
<wire x1="3.429" y1="0.889" x2="3.175" y2="0.635" width="0.127" layer="21"/>
<wire x1="3.175" y1="0.635" x2="2.921" y2="0.889" width="0.127" layer="21"/>
<wire x1="2.921" y1="0.889" x2="2.159" y2="0.889" width="0.127" layer="21"/>
<wire x1="2.159" y1="0.889" x2="1.905" y2="0.635" width="0.127" layer="21"/>
<wire x1="1.905" y1="0.635" x2="1.651" y2="0.889" width="0.127" layer="21"/>
<wire x1="1.651" y1="0.889" x2="0.889" y2="0.889" width="0.127" layer="21"/>
<wire x1="0.889" y1="0.889" x2="0.635" y2="0.635" width="0.127" layer="21"/>
<wire x1="0.635" y1="0.635" x2="0.381" y2="0.889" width="0.127" layer="21"/>
<wire x1="0.381" y1="0.889" x2="-0.381" y2="0.889" width="0.127" layer="21"/>
<wire x1="-0.381" y1="0.889" x2="-0.889" y2="0.381" width="0.127" layer="21"/>
<wire x1="-0.889" y1="-0.381" x2="-0.381" y2="-0.889" width="0.127" layer="21"/>
<wire x1="-0.889" y1="0.381" x2="-0.889" y2="-0.381" width="0.127" layer="21"/>
<wire x1="4.191" y1="0.889" x2="4.699" y2="0.381" width="0.127" layer="21"/>
<wire x1="4.699" y1="0.381" x2="4.699" y2="-0.381" width="0.127" layer="21"/>
<wire x1="4.699" y1="-0.381" x2="4.191" y2="-0.889" width="0.127" layer="21"/>
<pad name="4" x="3.81" y="0" drill="0.508" diameter="1"/>
<pad name="3" x="2.54" y="0" drill="0.508" diameter="1"/>
<pad name="2" x="1.27" y="0" drill="0.508" diameter="1"/>
<pad name="1" x="0" y="0" drill="0.508" diameter="1"/>
<text x="-0.508" y="1.016" size="0.6096" layer="25" font="vector" ratio="20">&gt;NAME</text>
<text x="-0.508" y="-1.651" size="0.6096" layer="27" font="vector" ratio="20">&gt;VALUE</text>
</package>
<package name="1X04_LOCK">
<description>&lt;h3&gt;Plated Through Hole - 4 Pin Locking Footprint&lt;/h3&gt;
Pins are offset 0.005" from center to lock pins in place during soldering. 
&lt;p&gt;Specifications:
&lt;ul&gt;&lt;li&gt;Pin count:4&lt;/li&gt;
&lt;li&gt;Pin pitch:0.1"&lt;/li&gt;
&lt;/ul&gt;&lt;/p&gt;
&lt;p&gt;Example device(s):
&lt;ul&gt;&lt;li&gt;CONN_04&lt;/li&gt;
&lt;/ul&gt;&lt;/p&gt;</description>
<wire x1="6.985" y1="1.27" x2="8.255" y2="1.27" width="0.2032" layer="21"/>
<wire x1="8.255" y1="1.27" x2="8.89" y2="0.635" width="0.2032" layer="21"/>
<wire x1="8.89" y1="-0.635" x2="8.255" y2="-1.27" width="0.2032" layer="21"/>
<wire x1="3.81" y1="0.635" x2="4.445" y2="1.27" width="0.2032" layer="21"/>
<wire x1="4.445" y1="1.27" x2="5.715" y2="1.27" width="0.2032" layer="21"/>
<wire x1="5.715" y1="1.27" x2="6.35" y2="0.635" width="0.2032" layer="21"/>
<wire x1="6.35" y1="-0.635" x2="5.715" y2="-1.27" width="0.2032" layer="21"/>
<wire x1="5.715" y1="-1.27" x2="4.445" y2="-1.27" width="0.2032" layer="21"/>
<wire x1="4.445" y1="-1.27" x2="3.81" y2="-0.635" width="0.2032" layer="21"/>
<wire x1="6.985" y1="1.27" x2="6.35" y2="0.635" width="0.2032" layer="21"/>
<wire x1="6.35" y1="-0.635" x2="6.985" y2="-1.27" width="0.2032" layer="21"/>
<wire x1="8.255" y1="-1.27" x2="6.985" y2="-1.27" width="0.2032" layer="21"/>
<wire x1="-0.635" y1="1.27" x2="0.635" y2="1.27" width="0.2032" layer="21"/>
<wire x1="0.635" y1="1.27" x2="1.27" y2="0.635" width="0.2032" layer="21"/>
<wire x1="1.27" y1="-0.635" x2="0.635" y2="-1.27" width="0.2032" layer="21"/>
<wire x1="1.27" y1="0.635" x2="1.905" y2="1.27" width="0.2032" layer="21"/>
<wire x1="1.905" y1="1.27" x2="3.175" y2="1.27" width="0.2032" layer="21"/>
<wire x1="3.175" y1="1.27" x2="3.81" y2="0.635" width="0.2032" layer="21"/>
<wire x1="3.81" y1="-0.635" x2="3.175" y2="-1.27" width="0.2032" layer="21"/>
<wire x1="3.175" y1="-1.27" x2="1.905" y2="-1.27" width="0.2032" layer="21"/>
<wire x1="1.905" y1="-1.27" x2="1.27" y2="-0.635" width="0.2032" layer="21"/>
<wire x1="-1.27" y1="0.635" x2="-1.27" y2="-0.635" width="0.2032" layer="21"/>
<wire x1="-0.635" y1="1.27" x2="-1.27" y2="0.635" width="0.2032" layer="21"/>
<wire x1="-1.27" y1="-0.635" x2="-0.635" y2="-1.27" width="0.2032" layer="21"/>
<wire x1="0.635" y1="-1.27" x2="-0.635" y2="-1.27" width="0.2032" layer="21"/>
<wire x1="8.89" y1="0.635" x2="8.89" y2="-0.635" width="0.2032" layer="21"/>
<pad name="1" x="0" y="0.127" drill="1.016" diameter="1.8796" rot="R90"/>
<pad name="2" x="2.54" y="-0.127" drill="1.016" diameter="1.8796" rot="R90"/>
<pad name="3" x="5.08" y="0.127" drill="1.016" diameter="1.8796" rot="R90"/>
<pad name="4" x="7.62" y="-0.127" drill="1.016" diameter="1.8796" rot="R90"/>
<rectangle x1="7.366" y1="-0.254" x2="7.874" y2="0.254" layer="51"/>
<rectangle x1="4.826" y1="-0.254" x2="5.334" y2="0.254" layer="51"/>
<rectangle x1="2.286" y1="-0.254" x2="2.794" y2="0.254" layer="51"/>
<rectangle x1="-0.254" y1="-0.254" x2="0.254" y2="0.254" layer="51"/>
<text x="-1.27" y="1.397" size="0.6096" layer="25" font="vector" ratio="20">&gt;NAME</text>
<text x="-1.27" y="-2.032" size="0.6096" layer="27" font="vector" ratio="20">&gt;VALUE</text>
</package>
<package name="1X04_LOCK_LONGPADS">
<description>&lt;h3&gt;Plated Through Hole - 4 Pin Long Pads w/ Locking Footprint&lt;/h3&gt;
Holes are offset 0.005" from center to lock pins in place during soldering. 
&lt;p&gt;Specifications:
&lt;ul&gt;&lt;li&gt;Pin count:4&lt;/li&gt;
&lt;li&gt;Pin pitch:0.1"&lt;/li&gt;
&lt;/ul&gt;&lt;/p&gt;
&lt;p&gt;Example device(s):
&lt;ul&gt;&lt;li&gt;CONN_04&lt;/li&gt;
&lt;/ul&gt;&lt;/p&gt;</description>
<wire x1="1.524" y1="-0.127" x2="1.016" y2="-0.127" width="0.2032" layer="21"/>
<wire x1="4.064" y1="-0.127" x2="3.556" y2="-0.127" width="0.2032" layer="21"/>
<wire x1="6.604" y1="-0.127" x2="6.096" y2="-0.127" width="0.2032" layer="21"/>
<wire x1="-1.27" y1="-0.127" x2="-1.016" y2="-0.127" width="0.2032" layer="21"/>
<wire x1="-1.27" y1="-0.127" x2="-1.27" y2="0.8636" width="0.2032" layer="21"/>
<wire x1="-1.27" y1="0.8636" x2="-0.9906" y2="1.143" width="0.2032" layer="21"/>
<wire x1="-1.27" y1="-0.127" x2="-1.27" y2="-1.1176" width="0.2032" layer="21"/>
<wire x1="-1.27" y1="-1.1176" x2="-0.9906" y2="-1.397" width="0.2032" layer="21"/>
<wire x1="8.89" y1="-0.127" x2="8.636" y2="-0.127" width="0.2032" layer="21"/>
<wire x1="8.89" y1="-0.127" x2="8.89" y2="-1.1176" width="0.2032" layer="21"/>
<wire x1="8.89" y1="-1.1176" x2="8.6106" y2="-1.397" width="0.2032" layer="21"/>
<wire x1="8.89" y1="-0.127" x2="8.89" y2="0.8636" width="0.2032" layer="21"/>
<wire x1="8.89" y1="0.8636" x2="8.6106" y2="1.143" width="0.2032" layer="21"/>
<pad name="1" x="0" y="0" drill="1.016" shape="long" rot="R90"/>
<pad name="2" x="2.54" y="-0.254" drill="1.016" shape="long" rot="R90"/>
<pad name="3" x="5.08" y="0" drill="1.016" shape="long" rot="R90"/>
<pad name="4" x="7.62" y="-0.254" drill="1.016" shape="long" rot="R90"/>
<rectangle x1="-0.2921" y1="-0.4191" x2="0.2921" y2="0.1651" layer="51"/>
<rectangle x1="2.2479" y1="-0.4191" x2="2.8321" y2="0.1651" layer="51"/>
<rectangle x1="4.7879" y1="-0.4191" x2="5.3721" y2="0.1651" layer="51"/>
<rectangle x1="7.3279" y1="-0.4191" x2="7.9121" y2="0.1651" layer="51" rot="R90"/>
<text x="-1.27" y="1.651" size="0.6096" layer="25" font="vector" ratio="20">&gt;NAME</text>
<text x="-1.27" y="-2.413" size="0.6096" layer="27" font="vector" ratio="20">&gt;VALUE</text>
</package>
<package name="MOLEX-1X4_LOCK">
<description>&lt;h3&gt;Molex 4-Pin Plated Through-Hole Locking&lt;/h3&gt;
Holes are offset 0.005" from center to hold pins in place during soldering. 
&lt;p&gt;Specifications:
&lt;ul&gt;&lt;li&gt;Pin count:4&lt;/li&gt;
&lt;li&gt;Pin pitch:0.1"&lt;/li&gt;
&lt;/ul&gt;&lt;/p&gt;
&lt;p&gt;&lt;a href=”https://www.sparkfun.com/datasheets/Prototyping/2pin_molex_set_19iv10.pdf”&gt;Datasheet referenced for footprint&lt;/a&gt;&lt;/p&gt;
&lt;p&gt;Example device(s):
&lt;ul&gt;&lt;li&gt;CONN_04&lt;/li&gt;
&lt;/ul&gt;&lt;/p&gt;</description>
<wire x1="-1.27" y1="3.048" x2="-1.27" y2="-2.54" width="0.127" layer="21"/>
<wire x1="8.89" y1="3.048" x2="8.89" y2="-2.54" width="0.127" layer="21"/>
<wire x1="8.89" y1="3.048" x2="-1.27" y2="3.048" width="0.127" layer="21"/>
<wire x1="8.89" y1="-2.54" x2="7.62" y2="-2.54" width="0.127" layer="21"/>
<wire x1="7.62" y1="-2.54" x2="0" y2="-2.54" width="0.127" layer="21"/>
<wire x1="0" y1="-2.54" x2="-1.27" y2="-2.54" width="0.127" layer="21"/>
<wire x1="0" y1="-2.54" x2="0" y2="-1.27" width="0.127" layer="21"/>
<wire x1="0" y1="-1.27" x2="7.62" y2="-1.27" width="0.127" layer="21"/>
<wire x1="7.62" y1="-1.27" x2="7.62" y2="-2.54" width="0.127" layer="21"/>
<pad name="1" x="0" y="0.127" drill="1.016" diameter="1.8796" shape="square"/>
<pad name="2" x="2.54" y="-0.127" drill="1.016" diameter="1.8796"/>
<pad name="3" x="5.08" y="0.127" drill="1.016" diameter="1.8796"/>
<pad name="4" x="7.62" y="-0.127" drill="1.016" diameter="1.8796"/>
<text x="2.667" y="3.302" size="0.6096" layer="25" font="vector" ratio="20">&gt;NAME</text>
<text x="2.032" y="-3.556" size="0.6096" layer="27" font="vector" ratio="20">&gt;VALUE</text>
</package>
<package name="1X04_SMD_RA_MALE">
<description>&lt;h3&gt;SMD - 4 Pin Right Angle Male Header&lt;/h3&gt;
tDocu layer shows pin locations.
&lt;p&gt;Specifications:
&lt;ul&gt;&lt;li&gt;Pin count:4&lt;/li&gt;
&lt;li&gt;Pin pitch:0.1"&lt;/li&gt;
&lt;/ul&gt;&lt;/p&gt;
&lt;p&gt;Example device(s):
&lt;ul&gt;&lt;li&gt;CONN_04&lt;/li&gt;
&lt;/ul&gt;&lt;/p&gt;</description>
<wire x1="5.08" y1="1.25" x2="-5.08" y2="1.25" width="0.127" layer="51"/>
<wire x1="-5.08" y1="1.25" x2="-5.08" y2="-1.25" width="0.127" layer="51"/>
<wire x1="-5.08" y1="-1.25" x2="-3.81" y2="-1.25" width="0.127" layer="51"/>
<wire x1="-3.81" y1="-1.25" x2="-1.27" y2="-1.25" width="0.127" layer="51"/>
<wire x1="-1.27" y1="-1.25" x2="1.27" y2="-1.25" width="0.127" layer="51"/>
<wire x1="1.27" y1="-1.25" x2="3.81" y2="-1.25" width="0.127" layer="51"/>
<wire x1="3.81" y1="-1.25" x2="5.08" y2="-1.25" width="0.127" layer="51"/>
<wire x1="5.08" y1="-1.25" x2="5.08" y2="1.25" width="0.127" layer="51"/>
<wire x1="3.81" y1="-1.25" x2="3.81" y2="-7.25" width="0.127" layer="51"/>
<wire x1="1.27" y1="-1.25" x2="1.27" y2="-7.25" width="0.127" layer="51"/>
<wire x1="-1.27" y1="-1.25" x2="-1.27" y2="-7.25" width="0.127" layer="51"/>
<wire x1="-3.81" y1="-1.25" x2="-3.81" y2="-7.25" width="0.127" layer="51"/>
<smd name="4" x="3.81" y="5" dx="3" dy="1" layer="1" rot="R90"/>
<smd name="3" x="1.27" y="5" dx="3" dy="1" layer="1" rot="R90"/>
<smd name="2" x="-1.27" y="5" dx="3" dy="1" layer="1" rot="R90"/>
<smd name="1" x="-3.81" y="5" dx="3" dy="1" layer="1" rot="R90"/>
<hole x="-2.54" y="0" drill="1.4"/>
<hole x="2.54" y="0" drill="1.4"/>
<text x="-4.318" y="6.731" size="0.6096" layer="25" font="vector" ratio="20">&gt;NAME</text>
<text x="-4.318" y="2.667" size="0.6096" layer="27" font="vector" ratio="20">&gt;VALUE</text>
</package>
<package name="1X04_LONGPADS">
<description>&lt;h3&gt;Plated Through Hole - 4 Pin Long Pads&lt;/h3&gt;
&lt;p&gt;Specifications:
&lt;ul&gt;&lt;li&gt;Pin count:4&lt;/li&gt;
&lt;li&gt;Pin pitch:0.1"&lt;/li&gt;
&lt;/ul&gt;&lt;/p&gt;
&lt;p&gt;Example device(s):
&lt;ul&gt;&lt;li&gt;CONN_04&lt;/li&gt;
&lt;/ul&gt;&lt;/p&gt;</description>
<wire x1="-1.27" y1="0.635" x2="-1.27" y2="-0.635" width="0.2032" layer="21"/>
<wire x1="8.89" y1="0.635" x2="8.89" y2="-0.635" width="0.2032" layer="21"/>
<pad name="1" x="0" y="0" drill="1.1176" diameter="1.8796" shape="long" rot="R90"/>
<pad name="2" x="2.54" y="0" drill="1.1176" diameter="1.8796" shape="long" rot="R90"/>
<pad name="3" x="5.08" y="0" drill="1.1176" diameter="1.8796" shape="long" rot="R90"/>
<pad name="4" x="7.62" y="0" drill="1.1176" diameter="1.8796" shape="long" rot="R90"/>
<rectangle x1="7.366" y1="-0.254" x2="7.874" y2="0.254" layer="51"/>
<rectangle x1="4.826" y1="-0.254" x2="5.334" y2="0.254" layer="51"/>
<rectangle x1="2.286" y1="-0.254" x2="2.794" y2="0.254" layer="51"/>
<rectangle x1="-0.254" y1="-0.254" x2="0.254" y2="0.254" layer="51"/>
<text x="-1.27" y="2.032" size="0.6096" layer="25" font="vector" ratio="20">&gt;NAME</text>
<text x="-1.27" y="-2.667" size="0.6096" layer="27" font="vector" ratio="20">&gt;VALUE</text>
</package>
<package name="1X04_NO_SILK">
<description>&lt;h3&gt;Plated Through Hole - 4 Pin No Silk Outline&lt;/h3&gt;
&lt;p&gt;Specifications:
&lt;ul&gt;&lt;li&gt;Pin count:4&lt;/li&gt;
&lt;li&gt;Pin pitch:0.1"&lt;/li&gt;
&lt;/ul&gt;&lt;/p&gt;
&lt;p&gt;Example device(s):
&lt;ul&gt;&lt;li&gt;CONN_04&lt;/li&gt;
&lt;/ul&gt;&lt;/p&gt;</description>
<pad name="1" x="0" y="0" drill="1.016" diameter="1.8796" rot="R90"/>
<pad name="2" x="2.54" y="0" drill="1.016" diameter="1.8796" rot="R90"/>
<pad name="3" x="5.08" y="0" drill="1.016" diameter="1.8796" rot="R90"/>
<pad name="4" x="7.62" y="0" drill="1.016" diameter="1.8796" rot="R90"/>
<rectangle x1="7.366" y1="-0.254" x2="7.874" y2="0.254" layer="51"/>
<rectangle x1="4.826" y1="-0.254" x2="5.334" y2="0.254" layer="51"/>
<rectangle x1="2.286" y1="-0.254" x2="2.794" y2="0.254" layer="51"/>
<rectangle x1="-0.254" y1="-0.254" x2="0.254" y2="0.254" layer="51"/>
<text x="-1.27" y="1.397" size="0.6096" layer="25" font="vector" ratio="20">&gt;NAME</text>
<text x="-1.27" y="-2.032" size="0.6096" layer="27" font="vector" ratio="20">&gt;VALUE</text>
</package>
<package name="JST-4-PTH">
<description>&lt;h3&gt;JST Right Angle 4 Pin Plated Through Hole&lt;/h3&gt;
&lt;p&gt;Specifications:
&lt;ul&gt;&lt;li&gt;Pin count: 4&lt;/li&gt;
&lt;li&gt;Pin pitch: 2mm&lt;/li&gt;
&lt;/ul&gt;&lt;/p&gt;
&lt;p&gt;&lt;a href=”https://www.sparkfun.com/datasheets/Prototyping/ePH.pdf”&gt;Datasheet referenced for footprint&lt;/a&gt;&lt;/p&gt;
&lt;p&gt;Example device(s):
&lt;ul&gt;&lt;li&gt;CONN_04&lt;/li&gt;
&lt;/ul&gt;&lt;/p&gt;</description>
<pad name="1" x="-3" y="0" drill="0.7" diameter="1.6"/>
<pad name="2" x="-1" y="0" drill="0.7" diameter="1.6"/>
<pad name="3" x="1" y="0" drill="0.7" diameter="1.6"/>
<pad name="4" x="3" y="0" drill="0.7" diameter="1.6"/>
<text x="-3.4" y="0.7" size="1.27" layer="51">+</text>
<text x="-1.4" y="0.7" size="1.27" layer="51">-</text>
<text x="0.7" y="0.9" size="0.8" layer="51">S</text>
<text x="2.7" y="0.9" size="0.8" layer="51">S</text>
<wire x1="-4.95" y1="-1.6" x2="-4.95" y2="6" width="0.2032" layer="21"/>
<wire x1="-4.95" y1="6" x2="4.95" y2="6" width="0.2032" layer="21"/>
<wire x1="4.95" y1="6" x2="4.95" y2="-1.6" width="0.2032" layer="21"/>
<wire x1="-4.95" y1="-1.6" x2="-4.3" y2="-1.6" width="0.2032" layer="21"/>
<wire x1="4.95" y1="-1.6" x2="4.3" y2="-1.6" width="0.2032" layer="21"/>
<wire x1="-4.3" y1="-1.6" x2="-4.3" y2="0" width="0.2032" layer="21"/>
<wire x1="4.3" y1="-1.6" x2="4.3" y2="0" width="0.2032" layer="21"/>
<text x="-1.397" y="3.429" size="0.6096" layer="25" font="vector" ratio="20">&gt;NAME</text>
<text x="-1.651" y="2.54" size="0.6096" layer="27" font="vector" ratio="20">&gt;VALUE</text>
</package>
<package name="SCREWTERMINAL-3.5MM-4_LOCK">
<description>&lt;h3&gt;Screw Terminal  3.5mm Pitch -4 Pin PTH Locking&lt;/h3&gt;
Holes are offset 0.005" from center to hold pins in place during soldering. 
&lt;p&gt;Specifications:
&lt;ul&gt;&lt;li&gt;Pin count: 4&lt;/li&gt;
&lt;li&gt;Pin pitch: 3.5mm/138mil&lt;/li&gt;
&lt;/ul&gt;&lt;/p&gt;
&lt;p&gt;&lt;a href=”https://www.sparkfun.com/datasheets/Prototyping/Screw-Terminal-3.5mm.pdf”&gt;Datasheet referenced for footprint&lt;/a&gt;&lt;/p&gt;
&lt;p&gt;Example device(s):
&lt;ul&gt;&lt;li&gt;CONN_04&lt;/li&gt;
&lt;/ul&gt;&lt;/p&gt;</description>
<wire x1="-2.3" y1="3.4" x2="12.8" y2="3.4" width="0.2032" layer="21"/>
<wire x1="12.8" y1="3.4" x2="12.8" y2="-2.8" width="0.2032" layer="21"/>
<wire x1="12.8" y1="-2.8" x2="12.8" y2="-3.6" width="0.2032" layer="21"/>
<wire x1="12.8" y1="-3.6" x2="-2.3" y2="-3.6" width="0.2032" layer="21"/>
<wire x1="-2.3" y1="-3.6" x2="-2.3" y2="-2.8" width="0.2032" layer="21"/>
<wire x1="-2.3" y1="-2.8" x2="-2.3" y2="3.4" width="0.2032" layer="21"/>
<wire x1="12.8" y1="-2.8" x2="-2.3" y2="-2.8" width="0.2032" layer="21"/>
<wire x1="-2.3" y1="-1.35" x2="-2.7" y2="-1.35" width="0.2032" layer="51"/>
<wire x1="-2.7" y1="-1.35" x2="-2.7" y2="-2.35" width="0.2032" layer="51"/>
<wire x1="-2.7" y1="-2.35" x2="-2.3" y2="-2.35" width="0.2032" layer="51"/>
<wire x1="12.8" y1="3.15" x2="13.2" y2="3.15" width="0.2032" layer="51"/>
<wire x1="13.2" y1="3.15" x2="13.2" y2="2.15" width="0.2032" layer="51"/>
<wire x1="13.2" y1="2.15" x2="12.8" y2="2.15" width="0.2032" layer="51"/>
<circle x="0" y="0" radius="0.425" width="0.001" layer="51"/>
<circle x="3.5" y="0" radius="0.425" width="0.001" layer="51"/>
<circle x="7" y="0" radius="0.425" width="0.001" layer="51"/>
<circle x="10.5" y="0" radius="0.425" width="0.001" layer="51"/>
<pad name="1" x="-0.1778" y="0" drill="1.2" diameter="2.032" shape="square"/>
<pad name="2" x="3.6778" y="0" drill="1.2" diameter="2.032"/>
<pad name="3" x="6.8222" y="0" drill="1.2" diameter="2.032"/>
<pad name="4" x="10.6778" y="0" drill="1.2" diameter="2.032"/>
<text x="3.81" y="2.413" size="0.6096" layer="25" font="vector" ratio="20">&gt;NAME</text>
<text x="3.81" y="1.524" size="0.6096" layer="27" font="vector" ratio="20">&gt;VALUE</text>
</package>
<package name="1X04_1MM_RA">
<description>&lt;h3&gt;SMD- 4 Pin Right Angle &lt;/h3&gt;
&lt;p&gt;Specifications:
&lt;ul&gt;&lt;li&gt;Pin count:4&lt;/li&gt;
&lt;li&gt;Pin pitch:0.1"&lt;/li&gt;
&lt;/ul&gt;&lt;/p&gt;
&lt;p&gt;Example device(s):
&lt;ul&gt;&lt;li&gt;CONN_04&lt;/li&gt;
&lt;/ul&gt;&lt;/p&gt;</description>
<wire x1="-1.5" y1="-4.6" x2="1.5" y2="-4.6" width="0.254" layer="21"/>
<wire x1="-3" y1="-2" x2="-3" y2="-0.35" width="0.254" layer="21"/>
<wire x1="2.25" y1="-0.35" x2="3" y2="-0.35" width="0.254" layer="21"/>
<wire x1="3" y1="-0.35" x2="3" y2="-2" width="0.254" layer="21"/>
<wire x1="-3" y1="-0.35" x2="-2.25" y2="-0.35" width="0.254" layer="21"/>
<circle x="-2.5" y="0.3" radius="0.1414" width="0.4" layer="21"/>
<smd name="NC2" x="-2.8" y="-3.675" dx="1.2" dy="2" layer="1"/>
<smd name="NC1" x="2.8" y="-3.675" dx="1.2" dy="2" layer="1"/>
<smd name="1" x="-1.5" y="0" dx="0.6" dy="1.35" layer="1"/>
<smd name="2" x="-0.5" y="0" dx="0.6" dy="1.35" layer="1"/>
<smd name="3" x="0.5" y="0" dx="0.6" dy="1.35" layer="1"/>
<smd name="4" x="1.5" y="0" dx="0.6" dy="1.35" layer="1"/>
<text x="-1.397" y="-2.159" size="0.6096" layer="25" font="vector" ratio="20">&gt;NAME</text>
<text x="-1.651" y="-3.302" size="0.6096" layer="27" font="vector" ratio="20">&gt;VALUE</text>
</package>
<package name="1X04_SMD_VERTICAL_COMBO">
<description>&lt;h3&gt;SMD - 4 Pin Vertical Connector&lt;/h3&gt;
&lt;p&gt;Specifications:
&lt;ul&gt;&lt;li&gt;Pin count:4&lt;/li&gt;
&lt;li&gt;SMD Pad count:8&lt;/li&gt;
&lt;li&gt;Pin pitch:0.1"&lt;/li&gt;
&lt;/ul&gt;&lt;/p&gt;
&lt;p&gt;Example device(s):
&lt;ul&gt;&lt;li&gt;CONN_04&lt;/li&gt;
&lt;/ul&gt;&lt;/p&gt;</description>
<wire x1="7.62" y1="1.27" x2="7.62" y2="-1.27" width="0.4064" layer="1"/>
<wire x1="5.08" y1="1.27" x2="5.08" y2="-1.27" width="0.4064" layer="1"/>
<wire x1="2.54" y1="1.27" x2="2.54" y2="-1.27" width="0.4064" layer="1"/>
<wire x1="0" y1="1.27" x2="0" y2="-1.27" width="0.4064" layer="1"/>
<wire x1="-1.37" y1="-1.25" x2="-1.37" y2="1.25" width="0.1778" layer="21"/>
<wire x1="8.99" y1="1.25" x2="8.99" y2="-1.25" width="0.1778" layer="21"/>
<wire x1="-0.73" y1="-1.25" x2="-1.37" y2="-1.25" width="0.1778" layer="21"/>
<wire x1="8.99" y1="-1.25" x2="8.32" y2="-1.25" width="0.1778" layer="21"/>
<wire x1="8.32" y1="1.25" x2="8.99" y2="1.25" width="0.1778" layer="21"/>
<wire x1="-1.37" y1="1.25" x2="-0.73" y2="1.25" width="0.1778" layer="21"/>
<wire x1="5.869" y1="-1.29" x2="6.831" y2="-1.29" width="0.1778" layer="21"/>
<wire x1="5.869" y1="1.25" x2="6.831" y2="1.25" width="0.1778" layer="21"/>
<wire x1="3.329" y1="-1.29" x2="4.291" y2="-1.29" width="0.1778" layer="21"/>
<wire x1="3.329" y1="1.25" x2="4.291" y2="1.25" width="0.1778" layer="21"/>
<wire x1="0.789" y1="-1.29" x2="1.751" y2="-1.29" width="0.1778" layer="21"/>
<wire x1="0.789" y1="1.25" x2="1.751" y2="1.25" width="0.1778" layer="21"/>
<smd name="3" x="5.08" y="-1.65" dx="2" dy="1" layer="1" rot="R270"/>
<smd name="1" x="0" y="-1.65" dx="2" dy="1" layer="1" rot="R270"/>
<smd name="4" x="7.62" y="1.65" dx="2" dy="1" layer="1" rot="R270"/>
<smd name="2" x="2.54" y="1.65" dx="2" dy="1" layer="1" rot="R270"/>
<smd name="1-2" x="0" y="1.65" dx="2" dy="1" layer="1" rot="R90"/>
<smd name="2-2" x="2.54" y="-1.65" dx="2" dy="1" layer="1" rot="R90"/>
<smd name="3-2" x="5.08" y="1.65" dx="2" dy="1" layer="1" rot="R90"/>
<smd name="4-2" x="7.62" y="-1.65" dx="2" dy="1" layer="1" rot="R90"/>
<text x="-0.508" y="2.921" size="0.6096" layer="25" font="vector" ratio="20">&gt;NAME</text>
<text x="-0.508" y="-3.429" size="0.6096" layer="27" font="vector" ratio="20">&gt;VALUE</text>
</package>
<package name="1X04_SMD_LONG">
<description>&lt;h3&gt;SMD - 4 Pin w/ Long Solder Pads&lt;/h3&gt;
No silk, but tDocu layer shows pin position. 
&lt;p&gt;Specifications:
&lt;ul&gt;&lt;li&gt;Pin count:4&lt;/li&gt;
&lt;li&gt;Pin pitch:0.1"&lt;/li&gt;
&lt;/ul&gt;&lt;/p&gt;
&lt;p&gt;Example device(s):
&lt;ul&gt;&lt;li&gt;CONN_04&lt;/li&gt;
&lt;/ul&gt;&lt;/p&gt;</description>
<wire x1="5.08" y1="1.25" x2="-5.08" y2="1.25" width="0.127" layer="51"/>
<wire x1="-5.08" y1="1.25" x2="-5.08" y2="-1.25" width="0.127" layer="51"/>
<wire x1="-5.08" y1="-1.25" x2="-3.81" y2="-1.25" width="0.127" layer="51"/>
<wire x1="-3.81" y1="-1.25" x2="-1.27" y2="-1.25" width="0.127" layer="51"/>
<wire x1="-1.27" y1="-1.25" x2="1.27" y2="-1.25" width="0.127" layer="51"/>
<wire x1="1.27" y1="-1.25" x2="3.81" y2="-1.25" width="0.127" layer="51"/>
<wire x1="3.81" y1="-1.25" x2="5.08" y2="-1.25" width="0.127" layer="51"/>
<wire x1="5.08" y1="-1.25" x2="5.08" y2="1.25" width="0.127" layer="51"/>
<wire x1="3.81" y1="-1.25" x2="3.81" y2="-7.25" width="0.127" layer="51"/>
<wire x1="1.27" y1="-1.25" x2="1.27" y2="-7.25" width="0.127" layer="51"/>
<wire x1="-1.27" y1="-1.25" x2="-1.27" y2="-7.25" width="0.127" layer="51"/>
<wire x1="-3.81" y1="-1.25" x2="-3.81" y2="-7.25" width="0.127" layer="51"/>
<smd name="4" x="3.81" y="5.5" dx="4" dy="1" layer="1" rot="R90"/>
<smd name="3" x="1.27" y="5.5" dx="4" dy="1" layer="1" rot="R90"/>
<smd name="2" x="-1.27" y="5.5" dx="4" dy="1" layer="1" rot="R90"/>
<smd name="1" x="-3.81" y="5.5" dx="4" dy="1" layer="1" rot="R90"/>
<hole x="-2.54" y="0" drill="1.4"/>
<hole x="2.54" y="0" drill="1.4"/>
</package>
<package name="JST-4-PTH-VERT">
<description>&lt;h3&gt;JST Vertical 4 Pin Plated Through Hole&lt;/h3&gt;
&lt;p&gt;Specifications:
&lt;ul&gt;&lt;li&gt;Pin count: 4&lt;/li&gt;
&lt;li&gt;Pin pitch: 2mm&lt;/li&gt;
&lt;/ul&gt;&lt;/p&gt;
&lt;p&gt;&lt;a href="http://www.jst-mfg.com/product/pdf/eng/ePH.pdf"&gt;Datasheet referenced for footprint&lt;/a&gt;&lt;/p&gt;
&lt;p&gt;Example device(s):
&lt;ul&gt;&lt;li&gt;CONN_04&lt;/li&gt;
&lt;/ul&gt;&lt;/p&gt;</description>
<wire x1="-4.95" y1="-2.25" x2="-4.95" y2="2.25" width="0.2032" layer="21"/>
<wire x1="-4.95" y1="2.25" x2="4.95" y2="2.25" width="0.2032" layer="21"/>
<wire x1="4.95" y1="-2.25" x2="1" y2="-2.25" width="0.2032" layer="21"/>
<wire x1="-1" y1="-2.25" x2="-4.95" y2="-2.25" width="0.2032" layer="21"/>
<wire x1="-1" y1="-1.75" x2="1" y2="-1.75" width="0.2032" layer="21"/>
<wire x1="1" y1="-1.75" x2="1" y2="-2.25" width="0.2032" layer="21"/>
<wire x1="-1" y1="-1.75" x2="-1" y2="-2.25" width="0.2032" layer="21"/>
<wire x1="4.95" y1="2.25" x2="4.95" y2="-2.25" width="0.2032" layer="21"/>
<pad name="1" x="-3" y="-0.55" drill="0.7" diameter="1.6"/>
<pad name="2" x="-1" y="-0.55" drill="0.7" diameter="1.6"/>
<pad name="3" x="1" y="-0.55" drill="0.7" diameter="1.6"/>
<pad name="4" x="3" y="-0.55" drill="0.7" diameter="1.6"/>
<text x="-1.4" y="0.75" size="1.27" layer="51">+</text>
<text x="0.6" y="0.75" size="1.27" layer="51">-</text>
<text x="2.7" y="0.95" size="0.8" layer="51">Y</text>
<text x="-3.3" y="0.95" size="0.8" layer="51">B</text>
<text x="-1.143" y="2.54" size="0.6096" layer="25" font="vector" ratio="20">&gt;NAME</text>
<text x="-1.651" y="-3.302" size="0.6096" layer="27" font="vector" ratio="20">&gt;VALUE</text>
</package>
<package name="1X04_SMD_RA_FEMALE">
<description>&lt;h3&gt;SMD - 4 Pin Right-Angle Female Header&lt;/h3&gt;
Silk outline shows header location. 
&lt;p&gt;Specifications:
&lt;ul&gt;&lt;li&gt;Pin count:4&lt;/li&gt;
&lt;li&gt;Pin pitch:0.1"&lt;/li&gt;
&lt;/ul&gt;&lt;/p&gt;
&lt;p&gt;Example device(s):
&lt;ul&gt;&lt;li&gt;CONN_04&lt;/li&gt;
&lt;/ul&gt;&lt;/p&gt;</description>
<wire x1="-5.205" y1="4.25" x2="-5.205" y2="-4.25" width="0.1778" layer="21"/>
<wire x1="5.205" y1="4.25" x2="-5.205" y2="4.25" width="0.1778" layer="21"/>
<wire x1="5.205" y1="-4.25" x2="5.205" y2="4.25" width="0.1778" layer="21"/>
<wire x1="-5.205" y1="-4.25" x2="5.205" y2="-4.25" width="0.1778" layer="21"/>
<rectangle x1="-1.59" y1="6.8" x2="-0.95" y2="7.65" layer="51"/>
<rectangle x1="0.95" y1="6.8" x2="1.59" y2="7.65" layer="51"/>
<rectangle x1="-4.13" y1="6.8" x2="-3.49" y2="7.65" layer="51"/>
<smd name="3" x="1.27" y="7.225" dx="1.25" dy="3" layer="1" rot="R180"/>
<smd name="2" x="-1.27" y="7.225" dx="1.25" dy="3" layer="1" rot="R180"/>
<smd name="1" x="-3.81" y="7.225" dx="1.25" dy="3" layer="1" rot="R180"/>
<rectangle x1="3.49" y1="6.8" x2="4.13" y2="7.65" layer="51"/>
<smd name="4" x="3.81" y="7.225" dx="1.25" dy="3" layer="1" rot="R180"/>
<text x="-1.397" y="0.762" size="0.6096" layer="25" font="vector" ratio="20">&gt;NAME</text>
<text x="-1.524" y="-1.27" size="0.6096" layer="27" font="vector" ratio="20">&gt;VALUE</text>
</package>
</packages>
<symbols>
<symbol name="CONN_04">
<description>&lt;h3&gt;4 Pin Connection&lt;/h3&gt;</description>
<wire x1="1.27" y1="-5.08" x2="-5.08" y2="-5.08" width="0.4064" layer="94"/>
<wire x1="-1.27" y1="2.54" x2="0" y2="2.54" width="0.6096" layer="94"/>
<wire x1="-1.27" y1="0" x2="0" y2="0" width="0.6096" layer="94"/>
<wire x1="-1.27" y1="-2.54" x2="0" y2="-2.54" width="0.6096" layer="94"/>
<wire x1="-5.08" y1="7.62" x2="-5.08" y2="-5.08" width="0.4064" layer="94"/>
<wire x1="1.27" y1="-5.08" x2="1.27" y2="7.62" width="0.4064" layer="94"/>
<wire x1="-5.08" y1="7.62" x2="1.27" y2="7.62" width="0.4064" layer="94"/>
<wire x1="-1.27" y1="5.08" x2="0" y2="5.08" width="0.6096" layer="94"/>
<text x="-5.08" y="-7.366" size="1.778" layer="96" font="vector">&gt;VALUE</text>
<text x="-5.08" y="8.128" size="1.778" layer="95" font="vector">&gt;NAME</text>
<pin name="1" x="5.08" y="-2.54" visible="pad" length="middle" direction="pas" swaplevel="1" rot="R180"/>
<pin name="2" x="5.08" y="0" visible="pad" length="middle" direction="pas" swaplevel="1" rot="R180"/>
<pin name="3" x="5.08" y="2.54" visible="pad" length="middle" direction="pas" swaplevel="1" rot="R180"/>
<pin name="4" x="5.08" y="5.08" visible="pad" length="middle" direction="pas" swaplevel="1" rot="R180"/>
</symbol>
</symbols>
<devicesets>
<deviceset name="CONN_04" prefix="J" uservalue="yes">
<description>&lt;h3&gt;Multi connection point. Often used as Generic Header-pin footprint for 0.1 inch spaced/style header connections&lt;/h3&gt;

&lt;p&gt;&lt;/p&gt;
&lt;b&gt;On any of the 0.1 inch spaced packages, you can populate with these:&lt;/b&gt;
&lt;ul&gt;
&lt;li&gt;&lt;a href="https://www.sparkfun.com/products/116"&gt; Break Away Headers - Straight&lt;/a&gt; (PRT-00116)&lt;/li&gt;
&lt;li&gt;&lt;a href="https://www.sparkfun.com/products/553"&gt; Break Away Male Headers - Right Angle&lt;/a&gt; (PRT-00553)&lt;/li&gt;
&lt;li&gt;&lt;a href="https://www.sparkfun.com/products/115"&gt; Female Headers&lt;/a&gt; (PRT-00115)&lt;/li&gt;
&lt;li&gt;&lt;a href="https://www.sparkfun.com/products/117"&gt; Break Away Headers - Machine Pin&lt;/a&gt; (PRT-00117)&lt;/li&gt;
&lt;li&gt;&lt;a href="https://www.sparkfun.com/products/743"&gt; Break Away Female Headers - Swiss Machine Pin&lt;/a&gt; (PRT-00743)&lt;/li&gt;
&lt;/ul&gt;

&lt;p&gt;&lt;/p&gt;
&lt;b&gt; For SCREWTERMINALS and SPRING TERMINALS visit here:&lt;/b&gt;
&lt;ul&gt;
&lt;li&gt;&lt;a href="https://www.sparkfun.com/search/results?term=Screw+Terminals"&gt; Screw Terimnals on SparkFun.com&lt;/a&gt; (5mm/3.5mm/2.54mm spacing)&lt;/li&gt;
&lt;/ul&gt;

&lt;p&gt;&lt;/p&gt;
&lt;b&gt;This device is also useful as a general connection point to wire up your design to another part of your project. Our various solder wires solder well into these plated through hole pads.&lt;/b&gt;
&lt;ul&gt;
&lt;li&gt;&lt;a href="https://www.sparkfun.com/products/11375"&gt; Hook-Up Wire - Assortment (Stranded, 22 AWG)&lt;/a&gt; (PRT-11375)&lt;/li&gt;
&lt;li&gt;&lt;a href="https://www.sparkfun.com/products/11367"&gt; Hook-Up Wire - Assortment (Solid Core, 22 AWG)&lt;/a&gt; (PRT-11367)&lt;/li&gt;
&lt;li&gt;&lt;a href="https://www.sparkfun.com/categories/141"&gt; View the entire wire category on our website here&lt;/a&gt;&lt;/li&gt;
&lt;p&gt;&lt;/p&gt;
&lt;/ul&gt;

&lt;p&gt;&lt;/p&gt;
&lt;b&gt;Special notes:&lt;/b&gt;
&lt;p&gt; &lt;/p&gt; Molex polarized connector foot print use with SKU : PRT-08231 with associated crimp pins and housings. 1MM SMD Version SKU: PRT-10208</description>
<gates>
<gate name="G$1" symbol="CONN_04" x="-2.54" y="0"/>
</gates>
<devices>
<device name="" package="1X04">
<connects>
<connect gate="G$1" pin="1" pad="1"/>
<connect gate="G$1" pin="2" pad="2"/>
<connect gate="G$1" pin="3" pad="3"/>
<connect gate="G$1" pin="4" pad="4"/>
</connects>
<technologies>
<technology name="">
<attribute name="PROD_ID" value="CONN-09696" constant="no"/>
</technology>
</technologies>
</device>
<device name="POLAR" package="MOLEX-1X4">
<connects>
<connect gate="G$1" pin="1" pad="1"/>
<connect gate="G$1" pin="2" pad="2"/>
<connect gate="G$1" pin="3" pad="3"/>
<connect gate="G$1" pin="4" pad="4"/>
</connects>
<technologies>
<technology name="">
<attribute name="PROD_ID" value="CONN-08186" constant="no"/>
<attribute name="SF_ID" value="PRT-08231" constant="no"/>
</technology>
</technologies>
</device>
<device name="SCREW" package="SCREWTERMINAL-3.5MM-4">
<connects>
<connect gate="G$1" pin="1" pad="1"/>
<connect gate="G$1" pin="2" pad="2"/>
<connect gate="G$1" pin="3" pad="3"/>
<connect gate="G$1" pin="4" pad="4"/>
</connects>
<technologies>
<technology name="">
<attribute name="PROD_ID" value="2xCONN-08399" constant="no"/>
<attribute name="SF_ID" value="2xPRT-08084" constant="no"/>
</technology>
</technologies>
</device>
<device name="1.27MM" package="1X04_1.27MM">
<connects>
<connect gate="G$1" pin="1" pad="1"/>
<connect gate="G$1" pin="2" pad="2"/>
<connect gate="G$1" pin="3" pad="3"/>
<connect gate="G$1" pin="4" pad="4"/>
</connects>
<technologies>
<technology name=""/>
</technologies>
</device>
<device name="LOCK" package="1X04_LOCK">
<connects>
<connect gate="G$1" pin="1" pad="1"/>
<connect gate="G$1" pin="2" pad="2"/>
<connect gate="G$1" pin="3" pad="3"/>
<connect gate="G$1" pin="4" pad="4"/>
</connects>
<technologies>
<technology name="">
<attribute name="PROD_ID" value="CONN-09696" constant="no"/>
</technology>
</technologies>
</device>
<device name="LOCK_LONGPADS" package="1X04_LOCK_LONGPADS">
<connects>
<connect gate="G$1" pin="1" pad="1"/>
<connect gate="G$1" pin="2" pad="2"/>
<connect gate="G$1" pin="3" pad="3"/>
<connect gate="G$1" pin="4" pad="4"/>
</connects>
<technologies>
<technology name="">
<attribute name="PROD_ID" value="CONN-09696" constant="no"/>
</technology>
</technologies>
</device>
<device name="POLAR_LOCK" package="MOLEX-1X4_LOCK">
<connects>
<connect gate="G$1" pin="1" pad="1"/>
<connect gate="G$1" pin="2" pad="2"/>
<connect gate="G$1" pin="3" pad="3"/>
<connect gate="G$1" pin="4" pad="4"/>
</connects>
<technologies>
<technology name="">
<attribute name="PROD_ID" value="CONN-08186" constant="no"/>
<attribute name="SF_ID" value="PRT-08231" constant="no"/>
</technology>
</technologies>
</device>
<device name="SMD" package="1X04_SMD_RA_MALE">
<connects>
<connect gate="G$1" pin="1" pad="1"/>
<connect gate="G$1" pin="2" pad="2"/>
<connect gate="G$1" pin="3" pad="3"/>
<connect gate="G$1" pin="4" pad="4"/>
</connects>
<technologies>
<technology name="">
<attribute name="PROD_ID" value="CONN-09140" constant="no"/>
<attribute name="SF_ID" value="PRT-12638" constant="no"/>
</technology>
</technologies>
</device>
<device name="LONGPADS" package="1X04_LONGPADS">
<connects>
<connect gate="G$1" pin="1" pad="1"/>
<connect gate="G$1" pin="2" pad="2"/>
<connect gate="G$1" pin="3" pad="3"/>
<connect gate="G$1" pin="4" pad="4"/>
</connects>
<technologies>
<technology name="">
<attribute name="PROD_ID" value="CONN-09696" constant="no"/>
</technology>
</technologies>
</device>
<device name="1X04_NO_SILK" package="1X04_NO_SILK">
<connects>
<connect gate="G$1" pin="1" pad="1"/>
<connect gate="G$1" pin="2" pad="2"/>
<connect gate="G$1" pin="3" pad="3"/>
<connect gate="G$1" pin="4" pad="4"/>
</connects>
<technologies>
<technology name="">
<attribute name="PROD_ID" value="CONN-09696" constant="no"/>
</technology>
</technologies>
</device>
<device name="JST-PTH" package="JST-4-PTH">
<connects>
<connect gate="G$1" pin="1" pad="1"/>
<connect gate="G$1" pin="2" pad="2"/>
<connect gate="G$1" pin="3" pad="3"/>
<connect gate="G$1" pin="4" pad="4"/>
</connects>
<technologies>
<technology name="">
<attribute name="PROD_ID" value="WIRE-13531" constant="no"/>
<attribute name="SF_ID" value="PRT-09916" constant="no"/>
</technology>
</technologies>
</device>
<device name="SCREW_LOCK" package="SCREWTERMINAL-3.5MM-4_LOCK">
<connects>
<connect gate="G$1" pin="1" pad="1"/>
<connect gate="G$1" pin="2" pad="2"/>
<connect gate="G$1" pin="3" pad="3"/>
<connect gate="G$1" pin="4" pad="4"/>
</connects>
<technologies>
<technology name=""/>
</technologies>
</device>
<device name="SMD2" package="1X04_1MM_RA">
<connects>
<connect gate="G$1" pin="1" pad="1"/>
<connect gate="G$1" pin="2" pad="2"/>
<connect gate="G$1" pin="3" pad="3"/>
<connect gate="G$1" pin="4" pad="4"/>
</connects>
<technologies>
<technology name="">
<attribute name="PROD_ID" value="CONN-10310" constant="no"/>
<attribute name="SF_ID" value="PRT-10208" constant="no"/>
</technology>
</technologies>
</device>
<device name="SMD_STRAIGHT_COMBO" package="1X04_SMD_VERTICAL_COMBO">
<connects>
<connect gate="G$1" pin="1" pad="1"/>
<connect gate="G$1" pin="2" pad="2"/>
<connect gate="G$1" pin="3" pad="3"/>
<connect gate="G$1" pin="4" pad="4"/>
</connects>
<technologies>
<technology name="">
<attribute name="PROD_ID" value="CONN-08511"/>
<attribute name="VALUE" value="1X04_SMD_STRAIGHT_COMBO"/>
</technology>
</technologies>
</device>
<device name="SMD_LONG" package="1X04_SMD_LONG">
<connects>
<connect gate="G$1" pin="1" pad="1"/>
<connect gate="G$1" pin="2" pad="2"/>
<connect gate="G$1" pin="3" pad="3"/>
<connect gate="G$1" pin="4" pad="4"/>
</connects>
<technologies>
<technology name="">
<attribute name="PROD_ID" value="CONN-09140" constant="no"/>
<attribute name="SF_ID" value="PRT-12638" constant="no"/>
</technology>
</technologies>
</device>
<device name="JST-PTH-VERT" package="JST-4-PTH-VERT">
<connects>
<connect gate="G$1" pin="1" pad="1"/>
<connect gate="G$1" pin="2" pad="2"/>
<connect gate="G$1" pin="3" pad="3"/>
<connect gate="G$1" pin="4" pad="4"/>
</connects>
<technologies>
<technology name="">
<attribute name="PROD_ID" value="CONN-13251"/>
</technology>
</technologies>
</device>
<device name="SMD_RA_FEMALE" package="1X04_SMD_RA_FEMALE">
<connects>
<connect gate="G$1" pin="1" pad="1"/>
<connect gate="G$1" pin="2" pad="2"/>
<connect gate="G$1" pin="3" pad="3"/>
<connect gate="G$1" pin="4" pad="4"/>
</connects>
<technologies>
<technology name=""/>
</technologies>
</device>
</devices>
</deviceset>
</devicesets>
</library>
</libraries>
<attributes>
</attributes>
<variantdefs>
</variantdefs>
<classes>
<class number="0" name="default" width="0" drill="0">
</class>
</classes>
<parts>
<part name="D1" library="SparkFun-LED" deviceset="LED" device="5MM"/>
<part name="D2" library="SparkFun-LED" deviceset="LED" device="5MM"/>
<part name="D3" library="SparkFun-LED" deviceset="LED" device="5MM"/>
<part name="J1" library="SparkFun-Connectors" deviceset="CONN_04" device=""/>
</parts>
<sheets>
<sheet>
<plain>
</plain>
<instances>
<instance part="D1" gate="G$1" x="45.72" y="33.02"/>
<instance part="D2" gate="G$1" x="58.42" y="33.02"/>
<instance part="D3" gate="G$1" x="71.12" y="33.02"/>
<instance part="J1" gate="G$1" x="55.88" y="55.88" rot="R270"/>
</instances>
<busses>
</busses>
<nets>
<net name="N$1" class="0">
<segment>
<pinref part="D1" gate="G$1" pin="A"/>
<wire x1="45.72" y1="35.56" x2="45.72" y2="40.64" width="0.1524" layer="91"/>
<wire x1="45.72" y1="40.64" x2="53.34" y2="40.64" width="0.1524" layer="91"/>
<pinref part="J1" gate="G$1" pin="1"/>
<wire x1="53.34" y1="40.64" x2="53.34" y2="50.8" width="0.1524" layer="91"/>
</segment>
</net>
<net name="N$2" class="0">
<segment>
<pinref part="J1" gate="G$1" pin="2"/>
<wire x1="55.88" y1="50.8" x2="55.88" y2="40.64" width="0.1524" layer="91"/>
<wire x1="55.88" y1="40.64" x2="58.42" y2="40.64" width="0.1524" layer="91"/>
<pinref part="D2" gate="G$1" pin="A"/>
<wire x1="58.42" y1="40.64" x2="58.42" y2="35.56" width="0.1524" layer="91"/>
</segment>
</net>
<net name="N$3" class="0">
<segment>
<pinref part="J1" gate="G$1" pin="3"/>
<wire x1="58.42" y1="50.8" x2="58.42" y2="43.18" width="0.1524" layer="91"/>
<wire x1="58.42" y1="43.18" x2="71.12" y2="43.18" width="0.1524" layer="91"/>
<pinref part="D3" gate="G$1" pin="A"/>
<wire x1="71.12" y1="43.18" x2="71.12" y2="35.56" width="0.1524" layer="91"/>
</segment>
</net>
<net name="N$4" class="0">
<segment>
<pinref part="D1" gate="G$1" pin="C"/>
<wire x1="45.72" y1="27.94" x2="45.72" y2="25.4" width="0.1524" layer="91"/>
<wire x1="45.72" y1="25.4" x2="58.42" y2="25.4" width="0.1524" layer="91"/>
<pinref part="D3" gate="G$1" pin="C"/>
<wire x1="58.42" y1="25.4" x2="71.12" y2="25.4" width="0.1524" layer="91"/>
<wire x1="71.12" y1="25.4" x2="71.12" y2="27.94" width="0.1524" layer="91"/>
<pinref part="D2" gate="G$1" pin="C"/>
<wire x1="58.42" y1="27.94" x2="58.42" y2="25.4" width="0.1524" layer="91"/>
<junction x="58.42" y="25.4"/>
<wire x1="71.12" y1="25.4" x2="76.2" y2="25.4" width="0.1524" layer="91"/>
<junction x="71.12" y="25.4"/>
<wire x1="76.2" y1="25.4" x2="76.2" y2="45.72" width="0.1524" layer="91"/>
<wire x1="76.2" y1="45.72" x2="60.96" y2="45.72" width="0.1524" layer="91"/>
<pinref part="J1" gate="G$1" pin="4"/>
<wire x1="60.96" y1="45.72" x2="60.96" y2="50.8" width="0.1524" layer="91"/>
</segment>
</net>
</nets>
</sheet>
</sheets>
</schematic>
</drawing>
</eagle>
