G75*
%MOIN*%
%OFA0B0*%
%FSLAX25Y25*%
%IPPOS*%
%LPD*%
%AMOC8*
5,1,8,0,0,1.08239X$1,22.5*
%
%ADD10R,0.04331X0.03937*%
%ADD11R,0.03937X0.04331*%
%ADD12R,0.07087X0.06299*%
%ADD13R,0.02756X0.03543*%
%ADD14R,0.09449X0.02992*%
%ADD15R,0.05000X0.02200*%
%ADD16R,0.02200X0.05000*%
%ADD17R,0.03937X0.03937*%
%ADD18R,0.02559X0.01181*%
%ADD19R,0.01181X0.02559*%
%ADD20R,0.08800X0.04800*%
%ADD21R,0.08661X0.14173*%
%ADD22R,0.07087X0.03937*%
%ADD23R,0.04331X0.07480*%
%ADD24R,0.07400X0.07400*%
%ADD25C,0.07400*%
%ADD26R,0.05000X0.05787*%
%ADD27R,0.03543X0.03150*%
%ADD28R,0.01772X0.00984*%
%ADD29C,0.07500*%
%ADD30C,0.10500*%
%ADD31C,0.03569*%
%ADD32C,0.01000*%
%ADD33C,0.02400*%
%ADD34C,0.05600*%
%ADD35C,0.01200*%
%ADD36C,0.04724*%
%ADD37C,0.02000*%
%ADD38C,0.00591*%
D10*
X0032131Y0075654D03*
X0032131Y0082346D03*
X0042131Y0088154D03*
X0042131Y0094846D03*
X0034631Y0095654D03*
X0034631Y0102346D03*
X0017131Y0118154D03*
X0017131Y0124846D03*
X0034631Y0139404D03*
X0034631Y0146096D03*
X0042131Y0139846D03*
X0042131Y0133154D03*
X0082131Y0168154D03*
X0082131Y0174846D03*
X0119631Y0169846D03*
X0119631Y0163154D03*
X0148785Y0136500D03*
X0148785Y0126500D03*
X0155478Y0126500D03*
X0155478Y0136500D03*
X0080478Y0065250D03*
X0073785Y0065250D03*
X0067131Y0064846D03*
X0067131Y0058154D03*
D11*
X0060478Y0061500D03*
X0060478Y0067750D03*
X0053785Y0067750D03*
X0053785Y0061500D03*
X0076285Y0039000D03*
X0082978Y0039000D03*
X0112131Y0103154D03*
X0112131Y0109846D03*
X0122131Y0109846D03*
X0122131Y0103154D03*
X0118785Y0126500D03*
X0125478Y0126500D03*
X0144631Y0148154D03*
X0144631Y0154846D03*
X0144631Y0163154D03*
X0144631Y0169846D03*
X0085881Y0158596D03*
X0085881Y0151904D03*
X0075881Y0151904D03*
X0075881Y0158596D03*
X0032978Y0132750D03*
X0026285Y0132750D03*
X0026728Y0099000D03*
X0020035Y0099000D03*
D12*
X0098381Y0057012D03*
X0098381Y0045988D03*
D13*
X0108322Y0176697D03*
X0113440Y0176697D03*
D14*
X0134277Y0111500D03*
X0134277Y0106500D03*
X0134277Y0101500D03*
X0134277Y0096500D03*
X0134277Y0091500D03*
X0149631Y0091500D03*
X0149631Y0096500D03*
X0149631Y0101500D03*
X0149631Y0106500D03*
X0149631Y0111500D03*
D15*
X0099031Y0111224D03*
X0099031Y0108075D03*
X0099031Y0104925D03*
X0099031Y0101776D03*
X0099031Y0098626D03*
X0099031Y0095476D03*
X0099031Y0114374D03*
X0099031Y0117524D03*
X0065231Y0117524D03*
X0065231Y0114374D03*
X0065231Y0111224D03*
X0065231Y0108075D03*
X0065231Y0104925D03*
X0065231Y0101776D03*
X0065231Y0098626D03*
X0065231Y0095476D03*
D16*
X0071108Y0089600D03*
X0074257Y0089600D03*
X0077407Y0089600D03*
X0080556Y0089600D03*
X0083706Y0089600D03*
X0086856Y0089600D03*
X0090005Y0089600D03*
X0093155Y0089600D03*
X0093155Y0123400D03*
X0090005Y0123400D03*
X0086856Y0123400D03*
X0083706Y0123400D03*
X0080556Y0123400D03*
X0077407Y0123400D03*
X0074257Y0123400D03*
X0071108Y0123400D03*
D17*
X0102131Y0161500D03*
D18*
X0094651Y0161500D03*
X0094651Y0159531D03*
X0094651Y0157563D03*
X0094651Y0163469D03*
X0094651Y0165437D03*
X0109612Y0165437D03*
X0109612Y0163469D03*
X0109612Y0161500D03*
X0109612Y0159531D03*
X0109612Y0157563D03*
D19*
X0106068Y0154020D03*
X0104100Y0154020D03*
X0102131Y0154020D03*
X0100163Y0154020D03*
X0098194Y0154020D03*
X0098194Y0168980D03*
X0100163Y0168980D03*
X0102131Y0168980D03*
X0104100Y0168980D03*
X0106068Y0168980D03*
D20*
X0134331Y0060600D03*
X0134331Y0051500D03*
X0134331Y0042400D03*
D21*
X0109930Y0051500D03*
D22*
X0137131Y0126579D03*
X0137131Y0136421D03*
D23*
X0136659Y0154217D03*
X0127604Y0154217D03*
X0127604Y0168783D03*
X0136659Y0168783D03*
D24*
X0052131Y0166500D03*
X0052131Y0046500D03*
X0169631Y0046500D03*
D25*
X0159631Y0046500D03*
X0042131Y0046500D03*
X0032131Y0046500D03*
X0022131Y0046500D03*
X0022131Y0166500D03*
X0032131Y0166500D03*
X0042131Y0166500D03*
D26*
X0153667Y0066500D03*
X0170596Y0066500D03*
D27*
X0089818Y0052740D03*
X0089818Y0045260D03*
X0081550Y0049000D03*
X0028962Y0087750D03*
X0020694Y0084010D03*
X0020694Y0091490D03*
X0023194Y0117760D03*
X0023194Y0125240D03*
X0031462Y0121500D03*
D28*
X0101147Y0174315D03*
X0101147Y0176283D03*
X0101147Y0178252D03*
X0104690Y0178252D03*
X0104690Y0176283D03*
X0104690Y0174315D03*
D29*
X0100881Y0199000D03*
D30*
X0110920Y0188961D03*
X0110920Y0209039D03*
X0090842Y0209039D03*
X0090842Y0188961D03*
D31*
X0087131Y0181500D03*
X0082131Y0187750D03*
X0082358Y0196451D03*
X0082131Y0204000D03*
X0082131Y0211500D03*
X0074631Y0211500D03*
X0073184Y0203764D03*
X0067131Y0211500D03*
X0059631Y0211500D03*
X0052131Y0211500D03*
X0044631Y0211500D03*
X0037131Y0211500D03*
X0035596Y0202425D03*
X0034415Y0193370D03*
X0042289Y0188252D03*
X0044631Y0181500D03*
X0052131Y0181500D03*
X0051737Y0191008D03*
X0052525Y0202425D03*
X0066698Y0195732D03*
X0067879Y0184709D03*
X0072131Y0174000D03*
X0075881Y0166500D03*
X0063381Y0166500D03*
X0063381Y0174000D03*
X0042131Y0146500D03*
X0027131Y0141500D03*
X0027131Y0151500D03*
X0017131Y0151500D03*
X0017131Y0141500D03*
X0007131Y0141500D03*
X0007131Y0151500D03*
X0007131Y0161500D03*
X0007131Y0171500D03*
X0007131Y0181500D03*
X0007131Y0191500D03*
X0007131Y0201500D03*
X0007131Y0211500D03*
X0017131Y0211500D03*
X0027131Y0211500D03*
X0027131Y0181500D03*
X0037131Y0181500D03*
X0017131Y0181500D03*
X0053381Y0126500D03*
X0057131Y0109000D03*
X0042131Y0101500D03*
X0039631Y0074000D03*
X0044631Y0074000D03*
X0049631Y0074000D03*
X0044631Y0067750D03*
X0044631Y0061500D03*
X0039631Y0061500D03*
X0039631Y0067750D03*
X0062131Y0075250D03*
X0082131Y0071500D03*
X0077131Y0106500D03*
X0090881Y0115250D03*
X0092131Y0131500D03*
X0087131Y0131500D03*
X0087131Y0144000D03*
X0092131Y0146500D03*
X0102131Y0161500D03*
X0095881Y0172750D03*
X0093381Y0177750D03*
X0106787Y0182002D03*
X0116550Y0181825D03*
X0118824Y0177386D03*
X0119641Y0187957D03*
X0125478Y0191756D03*
X0125871Y0199236D03*
X0119237Y0196894D03*
X0117879Y0204256D03*
X0122131Y0211500D03*
X0129631Y0211500D03*
X0137131Y0211500D03*
X0144631Y0211500D03*
X0152131Y0211500D03*
X0162131Y0211500D03*
X0156580Y0197268D03*
X0151462Y0187031D03*
X0144769Y0194118D03*
X0138076Y0187031D03*
X0138824Y0177386D03*
X0128824Y0177386D03*
X0122131Y0156500D03*
X0117131Y0156500D03*
X0108381Y0147750D03*
X0117131Y0139000D03*
X0109631Y0131500D03*
X0127131Y0144000D03*
X0137131Y0144000D03*
X0149631Y0144000D03*
X0152131Y0151500D03*
X0152131Y0161500D03*
X0152131Y0171500D03*
X0162131Y0171500D03*
X0162092Y0181126D03*
X0174631Y0171500D03*
X0174631Y0161500D03*
X0174631Y0151500D03*
X0184631Y0151500D03*
X0184631Y0141500D03*
X0184631Y0131500D03*
X0184631Y0121500D03*
X0184631Y0111500D03*
X0184631Y0101500D03*
X0184631Y0091500D03*
X0184631Y0081500D03*
X0184631Y0071500D03*
X0184631Y0061500D03*
X0184631Y0051500D03*
X0184631Y0041500D03*
X0184631Y0031500D03*
X0184631Y0021500D03*
X0184631Y0011500D03*
X0152131Y0011500D03*
X0142131Y0021500D03*
X0132131Y0011500D03*
X0122131Y0021500D03*
X0112131Y0011500D03*
X0102131Y0021500D03*
X0092131Y0011500D03*
X0082131Y0021500D03*
X0072131Y0011500D03*
X0062131Y0021500D03*
X0052131Y0011500D03*
X0042131Y0021500D03*
X0032131Y0011500D03*
X0007131Y0021500D03*
X0007131Y0031500D03*
X0007131Y0041500D03*
X0019631Y0106500D03*
X0092220Y0198970D03*
X0109720Y0198970D03*
X0137289Y0200024D03*
X0162131Y0161500D03*
X0162131Y0151500D03*
X0184631Y0161500D03*
X0184631Y0171500D03*
X0184631Y0181500D03*
X0184631Y0191500D03*
X0184631Y0201500D03*
X0184631Y0211500D03*
X0174631Y0211500D03*
X0122131Y0096500D03*
X0117131Y0091500D03*
X0112131Y0096500D03*
X0117131Y0076500D03*
X0143381Y0057750D03*
X0143381Y0051500D03*
X0143381Y0045250D03*
X0143381Y0039000D03*
X0149631Y0045250D03*
X0149631Y0051500D03*
X0149631Y0057750D03*
X0155881Y0057750D03*
X0149631Y0086500D03*
D32*
X0003831Y0003200D02*
X0003831Y0216011D01*
X0189132Y0216011D01*
X0189132Y0003200D01*
X0003831Y0003200D01*
X0003831Y0003497D02*
X0189132Y0003497D01*
X0189132Y0004496D02*
X0003831Y0004496D01*
X0003831Y0005494D02*
X0189132Y0005494D01*
X0189132Y0006493D02*
X0003831Y0006493D01*
X0003831Y0007491D02*
X0189132Y0007491D01*
X0189132Y0008490D02*
X0003831Y0008490D01*
X0003831Y0009488D02*
X0013156Y0009488D01*
X0012600Y0009719D02*
X0015540Y0008501D01*
X0018722Y0008501D01*
X0021662Y0009719D01*
X0023913Y0011969D01*
X0025130Y0014909D01*
X0025130Y0018091D01*
X0023913Y0021031D01*
X0021662Y0023281D01*
X0018722Y0024499D01*
X0015540Y0024499D01*
X0012600Y0023281D01*
X0010350Y0021031D01*
X0009132Y0018091D01*
X0009132Y0014909D01*
X0010350Y0011969D01*
X0012600Y0009719D01*
X0011832Y0010487D02*
X0003831Y0010487D01*
X0003831Y0011485D02*
X0010833Y0011485D01*
X0010137Y0012484D02*
X0003831Y0012484D01*
X0003831Y0013482D02*
X0009723Y0013482D01*
X0009309Y0014481D02*
X0003831Y0014481D01*
X0003831Y0015479D02*
X0009132Y0015479D01*
X0009132Y0016478D02*
X0003831Y0016478D01*
X0003831Y0017476D02*
X0009132Y0017476D01*
X0009291Y0018475D02*
X0003831Y0018475D01*
X0003831Y0019473D02*
X0009704Y0019473D01*
X0010118Y0020472D02*
X0003831Y0020472D01*
X0003831Y0021470D02*
X0010789Y0021470D01*
X0011787Y0022469D02*
X0003831Y0022469D01*
X0003831Y0023467D02*
X0013049Y0023467D01*
X0015459Y0024466D02*
X0003831Y0024466D01*
X0003831Y0025464D02*
X0189132Y0025464D01*
X0189132Y0024466D02*
X0173803Y0024466D01*
X0173722Y0024499D02*
X0170540Y0024499D01*
X0167600Y0023281D01*
X0165350Y0021031D01*
X0164132Y0018091D01*
X0164132Y0014909D01*
X0165350Y0011969D01*
X0167600Y0009719D01*
X0170540Y0008501D01*
X0173722Y0008501D01*
X0176662Y0009719D01*
X0178913Y0011969D01*
X0180130Y0014909D01*
X0180130Y0018091D01*
X0178913Y0021031D01*
X0176662Y0023281D01*
X0173722Y0024499D01*
X0170459Y0024466D02*
X0018803Y0024466D01*
X0021214Y0023467D02*
X0168049Y0023467D01*
X0166787Y0022469D02*
X0022475Y0022469D01*
X0023474Y0021470D02*
X0165789Y0021470D01*
X0165118Y0020472D02*
X0024144Y0020472D01*
X0024558Y0019473D02*
X0164704Y0019473D01*
X0164291Y0018475D02*
X0024972Y0018475D01*
X0025130Y0017476D02*
X0164132Y0017476D01*
X0164132Y0016478D02*
X0025130Y0016478D01*
X0025130Y0015479D02*
X0164132Y0015479D01*
X0164309Y0014481D02*
X0024953Y0014481D01*
X0024539Y0013482D02*
X0164723Y0013482D01*
X0165137Y0012484D02*
X0024126Y0012484D01*
X0023429Y0011485D02*
X0165833Y0011485D01*
X0166832Y0010487D02*
X0022430Y0010487D01*
X0021106Y0009488D02*
X0168156Y0009488D01*
X0176106Y0009488D02*
X0189132Y0009488D01*
X0189132Y0010487D02*
X0177430Y0010487D01*
X0178429Y0011485D02*
X0189132Y0011485D01*
X0189132Y0012484D02*
X0179126Y0012484D01*
X0179539Y0013482D02*
X0189132Y0013482D01*
X0189132Y0014481D02*
X0179953Y0014481D01*
X0180130Y0015479D02*
X0189132Y0015479D01*
X0189132Y0016478D02*
X0180130Y0016478D01*
X0180130Y0017476D02*
X0189132Y0017476D01*
X0189132Y0018475D02*
X0179972Y0018475D01*
X0179558Y0019473D02*
X0189132Y0019473D01*
X0189132Y0020472D02*
X0179144Y0020472D01*
X0178474Y0021470D02*
X0189132Y0021470D01*
X0189132Y0022469D02*
X0177475Y0022469D01*
X0176214Y0023467D02*
X0189132Y0023467D01*
X0189132Y0026463D02*
X0003831Y0026463D01*
X0003831Y0027461D02*
X0065122Y0027461D01*
X0064582Y0027685D02*
X0066236Y0027000D01*
X0148026Y0027000D01*
X0149680Y0027685D01*
X0150946Y0028951D01*
X0163446Y0041451D01*
X0164131Y0043105D01*
X0164131Y0043363D01*
X0164209Y0043441D01*
X0165031Y0045426D01*
X0165031Y0047574D01*
X0164209Y0049559D01*
X0162690Y0051078D01*
X0162531Y0051144D01*
X0162531Y0052799D01*
X0171639Y0061906D01*
X0173800Y0061906D01*
X0174796Y0062902D01*
X0174796Y0070098D01*
X0173800Y0071094D01*
X0167392Y0071094D01*
X0166396Y0070098D01*
X0166396Y0064866D01*
X0157173Y0055643D01*
X0156731Y0054577D01*
X0156731Y0051144D01*
X0156572Y0051078D01*
X0155053Y0049559D01*
X0154231Y0047574D01*
X0154231Y0045426D01*
X0154366Y0045099D01*
X0145267Y0036000D01*
X0086516Y0036000D01*
X0086646Y0036130D01*
X0086646Y0041870D01*
X0085650Y0042865D01*
X0085278Y0042865D01*
X0085278Y0046689D01*
X0086347Y0045620D01*
X0086347Y0042981D01*
X0087342Y0041985D01*
X0092294Y0041985D01*
X0093290Y0042981D01*
X0093290Y0047539D01*
X0092294Y0048535D01*
X0089655Y0048535D01*
X0088081Y0050108D01*
X0088081Y0052411D01*
X0086841Y0053651D01*
X0085552Y0054940D01*
X0073456Y0054940D01*
X0070997Y0057399D01*
X0070997Y0060826D01*
X0070323Y0061500D01*
X0070997Y0062174D01*
X0070997Y0067519D01*
X0070001Y0068515D01*
X0069431Y0068515D01*
X0069431Y0085400D01*
X0084556Y0085400D01*
X0084556Y0080823D01*
X0087331Y0078047D01*
X0088679Y0076700D01*
X0113647Y0076700D01*
X0113647Y0075807D01*
X0114177Y0074526D01*
X0115158Y0073546D01*
X0116438Y0073016D01*
X0117824Y0073016D01*
X0119105Y0073546D01*
X0120085Y0074526D01*
X0120615Y0075807D01*
X0120615Y0077193D01*
X0120085Y0078474D01*
X0119359Y0079200D01*
X0138084Y0079200D01*
X0143084Y0084200D01*
X0144431Y0085547D01*
X0144431Y0088304D01*
X0146607Y0088304D01*
X0146147Y0087193D01*
X0146147Y0085807D01*
X0146677Y0084526D01*
X0147658Y0083546D01*
X0148938Y0083016D01*
X0150324Y0083016D01*
X0151605Y0083546D01*
X0152585Y0084526D01*
X0153115Y0085807D01*
X0153115Y0087193D01*
X0152655Y0088304D01*
X0155060Y0088304D01*
X0156056Y0089300D01*
X0156056Y0093700D01*
X0155060Y0094696D01*
X0144431Y0094696D01*
X0144431Y0103304D01*
X0155060Y0103304D01*
X0156056Y0104300D01*
X0156056Y0108700D01*
X0155756Y0109000D01*
X0156056Y0109300D01*
X0156056Y0113700D01*
X0155060Y0114696D01*
X0144203Y0114696D01*
X0143207Y0113700D01*
X0143207Y0111177D01*
X0141931Y0112453D01*
X0140701Y0113683D01*
X0140701Y0113700D01*
X0139705Y0114696D01*
X0128848Y0114696D01*
X0127852Y0113700D01*
X0127852Y0109300D01*
X0128152Y0109000D01*
X0127852Y0108700D01*
X0127852Y0104300D01*
X0128152Y0104000D01*
X0127852Y0103700D01*
X0127852Y0099300D01*
X0128152Y0099000D01*
X0127852Y0098700D01*
X0127852Y0097974D01*
X0127331Y0097453D01*
X0125566Y0095687D01*
X0125615Y0095807D01*
X0125615Y0097193D01*
X0125085Y0098474D01*
X0125031Y0098527D01*
X0125031Y0099516D01*
X0125800Y0100284D01*
X0125800Y0106023D01*
X0124804Y0107019D01*
X0119459Y0107019D01*
X0118493Y0106054D01*
X0115769Y0106054D01*
X0114804Y0107019D01*
X0112367Y0107019D01*
X0112002Y0107384D01*
X0110936Y0107825D01*
X0098454Y0107825D01*
X0098213Y0107725D01*
X0095827Y0107725D01*
X0094831Y0106729D01*
X0094831Y0093800D01*
X0069431Y0093800D01*
X0069431Y0102725D01*
X0076468Y0102725D01*
X0076758Y0103016D01*
X0077824Y0103016D01*
X0079105Y0103546D01*
X0080085Y0104526D01*
X0080615Y0105807D01*
X0080615Y0107193D01*
X0080085Y0108474D01*
X0079105Y0109454D01*
X0077824Y0109984D01*
X0076438Y0109984D01*
X0075158Y0109454D01*
X0074177Y0108474D01*
X0073647Y0107193D01*
X0073647Y0107125D01*
X0069431Y0107125D01*
X0069431Y0119200D01*
X0087805Y0119200D01*
X0087805Y0116929D01*
X0087397Y0115943D01*
X0087397Y0114557D01*
X0087927Y0113276D01*
X0088908Y0112296D01*
X0090188Y0111766D01*
X0091574Y0111766D01*
X0092855Y0112296D01*
X0093835Y0113276D01*
X0094365Y0114557D01*
X0094365Y0115943D01*
X0093835Y0117224D01*
X0092855Y0118204D01*
X0092205Y0118473D01*
X0092205Y0119200D01*
X0094831Y0119200D01*
X0094831Y0112570D01*
X0095827Y0111574D01*
X0102235Y0111574D01*
X0102735Y0112074D01*
X0108458Y0112074D01*
X0113084Y0116700D01*
X0123084Y0116700D01*
X0126430Y0120046D01*
X0127778Y0121394D01*
X0127778Y0122635D01*
X0128150Y0122635D01*
X0129146Y0123630D01*
X0129146Y0124200D01*
X0131888Y0124200D01*
X0131888Y0123906D01*
X0132884Y0122910D01*
X0141379Y0122910D01*
X0142374Y0123906D01*
X0142374Y0124279D01*
X0144919Y0124279D01*
X0144919Y0123827D01*
X0145915Y0122831D01*
X0151654Y0122831D01*
X0152650Y0123827D01*
X0152650Y0129173D01*
X0151654Y0130168D01*
X0145915Y0130168D01*
X0144919Y0129173D01*
X0144919Y0128879D01*
X0142374Y0128879D01*
X0142374Y0129251D01*
X0141379Y0130247D01*
X0132884Y0130247D01*
X0131888Y0129251D01*
X0131888Y0128800D01*
X0129146Y0128800D01*
X0129146Y0129370D01*
X0128150Y0130365D01*
X0122805Y0130365D01*
X0122131Y0129692D01*
X0121457Y0130365D01*
X0121085Y0130365D01*
X0121085Y0132201D01*
X0123084Y0134200D01*
X0131888Y0134200D01*
X0131888Y0133749D01*
X0132884Y0132753D01*
X0141379Y0132753D01*
X0142374Y0133749D01*
X0142374Y0134121D01*
X0144919Y0134121D01*
X0144919Y0133827D01*
X0145915Y0132831D01*
X0151654Y0132831D01*
X0152650Y0133827D01*
X0152650Y0139173D01*
X0151654Y0140168D01*
X0145915Y0140168D01*
X0144919Y0139173D01*
X0144919Y0138721D01*
X0142374Y0138721D01*
X0142374Y0139094D01*
X0141379Y0140090D01*
X0132884Y0140090D01*
X0131888Y0139094D01*
X0131888Y0138800D01*
X0121179Y0138800D01*
X0119831Y0137453D01*
X0116485Y0134106D01*
X0116485Y0130365D01*
X0116112Y0130365D01*
X0115116Y0129370D01*
X0115116Y0128800D01*
X0111179Y0128800D01*
X0109831Y0127453D01*
X0102469Y0120090D01*
X0102235Y0120324D01*
X0095955Y0120324D01*
X0095955Y0126604D01*
X0095355Y0127204D01*
X0095355Y0130178D01*
X0095615Y0130807D01*
X0095615Y0132193D01*
X0095085Y0133474D01*
X0094259Y0134300D01*
X0096792Y0134300D01*
X0106300Y0143807D01*
X0106300Y0144904D01*
X0106408Y0144796D01*
X0107688Y0144266D01*
X0109074Y0144266D01*
X0110355Y0144796D01*
X0111335Y0145776D01*
X0111865Y0147057D01*
X0111865Y0148443D01*
X0111335Y0149724D01*
X0110355Y0150704D01*
X0109074Y0151234D01*
X0108268Y0151234D01*
X0108268Y0151945D01*
X0108359Y0152036D01*
X0108359Y0155272D01*
X0111595Y0155272D01*
X0111686Y0155363D01*
X0113831Y0155363D01*
X0114177Y0154526D01*
X0115158Y0153546D01*
X0116438Y0153016D01*
X0117824Y0153016D01*
X0119105Y0153546D01*
X0119631Y0154073D01*
X0120158Y0153546D01*
X0121438Y0153016D01*
X0122824Y0153016D01*
X0123738Y0153394D01*
X0123738Y0149772D01*
X0124734Y0148776D01*
X0130473Y0148776D01*
X0131469Y0149772D01*
X0131469Y0158579D01*
X0132793Y0157254D01*
X0132793Y0149772D01*
X0133789Y0148776D01*
X0139528Y0148776D01*
X0140524Y0149772D01*
X0140524Y0152646D01*
X0140963Y0152646D01*
X0140963Y0151977D01*
X0141959Y0150981D01*
X0147304Y0150981D01*
X0148300Y0151977D01*
X0148300Y0157716D01*
X0147304Y0158712D01*
X0141959Y0158712D01*
X0140963Y0157716D01*
X0140963Y0157046D01*
X0140524Y0157046D01*
X0140524Y0158661D01*
X0139885Y0159300D01*
X0140542Y0159300D01*
X0141245Y0160002D01*
X0141959Y0159288D01*
X0147304Y0159288D01*
X0148300Y0160284D01*
X0148300Y0166023D01*
X0147304Y0167019D01*
X0141959Y0167019D01*
X0140963Y0166023D01*
X0140963Y0165354D01*
X0140524Y0165354D01*
X0140524Y0173228D01*
X0139528Y0174224D01*
X0133789Y0174224D01*
X0132793Y0173228D01*
X0132793Y0166449D01*
X0131469Y0167773D01*
X0131469Y0173228D01*
X0130473Y0174224D01*
X0124734Y0174224D01*
X0123738Y0173228D01*
X0123738Y0172046D01*
X0123497Y0172046D01*
X0123497Y0172519D01*
X0122501Y0173515D01*
X0116762Y0173515D01*
X0115766Y0172519D01*
X0115766Y0172046D01*
X0114566Y0172046D01*
X0113278Y0170758D01*
X0110247Y0167728D01*
X0108359Y0167728D01*
X0108359Y0168018D01*
X0108368Y0168028D01*
X0108368Y0169445D01*
X0109383Y0170460D01*
X0110730Y0171807D01*
X0110730Y0173551D01*
X0111400Y0174221D01*
X0111400Y0179173D01*
X0110404Y0180168D01*
X0106556Y0180168D01*
X0106280Y0180444D01*
X0104943Y0180444D01*
X0104943Y0195355D01*
X0105501Y0195913D01*
X0106331Y0197916D01*
X0106331Y0200084D01*
X0105501Y0202087D01*
X0103968Y0203620D01*
X0101965Y0204450D01*
X0099797Y0204450D01*
X0097794Y0203620D01*
X0096261Y0202087D01*
X0095431Y0200084D01*
X0095431Y0197916D01*
X0096261Y0195913D01*
X0096819Y0195355D01*
X0096819Y0179485D01*
X0097437Y0177992D01*
X0098561Y0176868D01*
X0098561Y0174998D01*
X0097855Y0175704D01*
X0096574Y0176234D01*
X0095188Y0176234D01*
X0093908Y0175704D01*
X0092927Y0174724D01*
X0092397Y0173443D01*
X0092397Y0172057D01*
X0092927Y0170776D01*
X0093908Y0169796D01*
X0095188Y0169266D01*
X0095904Y0169266D01*
X0095904Y0167728D01*
X0092667Y0167728D01*
X0092577Y0167637D01*
X0090355Y0167637D01*
X0087639Y0170354D01*
X0085997Y0170354D01*
X0085997Y0170826D01*
X0085001Y0171822D01*
X0079262Y0171822D01*
X0078266Y0170826D01*
X0078266Y0169043D01*
X0077855Y0169454D01*
X0076574Y0169984D01*
X0075188Y0169984D01*
X0073908Y0169454D01*
X0072927Y0168474D01*
X0072397Y0167193D01*
X0072397Y0165807D01*
X0072927Y0164526D01*
X0073681Y0163773D01*
X0073681Y0163089D01*
X0074020Y0162750D01*
X0073732Y0162462D01*
X0073209Y0162462D01*
X0073197Y0162450D01*
X0057531Y0162450D01*
X0057531Y0170904D01*
X0056535Y0171900D01*
X0047727Y0171900D01*
X0046731Y0170904D01*
X0046731Y0169505D01*
X0046709Y0169559D01*
X0045190Y0171078D01*
X0043205Y0171900D01*
X0041057Y0171900D01*
X0039072Y0171078D01*
X0037553Y0169559D01*
X0037131Y0168540D01*
X0036709Y0169559D01*
X0035190Y0171078D01*
X0033205Y0171900D01*
X0031057Y0171900D01*
X0029072Y0171078D01*
X0027553Y0169559D01*
X0026731Y0167574D01*
X0026731Y0165426D01*
X0027553Y0163441D01*
X0029072Y0161922D01*
X0029931Y0161566D01*
X0029931Y0160589D01*
X0038720Y0151800D01*
X0046220Y0151800D01*
X0057431Y0140589D01*
X0057431Y0115589D01*
X0058720Y0114300D01*
X0060846Y0112174D01*
X0061031Y0112174D01*
X0061031Y0100926D01*
X0055958Y0100926D01*
X0054431Y0102453D01*
X0054431Y0108703D01*
X0050681Y0112453D01*
X0049334Y0113800D01*
X0023084Y0113800D01*
X0020997Y0115887D01*
X0020997Y0120826D01*
X0020323Y0121500D01*
X0020788Y0121965D01*
X0025670Y0121965D01*
X0026666Y0122961D01*
X0026666Y0127519D01*
X0025670Y0128515D01*
X0020718Y0128515D01*
X0020360Y0128156D01*
X0020001Y0128515D01*
X0014331Y0128515D01*
X0014331Y0130550D01*
X0022616Y0130550D01*
X0022616Y0129880D01*
X0023612Y0128885D01*
X0028957Y0128885D01*
X0029631Y0129558D01*
X0030305Y0128885D01*
X0030778Y0128885D01*
X0030778Y0124775D01*
X0028986Y0124775D01*
X0027990Y0123779D01*
X0027990Y0119221D01*
X0028986Y0118225D01*
X0033938Y0118225D01*
X0034934Y0119221D01*
X0034934Y0121860D01*
X0035178Y0122104D01*
X0035178Y0128885D01*
X0035650Y0128885D01*
X0036646Y0129880D01*
X0036646Y0130954D01*
X0038266Y0130954D01*
X0038266Y0130481D01*
X0039262Y0129485D01*
X0045001Y0129485D01*
X0045997Y0130481D01*
X0045997Y0135826D01*
X0045323Y0136500D01*
X0045997Y0137174D01*
X0045997Y0142519D01*
X0045001Y0143515D01*
X0044331Y0143515D01*
X0044331Y0143773D01*
X0045085Y0144526D01*
X0045615Y0145807D01*
X0045615Y0147193D01*
X0045085Y0148474D01*
X0044105Y0149454D01*
X0042824Y0149984D01*
X0041438Y0149984D01*
X0040158Y0149454D01*
X0039177Y0148474D01*
X0038647Y0147193D01*
X0038647Y0145807D01*
X0039177Y0144526D01*
X0039931Y0143773D01*
X0039931Y0143515D01*
X0039262Y0143515D01*
X0038266Y0142519D01*
X0038266Y0142307D01*
X0037501Y0143072D01*
X0031762Y0143072D01*
X0030766Y0142076D01*
X0030766Y0136731D01*
X0030881Y0136615D01*
X0030305Y0136615D01*
X0029631Y0135942D01*
X0028957Y0136615D01*
X0023612Y0136615D01*
X0022616Y0135620D01*
X0022616Y0134950D01*
X0012470Y0134950D01*
X0011220Y0133700D01*
X0009931Y0132411D01*
X0009931Y0080589D01*
X0017066Y0073454D01*
X0028266Y0073454D01*
X0028266Y0072981D01*
X0029262Y0071985D01*
X0029931Y0071985D01*
X0029931Y0058089D01*
X0034931Y0053089D01*
X0034931Y0053089D01*
X0036220Y0051800D01*
X0040816Y0051800D01*
X0039072Y0051078D01*
X0037553Y0049559D01*
X0037131Y0048540D01*
X0036709Y0049559D01*
X0035190Y0051078D01*
X0033205Y0051900D01*
X0031057Y0051900D01*
X0029072Y0051078D01*
X0027553Y0049559D01*
X0027131Y0048540D01*
X0026709Y0049559D01*
X0025190Y0051078D01*
X0023205Y0051900D01*
X0021057Y0051900D01*
X0019072Y0051078D01*
X0017553Y0049559D01*
X0016731Y0047574D01*
X0016731Y0045426D01*
X0017553Y0043441D01*
X0019072Y0041922D01*
X0021057Y0041100D01*
X0023205Y0041100D01*
X0025190Y0041922D01*
X0026709Y0043441D01*
X0027131Y0044460D01*
X0027553Y0043441D01*
X0029072Y0041922D01*
X0031057Y0041100D01*
X0033205Y0041100D01*
X0035190Y0041922D01*
X0036709Y0043441D01*
X0037131Y0044460D01*
X0037553Y0043441D01*
X0039072Y0041922D01*
X0041057Y0041100D01*
X0043205Y0041100D01*
X0045190Y0041922D01*
X0046709Y0043441D01*
X0046731Y0043495D01*
X0046731Y0042096D01*
X0047727Y0041100D01*
X0051167Y0041100D01*
X0064582Y0027685D01*
X0063807Y0028460D02*
X0003831Y0028460D01*
X0003831Y0029458D02*
X0062809Y0029458D01*
X0061810Y0030457D02*
X0003831Y0030457D01*
X0003831Y0031455D02*
X0060812Y0031455D01*
X0059813Y0032454D02*
X0003831Y0032454D01*
X0003831Y0033452D02*
X0058815Y0033452D01*
X0057816Y0034451D02*
X0003831Y0034451D01*
X0003831Y0035449D02*
X0056818Y0035449D01*
X0055819Y0036448D02*
X0003831Y0036448D01*
X0003831Y0037446D02*
X0054821Y0037446D01*
X0053822Y0038445D02*
X0003831Y0038445D01*
X0003831Y0039443D02*
X0052824Y0039443D01*
X0051825Y0040442D02*
X0003831Y0040442D01*
X0003831Y0041440D02*
X0020235Y0041440D01*
X0018555Y0042439D02*
X0003831Y0042439D01*
X0003831Y0043437D02*
X0017557Y0043437D01*
X0017141Y0044436D02*
X0003831Y0044436D01*
X0003831Y0045434D02*
X0016731Y0045434D01*
X0016731Y0046433D02*
X0003831Y0046433D01*
X0003831Y0047432D02*
X0016731Y0047432D01*
X0017086Y0048430D02*
X0003831Y0048430D01*
X0003831Y0049429D02*
X0017499Y0049429D01*
X0018422Y0050427D02*
X0003831Y0050427D01*
X0003831Y0051426D02*
X0019912Y0051426D01*
X0024351Y0051426D02*
X0029912Y0051426D01*
X0028422Y0050427D02*
X0025841Y0050427D01*
X0026763Y0049429D02*
X0027499Y0049429D01*
X0027141Y0044436D02*
X0027121Y0044436D01*
X0026705Y0043437D02*
X0027557Y0043437D01*
X0028555Y0042439D02*
X0025707Y0042439D01*
X0024027Y0041440D02*
X0030235Y0041440D01*
X0034027Y0041440D02*
X0040235Y0041440D01*
X0038555Y0042439D02*
X0035707Y0042439D01*
X0036705Y0043437D02*
X0037557Y0043437D01*
X0037141Y0044436D02*
X0037121Y0044436D01*
X0036763Y0049429D02*
X0037499Y0049429D01*
X0038422Y0050427D02*
X0035841Y0050427D01*
X0034351Y0051426D02*
X0039912Y0051426D01*
X0037131Y0054000D02*
X0048381Y0054000D01*
X0052131Y0050250D01*
X0052131Y0046500D01*
X0053592Y0051900D02*
X0053042Y0052450D01*
X0049292Y0056200D01*
X0038042Y0056200D01*
X0034331Y0059911D01*
X0034331Y0071985D01*
X0035001Y0071985D01*
X0035997Y0072981D01*
X0035997Y0078326D01*
X0035323Y0079000D01*
X0035997Y0079674D01*
X0035997Y0085019D01*
X0035062Y0085954D01*
X0038266Y0085954D01*
X0038266Y0085481D01*
X0039262Y0084485D01*
X0045001Y0084485D01*
X0045997Y0085481D01*
X0045997Y0090826D01*
X0045323Y0091500D01*
X0045997Y0092174D01*
X0045997Y0097519D01*
X0045001Y0098515D01*
X0044431Y0098515D01*
X0044431Y0098873D01*
X0045085Y0099526D01*
X0045310Y0100069D01*
X0046179Y0099200D01*
X0052202Y0093176D01*
X0061527Y0093176D01*
X0062027Y0092676D01*
X0068308Y0092676D01*
X0068308Y0090929D01*
X0066179Y0088800D01*
X0064831Y0087453D01*
X0064831Y0077477D01*
X0064105Y0078204D01*
X0062824Y0078734D01*
X0061438Y0078734D01*
X0060158Y0078204D01*
X0059177Y0077224D01*
X0058647Y0075943D01*
X0058647Y0074557D01*
X0059177Y0073276D01*
X0059362Y0073092D01*
X0058278Y0072008D01*
X0058278Y0071615D01*
X0057805Y0071615D01*
X0056809Y0070620D01*
X0056809Y0065014D01*
X0056457Y0065365D01*
X0051112Y0065365D01*
X0050116Y0064370D01*
X0050116Y0058630D01*
X0051112Y0057635D01*
X0052885Y0057635D01*
X0054931Y0055589D01*
X0056220Y0054300D01*
X0058720Y0054300D01*
X0064931Y0048089D01*
X0066220Y0046800D01*
X0078079Y0046800D01*
X0078079Y0046721D01*
X0079075Y0045725D01*
X0080678Y0045725D01*
X0080678Y0042865D01*
X0080305Y0042865D01*
X0079631Y0042192D01*
X0078957Y0042865D01*
X0073612Y0042865D01*
X0072616Y0041870D01*
X0072616Y0036130D01*
X0072747Y0036000D01*
X0068995Y0036000D01*
X0057531Y0047464D01*
X0057531Y0050904D01*
X0056535Y0051900D01*
X0053592Y0051900D01*
X0053068Y0052424D02*
X0060596Y0052424D01*
X0061594Y0051426D02*
X0057010Y0051426D01*
X0057531Y0050427D02*
X0062593Y0050427D01*
X0063591Y0049429D02*
X0057531Y0049429D01*
X0057531Y0048430D02*
X0064590Y0048430D01*
X0065588Y0047432D02*
X0057564Y0047432D01*
X0058562Y0046433D02*
X0078367Y0046433D01*
X0080678Y0045434D02*
X0059561Y0045434D01*
X0060559Y0044436D02*
X0080678Y0044436D01*
X0080678Y0043437D02*
X0061558Y0043437D01*
X0062556Y0042439D02*
X0073186Y0042439D01*
X0072616Y0041440D02*
X0063555Y0041440D01*
X0064553Y0040442D02*
X0072616Y0040442D01*
X0072616Y0039443D02*
X0065552Y0039443D01*
X0066550Y0038445D02*
X0072616Y0038445D01*
X0072616Y0037446D02*
X0067549Y0037446D01*
X0068547Y0036448D02*
X0072616Y0036448D01*
X0076285Y0039000D02*
X0076285Y0032346D01*
X0077131Y0031500D01*
X0086646Y0036448D02*
X0145715Y0036448D01*
X0146714Y0037446D02*
X0086646Y0037446D01*
X0086646Y0038445D02*
X0147712Y0038445D01*
X0148711Y0039443D02*
X0086646Y0039443D01*
X0086646Y0040442D02*
X0149709Y0040442D01*
X0150708Y0041440D02*
X0086646Y0041440D01*
X0086888Y0042439D02*
X0086077Y0042439D01*
X0086347Y0043437D02*
X0085278Y0043437D01*
X0085278Y0044436D02*
X0086347Y0044436D01*
X0086347Y0045434D02*
X0085278Y0045434D01*
X0085278Y0046433D02*
X0085534Y0046433D01*
X0085881Y0049197D02*
X0089818Y0045260D01*
X0092748Y0042439D02*
X0151706Y0042439D01*
X0152705Y0043437D02*
X0115689Y0043437D01*
X0115961Y0043709D02*
X0115961Y0059291D01*
X0114965Y0060287D01*
X0104896Y0060287D01*
X0103900Y0059291D01*
X0103900Y0043709D01*
X0104896Y0042713D01*
X0114965Y0042713D01*
X0115961Y0043709D01*
X0115961Y0044436D02*
X0153703Y0044436D01*
X0154231Y0045434D02*
X0115961Y0045434D01*
X0115961Y0046433D02*
X0154231Y0046433D01*
X0154231Y0047432D02*
X0139467Y0047432D01*
X0139435Y0047400D02*
X0140431Y0048396D01*
X0140431Y0054604D01*
X0139435Y0055600D01*
X0129227Y0055600D01*
X0128231Y0054604D01*
X0128231Y0054501D01*
X0125031Y0057701D01*
X0125031Y0062077D01*
X0124590Y0063143D01*
X0123774Y0063958D01*
X0119590Y0068143D01*
X0118774Y0068958D01*
X0117708Y0069400D01*
X0086554Y0069400D01*
X0085488Y0068958D01*
X0085031Y0068501D01*
X0085031Y0069473D01*
X0085085Y0069526D01*
X0085615Y0070807D01*
X0085615Y0072193D01*
X0085085Y0073474D01*
X0084105Y0074454D01*
X0082824Y0074984D01*
X0081438Y0074984D01*
X0080158Y0074454D01*
X0079177Y0073474D01*
X0078647Y0072193D01*
X0078647Y0070807D01*
X0079177Y0069526D01*
X0079231Y0069473D01*
X0079231Y0068918D01*
X0077608Y0068918D01*
X0076612Y0067923D01*
X0076612Y0062577D01*
X0077608Y0061581D01*
X0083347Y0061581D01*
X0084116Y0062350D01*
X0086458Y0062350D01*
X0087524Y0062791D01*
X0088332Y0063600D01*
X0095481Y0063600D01*
X0095481Y0061861D01*
X0094134Y0061861D01*
X0093138Y0060866D01*
X0093138Y0053158D01*
X0094134Y0052162D01*
X0102629Y0052162D01*
X0103624Y0053158D01*
X0103624Y0060866D01*
X0102629Y0061861D01*
X0101281Y0061861D01*
X0101281Y0063600D01*
X0115930Y0063600D01*
X0119231Y0060299D01*
X0119231Y0055923D01*
X0119673Y0054857D01*
X0124673Y0049857D01*
X0125488Y0049041D01*
X0126554Y0048600D01*
X0128231Y0048600D01*
X0128231Y0048396D01*
X0129227Y0047400D01*
X0139435Y0047400D01*
X0140431Y0048430D02*
X0154586Y0048430D01*
X0154999Y0049429D02*
X0140431Y0049429D01*
X0140431Y0050427D02*
X0155922Y0050427D01*
X0156731Y0051426D02*
X0140431Y0051426D01*
X0140431Y0052424D02*
X0156731Y0052424D01*
X0156731Y0053423D02*
X0140431Y0053423D01*
X0140431Y0054421D02*
X0156731Y0054421D01*
X0157080Y0055420D02*
X0139616Y0055420D01*
X0139435Y0056500D02*
X0140431Y0057496D01*
X0140431Y0063600D01*
X0149467Y0063600D01*
X0149467Y0062902D01*
X0150462Y0061906D01*
X0156871Y0061906D01*
X0157867Y0062902D01*
X0157867Y0070098D01*
X0156871Y0071094D01*
X0150462Y0071094D01*
X0149467Y0070098D01*
X0149467Y0069400D01*
X0136554Y0069400D01*
X0135488Y0068958D01*
X0134673Y0068143D01*
X0131873Y0065343D01*
X0131606Y0064700D01*
X0129227Y0064700D01*
X0128231Y0063704D01*
X0128231Y0057496D01*
X0129227Y0056500D01*
X0139435Y0056500D01*
X0140352Y0057417D02*
X0158947Y0057417D01*
X0159945Y0058415D02*
X0140431Y0058415D01*
X0140431Y0059414D02*
X0160944Y0059414D01*
X0161942Y0060412D02*
X0140431Y0060412D01*
X0140431Y0061411D02*
X0162941Y0061411D01*
X0163939Y0062409D02*
X0157374Y0062409D01*
X0157867Y0063408D02*
X0164938Y0063408D01*
X0165936Y0064406D02*
X0157867Y0064406D01*
X0157867Y0065405D02*
X0166396Y0065405D01*
X0166396Y0066403D02*
X0157867Y0066403D01*
X0157867Y0067402D02*
X0166396Y0067402D01*
X0166396Y0068400D02*
X0157867Y0068400D01*
X0157867Y0069399D02*
X0166396Y0069399D01*
X0166695Y0070397D02*
X0157567Y0070397D01*
X0149766Y0070397D02*
X0085446Y0070397D01*
X0085615Y0071396D02*
X0189132Y0071396D01*
X0189132Y0072394D02*
X0085532Y0072394D01*
X0085118Y0073393D02*
X0115528Y0073393D01*
X0114312Y0074391D02*
X0084167Y0074391D01*
X0086993Y0078385D02*
X0069431Y0078385D01*
X0069431Y0077387D02*
X0087992Y0077387D01*
X0085995Y0079384D02*
X0069431Y0079384D01*
X0069431Y0080382D02*
X0084996Y0080382D01*
X0084556Y0081381D02*
X0069431Y0081381D01*
X0069431Y0082379D02*
X0084556Y0082379D01*
X0084556Y0083378D02*
X0069431Y0083378D01*
X0069431Y0084376D02*
X0084556Y0084376D01*
X0084556Y0085375D02*
X0069431Y0085375D01*
X0066748Y0089369D02*
X0045997Y0089369D01*
X0045997Y0088370D02*
X0065749Y0088370D01*
X0064831Y0087372D02*
X0045997Y0087372D01*
X0045997Y0086373D02*
X0064831Y0086373D01*
X0064831Y0085375D02*
X0045891Y0085375D01*
X0042131Y0088154D02*
X0032131Y0088154D01*
X0032131Y0082346D01*
X0028266Y0082379D02*
X0014363Y0082379D01*
X0014331Y0082411D02*
X0014331Y0114485D01*
X0015893Y0114485D01*
X0021179Y0109200D01*
X0026579Y0109200D01*
X0024428Y0107049D01*
X0024428Y0102865D01*
X0024055Y0102865D01*
X0023381Y0102192D01*
X0022707Y0102865D01*
X0017362Y0102865D01*
X0016366Y0101870D01*
X0016366Y0096130D01*
X0017362Y0095135D01*
X0017835Y0095135D01*
X0017835Y0094381D01*
X0017223Y0093769D01*
X0017223Y0089211D01*
X0018218Y0088215D01*
X0023170Y0088215D01*
X0024166Y0089211D01*
X0024166Y0093769D01*
X0023170Y0094765D01*
X0022235Y0094765D01*
X0022235Y0095135D01*
X0022707Y0095135D01*
X0023381Y0095808D01*
X0024055Y0095135D01*
X0029400Y0095135D01*
X0030396Y0096130D01*
X0030396Y0101870D01*
X0029400Y0102865D01*
X0029028Y0102865D01*
X0029028Y0105144D01*
X0030584Y0106700D01*
X0043679Y0106700D01*
X0044831Y0105547D01*
X0044831Y0103727D01*
X0044105Y0104454D01*
X0042824Y0104984D01*
X0041438Y0104984D01*
X0040158Y0104454D01*
X0039177Y0103474D01*
X0038647Y0102193D01*
X0038647Y0100807D01*
X0039177Y0099526D01*
X0039831Y0098873D01*
X0039831Y0098515D01*
X0039262Y0098515D01*
X0038497Y0097750D01*
X0038497Y0098326D01*
X0037501Y0099322D01*
X0031762Y0099322D01*
X0030766Y0098326D01*
X0030766Y0092981D01*
X0031762Y0091985D01*
X0037501Y0091985D01*
X0038162Y0092646D01*
X0038266Y0092646D01*
X0038266Y0092174D01*
X0038940Y0091500D01*
X0038266Y0090826D01*
X0038266Y0090354D01*
X0032109Y0090354D01*
X0031438Y0091025D01*
X0026486Y0091025D01*
X0025490Y0090029D01*
X0025490Y0085471D01*
X0026486Y0084475D01*
X0028266Y0084475D01*
X0028266Y0079674D01*
X0028940Y0079000D01*
X0028266Y0078326D01*
X0028266Y0077854D01*
X0018889Y0077854D01*
X0014331Y0082411D01*
X0014331Y0083378D02*
X0028266Y0083378D01*
X0028266Y0084376D02*
X0014331Y0084376D01*
X0014331Y0085375D02*
X0025586Y0085375D01*
X0025490Y0086373D02*
X0014331Y0086373D01*
X0014331Y0087372D02*
X0025490Y0087372D01*
X0025490Y0088370D02*
X0023325Y0088370D01*
X0024166Y0089369D02*
X0025490Y0089369D01*
X0025829Y0090368D02*
X0024166Y0090368D01*
X0024166Y0091366D02*
X0038806Y0091366D01*
X0038266Y0090368D02*
X0032095Y0090368D01*
X0031382Y0092365D02*
X0024166Y0092365D01*
X0024166Y0093363D02*
X0030766Y0093363D01*
X0030766Y0094362D02*
X0023573Y0094362D01*
X0023830Y0095360D02*
X0022933Y0095360D01*
X0020035Y0092150D02*
X0020694Y0091490D01*
X0020035Y0092150D02*
X0020035Y0099000D01*
X0023223Y0102350D02*
X0023539Y0102350D01*
X0024428Y0103348D02*
X0014331Y0103348D01*
X0014331Y0102350D02*
X0016846Y0102350D01*
X0016366Y0101351D02*
X0014331Y0101351D01*
X0014331Y0100353D02*
X0016366Y0100353D01*
X0016366Y0099354D02*
X0014331Y0099354D01*
X0014331Y0098356D02*
X0016366Y0098356D01*
X0016366Y0097357D02*
X0014331Y0097357D01*
X0014331Y0096359D02*
X0016366Y0096359D01*
X0017137Y0095360D02*
X0014331Y0095360D01*
X0014331Y0094362D02*
X0017815Y0094362D01*
X0017223Y0093363D02*
X0014331Y0093363D01*
X0014331Y0092365D02*
X0017223Y0092365D01*
X0017223Y0091366D02*
X0014331Y0091366D01*
X0014331Y0090368D02*
X0017223Y0090368D01*
X0017223Y0089369D02*
X0014331Y0089369D01*
X0014331Y0088370D02*
X0018063Y0088370D01*
X0015362Y0081381D02*
X0028266Y0081381D01*
X0028266Y0080382D02*
X0016360Y0080382D01*
X0017359Y0079384D02*
X0028556Y0079384D01*
X0028325Y0078385D02*
X0018357Y0078385D01*
X0017978Y0075654D02*
X0012131Y0081500D01*
X0012131Y0131500D01*
X0013381Y0132750D01*
X0026285Y0132750D01*
X0023296Y0136299D02*
X0003831Y0136299D01*
X0003831Y0135301D02*
X0022616Y0135301D01*
X0022616Y0130308D02*
X0014331Y0130308D01*
X0014331Y0129309D02*
X0023187Y0129309D01*
X0020514Y0128311D02*
X0020205Y0128311D01*
X0023194Y0125240D02*
X0022800Y0124846D01*
X0017131Y0124846D01*
X0020501Y0121321D02*
X0027990Y0121321D01*
X0027990Y0120323D02*
X0020997Y0120323D01*
X0020997Y0119324D02*
X0027990Y0119324D01*
X0028885Y0118326D02*
X0020997Y0118326D01*
X0020997Y0117327D02*
X0057431Y0117327D01*
X0057431Y0116329D02*
X0020997Y0116329D01*
X0021554Y0115330D02*
X0057690Y0115330D01*
X0058688Y0114332D02*
X0022552Y0114332D01*
X0019042Y0111336D02*
X0014331Y0111336D01*
X0014331Y0110338D02*
X0020041Y0110338D01*
X0021039Y0109339D02*
X0014331Y0109339D01*
X0014331Y0108341D02*
X0025719Y0108341D01*
X0024721Y0107342D02*
X0014331Y0107342D01*
X0014331Y0106344D02*
X0024428Y0106344D01*
X0024428Y0105345D02*
X0014331Y0105345D01*
X0014331Y0104347D02*
X0024428Y0104347D01*
X0029028Y0104347D02*
X0040050Y0104347D01*
X0039125Y0103348D02*
X0029028Y0103348D01*
X0029916Y0102350D02*
X0038712Y0102350D01*
X0038647Y0101351D02*
X0030396Y0101351D01*
X0030396Y0100353D02*
X0038835Y0100353D01*
X0039350Y0099354D02*
X0030396Y0099354D01*
X0030396Y0098356D02*
X0030795Y0098356D01*
X0030766Y0097357D02*
X0030396Y0097357D01*
X0030396Y0096359D02*
X0030766Y0096359D01*
X0030766Y0095360D02*
X0029626Y0095360D01*
X0034631Y0095654D02*
X0035438Y0094846D01*
X0042131Y0094846D01*
X0039102Y0098356D02*
X0038467Y0098356D01*
X0038266Y0092365D02*
X0037880Y0092365D01*
X0038372Y0085375D02*
X0035641Y0085375D01*
X0035997Y0084376D02*
X0064831Y0084376D01*
X0064831Y0083378D02*
X0035997Y0083378D01*
X0035997Y0082379D02*
X0064831Y0082379D01*
X0064831Y0081381D02*
X0035997Y0081381D01*
X0035997Y0080382D02*
X0064831Y0080382D01*
X0064831Y0079384D02*
X0035707Y0079384D01*
X0035937Y0078385D02*
X0060596Y0078385D01*
X0059341Y0077387D02*
X0035997Y0077387D01*
X0035997Y0076388D02*
X0058831Y0076388D01*
X0058647Y0075390D02*
X0035997Y0075390D01*
X0035997Y0074391D02*
X0058716Y0074391D01*
X0059129Y0073393D02*
X0035997Y0073393D01*
X0035410Y0072394D02*
X0058664Y0072394D01*
X0057585Y0071396D02*
X0034331Y0071396D01*
X0034331Y0070397D02*
X0056809Y0070397D01*
X0056809Y0069399D02*
X0034331Y0069399D01*
X0034331Y0068400D02*
X0056809Y0068400D01*
X0056809Y0067402D02*
X0034331Y0067402D01*
X0034331Y0066403D02*
X0056809Y0066403D01*
X0056809Y0065405D02*
X0034331Y0065405D01*
X0034331Y0064406D02*
X0050153Y0064406D01*
X0050116Y0063408D02*
X0034331Y0063408D01*
X0034331Y0062409D02*
X0050116Y0062409D01*
X0050116Y0061411D02*
X0034331Y0061411D01*
X0034331Y0060412D02*
X0050116Y0060412D01*
X0050116Y0059414D02*
X0034829Y0059414D01*
X0035827Y0058415D02*
X0050332Y0058415D01*
X0050073Y0055420D02*
X0055100Y0055420D01*
X0054102Y0056418D02*
X0037824Y0056418D01*
X0036826Y0057417D02*
X0053103Y0057417D01*
X0053785Y0059846D02*
X0057131Y0056500D01*
X0059631Y0056500D01*
X0067131Y0049000D01*
X0081550Y0049000D01*
X0082978Y0047573D01*
X0085881Y0049197D02*
X0085881Y0051500D01*
X0084641Y0052740D01*
X0072545Y0052740D01*
X0067131Y0058154D01*
X0070997Y0058415D02*
X0093138Y0058415D01*
X0093138Y0057417D02*
X0070997Y0057417D01*
X0071978Y0056418D02*
X0093138Y0056418D01*
X0093138Y0055420D02*
X0072976Y0055420D01*
X0070997Y0059414D02*
X0093138Y0059414D01*
X0093138Y0060412D02*
X0070997Y0060412D01*
X0070412Y0061411D02*
X0093683Y0061411D01*
X0095481Y0062409D02*
X0086601Y0062409D01*
X0088140Y0063408D02*
X0095481Y0063408D01*
X0101281Y0063408D02*
X0116122Y0063408D01*
X0117121Y0062409D02*
X0101281Y0062409D01*
X0103079Y0061411D02*
X0118119Y0061411D01*
X0119118Y0060412D02*
X0103624Y0060412D01*
X0103624Y0059414D02*
X0104023Y0059414D01*
X0103900Y0058415D02*
X0103624Y0058415D01*
X0103624Y0057417D02*
X0103900Y0057417D01*
X0103900Y0056418D02*
X0103624Y0056418D01*
X0103624Y0055420D02*
X0103900Y0055420D01*
X0103900Y0054421D02*
X0103624Y0054421D01*
X0103624Y0053423D02*
X0103900Y0053423D01*
X0103900Y0052424D02*
X0102891Y0052424D01*
X0103900Y0051426D02*
X0088081Y0051426D01*
X0088068Y0052424D02*
X0093872Y0052424D01*
X0093138Y0053423D02*
X0087070Y0053423D01*
X0086071Y0054421D02*
X0093138Y0054421D01*
X0092399Y0048430D02*
X0103900Y0048430D01*
X0103900Y0047432D02*
X0093290Y0047432D01*
X0093290Y0046433D02*
X0103900Y0046433D01*
X0103900Y0045434D02*
X0093290Y0045434D01*
X0093290Y0044436D02*
X0103900Y0044436D01*
X0104171Y0043437D02*
X0093290Y0043437D01*
X0088761Y0049429D02*
X0103900Y0049429D01*
X0103900Y0050427D02*
X0088081Y0050427D01*
X0079879Y0042439D02*
X0079384Y0042439D01*
X0076780Y0062409D02*
X0070997Y0062409D01*
X0070997Y0063408D02*
X0076612Y0063408D01*
X0076612Y0064406D02*
X0070997Y0064406D01*
X0070997Y0065405D02*
X0076612Y0065405D01*
X0076612Y0066403D02*
X0070997Y0066403D01*
X0070997Y0067402D02*
X0076612Y0067402D01*
X0077090Y0068400D02*
X0070115Y0068400D01*
X0069431Y0069399D02*
X0079231Y0069399D01*
X0078817Y0070397D02*
X0069431Y0070397D01*
X0069431Y0071396D02*
X0078647Y0071396D01*
X0078730Y0072394D02*
X0069431Y0072394D01*
X0069431Y0073393D02*
X0079144Y0073393D01*
X0080095Y0074391D02*
X0069431Y0074391D01*
X0069431Y0075390D02*
X0113820Y0075390D01*
X0113647Y0076388D02*
X0069431Y0076388D01*
X0064831Y0078385D02*
X0063667Y0078385D01*
X0062131Y0075250D02*
X0062131Y0072750D01*
X0060478Y0071096D01*
X0060478Y0067750D01*
X0053785Y0061500D02*
X0053785Y0059846D01*
X0056099Y0054421D02*
X0051071Y0054421D01*
X0052070Y0053423D02*
X0059597Y0053423D01*
X0046731Y0043437D02*
X0046705Y0043437D01*
X0046731Y0042439D02*
X0045707Y0042439D01*
X0044027Y0041440D02*
X0047387Y0041440D01*
X0037131Y0054000D02*
X0032131Y0059000D01*
X0032131Y0075654D01*
X0017978Y0075654D01*
X0016129Y0074391D02*
X0003831Y0074391D01*
X0003831Y0073393D02*
X0028266Y0073393D01*
X0028852Y0072394D02*
X0003831Y0072394D01*
X0003831Y0071396D02*
X0029931Y0071396D01*
X0029931Y0070397D02*
X0003831Y0070397D01*
X0003831Y0069399D02*
X0029931Y0069399D01*
X0029931Y0068400D02*
X0003831Y0068400D01*
X0003831Y0067402D02*
X0029931Y0067402D01*
X0029931Y0066403D02*
X0003831Y0066403D01*
X0003831Y0065405D02*
X0029931Y0065405D01*
X0029931Y0064406D02*
X0003831Y0064406D01*
X0003831Y0063408D02*
X0029931Y0063408D01*
X0029931Y0062409D02*
X0003831Y0062409D01*
X0003831Y0061411D02*
X0029931Y0061411D01*
X0029931Y0060412D02*
X0003831Y0060412D01*
X0003831Y0059414D02*
X0029931Y0059414D01*
X0029931Y0058415D02*
X0003831Y0058415D01*
X0003831Y0057417D02*
X0030603Y0057417D01*
X0031602Y0056418D02*
X0003831Y0056418D01*
X0003831Y0055420D02*
X0032600Y0055420D01*
X0033599Y0054421D02*
X0003831Y0054421D01*
X0003831Y0053423D02*
X0034597Y0053423D01*
X0035596Y0052424D02*
X0003831Y0052424D01*
X0003831Y0075390D02*
X0015130Y0075390D01*
X0014132Y0076388D02*
X0003831Y0076388D01*
X0003831Y0077387D02*
X0013133Y0077387D01*
X0012135Y0078385D02*
X0003831Y0078385D01*
X0003831Y0079384D02*
X0011136Y0079384D01*
X0010138Y0080382D02*
X0003831Y0080382D01*
X0003831Y0081381D02*
X0009931Y0081381D01*
X0009931Y0082379D02*
X0003831Y0082379D01*
X0003831Y0083378D02*
X0009931Y0083378D01*
X0009931Y0084376D02*
X0003831Y0084376D01*
X0003831Y0085375D02*
X0009931Y0085375D01*
X0009931Y0086373D02*
X0003831Y0086373D01*
X0003831Y0087372D02*
X0009931Y0087372D01*
X0009931Y0088370D02*
X0003831Y0088370D01*
X0003831Y0089369D02*
X0009931Y0089369D01*
X0009931Y0090368D02*
X0003831Y0090368D01*
X0003831Y0091366D02*
X0009931Y0091366D01*
X0009931Y0092365D02*
X0003831Y0092365D01*
X0003831Y0093363D02*
X0009931Y0093363D01*
X0009931Y0094362D02*
X0003831Y0094362D01*
X0003831Y0095360D02*
X0009931Y0095360D01*
X0009931Y0096359D02*
X0003831Y0096359D01*
X0003831Y0097357D02*
X0009931Y0097357D01*
X0009931Y0098356D02*
X0003831Y0098356D01*
X0003831Y0099354D02*
X0009931Y0099354D01*
X0009931Y0100353D02*
X0003831Y0100353D01*
X0003831Y0101351D02*
X0009931Y0101351D01*
X0009931Y0102350D02*
X0003831Y0102350D01*
X0003831Y0103348D02*
X0009931Y0103348D01*
X0009931Y0104347D02*
X0003831Y0104347D01*
X0003831Y0105345D02*
X0009931Y0105345D01*
X0009931Y0106344D02*
X0003831Y0106344D01*
X0003831Y0107342D02*
X0009931Y0107342D01*
X0009931Y0108341D02*
X0003831Y0108341D01*
X0003831Y0109339D02*
X0009931Y0109339D01*
X0009931Y0110338D02*
X0003831Y0110338D01*
X0003831Y0111336D02*
X0009931Y0111336D01*
X0009931Y0112335D02*
X0003831Y0112335D01*
X0003831Y0113333D02*
X0009931Y0113333D01*
X0009931Y0114332D02*
X0003831Y0114332D01*
X0003831Y0115330D02*
X0009931Y0115330D01*
X0009931Y0116329D02*
X0003831Y0116329D01*
X0003831Y0117327D02*
X0009931Y0117327D01*
X0009931Y0118326D02*
X0003831Y0118326D01*
X0003831Y0119324D02*
X0009931Y0119324D01*
X0009931Y0120323D02*
X0003831Y0120323D01*
X0003831Y0121321D02*
X0009931Y0121321D01*
X0009931Y0122320D02*
X0003831Y0122320D01*
X0003831Y0123318D02*
X0009931Y0123318D01*
X0009931Y0124317D02*
X0003831Y0124317D01*
X0003831Y0125315D02*
X0009931Y0125315D01*
X0009931Y0126314D02*
X0003831Y0126314D01*
X0003831Y0127312D02*
X0009931Y0127312D01*
X0009931Y0128311D02*
X0003831Y0128311D01*
X0003831Y0129309D02*
X0009931Y0129309D01*
X0009931Y0130308D02*
X0003831Y0130308D01*
X0003831Y0131306D02*
X0009931Y0131306D01*
X0009931Y0132305D02*
X0003831Y0132305D01*
X0003831Y0133303D02*
X0010823Y0133303D01*
X0011822Y0134302D02*
X0003831Y0134302D01*
X0003831Y0137298D02*
X0030766Y0137298D01*
X0030766Y0138296D02*
X0003831Y0138296D01*
X0003831Y0139295D02*
X0030766Y0139295D01*
X0030766Y0140293D02*
X0003831Y0140293D01*
X0003831Y0141292D02*
X0030766Y0141292D01*
X0030980Y0142290D02*
X0003831Y0142290D01*
X0003831Y0143289D02*
X0039035Y0143289D01*
X0039417Y0144287D02*
X0003831Y0144287D01*
X0003831Y0145286D02*
X0038863Y0145286D01*
X0038647Y0146284D02*
X0003831Y0146284D01*
X0003831Y0147283D02*
X0038684Y0147283D01*
X0039098Y0148281D02*
X0003831Y0148281D01*
X0003831Y0149280D02*
X0039983Y0149280D01*
X0038245Y0152275D02*
X0003831Y0152275D01*
X0003831Y0151277D02*
X0046743Y0151277D01*
X0047742Y0150278D02*
X0003831Y0150278D01*
X0003831Y0153274D02*
X0037246Y0153274D01*
X0036248Y0154272D02*
X0003831Y0154272D01*
X0003831Y0155271D02*
X0035249Y0155271D01*
X0034251Y0156269D02*
X0003831Y0156269D01*
X0003831Y0157268D02*
X0033252Y0157268D01*
X0032254Y0158266D02*
X0003831Y0158266D01*
X0003831Y0159265D02*
X0031255Y0159265D01*
X0030257Y0160263D02*
X0003831Y0160263D01*
X0003831Y0161262D02*
X0029931Y0161262D01*
X0028734Y0162260D02*
X0003831Y0162260D01*
X0003831Y0163259D02*
X0027736Y0163259D01*
X0027215Y0164257D02*
X0003831Y0164257D01*
X0003831Y0165256D02*
X0026802Y0165256D01*
X0026731Y0166254D02*
X0003831Y0166254D01*
X0003831Y0167253D02*
X0026731Y0167253D01*
X0027012Y0168251D02*
X0003831Y0168251D01*
X0003831Y0169250D02*
X0027425Y0169250D01*
X0028243Y0170248D02*
X0003831Y0170248D01*
X0003831Y0171247D02*
X0029480Y0171247D01*
X0034782Y0171247D02*
X0039480Y0171247D01*
X0038243Y0170248D02*
X0036020Y0170248D01*
X0036837Y0169250D02*
X0037425Y0169250D01*
X0042131Y0166500D02*
X0042131Y0160250D01*
X0044631Y0157750D01*
X0050881Y0157750D01*
X0064631Y0144000D01*
X0064631Y0118124D01*
X0065231Y0117524D01*
X0065231Y0114374D02*
X0061757Y0114374D01*
X0059631Y0116500D01*
X0059631Y0141500D01*
X0047131Y0154000D01*
X0039631Y0154000D01*
X0032131Y0161500D01*
X0032131Y0166500D01*
X0044331Y0161566D02*
X0044331Y0161161D01*
X0045542Y0159950D01*
X0051792Y0159950D01*
X0053081Y0158661D01*
X0065542Y0146200D01*
X0065542Y0146200D01*
X0066831Y0144911D01*
X0066831Y0120324D01*
X0068308Y0120324D01*
X0068308Y0126604D01*
X0068908Y0127204D01*
X0068908Y0136388D01*
X0070196Y0137676D01*
X0073720Y0141200D01*
X0085004Y0141200D01*
X0084177Y0142026D01*
X0083647Y0143307D01*
X0083647Y0144693D01*
X0084177Y0145974D01*
X0085158Y0146954D01*
X0086438Y0147484D01*
X0087824Y0147484D01*
X0088647Y0147143D01*
X0088647Y0147193D01*
X0089177Y0148474D01*
X0090158Y0149454D01*
X0091438Y0149984D01*
X0092504Y0149984D01*
X0095904Y0153384D01*
X0095904Y0156003D01*
X0096899Y0156999D01*
X0106632Y0156999D01*
X0106632Y0160826D01*
X0107306Y0161500D01*
X0106632Y0162174D01*
X0106632Y0166001D01*
X0100836Y0166001D01*
X0100163Y0166675D01*
X0099489Y0166001D01*
X0097630Y0166001D01*
X0097630Y0164142D01*
X0096957Y0163468D01*
X0097630Y0162795D01*
X0097630Y0158237D01*
X0096635Y0157241D01*
X0092667Y0157241D01*
X0092577Y0157331D01*
X0089550Y0157331D01*
X0089550Y0155727D01*
X0088554Y0154731D01*
X0083209Y0154731D01*
X0082213Y0155727D01*
X0082213Y0160550D01*
X0079550Y0160550D01*
X0079550Y0155727D01*
X0078554Y0154731D01*
X0073209Y0154731D01*
X0072213Y0155727D01*
X0072213Y0158050D01*
X0054970Y0158050D01*
X0053681Y0159339D01*
X0051920Y0161100D01*
X0047727Y0161100D01*
X0046731Y0162096D01*
X0046731Y0163495D01*
X0046709Y0163441D01*
X0045190Y0161922D01*
X0044331Y0161566D01*
X0044331Y0161262D02*
X0047565Y0161262D01*
X0046731Y0162260D02*
X0045528Y0162260D01*
X0046527Y0163259D02*
X0046731Y0163259D01*
X0045229Y0160263D02*
X0052757Y0160263D01*
X0052478Y0159265D02*
X0053755Y0159265D01*
X0053476Y0158266D02*
X0054754Y0158266D01*
X0054475Y0157268D02*
X0072213Y0157268D01*
X0072213Y0156269D02*
X0055473Y0156269D01*
X0056472Y0155271D02*
X0072669Y0155271D01*
X0075881Y0158596D02*
X0075054Y0159423D01*
X0074228Y0160250D01*
X0055881Y0160250D01*
X0052131Y0164000D01*
X0052131Y0166500D01*
X0046731Y0170248D02*
X0046020Y0170248D01*
X0047074Y0171247D02*
X0044782Y0171247D01*
X0057188Y0171247D02*
X0078687Y0171247D01*
X0078266Y0170248D02*
X0057531Y0170248D01*
X0057531Y0169250D02*
X0073704Y0169250D01*
X0072835Y0168251D02*
X0057531Y0168251D01*
X0057531Y0167253D02*
X0072422Y0167253D01*
X0072397Y0166254D02*
X0057531Y0166254D01*
X0057531Y0165256D02*
X0072625Y0165256D01*
X0073196Y0164257D02*
X0057531Y0164257D01*
X0057531Y0163259D02*
X0073681Y0163259D01*
X0075881Y0164000D02*
X0077131Y0162750D01*
X0075881Y0161500D01*
X0075881Y0158596D01*
X0077131Y0162750D02*
X0090881Y0162750D01*
X0092131Y0161500D01*
X0094651Y0161500D01*
X0094651Y0159531D02*
X0086816Y0159531D01*
X0085881Y0158596D01*
X0082213Y0158266D02*
X0079550Y0158266D01*
X0079550Y0157268D02*
X0082213Y0157268D01*
X0082213Y0156269D02*
X0079550Y0156269D01*
X0079094Y0155271D02*
X0082669Y0155271D01*
X0082213Y0159265D02*
X0079550Y0159265D01*
X0079550Y0160263D02*
X0082213Y0160263D01*
X0075881Y0164000D02*
X0075881Y0166500D01*
X0078059Y0169250D02*
X0078266Y0169250D01*
X0082131Y0168154D02*
X0086728Y0168154D01*
X0089444Y0165437D01*
X0094651Y0165437D01*
X0094651Y0163469D02*
X0100163Y0163469D01*
X0100163Y0168980D01*
X0098194Y0168980D02*
X0098194Y0170437D01*
X0095881Y0172750D01*
X0093445Y0175241D02*
X0003831Y0175241D01*
X0003831Y0176239D02*
X0098561Y0176239D01*
X0098561Y0175241D02*
X0098318Y0175241D01*
X0098191Y0177238D02*
X0003831Y0177238D01*
X0003831Y0178237D02*
X0097336Y0178237D01*
X0096922Y0179235D02*
X0003831Y0179235D01*
X0003831Y0180234D02*
X0096819Y0180234D01*
X0096819Y0181232D02*
X0003831Y0181232D01*
X0003831Y0182231D02*
X0096819Y0182231D01*
X0096819Y0183229D02*
X0003831Y0183229D01*
X0003831Y0184228D02*
X0018785Y0184228D01*
X0017600Y0184719D02*
X0020540Y0183501D01*
X0023722Y0183501D01*
X0026662Y0184719D01*
X0028913Y0186969D01*
X0030130Y0189909D01*
X0030130Y0193091D01*
X0028913Y0196031D01*
X0026662Y0198281D01*
X0023722Y0199499D01*
X0020540Y0199499D01*
X0017600Y0198281D01*
X0015350Y0196031D01*
X0014132Y0193091D01*
X0014132Y0189909D01*
X0015350Y0186969D01*
X0017600Y0184719D01*
X0017093Y0185226D02*
X0003831Y0185226D01*
X0003831Y0186225D02*
X0016094Y0186225D01*
X0015244Y0187223D02*
X0003831Y0187223D01*
X0003831Y0188222D02*
X0014831Y0188222D01*
X0014417Y0189220D02*
X0003831Y0189220D01*
X0003831Y0190219D02*
X0014132Y0190219D01*
X0014132Y0191217D02*
X0003831Y0191217D01*
X0003831Y0192216D02*
X0014132Y0192216D01*
X0014183Y0193214D02*
X0003831Y0193214D01*
X0003831Y0194213D02*
X0014597Y0194213D01*
X0015010Y0195211D02*
X0003831Y0195211D01*
X0003831Y0196210D02*
X0015528Y0196210D01*
X0016527Y0197208D02*
X0003831Y0197208D01*
X0003831Y0198207D02*
X0017525Y0198207D01*
X0019830Y0199205D02*
X0003831Y0199205D01*
X0003831Y0200204D02*
X0095481Y0200204D01*
X0095431Y0199205D02*
X0024432Y0199205D01*
X0026737Y0198207D02*
X0095431Y0198207D01*
X0095724Y0197208D02*
X0027736Y0197208D01*
X0028734Y0196210D02*
X0096138Y0196210D01*
X0096819Y0195211D02*
X0029252Y0195211D01*
X0029666Y0194213D02*
X0096819Y0194213D01*
X0096819Y0193214D02*
X0030079Y0193214D01*
X0030130Y0192216D02*
X0096819Y0192216D01*
X0096819Y0191217D02*
X0030130Y0191217D01*
X0030130Y0190219D02*
X0096819Y0190219D01*
X0096819Y0189220D02*
X0029845Y0189220D01*
X0029432Y0188222D02*
X0096819Y0188222D01*
X0096819Y0187223D02*
X0029018Y0187223D01*
X0028168Y0186225D02*
X0096819Y0186225D01*
X0096819Y0185226D02*
X0027170Y0185226D01*
X0025477Y0184228D02*
X0096819Y0184228D01*
X0104943Y0184228D02*
X0168785Y0184228D01*
X0167600Y0184719D02*
X0170540Y0183501D01*
X0173722Y0183501D01*
X0176662Y0184719D01*
X0178913Y0186969D01*
X0180130Y0189909D01*
X0180130Y0193091D01*
X0178913Y0196031D01*
X0176662Y0198281D01*
X0173722Y0199499D01*
X0170540Y0199499D01*
X0167600Y0198281D01*
X0165350Y0196031D01*
X0164132Y0193091D01*
X0164132Y0189909D01*
X0165350Y0186969D01*
X0167600Y0184719D01*
X0167093Y0185226D02*
X0104943Y0185226D01*
X0104943Y0186225D02*
X0166094Y0186225D01*
X0165244Y0187223D02*
X0104943Y0187223D01*
X0104943Y0188222D02*
X0164831Y0188222D01*
X0164417Y0189220D02*
X0104943Y0189220D01*
X0104943Y0190219D02*
X0164132Y0190219D01*
X0164132Y0191217D02*
X0104943Y0191217D01*
X0104943Y0192216D02*
X0164132Y0192216D01*
X0164183Y0193214D02*
X0104943Y0193214D01*
X0104943Y0194213D02*
X0164597Y0194213D01*
X0165010Y0195211D02*
X0104943Y0195211D01*
X0105624Y0196210D02*
X0165528Y0196210D01*
X0166527Y0197208D02*
X0106038Y0197208D01*
X0106331Y0198207D02*
X0167525Y0198207D01*
X0169830Y0199205D02*
X0106331Y0199205D01*
X0106282Y0200204D02*
X0189132Y0200204D01*
X0189132Y0201202D02*
X0105868Y0201202D01*
X0105388Y0202201D02*
X0189132Y0202201D01*
X0189132Y0203199D02*
X0104389Y0203199D01*
X0102574Y0204198D02*
X0189132Y0204198D01*
X0189132Y0205196D02*
X0003831Y0205196D01*
X0003831Y0204198D02*
X0099188Y0204198D01*
X0097373Y0203199D02*
X0003831Y0203199D01*
X0003831Y0202201D02*
X0096375Y0202201D01*
X0095894Y0201202D02*
X0003831Y0201202D01*
X0003831Y0206195D02*
X0189132Y0206195D01*
X0189132Y0207193D02*
X0003831Y0207193D01*
X0003831Y0208192D02*
X0189132Y0208192D01*
X0189132Y0209190D02*
X0003831Y0209190D01*
X0003831Y0210189D02*
X0189132Y0210189D01*
X0189132Y0211187D02*
X0003831Y0211187D01*
X0003831Y0212186D02*
X0189132Y0212186D01*
X0189132Y0213184D02*
X0003831Y0213184D01*
X0003831Y0214183D02*
X0189132Y0214183D01*
X0189132Y0215181D02*
X0003831Y0215181D01*
X0003831Y0174242D02*
X0092728Y0174242D01*
X0092397Y0173244D02*
X0003831Y0173244D01*
X0003831Y0172245D02*
X0092397Y0172245D01*
X0092732Y0171247D02*
X0085576Y0171247D01*
X0087744Y0170248D02*
X0093455Y0170248D01*
X0095904Y0169250D02*
X0088743Y0169250D01*
X0089741Y0168251D02*
X0095904Y0168251D01*
X0097630Y0165256D02*
X0106632Y0165256D01*
X0106632Y0164257D02*
X0097630Y0164257D01*
X0097166Y0163259D02*
X0106632Y0163259D01*
X0106632Y0162260D02*
X0097630Y0162260D01*
X0097630Y0161262D02*
X0107068Y0161262D01*
X0106632Y0160263D02*
X0097630Y0160263D01*
X0097630Y0159265D02*
X0106632Y0159265D01*
X0106632Y0158266D02*
X0097630Y0158266D01*
X0096661Y0157268D02*
X0106632Y0157268D01*
X0108359Y0155271D02*
X0113869Y0155271D01*
X0114431Y0154272D02*
X0108359Y0154272D01*
X0108359Y0153274D02*
X0115815Y0153274D01*
X0117131Y0156500D02*
X0116068Y0157563D01*
X0109612Y0157563D01*
X0109612Y0159531D02*
X0119100Y0159531D01*
X0122131Y0156500D01*
X0120815Y0153274D02*
X0118447Y0153274D01*
X0123447Y0153274D02*
X0123738Y0153274D01*
X0123738Y0152275D02*
X0108359Y0152275D01*
X0108268Y0151277D02*
X0123738Y0151277D01*
X0123738Y0150278D02*
X0110780Y0150278D01*
X0111519Y0149280D02*
X0124231Y0149280D01*
X0130976Y0149280D02*
X0133286Y0149280D01*
X0132793Y0150278D02*
X0131469Y0150278D01*
X0131469Y0151277D02*
X0132793Y0151277D01*
X0132793Y0152275D02*
X0131469Y0152275D01*
X0131469Y0153274D02*
X0132793Y0153274D01*
X0132793Y0154272D02*
X0131469Y0154272D01*
X0131469Y0155271D02*
X0132793Y0155271D01*
X0132793Y0156269D02*
X0131469Y0156269D01*
X0131469Y0157268D02*
X0132780Y0157268D01*
X0131781Y0158266D02*
X0131469Y0158266D01*
X0131659Y0161500D02*
X0136659Y0156500D01*
X0138312Y0154846D01*
X0144631Y0154846D01*
X0141663Y0151277D02*
X0140524Y0151277D01*
X0140524Y0152275D02*
X0140963Y0152275D01*
X0140524Y0150278D02*
X0189132Y0150278D01*
X0189132Y0149280D02*
X0140032Y0149280D01*
X0136659Y0154217D02*
X0136659Y0156500D01*
X0136659Y0156972D01*
X0140524Y0157268D02*
X0140963Y0157268D01*
X0140524Y0158266D02*
X0141513Y0158266D01*
X0139920Y0159265D02*
X0189132Y0159265D01*
X0189132Y0160263D02*
X0148279Y0160263D01*
X0148300Y0161262D02*
X0189132Y0161262D01*
X0189132Y0162260D02*
X0148300Y0162260D01*
X0148300Y0163259D02*
X0189132Y0163259D01*
X0189132Y0164257D02*
X0148300Y0164257D01*
X0148300Y0165256D02*
X0189132Y0165256D01*
X0189132Y0166254D02*
X0148068Y0166254D01*
X0144631Y0163154D02*
X0141285Y0163154D01*
X0139631Y0161500D01*
X0134631Y0161500D01*
X0127604Y0168528D01*
X0127604Y0168783D01*
X0126541Y0169846D01*
X0119631Y0169846D01*
X0115478Y0169846D01*
X0111068Y0165437D01*
X0109612Y0165437D01*
X0109612Y0163469D02*
X0119316Y0163469D01*
X0119631Y0163154D01*
X0122978Y0163154D01*
X0124631Y0161500D01*
X0131659Y0161500D01*
X0131990Y0167253D02*
X0132793Y0167253D01*
X0132793Y0168251D02*
X0131469Y0168251D01*
X0131469Y0169250D02*
X0132793Y0169250D01*
X0132793Y0170248D02*
X0131469Y0170248D01*
X0131469Y0171247D02*
X0132793Y0171247D01*
X0132793Y0172245D02*
X0131469Y0172245D01*
X0131453Y0173244D02*
X0132810Y0173244D01*
X0140508Y0173244D02*
X0189132Y0173244D01*
X0189132Y0174242D02*
X0111400Y0174242D01*
X0111400Y0175241D02*
X0189132Y0175241D01*
X0189132Y0176239D02*
X0111400Y0176239D01*
X0111400Y0177238D02*
X0189132Y0177238D01*
X0189132Y0178237D02*
X0111400Y0178237D01*
X0111338Y0179235D02*
X0189132Y0179235D01*
X0189132Y0180234D02*
X0106491Y0180234D01*
X0104943Y0181232D02*
X0189132Y0181232D01*
X0189132Y0182231D02*
X0104943Y0182231D01*
X0104943Y0183229D02*
X0189132Y0183229D01*
X0189132Y0184228D02*
X0175477Y0184228D01*
X0177170Y0185226D02*
X0189132Y0185226D01*
X0189132Y0186225D02*
X0178168Y0186225D01*
X0179018Y0187223D02*
X0189132Y0187223D01*
X0189132Y0188222D02*
X0179432Y0188222D01*
X0179845Y0189220D02*
X0189132Y0189220D01*
X0189132Y0190219D02*
X0180130Y0190219D01*
X0180130Y0191217D02*
X0189132Y0191217D01*
X0189132Y0192216D02*
X0180130Y0192216D01*
X0180079Y0193214D02*
X0189132Y0193214D01*
X0189132Y0194213D02*
X0179666Y0194213D01*
X0179252Y0195211D02*
X0189132Y0195211D01*
X0189132Y0196210D02*
X0178734Y0196210D01*
X0177736Y0197208D02*
X0189132Y0197208D01*
X0189132Y0198207D02*
X0176737Y0198207D01*
X0174432Y0199205D02*
X0189132Y0199205D01*
X0189132Y0172245D02*
X0140524Y0172245D01*
X0140524Y0171247D02*
X0189132Y0171247D01*
X0189132Y0170248D02*
X0140524Y0170248D01*
X0140524Y0169250D02*
X0189132Y0169250D01*
X0189132Y0168251D02*
X0140524Y0168251D01*
X0140524Y0167253D02*
X0189132Y0167253D01*
X0189132Y0158266D02*
X0147749Y0158266D01*
X0148300Y0157268D02*
X0189132Y0157268D01*
X0189132Y0156269D02*
X0148300Y0156269D01*
X0148300Y0155271D02*
X0189132Y0155271D01*
X0189132Y0154272D02*
X0148300Y0154272D01*
X0148300Y0153274D02*
X0189132Y0153274D01*
X0189132Y0152275D02*
X0148300Y0152275D01*
X0147599Y0151277D02*
X0189132Y0151277D01*
X0189132Y0148281D02*
X0111865Y0148281D01*
X0111865Y0147283D02*
X0189132Y0147283D01*
X0189132Y0146284D02*
X0111545Y0146284D01*
X0110844Y0145286D02*
X0189132Y0145286D01*
X0189132Y0144287D02*
X0109126Y0144287D01*
X0107637Y0144287D02*
X0106300Y0144287D01*
X0105781Y0143289D02*
X0189132Y0143289D01*
X0189132Y0142290D02*
X0104783Y0142290D01*
X0103784Y0141292D02*
X0189132Y0141292D01*
X0189132Y0140293D02*
X0102786Y0140293D01*
X0101787Y0139295D02*
X0132089Y0139295D01*
X0132333Y0133303D02*
X0122187Y0133303D01*
X0121189Y0132305D02*
X0189132Y0132305D01*
X0189132Y0133303D02*
X0152126Y0133303D01*
X0152650Y0134302D02*
X0189132Y0134302D01*
X0189132Y0135301D02*
X0152650Y0135301D01*
X0152650Y0136299D02*
X0189132Y0136299D01*
X0189132Y0137298D02*
X0152650Y0137298D01*
X0152650Y0138296D02*
X0189132Y0138296D01*
X0189132Y0139295D02*
X0152528Y0139295D01*
X0145443Y0133303D02*
X0141929Y0133303D01*
X0142316Y0129309D02*
X0145056Y0129309D01*
X0145428Y0123318D02*
X0141787Y0123318D01*
X0140070Y0114332D02*
X0143838Y0114332D01*
X0143207Y0113333D02*
X0141051Y0113333D01*
X0142049Y0112335D02*
X0143207Y0112335D01*
X0143207Y0111336D02*
X0143048Y0111336D01*
X0144431Y0102350D02*
X0189132Y0102350D01*
X0189132Y0103348D02*
X0155104Y0103348D01*
X0156056Y0104347D02*
X0189132Y0104347D01*
X0189132Y0105345D02*
X0156056Y0105345D01*
X0156056Y0106344D02*
X0189132Y0106344D01*
X0189132Y0107342D02*
X0156056Y0107342D01*
X0156056Y0108341D02*
X0189132Y0108341D01*
X0189132Y0109339D02*
X0156056Y0109339D01*
X0156056Y0110338D02*
X0189132Y0110338D01*
X0189132Y0111336D02*
X0156056Y0111336D01*
X0156056Y0112335D02*
X0189132Y0112335D01*
X0189132Y0113333D02*
X0156056Y0113333D01*
X0155424Y0114332D02*
X0189132Y0114332D01*
X0189132Y0115330D02*
X0111714Y0115330D01*
X0110716Y0114332D02*
X0128484Y0114332D01*
X0127852Y0113333D02*
X0109717Y0113333D01*
X0108719Y0112335D02*
X0127852Y0112335D01*
X0127852Y0111336D02*
X0069431Y0111336D01*
X0069431Y0110338D02*
X0127852Y0110338D01*
X0127852Y0109339D02*
X0079219Y0109339D01*
X0080140Y0108341D02*
X0127852Y0108341D01*
X0127852Y0107342D02*
X0112044Y0107342D01*
X0115479Y0106344D02*
X0118783Y0106344D01*
X0125479Y0106344D02*
X0127852Y0106344D01*
X0127852Y0105345D02*
X0125800Y0105345D01*
X0125800Y0104347D02*
X0127852Y0104347D01*
X0127852Y0103348D02*
X0125800Y0103348D01*
X0125800Y0102350D02*
X0127852Y0102350D01*
X0127852Y0101351D02*
X0125800Y0101351D01*
X0125800Y0100353D02*
X0127852Y0100353D01*
X0127852Y0099354D02*
X0125031Y0099354D01*
X0125134Y0098356D02*
X0127852Y0098356D01*
X0127236Y0097357D02*
X0125548Y0097357D01*
X0125615Y0096359D02*
X0126237Y0096359D01*
X0139266Y0080382D02*
X0189132Y0080382D01*
X0189132Y0079384D02*
X0138268Y0079384D01*
X0140265Y0081381D02*
X0189132Y0081381D01*
X0189132Y0082379D02*
X0141263Y0082379D01*
X0142262Y0083378D02*
X0148064Y0083378D01*
X0146827Y0084376D02*
X0143260Y0084376D01*
X0144259Y0085375D02*
X0146326Y0085375D01*
X0146147Y0086373D02*
X0144431Y0086373D01*
X0144431Y0087372D02*
X0146221Y0087372D01*
X0151199Y0083378D02*
X0189132Y0083378D01*
X0189132Y0084376D02*
X0152435Y0084376D01*
X0152937Y0085375D02*
X0189132Y0085375D01*
X0189132Y0086373D02*
X0153115Y0086373D01*
X0153041Y0087372D02*
X0189132Y0087372D01*
X0189132Y0088370D02*
X0155126Y0088370D01*
X0156056Y0089369D02*
X0189132Y0089369D01*
X0189132Y0090368D02*
X0156056Y0090368D01*
X0156056Y0091366D02*
X0189132Y0091366D01*
X0189132Y0092365D02*
X0156056Y0092365D01*
X0156056Y0093363D02*
X0189132Y0093363D01*
X0189132Y0094362D02*
X0155394Y0094362D01*
X0144431Y0095360D02*
X0189132Y0095360D01*
X0189132Y0096359D02*
X0144431Y0096359D01*
X0144431Y0097357D02*
X0189132Y0097357D01*
X0189132Y0098356D02*
X0144431Y0098356D01*
X0144431Y0099354D02*
X0189132Y0099354D01*
X0189132Y0100353D02*
X0144431Y0100353D01*
X0144431Y0101351D02*
X0189132Y0101351D01*
X0189132Y0116329D02*
X0112713Y0116329D01*
X0106695Y0124317D02*
X0095955Y0124317D01*
X0095955Y0125315D02*
X0107694Y0125315D01*
X0108692Y0126314D02*
X0095955Y0126314D01*
X0095355Y0127312D02*
X0109691Y0127312D01*
X0110689Y0128311D02*
X0095355Y0128311D01*
X0095355Y0129309D02*
X0115116Y0129309D01*
X0116055Y0130308D02*
X0095409Y0130308D01*
X0095615Y0131306D02*
X0116485Y0131306D01*
X0116485Y0132305D02*
X0095569Y0132305D01*
X0095155Y0133303D02*
X0116485Y0133303D01*
X0116681Y0134302D02*
X0096794Y0134302D01*
X0097793Y0135301D02*
X0117679Y0135301D01*
X0118678Y0136299D02*
X0098791Y0136299D01*
X0099790Y0137298D02*
X0119676Y0137298D01*
X0120675Y0138296D02*
X0100789Y0138296D01*
X0095881Y0136500D02*
X0104100Y0144719D01*
X0104100Y0154020D01*
X0106068Y0154020D02*
X0106068Y0150063D01*
X0108381Y0147750D01*
X0102131Y0146500D02*
X0094631Y0139000D01*
X0074631Y0139000D01*
X0071108Y0135476D01*
X0071108Y0123400D01*
X0068308Y0123318D02*
X0066831Y0123318D01*
X0066831Y0122320D02*
X0068308Y0122320D01*
X0068308Y0121321D02*
X0066831Y0121321D01*
X0066831Y0124317D02*
X0068308Y0124317D01*
X0068308Y0125315D02*
X0066831Y0125315D01*
X0066831Y0126314D02*
X0068308Y0126314D01*
X0068908Y0127312D02*
X0066831Y0127312D01*
X0066831Y0128311D02*
X0068908Y0128311D01*
X0068908Y0129309D02*
X0066831Y0129309D01*
X0066831Y0130308D02*
X0068908Y0130308D01*
X0068908Y0131306D02*
X0066831Y0131306D01*
X0066831Y0132305D02*
X0068908Y0132305D01*
X0068908Y0133303D02*
X0066831Y0133303D01*
X0066831Y0134302D02*
X0068908Y0134302D01*
X0068908Y0135301D02*
X0066831Y0135301D01*
X0066831Y0136299D02*
X0068908Y0136299D01*
X0069817Y0137298D02*
X0066831Y0137298D01*
X0066831Y0138296D02*
X0070816Y0138296D01*
X0071814Y0139295D02*
X0066831Y0139295D01*
X0066831Y0140293D02*
X0072813Y0140293D01*
X0077131Y0136500D02*
X0095881Y0136500D01*
X0094631Y0141500D02*
X0089631Y0141500D01*
X0087131Y0144000D01*
X0083892Y0145286D02*
X0066457Y0145286D01*
X0066831Y0144287D02*
X0083647Y0144287D01*
X0083655Y0143289D02*
X0066831Y0143289D01*
X0066831Y0142290D02*
X0084068Y0142290D01*
X0084912Y0141292D02*
X0066831Y0141292D01*
X0065458Y0146284D02*
X0084488Y0146284D01*
X0085951Y0147283D02*
X0064460Y0147283D01*
X0063461Y0148281D02*
X0089098Y0148281D01*
X0088684Y0147283D02*
X0088311Y0147283D01*
X0089983Y0149280D02*
X0062463Y0149280D01*
X0061464Y0150278D02*
X0092798Y0150278D01*
X0093797Y0151277D02*
X0060466Y0151277D01*
X0059467Y0152275D02*
X0094795Y0152275D01*
X0095794Y0153274D02*
X0058469Y0153274D01*
X0057470Y0154272D02*
X0095904Y0154272D01*
X0095904Y0155271D02*
X0089094Y0155271D01*
X0089550Y0156269D02*
X0096170Y0156269D01*
X0094651Y0157563D02*
X0093194Y0157563D01*
X0087535Y0151904D01*
X0085881Y0151904D01*
X0089550Y0157268D02*
X0092640Y0157268D01*
X0098194Y0154020D02*
X0098194Y0152563D01*
X0092131Y0146500D01*
X0094631Y0141500D02*
X0100163Y0147031D01*
X0100163Y0154020D01*
X0102131Y0154020D02*
X0102131Y0146500D01*
X0092131Y0131500D02*
X0093155Y0130476D01*
X0093155Y0123400D01*
X0095955Y0123318D02*
X0105697Y0123318D01*
X0104698Y0122320D02*
X0095955Y0122320D01*
X0095955Y0121321D02*
X0103700Y0121321D01*
X0102701Y0120323D02*
X0102236Y0120323D01*
X0095066Y0112335D02*
X0092893Y0112335D01*
X0093859Y0113333D02*
X0094831Y0113333D01*
X0094831Y0114332D02*
X0094272Y0114332D01*
X0094365Y0115330D02*
X0094831Y0115330D01*
X0094831Y0116329D02*
X0094206Y0116329D01*
X0093731Y0117327D02*
X0094831Y0117327D01*
X0094831Y0118326D02*
X0092560Y0118326D01*
X0090005Y0116126D02*
X0090881Y0115250D01*
X0090005Y0116126D02*
X0090005Y0123400D01*
X0086856Y0123400D02*
X0086856Y0131224D01*
X0087131Y0131500D01*
X0077131Y0136500D02*
X0074257Y0133626D01*
X0074257Y0123400D01*
X0069431Y0118326D02*
X0087805Y0118326D01*
X0087805Y0117327D02*
X0069431Y0117327D01*
X0069431Y0116329D02*
X0087557Y0116329D01*
X0087397Y0115330D02*
X0069431Y0115330D01*
X0069431Y0114332D02*
X0087490Y0114332D01*
X0087904Y0113333D02*
X0069431Y0113333D01*
X0069431Y0112335D02*
X0088869Y0112335D01*
X0094831Y0106344D02*
X0080615Y0106344D01*
X0080554Y0107342D02*
X0095444Y0107342D01*
X0094831Y0105345D02*
X0080424Y0105345D01*
X0079905Y0104347D02*
X0094831Y0104347D01*
X0094831Y0103348D02*
X0078627Y0103348D01*
X0075556Y0104925D02*
X0077131Y0106500D01*
X0075556Y0104925D02*
X0065231Y0104925D01*
X0061031Y0105345D02*
X0054431Y0105345D01*
X0054431Y0104347D02*
X0061031Y0104347D01*
X0061031Y0103348D02*
X0054431Y0103348D01*
X0054534Y0102350D02*
X0061031Y0102350D01*
X0061031Y0101351D02*
X0055533Y0101351D01*
X0054431Y0106344D02*
X0061031Y0106344D01*
X0061031Y0107342D02*
X0054431Y0107342D01*
X0054431Y0108341D02*
X0061031Y0108341D01*
X0061031Y0109339D02*
X0053795Y0109339D01*
X0052796Y0110338D02*
X0061031Y0110338D01*
X0061031Y0111336D02*
X0051798Y0111336D01*
X0050799Y0112335D02*
X0060685Y0112335D01*
X0059687Y0113333D02*
X0049801Y0113333D01*
X0044035Y0106344D02*
X0030228Y0106344D01*
X0029229Y0105345D02*
X0044831Y0105345D01*
X0044831Y0104347D02*
X0044212Y0104347D01*
X0044913Y0099354D02*
X0046024Y0099354D01*
X0045160Y0098356D02*
X0047023Y0098356D01*
X0048021Y0097357D02*
X0045997Y0097357D01*
X0045997Y0096359D02*
X0049020Y0096359D01*
X0050018Y0095360D02*
X0045997Y0095360D01*
X0045997Y0094362D02*
X0051017Y0094362D01*
X0052015Y0093363D02*
X0045997Y0093363D01*
X0045997Y0092365D02*
X0068308Y0092365D01*
X0068308Y0091366D02*
X0045457Y0091366D01*
X0045997Y0090368D02*
X0067746Y0090368D01*
X0069431Y0094362D02*
X0094831Y0094362D01*
X0094831Y0095360D02*
X0069431Y0095360D01*
X0069431Y0096359D02*
X0094831Y0096359D01*
X0094831Y0097357D02*
X0069431Y0097357D01*
X0069431Y0098356D02*
X0094831Y0098356D01*
X0094831Y0099354D02*
X0069431Y0099354D01*
X0069431Y0100353D02*
X0094831Y0100353D01*
X0094831Y0101351D02*
X0069431Y0101351D01*
X0069431Y0102350D02*
X0094831Y0102350D01*
X0075043Y0109339D02*
X0069431Y0109339D01*
X0069431Y0108341D02*
X0074122Y0108341D01*
X0073709Y0107342D02*
X0069431Y0107342D01*
X0057431Y0118326D02*
X0034038Y0118326D01*
X0034934Y0119324D02*
X0057431Y0119324D01*
X0057431Y0120323D02*
X0034934Y0120323D01*
X0034934Y0121321D02*
X0057431Y0121321D01*
X0057431Y0122320D02*
X0035178Y0122320D01*
X0035178Y0123318D02*
X0057431Y0123318D01*
X0057431Y0124317D02*
X0035178Y0124317D01*
X0035178Y0125315D02*
X0057431Y0125315D01*
X0057431Y0126314D02*
X0035178Y0126314D01*
X0035178Y0127312D02*
X0057431Y0127312D01*
X0057431Y0128311D02*
X0035178Y0128311D01*
X0036075Y0129309D02*
X0057431Y0129309D01*
X0057431Y0130308D02*
X0045824Y0130308D01*
X0045997Y0131306D02*
X0057431Y0131306D01*
X0057431Y0132305D02*
X0045997Y0132305D01*
X0045997Y0133303D02*
X0057431Y0133303D01*
X0057431Y0134302D02*
X0045997Y0134302D01*
X0045997Y0135301D02*
X0057431Y0135301D01*
X0057431Y0136299D02*
X0045524Y0136299D01*
X0045997Y0137298D02*
X0057431Y0137298D01*
X0057431Y0138296D02*
X0045997Y0138296D01*
X0045997Y0139295D02*
X0057431Y0139295D01*
X0057431Y0140293D02*
X0045997Y0140293D01*
X0045997Y0141292D02*
X0056728Y0141292D01*
X0055730Y0142290D02*
X0045997Y0142290D01*
X0045227Y0143289D02*
X0054731Y0143289D01*
X0053733Y0144287D02*
X0044846Y0144287D01*
X0045400Y0145286D02*
X0052734Y0145286D01*
X0051736Y0146284D02*
X0045615Y0146284D01*
X0045578Y0147283D02*
X0050737Y0147283D01*
X0049739Y0148281D02*
X0045165Y0148281D01*
X0044279Y0149280D02*
X0048740Y0149280D01*
X0042131Y0146500D02*
X0042131Y0139846D01*
X0035074Y0139846D01*
X0034631Y0139404D01*
X0029989Y0136299D02*
X0029274Y0136299D01*
X0032978Y0132750D02*
X0032978Y0123016D01*
X0031462Y0121500D01*
X0030778Y0125315D02*
X0026666Y0125315D01*
X0026666Y0124317D02*
X0028528Y0124317D01*
X0027990Y0123318D02*
X0026666Y0123318D01*
X0026025Y0122320D02*
X0027990Y0122320D01*
X0026666Y0126314D02*
X0030778Y0126314D01*
X0030778Y0127312D02*
X0026666Y0127312D01*
X0025874Y0128311D02*
X0030778Y0128311D01*
X0029880Y0129309D02*
X0029382Y0129309D01*
X0032978Y0132750D02*
X0033381Y0133154D01*
X0042131Y0133154D01*
X0042131Y0132750D01*
X0038439Y0130308D02*
X0036646Y0130308D01*
X0018044Y0112335D02*
X0014331Y0112335D01*
X0014331Y0113333D02*
X0017045Y0113333D01*
X0016047Y0114332D02*
X0014331Y0114332D01*
X0017131Y0116500D02*
X0017131Y0118154D01*
X0029365Y0088154D02*
X0028962Y0087750D01*
X0029365Y0088154D02*
X0032131Y0088154D01*
X0085031Y0069399D02*
X0086551Y0069399D01*
X0115838Y0059414D02*
X0119231Y0059414D01*
X0119231Y0058415D02*
X0115961Y0058415D01*
X0115961Y0057417D02*
X0119231Y0057417D01*
X0119231Y0056418D02*
X0115961Y0056418D01*
X0115961Y0055420D02*
X0119440Y0055420D01*
X0120109Y0054421D02*
X0115961Y0054421D01*
X0115961Y0053423D02*
X0121107Y0053423D01*
X0122106Y0052424D02*
X0115961Y0052424D01*
X0115961Y0051426D02*
X0123104Y0051426D01*
X0124103Y0050427D02*
X0115961Y0050427D01*
X0115961Y0049429D02*
X0125101Y0049429D01*
X0128231Y0048430D02*
X0115961Y0048430D01*
X0115961Y0047432D02*
X0129196Y0047432D01*
X0129047Y0055420D02*
X0127313Y0055420D01*
X0126314Y0056418D02*
X0157948Y0056418D01*
X0162531Y0052424D02*
X0189132Y0052424D01*
X0189132Y0051426D02*
X0162531Y0051426D01*
X0163341Y0050427D02*
X0189132Y0050427D01*
X0189132Y0049429D02*
X0164263Y0049429D01*
X0164677Y0048430D02*
X0189132Y0048430D01*
X0189132Y0047432D02*
X0165031Y0047432D01*
X0165031Y0046433D02*
X0189132Y0046433D01*
X0189132Y0045434D02*
X0165031Y0045434D01*
X0164621Y0044436D02*
X0189132Y0044436D01*
X0189132Y0043437D02*
X0164205Y0043437D01*
X0163855Y0042439D02*
X0189132Y0042439D01*
X0189132Y0041440D02*
X0163436Y0041440D01*
X0162437Y0040442D02*
X0189132Y0040442D01*
X0189132Y0039443D02*
X0161439Y0039443D01*
X0160440Y0038445D02*
X0189132Y0038445D01*
X0189132Y0037446D02*
X0159442Y0037446D01*
X0158443Y0036448D02*
X0189132Y0036448D01*
X0189132Y0035449D02*
X0157445Y0035449D01*
X0156446Y0034451D02*
X0189132Y0034451D01*
X0189132Y0033452D02*
X0155448Y0033452D01*
X0154449Y0032454D02*
X0189132Y0032454D01*
X0189132Y0031455D02*
X0153451Y0031455D01*
X0152452Y0030457D02*
X0189132Y0030457D01*
X0189132Y0029458D02*
X0151453Y0029458D01*
X0150455Y0028460D02*
X0189132Y0028460D01*
X0189132Y0027461D02*
X0149140Y0027461D01*
X0163155Y0053423D02*
X0189132Y0053423D01*
X0189132Y0054421D02*
X0164154Y0054421D01*
X0165152Y0055420D02*
X0189132Y0055420D01*
X0189132Y0056418D02*
X0166151Y0056418D01*
X0167149Y0057417D02*
X0189132Y0057417D01*
X0189132Y0058415D02*
X0168148Y0058415D01*
X0169146Y0059414D02*
X0189132Y0059414D01*
X0189132Y0060412D02*
X0170145Y0060412D01*
X0171143Y0061411D02*
X0189132Y0061411D01*
X0189132Y0062409D02*
X0174303Y0062409D01*
X0174796Y0063408D02*
X0189132Y0063408D01*
X0189132Y0064406D02*
X0174796Y0064406D01*
X0174796Y0065405D02*
X0189132Y0065405D01*
X0189132Y0066403D02*
X0174796Y0066403D01*
X0174796Y0067402D02*
X0189132Y0067402D01*
X0189132Y0068400D02*
X0174796Y0068400D01*
X0174796Y0069399D02*
X0189132Y0069399D01*
X0189132Y0070397D02*
X0174496Y0070397D01*
X0189132Y0073393D02*
X0118735Y0073393D01*
X0119950Y0074391D02*
X0189132Y0074391D01*
X0189132Y0075390D02*
X0120443Y0075390D01*
X0120615Y0076388D02*
X0189132Y0076388D01*
X0189132Y0077387D02*
X0120535Y0077387D01*
X0120122Y0078385D02*
X0189132Y0078385D01*
X0189132Y0117327D02*
X0123711Y0117327D01*
X0124710Y0118326D02*
X0189132Y0118326D01*
X0189132Y0119324D02*
X0125708Y0119324D01*
X0126707Y0120323D02*
X0189132Y0120323D01*
X0189132Y0121321D02*
X0127705Y0121321D01*
X0127778Y0122320D02*
X0189132Y0122320D01*
X0189132Y0123318D02*
X0152141Y0123318D01*
X0152650Y0124317D02*
X0189132Y0124317D01*
X0189132Y0125315D02*
X0152650Y0125315D01*
X0152650Y0126314D02*
X0189132Y0126314D01*
X0189132Y0127312D02*
X0152650Y0127312D01*
X0152650Y0128311D02*
X0189132Y0128311D01*
X0189132Y0129309D02*
X0152513Y0129309D01*
X0145041Y0139295D02*
X0142174Y0139295D01*
X0131946Y0129309D02*
X0129146Y0129309D01*
X0128208Y0130308D02*
X0189132Y0130308D01*
X0189132Y0131306D02*
X0121085Y0131306D01*
X0121515Y0130308D02*
X0122748Y0130308D01*
X0128834Y0123318D02*
X0132476Y0123318D01*
X0109612Y0161500D02*
X0102131Y0161500D01*
X0100163Y0163469D01*
X0099742Y0166254D02*
X0100583Y0166254D01*
X0108368Y0168251D02*
X0110771Y0168251D01*
X0111770Y0169250D02*
X0108368Y0169250D01*
X0109172Y0170248D02*
X0112768Y0170248D01*
X0113767Y0171247D02*
X0110170Y0171247D01*
X0110730Y0172245D02*
X0115766Y0172245D01*
X0116491Y0173244D02*
X0110730Y0173244D01*
X0122772Y0173244D02*
X0123754Y0173244D01*
X0123738Y0172245D02*
X0123497Y0172245D01*
X0140524Y0166254D02*
X0141194Y0166254D01*
X0136551Y0069399D02*
X0117711Y0069399D01*
X0119332Y0068400D02*
X0134930Y0068400D01*
X0133932Y0067402D02*
X0120331Y0067402D01*
X0119590Y0068143D02*
X0119590Y0068143D01*
X0121329Y0066403D02*
X0132933Y0066403D01*
X0131935Y0065405D02*
X0122328Y0065405D01*
X0123326Y0064406D02*
X0128933Y0064406D01*
X0128231Y0063408D02*
X0124325Y0063408D01*
X0124894Y0062409D02*
X0128231Y0062409D01*
X0128231Y0061411D02*
X0125031Y0061411D01*
X0125031Y0060412D02*
X0128231Y0060412D01*
X0128231Y0059414D02*
X0125031Y0059414D01*
X0125031Y0058415D02*
X0128231Y0058415D01*
X0128310Y0057417D02*
X0125316Y0057417D01*
X0140431Y0062409D02*
X0149960Y0062409D01*
X0149467Y0063408D02*
X0140431Y0063408D01*
D33*
X0137131Y0066500D02*
X0153667Y0066500D01*
X0159631Y0054000D02*
X0170596Y0064965D01*
X0170596Y0066500D01*
X0159631Y0054000D02*
X0159631Y0046500D01*
X0137131Y0066500D02*
X0134331Y0063700D01*
X0134331Y0060600D01*
X0134331Y0051500D02*
X0127131Y0051500D01*
X0122131Y0056500D01*
X0122131Y0061500D01*
X0117131Y0066500D01*
X0098381Y0066500D01*
X0098381Y0057012D01*
X0098381Y0066500D02*
X0087131Y0066500D01*
X0085881Y0065250D01*
X0080478Y0065250D01*
X0082131Y0066904D01*
X0082131Y0071500D01*
X0099031Y0101776D02*
X0099031Y0104925D01*
X0110360Y0104925D01*
X0112131Y0103154D01*
X0112131Y0096500D01*
X0112131Y0103154D02*
X0122131Y0103154D01*
X0122131Y0096500D01*
X0149631Y0091500D02*
X0149631Y0086500D01*
D34*
X0159631Y0046500D02*
X0159631Y0044000D01*
X0147131Y0031500D01*
X0080881Y0031500D01*
X0077131Y0031500D01*
X0067131Y0031500D01*
X0052131Y0046500D01*
D35*
X0060478Y0061500D02*
X0060478Y0067750D01*
X0067131Y0064846D02*
X0067131Y0086500D01*
X0070231Y0089600D01*
X0071108Y0089600D01*
X0065231Y0095476D02*
X0053155Y0095476D01*
X0047131Y0101500D01*
X0047131Y0106500D01*
X0044631Y0109000D01*
X0029631Y0109000D01*
X0026728Y0106096D01*
X0026728Y0099000D01*
X0022131Y0111500D02*
X0017131Y0116500D01*
X0022131Y0111500D02*
X0048381Y0111500D01*
X0052131Y0107750D01*
X0052131Y0101500D01*
X0055005Y0098626D01*
X0065231Y0098626D01*
X0086856Y0089600D02*
X0086856Y0081776D01*
X0089631Y0079000D01*
X0114631Y0079000D01*
X0117131Y0076500D01*
X0127131Y0086500D02*
X0097131Y0086500D01*
X0094031Y0089600D01*
X0093155Y0089600D01*
X0090005Y0089600D02*
X0090005Y0083626D01*
X0092131Y0081500D01*
X0137131Y0081500D01*
X0142131Y0086500D01*
X0142131Y0109000D01*
X0139631Y0111500D01*
X0134277Y0111500D01*
X0125478Y0122346D02*
X0125478Y0126500D01*
X0137052Y0126500D01*
X0137131Y0126579D01*
X0148706Y0126579D01*
X0148785Y0126500D01*
X0148706Y0136421D02*
X0148785Y0136500D01*
X0148706Y0136421D02*
X0137131Y0136421D01*
X0137052Y0136500D01*
X0122131Y0136500D01*
X0118785Y0133154D01*
X0118785Y0126500D01*
X0112131Y0126500D01*
X0103155Y0117524D01*
X0099031Y0117524D01*
X0099031Y0114374D02*
X0107505Y0114374D01*
X0112131Y0119000D01*
X0122131Y0119000D01*
X0125478Y0122346D01*
X0129631Y0096500D02*
X0134277Y0096500D01*
X0134277Y0091500D02*
X0132131Y0091500D01*
X0127131Y0086500D01*
X0124631Y0091500D02*
X0129631Y0096500D01*
X0124631Y0091500D02*
X0117131Y0091500D01*
X0082978Y0047573D02*
X0082978Y0039000D01*
X0081285Y0031904D02*
X0080881Y0031500D01*
X0042131Y0094846D02*
X0042131Y0101500D01*
X0102131Y0168980D02*
X0102131Y0173331D01*
X0101147Y0174315D01*
X0104100Y0173724D02*
X0104690Y0174315D01*
X0104100Y0173724D02*
X0104100Y0168980D01*
X0106068Y0168980D02*
X0106068Y0170398D01*
X0108430Y0172760D01*
X0108430Y0176589D01*
X0108125Y0176283D01*
X0104690Y0176283D01*
X0108322Y0176697D02*
X0108430Y0176589D01*
D36*
X0100881Y0180293D02*
X0100881Y0199000D01*
D37*
X0100881Y0180293D02*
X0101147Y0180027D01*
D38*
X0100881Y0180293D02*
X0100881Y0178518D01*
X0101147Y0178252D01*
M02*
