G75*
%MOIN*%
%OFA0B0*%
%FSLAX25Y25*%
%IPPOS*%
%LPD*%
%AMOC8*
5,1,8,0,0,1.08239X$1,22.5*
%
%ADD10C,0.07400*%
%ADD11C,0.02781*%
%ADD12C,0.01000*%
%ADD13C,0.00600*%
D10*
X0048000Y0011000D03*
X0048000Y0021000D03*
X0048000Y0031000D03*
X0048000Y0041000D03*
X0048000Y0051000D03*
X0048000Y0061000D03*
X0048000Y0071000D03*
X0048000Y0081000D03*
D11*
X0022500Y0046000D03*
X0022500Y0051500D03*
X0033500Y0048500D03*
X0037500Y0048500D03*
X0036500Y0031000D03*
D12*
X0048000Y0031000D01*
X0037500Y0048500D02*
X0040000Y0051000D01*
X0048000Y0051000D01*
X0048000Y0061000D02*
X0042000Y0061000D01*
X0033500Y0052500D01*
X0033500Y0048500D01*
X0022500Y0046000D02*
X0047500Y0071000D01*
X0040500Y0077500D02*
X0044000Y0081000D01*
X0048000Y0081000D01*
X0040500Y0077500D02*
X0040500Y0069500D01*
X0022500Y0051500D01*
D13*
X0047500Y0071000D02*
X0048000Y0071000D01*
M02*
