G75*
%MOIN*%
%OFA0B0*%
%FSLAX25Y25*%
%IPPOS*%
%LPD*%
%AMOC8*
5,1,8,0,0,1.08239X$1,22.5*
%
%ADD10OC8,0.07400*%
%ADD11R,0.07400X0.07400*%
%ADD12C,0.07400*%
%ADD13C,0.06000*%
%ADD14C,0.13000*%
%ADD15C,0.07000*%
%ADD16C,0.01600*%
%ADD17C,0.03962*%
%ADD18C,0.01200*%
%ADD19C,0.03569*%
D10*
X0134300Y0126300D03*
X0144300Y0126300D03*
X0154300Y0126300D03*
X0164300Y0126300D03*
X0174300Y0126300D03*
X0174300Y0137300D03*
X0164300Y0137300D03*
X0154300Y0137300D03*
X0144300Y0137300D03*
X0134300Y0137300D03*
X0221800Y0137300D03*
X0231800Y0137300D03*
X0241800Y0137300D03*
X0251800Y0137300D03*
X0261800Y0137300D03*
X0261800Y0126300D03*
X0251800Y0126300D03*
X0241800Y0126300D03*
X0231800Y0126300D03*
X0221800Y0126300D03*
D11*
X0315284Y0237824D03*
D12*
X0305284Y0237824D03*
X0295284Y0237824D03*
X0285284Y0237824D03*
X0275284Y0237824D03*
X0265284Y0237824D03*
X0255284Y0237824D03*
X0245284Y0237824D03*
X0235284Y0237824D03*
X0225284Y0237824D03*
X0215284Y0237824D03*
X0205284Y0237824D03*
X0195284Y0237824D03*
X0185284Y0237824D03*
X0175284Y0237824D03*
X0165284Y0237824D03*
X0101800Y0066800D03*
X0091800Y0066800D03*
X0091800Y0031800D03*
X0101800Y0031800D03*
D13*
X0229300Y0041800D03*
X0229300Y0061800D03*
X0286300Y0061800D03*
X0286300Y0051800D03*
X0286300Y0041800D03*
D14*
X0256800Y0025800D03*
X0256800Y0077800D03*
D15*
X0184595Y0051800D03*
X0159005Y0051800D03*
D16*
X0006600Y0006600D02*
X0006600Y0258201D01*
X0374421Y0258201D01*
X0374421Y0006600D01*
X0006600Y0006600D01*
X0006600Y0008194D02*
X0374421Y0008194D01*
X0374421Y0009793D02*
X0006600Y0009793D01*
X0006600Y0011391D02*
X0374421Y0011391D01*
X0374421Y0012990D02*
X0006600Y0012990D01*
X0006600Y0014588D02*
X0374421Y0014588D01*
X0374421Y0016187D02*
X0006600Y0016187D01*
X0006600Y0017785D02*
X0252893Y0017785D01*
X0251759Y0018255D02*
X0255030Y0016900D01*
X0258570Y0016900D01*
X0261841Y0018255D01*
X0264345Y0020759D01*
X0265700Y0024030D01*
X0265700Y0027570D01*
X0264345Y0030841D01*
X0261841Y0033345D01*
X0258570Y0034700D01*
X0255030Y0034700D01*
X0251759Y0033345D01*
X0249255Y0030841D01*
X0247900Y0027570D01*
X0247900Y0024030D01*
X0249255Y0020759D01*
X0251759Y0018255D01*
X0250630Y0019384D02*
X0006600Y0019384D01*
X0006600Y0020982D02*
X0031789Y0020982D01*
X0032839Y0020701D02*
X0035761Y0020701D01*
X0038584Y0021457D01*
X0041115Y0022918D01*
X0043182Y0024985D01*
X0044643Y0027516D01*
X0045399Y0030339D01*
X0045399Y0033261D01*
X0044643Y0036084D01*
X0043182Y0038615D01*
X0041115Y0040682D01*
X0038584Y0042143D01*
X0035761Y0042899D01*
X0032839Y0042899D01*
X0030016Y0042143D01*
X0027485Y0040682D01*
X0025418Y0038615D01*
X0023957Y0036084D01*
X0023201Y0033261D01*
X0023201Y0030339D01*
X0023957Y0027516D01*
X0025418Y0024985D01*
X0027485Y0022918D01*
X0030016Y0021457D01*
X0032839Y0020701D01*
X0036811Y0020982D02*
X0249162Y0020982D01*
X0248500Y0022581D02*
X0213062Y0022581D01*
X0212671Y0022419D02*
X0214282Y0023086D01*
X0215514Y0024318D01*
X0216181Y0025929D01*
X0216181Y0027671D01*
X0215514Y0029282D01*
X0214800Y0029996D01*
X0214800Y0032397D01*
X0214343Y0033499D01*
X0204343Y0043499D01*
X0203499Y0044343D01*
X0202397Y0044800D01*
X0138043Y0044800D01*
X0131181Y0051662D01*
X0131181Y0052671D01*
X0130514Y0054282D01*
X0129282Y0055514D01*
X0127671Y0056181D01*
X0125929Y0056181D01*
X0124318Y0055514D01*
X0123086Y0054282D01*
X0122419Y0052671D01*
X0122419Y0050929D01*
X0123086Y0049318D01*
X0124318Y0048086D01*
X0125929Y0047419D01*
X0126938Y0047419D01*
X0135101Y0039257D01*
X0136203Y0038800D01*
X0200557Y0038800D01*
X0208800Y0030557D01*
X0208800Y0029996D01*
X0208086Y0029282D01*
X0207419Y0027671D01*
X0207419Y0025929D01*
X0208086Y0024318D01*
X0209318Y0023086D01*
X0210929Y0022419D01*
X0212671Y0022419D01*
X0210538Y0022581D02*
X0040530Y0022581D01*
X0042376Y0024179D02*
X0208225Y0024179D01*
X0207481Y0025778D02*
X0103201Y0025778D01*
X0103013Y0025700D02*
X0105255Y0026629D01*
X0106971Y0028345D01*
X0107900Y0030587D01*
X0107900Y0033013D01*
X0106971Y0035255D01*
X0105255Y0036971D01*
X0103013Y0037900D01*
X0100587Y0037900D01*
X0098345Y0036971D01*
X0096800Y0035427D01*
X0095255Y0036971D01*
X0093013Y0037900D01*
X0090587Y0037900D01*
X0088345Y0036971D01*
X0086629Y0035255D01*
X0085700Y0033013D01*
X0085700Y0030587D01*
X0086629Y0028345D01*
X0088345Y0026629D01*
X0090587Y0025700D01*
X0093013Y0025700D01*
X0095255Y0026629D01*
X0096800Y0028173D01*
X0098345Y0026629D01*
X0100587Y0025700D01*
X0103013Y0025700D01*
X0100399Y0025778D02*
X0093201Y0025778D01*
X0090399Y0025778D02*
X0043639Y0025778D01*
X0044562Y0027376D02*
X0087597Y0027376D01*
X0086368Y0028975D02*
X0045034Y0028975D01*
X0045399Y0030573D02*
X0085706Y0030573D01*
X0085700Y0032172D02*
X0045399Y0032172D01*
X0045263Y0033770D02*
X0086014Y0033770D01*
X0086742Y0035369D02*
X0044834Y0035369D01*
X0044133Y0036967D02*
X0088341Y0036967D01*
X0095259Y0036967D02*
X0098341Y0036967D01*
X0105259Y0036967D02*
X0202390Y0036967D01*
X0203989Y0035369D02*
X0199427Y0035369D01*
X0199282Y0035514D02*
X0197671Y0036181D01*
X0195929Y0036181D01*
X0194318Y0035514D01*
X0193604Y0034800D01*
X0149996Y0034800D01*
X0149282Y0035514D01*
X0147671Y0036181D01*
X0145929Y0036181D01*
X0144318Y0035514D01*
X0143086Y0034282D01*
X0142419Y0032671D01*
X0142419Y0030929D01*
X0143086Y0029318D01*
X0144318Y0028086D01*
X0145929Y0027419D01*
X0147671Y0027419D01*
X0149282Y0028086D01*
X0149996Y0028800D01*
X0193604Y0028800D01*
X0194318Y0028086D01*
X0195929Y0027419D01*
X0197671Y0027419D01*
X0199282Y0028086D01*
X0200514Y0029318D01*
X0201181Y0030929D01*
X0201181Y0032671D01*
X0200514Y0034282D01*
X0199282Y0035514D01*
X0200726Y0033770D02*
X0205587Y0033770D01*
X0207186Y0032172D02*
X0201181Y0032172D01*
X0201034Y0030573D02*
X0208784Y0030573D01*
X0207959Y0028975D02*
X0200171Y0028975D01*
X0207419Y0027376D02*
X0106003Y0027376D01*
X0107232Y0028975D02*
X0143429Y0028975D01*
X0142566Y0030573D02*
X0107894Y0030573D01*
X0107900Y0032172D02*
X0142419Y0032172D01*
X0142874Y0033770D02*
X0107586Y0033770D01*
X0106858Y0035369D02*
X0144173Y0035369D01*
X0149427Y0035369D02*
X0194173Y0035369D01*
X0200792Y0038566D02*
X0043210Y0038566D01*
X0041632Y0040164D02*
X0134193Y0040164D01*
X0132595Y0041763D02*
X0039242Y0041763D01*
X0029358Y0041763D02*
X0006600Y0041763D01*
X0006600Y0043361D02*
X0130996Y0043361D01*
X0129398Y0044960D02*
X0006600Y0044960D01*
X0006600Y0046558D02*
X0127799Y0046558D01*
X0124247Y0048157D02*
X0006600Y0048157D01*
X0006600Y0049755D02*
X0122905Y0049755D01*
X0122419Y0051354D02*
X0006600Y0051354D01*
X0006600Y0052952D02*
X0122535Y0052952D01*
X0123355Y0054551D02*
X0006600Y0054551D01*
X0006600Y0056149D02*
X0125852Y0056149D01*
X0127748Y0056149D02*
X0155010Y0056149D01*
X0155663Y0056802D02*
X0154003Y0055142D01*
X0153105Y0052974D01*
X0153105Y0050626D01*
X0154003Y0048458D01*
X0155663Y0046798D01*
X0157831Y0045900D01*
X0160178Y0045900D01*
X0162347Y0046798D01*
X0164006Y0048458D01*
X0164905Y0050626D01*
X0164905Y0052974D01*
X0164006Y0055142D01*
X0162347Y0056802D01*
X0160178Y0057700D01*
X0157831Y0057700D01*
X0155663Y0056802D01*
X0153758Y0054551D02*
X0130245Y0054551D01*
X0131065Y0052952D02*
X0153105Y0052952D01*
X0153105Y0051354D02*
X0131489Y0051354D01*
X0133087Y0049755D02*
X0153466Y0049755D01*
X0154304Y0048157D02*
X0134686Y0048157D01*
X0136284Y0046558D02*
X0156242Y0046558D01*
X0161768Y0046558D02*
X0181832Y0046558D01*
X0181253Y0046798D02*
X0183422Y0045900D01*
X0185769Y0045900D01*
X0187937Y0046798D01*
X0189597Y0048458D01*
X0190495Y0050626D01*
X0190495Y0052974D01*
X0189597Y0055142D01*
X0187937Y0056802D01*
X0185769Y0057700D01*
X0183422Y0057700D01*
X0181253Y0056802D01*
X0179593Y0055142D01*
X0178695Y0052974D01*
X0178695Y0050626D01*
X0179593Y0048458D01*
X0181253Y0046798D01*
X0179895Y0048157D02*
X0163705Y0048157D01*
X0164544Y0049755D02*
X0179056Y0049755D01*
X0178695Y0051354D02*
X0164905Y0051354D01*
X0164905Y0052952D02*
X0178695Y0052952D01*
X0179349Y0054551D02*
X0164251Y0054551D01*
X0162999Y0056149D02*
X0180601Y0056149D01*
X0188590Y0056149D02*
X0268800Y0056149D01*
X0268800Y0054551D02*
X0189842Y0054551D01*
X0190495Y0052952D02*
X0268800Y0052952D01*
X0268800Y0051354D02*
X0190495Y0051354D01*
X0190134Y0049755D02*
X0268800Y0049755D01*
X0268800Y0048157D02*
X0189296Y0048157D01*
X0187358Y0046558D02*
X0226677Y0046558D01*
X0226241Y0046378D02*
X0228226Y0047200D01*
X0230374Y0047200D01*
X0232359Y0046378D01*
X0233878Y0044859D01*
X0234700Y0042874D01*
X0234700Y0040726D01*
X0233878Y0038741D01*
X0232359Y0037222D01*
X0230374Y0036400D01*
X0228226Y0036400D01*
X0226241Y0037222D01*
X0224722Y0038741D01*
X0223900Y0040726D01*
X0223900Y0042874D01*
X0224722Y0044859D01*
X0226241Y0046378D01*
X0224823Y0044960D02*
X0137883Y0044960D01*
X0106971Y0063345D02*
X0107900Y0065587D01*
X0107900Y0068013D01*
X0106971Y0070255D01*
X0105255Y0071971D01*
X0103013Y0072900D01*
X0100587Y0072900D01*
X0098345Y0071971D01*
X0096800Y0070427D01*
X0095255Y0071971D01*
X0093013Y0072900D01*
X0090587Y0072900D01*
X0088345Y0071971D01*
X0086629Y0070255D01*
X0085700Y0068013D01*
X0085700Y0065587D01*
X0086629Y0063345D01*
X0088345Y0061629D01*
X0090587Y0060700D01*
X0093013Y0060700D01*
X0095255Y0061629D01*
X0096800Y0063173D01*
X0098345Y0061629D01*
X0100587Y0060700D01*
X0103013Y0060700D01*
X0105255Y0061629D01*
X0106971Y0063345D01*
X0107302Y0064142D02*
X0268800Y0064142D01*
X0268800Y0065740D02*
X0107900Y0065740D01*
X0107900Y0067339D02*
X0268800Y0067339D01*
X0268800Y0068937D02*
X0258661Y0068937D01*
X0258570Y0068900D02*
X0261841Y0070255D01*
X0264345Y0072759D01*
X0265700Y0076030D01*
X0265700Y0079570D01*
X0264345Y0082841D01*
X0261841Y0085345D01*
X0258570Y0086700D01*
X0255030Y0086700D01*
X0251759Y0085345D01*
X0249255Y0082841D01*
X0247900Y0079570D01*
X0247900Y0076030D01*
X0249255Y0072759D01*
X0251759Y0070255D01*
X0255030Y0068900D01*
X0258570Y0068900D01*
X0254939Y0068937D02*
X0107517Y0068937D01*
X0106691Y0070536D02*
X0251478Y0070536D01*
X0249879Y0072134D02*
X0104861Y0072134D01*
X0098739Y0072134D02*
X0094861Y0072134D01*
X0096691Y0070536D02*
X0096909Y0070536D01*
X0088739Y0072134D02*
X0006600Y0072134D01*
X0006600Y0070536D02*
X0086909Y0070536D01*
X0086083Y0068937D02*
X0006600Y0068937D01*
X0006600Y0067339D02*
X0085700Y0067339D01*
X0085700Y0065740D02*
X0006600Y0065740D01*
X0006600Y0064142D02*
X0086298Y0064142D01*
X0087430Y0062543D02*
X0006600Y0062543D01*
X0006600Y0060945D02*
X0089995Y0060945D01*
X0093605Y0060945D02*
X0099995Y0060945D01*
X0097430Y0062543D02*
X0096170Y0062543D01*
X0103605Y0060945D02*
X0268800Y0060945D01*
X0268800Y0062543D02*
X0106170Y0062543D01*
X0097597Y0027376D02*
X0096003Y0027376D01*
X0028070Y0022581D02*
X0006600Y0022581D01*
X0006600Y0024179D02*
X0026224Y0024179D01*
X0024961Y0025778D02*
X0006600Y0025778D01*
X0006600Y0027376D02*
X0024038Y0027376D01*
X0023566Y0028975D02*
X0006600Y0028975D01*
X0006600Y0030573D02*
X0023201Y0030573D01*
X0023201Y0032172D02*
X0006600Y0032172D01*
X0006600Y0033770D02*
X0023337Y0033770D01*
X0023766Y0035369D02*
X0006600Y0035369D01*
X0006600Y0036967D02*
X0024467Y0036967D01*
X0025390Y0038566D02*
X0006600Y0038566D01*
X0006600Y0040164D02*
X0026968Y0040164D01*
X0006600Y0057748D02*
X0268800Y0057748D01*
X0268800Y0059346D02*
X0006600Y0059346D01*
X0006600Y0073733D02*
X0248851Y0073733D01*
X0248189Y0075332D02*
X0006600Y0075332D01*
X0006600Y0076930D02*
X0247900Y0076930D01*
X0247900Y0078529D02*
X0006600Y0078529D01*
X0006600Y0080127D02*
X0248131Y0080127D01*
X0248793Y0081726D02*
X0006600Y0081726D01*
X0006600Y0083324D02*
X0249738Y0083324D01*
X0251336Y0084923D02*
X0006600Y0084923D01*
X0006600Y0086521D02*
X0254598Y0086521D01*
X0259002Y0086521D02*
X0267836Y0086521D01*
X0268800Y0085557D02*
X0265557Y0088800D01*
X0231203Y0088800D01*
X0230101Y0089257D01*
X0220101Y0099257D01*
X0219257Y0100101D01*
X0218800Y0101203D01*
X0218800Y0120673D01*
X0215700Y0123773D01*
X0215700Y0128827D01*
X0218673Y0131800D01*
X0215700Y0134773D01*
X0215700Y0139827D01*
X0219273Y0143400D01*
X0224327Y0143400D01*
X0226800Y0140927D01*
X0229273Y0143400D01*
X0234327Y0143400D01*
X0236800Y0140927D01*
X0239273Y0143400D01*
X0244327Y0143400D01*
X0246800Y0140927D01*
X0249273Y0143400D01*
X0254327Y0143400D01*
X0257900Y0139827D01*
X0257900Y0134773D01*
X0254927Y0131800D01*
X0256800Y0129927D01*
X0259273Y0132400D01*
X0264327Y0132400D01*
X0267900Y0128827D01*
X0267900Y0123773D01*
X0264327Y0120200D01*
X0259273Y0120200D01*
X0256800Y0122673D01*
X0254327Y0120200D01*
X0249273Y0120200D01*
X0246800Y0122673D01*
X0244327Y0120200D01*
X0239273Y0120200D01*
X0236800Y0122673D01*
X0234800Y0120673D01*
X0234800Y0118043D01*
X0253043Y0099800D01*
X0277397Y0099800D01*
X0278499Y0099343D01*
X0279343Y0098499D01*
X0288843Y0088999D01*
X0289300Y0087897D01*
X0289300Y0066402D01*
X0289359Y0066378D01*
X0290878Y0064859D01*
X0291700Y0062874D01*
X0291700Y0060726D01*
X0290878Y0058741D01*
X0289359Y0057222D01*
X0287374Y0056400D01*
X0285226Y0056400D01*
X0283241Y0057222D01*
X0281722Y0058741D01*
X0280900Y0060726D01*
X0280900Y0062874D01*
X0281722Y0064859D01*
X0283241Y0066378D01*
X0283300Y0066402D01*
X0283300Y0086057D01*
X0275557Y0093800D01*
X0269043Y0093800D01*
X0269343Y0093499D01*
X0274343Y0088499D01*
X0274800Y0087397D01*
X0274800Y0048043D01*
X0278043Y0044800D01*
X0281698Y0044800D01*
X0281722Y0044859D01*
X0283241Y0046378D01*
X0285226Y0047200D01*
X0287374Y0047200D01*
X0289359Y0046378D01*
X0290878Y0044859D01*
X0291700Y0042874D01*
X0291700Y0040726D01*
X0290878Y0038741D01*
X0289359Y0037222D01*
X0287374Y0036400D01*
X0285226Y0036400D01*
X0283241Y0037222D01*
X0281722Y0038741D01*
X0281698Y0038800D01*
X0276203Y0038800D01*
X0275101Y0039257D01*
X0270101Y0044257D01*
X0269257Y0045101D01*
X0268800Y0046203D01*
X0268800Y0085557D01*
X0268800Y0084923D02*
X0262264Y0084923D01*
X0263862Y0083324D02*
X0268800Y0083324D01*
X0268800Y0081726D02*
X0264807Y0081726D01*
X0265469Y0080127D02*
X0268800Y0080127D01*
X0268800Y0078529D02*
X0265700Y0078529D01*
X0265700Y0076930D02*
X0268800Y0076930D01*
X0268800Y0075332D02*
X0265411Y0075332D01*
X0264749Y0073733D02*
X0268800Y0073733D01*
X0268800Y0072134D02*
X0263721Y0072134D01*
X0262122Y0070536D02*
X0268800Y0070536D01*
X0274800Y0070536D02*
X0283300Y0070536D01*
X0283300Y0072134D02*
X0274800Y0072134D01*
X0274800Y0073733D02*
X0283300Y0073733D01*
X0283300Y0075332D02*
X0274800Y0075332D01*
X0274800Y0076930D02*
X0283300Y0076930D01*
X0283300Y0078529D02*
X0274800Y0078529D01*
X0274800Y0080127D02*
X0283300Y0080127D01*
X0283300Y0081726D02*
X0274800Y0081726D01*
X0274800Y0083324D02*
X0283300Y0083324D01*
X0283300Y0084923D02*
X0274800Y0084923D01*
X0274800Y0086521D02*
X0282836Y0086521D01*
X0281238Y0088120D02*
X0274501Y0088120D01*
X0273125Y0089718D02*
X0279639Y0089718D01*
X0278041Y0091317D02*
X0271526Y0091317D01*
X0269927Y0092915D02*
X0276442Y0092915D01*
X0281730Y0096112D02*
X0374421Y0096112D01*
X0374421Y0094514D02*
X0283329Y0094514D01*
X0284927Y0092915D02*
X0374421Y0092915D01*
X0374421Y0091317D02*
X0286526Y0091317D01*
X0288125Y0089718D02*
X0374421Y0089718D01*
X0374421Y0088120D02*
X0289208Y0088120D01*
X0289300Y0086521D02*
X0374421Y0086521D01*
X0374421Y0084923D02*
X0289300Y0084923D01*
X0289300Y0083324D02*
X0374421Y0083324D01*
X0374421Y0081726D02*
X0289300Y0081726D01*
X0289300Y0080127D02*
X0374421Y0080127D01*
X0374421Y0078529D02*
X0289300Y0078529D01*
X0289300Y0076930D02*
X0374421Y0076930D01*
X0374421Y0075332D02*
X0289300Y0075332D01*
X0289300Y0073733D02*
X0374421Y0073733D01*
X0374421Y0072134D02*
X0289300Y0072134D01*
X0289300Y0070536D02*
X0374421Y0070536D01*
X0374421Y0068937D02*
X0289300Y0068937D01*
X0289300Y0067339D02*
X0374421Y0067339D01*
X0374421Y0065740D02*
X0289996Y0065740D01*
X0291175Y0064142D02*
X0374421Y0064142D01*
X0374421Y0062543D02*
X0291700Y0062543D01*
X0291700Y0060945D02*
X0374421Y0060945D01*
X0374421Y0059346D02*
X0291129Y0059346D01*
X0289885Y0057748D02*
X0374421Y0057748D01*
X0374421Y0056149D02*
X0274800Y0056149D01*
X0274800Y0054551D02*
X0374421Y0054551D01*
X0374421Y0052952D02*
X0274800Y0052952D01*
X0274800Y0051354D02*
X0374421Y0051354D01*
X0374421Y0049755D02*
X0274800Y0049755D01*
X0274800Y0048157D02*
X0374421Y0048157D01*
X0374421Y0046558D02*
X0288923Y0046558D01*
X0290777Y0044960D02*
X0374421Y0044960D01*
X0374421Y0043361D02*
X0291498Y0043361D01*
X0291700Y0041763D02*
X0334358Y0041763D01*
X0335016Y0042143D02*
X0332485Y0040682D01*
X0330418Y0038615D01*
X0328957Y0036084D01*
X0328201Y0033261D01*
X0328201Y0030339D01*
X0328957Y0027516D01*
X0330418Y0024985D01*
X0332485Y0022918D01*
X0335016Y0021457D01*
X0337839Y0020701D01*
X0340761Y0020701D01*
X0343584Y0021457D01*
X0346115Y0022918D01*
X0348182Y0024985D01*
X0349643Y0027516D01*
X0350399Y0030339D01*
X0350399Y0033261D01*
X0349643Y0036084D01*
X0348182Y0038615D01*
X0346115Y0040682D01*
X0343584Y0042143D01*
X0340761Y0042899D01*
X0337839Y0042899D01*
X0335016Y0042143D01*
X0331968Y0040164D02*
X0291467Y0040164D01*
X0290703Y0038566D02*
X0330390Y0038566D01*
X0329467Y0036967D02*
X0288744Y0036967D01*
X0283856Y0036967D02*
X0231744Y0036967D01*
X0233703Y0038566D02*
X0281897Y0038566D01*
X0281823Y0044960D02*
X0277883Y0044960D01*
X0276284Y0046558D02*
X0283677Y0046558D01*
X0272595Y0041763D02*
X0234700Y0041763D01*
X0234498Y0043361D02*
X0270996Y0043361D01*
X0269398Y0044960D02*
X0233777Y0044960D01*
X0231923Y0046558D02*
X0268800Y0046558D01*
X0274193Y0040164D02*
X0234467Y0040164D01*
X0226856Y0036967D02*
X0210875Y0036967D01*
X0209277Y0038566D02*
X0224897Y0038566D01*
X0224133Y0040164D02*
X0207678Y0040164D01*
X0206080Y0041763D02*
X0223900Y0041763D01*
X0224102Y0043361D02*
X0204481Y0043361D01*
X0212474Y0035369D02*
X0328766Y0035369D01*
X0328337Y0033770D02*
X0260815Y0033770D01*
X0263015Y0032172D02*
X0328201Y0032172D01*
X0328201Y0030573D02*
X0264456Y0030573D01*
X0265118Y0028975D02*
X0328566Y0028975D01*
X0329038Y0027376D02*
X0265700Y0027376D01*
X0265700Y0025778D02*
X0329961Y0025778D01*
X0331224Y0024179D02*
X0265700Y0024179D01*
X0265100Y0022581D02*
X0333070Y0022581D01*
X0336789Y0020982D02*
X0264438Y0020982D01*
X0262970Y0019384D02*
X0374421Y0019384D01*
X0374421Y0020982D02*
X0341811Y0020982D01*
X0345530Y0022581D02*
X0374421Y0022581D01*
X0374421Y0024179D02*
X0347376Y0024179D01*
X0348639Y0025778D02*
X0374421Y0025778D01*
X0374421Y0027376D02*
X0349562Y0027376D01*
X0350034Y0028975D02*
X0374421Y0028975D01*
X0374421Y0030573D02*
X0350399Y0030573D01*
X0350399Y0032172D02*
X0374421Y0032172D01*
X0374421Y0033770D02*
X0350263Y0033770D01*
X0349834Y0035369D02*
X0374421Y0035369D01*
X0374421Y0036967D02*
X0349133Y0036967D01*
X0348210Y0038566D02*
X0374421Y0038566D01*
X0374421Y0040164D02*
X0346632Y0040164D01*
X0344242Y0041763D02*
X0374421Y0041763D01*
X0374421Y0017785D02*
X0260707Y0017785D01*
X0247900Y0024179D02*
X0215375Y0024179D01*
X0216119Y0025778D02*
X0247900Y0025778D01*
X0247900Y0027376D02*
X0216181Y0027376D01*
X0215641Y0028975D02*
X0248482Y0028975D01*
X0249144Y0030573D02*
X0214800Y0030573D01*
X0214800Y0032172D02*
X0250585Y0032172D01*
X0252785Y0033770D02*
X0214072Y0033770D01*
X0274800Y0057748D02*
X0282715Y0057748D01*
X0281471Y0059346D02*
X0274800Y0059346D01*
X0274800Y0060945D02*
X0280900Y0060945D01*
X0280900Y0062543D02*
X0274800Y0062543D01*
X0274800Y0064142D02*
X0281425Y0064142D01*
X0282604Y0065740D02*
X0274800Y0065740D01*
X0274800Y0067339D02*
X0283300Y0067339D01*
X0283300Y0068937D02*
X0274800Y0068937D01*
X0266238Y0088120D02*
X0006600Y0088120D01*
X0006600Y0089718D02*
X0229639Y0089718D01*
X0228041Y0091317D02*
X0006600Y0091317D01*
X0006600Y0092915D02*
X0226442Y0092915D01*
X0224844Y0094514D02*
X0006600Y0094514D01*
X0006600Y0096112D02*
X0223245Y0096112D01*
X0221647Y0097711D02*
X0183376Y0097711D01*
X0182671Y0097419D02*
X0184282Y0098086D01*
X0185514Y0099318D01*
X0186181Y0100929D01*
X0186181Y0101938D01*
X0189343Y0105101D01*
X0189800Y0106203D01*
X0189800Y0132397D01*
X0189343Y0133499D01*
X0188499Y0134343D01*
X0182999Y0139843D01*
X0181897Y0140300D01*
X0179927Y0140300D01*
X0176827Y0143400D01*
X0171773Y0143400D01*
X0169300Y0140927D01*
X0167300Y0142927D01*
X0167300Y0183057D01*
X0173043Y0188800D01*
X0177397Y0188800D01*
X0178499Y0189257D01*
X0179343Y0190101D01*
X0216984Y0227741D01*
X0217828Y0228585D01*
X0218284Y0229687D01*
X0218284Y0232464D01*
X0218740Y0232652D01*
X0220284Y0234197D01*
X0221829Y0232652D01*
X0224071Y0231724D01*
X0226498Y0231724D01*
X0228740Y0232652D01*
X0230284Y0234197D01*
X0231829Y0232652D01*
X0234071Y0231724D01*
X0236498Y0231724D01*
X0238740Y0232652D01*
X0240284Y0234197D01*
X0241829Y0232652D01*
X0244071Y0231724D01*
X0246498Y0231724D01*
X0248740Y0232652D01*
X0250284Y0234197D01*
X0251829Y0232652D01*
X0254071Y0231724D01*
X0256498Y0231724D01*
X0258740Y0232652D01*
X0260284Y0234197D01*
X0261829Y0232652D01*
X0264071Y0231724D01*
X0266498Y0231724D01*
X0268740Y0232652D01*
X0270456Y0234368D01*
X0271384Y0236610D01*
X0271384Y0239037D01*
X0270456Y0241279D01*
X0268740Y0242995D01*
X0266498Y0243924D01*
X0264071Y0243924D01*
X0261829Y0242995D01*
X0260284Y0241450D01*
X0258740Y0242995D01*
X0256498Y0243924D01*
X0254071Y0243924D01*
X0251829Y0242995D01*
X0250284Y0241450D01*
X0248740Y0242995D01*
X0246498Y0243924D01*
X0244071Y0243924D01*
X0241829Y0242995D01*
X0240284Y0241450D01*
X0238740Y0242995D01*
X0236498Y0243924D01*
X0234071Y0243924D01*
X0231829Y0242995D01*
X0230284Y0241450D01*
X0228740Y0242995D01*
X0226498Y0243924D01*
X0224071Y0243924D01*
X0221829Y0242995D01*
X0220284Y0241450D01*
X0218740Y0242995D01*
X0216498Y0243924D01*
X0214071Y0243924D01*
X0211829Y0242995D01*
X0210284Y0241450D01*
X0208740Y0242995D01*
X0206498Y0243924D01*
X0204071Y0243924D01*
X0201829Y0242995D01*
X0200284Y0241450D01*
X0198740Y0242995D01*
X0196498Y0243924D01*
X0194071Y0243924D01*
X0191829Y0242995D01*
X0190284Y0241450D01*
X0188740Y0242995D01*
X0186498Y0243924D01*
X0184071Y0243924D01*
X0181829Y0242995D01*
X0180284Y0241450D01*
X0178740Y0242995D01*
X0176498Y0243924D01*
X0174071Y0243924D01*
X0171829Y0242995D01*
X0170284Y0241450D01*
X0168740Y0242995D01*
X0166498Y0243924D01*
X0164071Y0243924D01*
X0161829Y0242995D01*
X0160113Y0241279D01*
X0159184Y0239037D01*
X0159184Y0236610D01*
X0160113Y0234368D01*
X0161829Y0232652D01*
X0164071Y0231724D01*
X0166498Y0231724D01*
X0168740Y0232652D01*
X0170284Y0234197D01*
X0171829Y0232652D01*
X0174071Y0231724D01*
X0176498Y0231724D01*
X0178740Y0232652D01*
X0180284Y0234197D01*
X0181829Y0232652D01*
X0182284Y0232464D01*
X0182284Y0231527D01*
X0175557Y0224800D01*
X0146203Y0224800D01*
X0145101Y0224343D01*
X0144257Y0223499D01*
X0131757Y0210999D01*
X0131300Y0209897D01*
X0131300Y0142927D01*
X0128200Y0139827D01*
X0128200Y0134773D01*
X0131173Y0131800D01*
X0128200Y0128827D01*
X0128200Y0123773D01*
X0131773Y0120200D01*
X0136827Y0120200D01*
X0139300Y0122673D01*
X0141773Y0120200D01*
X0146827Y0120200D01*
X0150400Y0123773D01*
X0150400Y0128827D01*
X0147427Y0131800D01*
X0149300Y0133673D01*
X0151773Y0131200D01*
X0156827Y0131200D01*
X0159300Y0133673D01*
X0161173Y0131800D01*
X0158200Y0128827D01*
X0158200Y0123773D01*
X0161773Y0120200D01*
X0166827Y0120200D01*
X0169300Y0122673D01*
X0171773Y0120200D01*
X0176827Y0120200D01*
X0180400Y0123773D01*
X0180400Y0128827D01*
X0177427Y0131800D01*
X0179927Y0134300D01*
X0180057Y0134300D01*
X0183800Y0130557D01*
X0183800Y0108043D01*
X0181938Y0106181D01*
X0180929Y0106181D01*
X0179318Y0105514D01*
X0178086Y0104282D01*
X0177419Y0102671D01*
X0177419Y0100929D01*
X0178086Y0099318D01*
X0179318Y0098086D01*
X0180929Y0097419D01*
X0182671Y0097419D01*
X0180224Y0097711D02*
X0006600Y0097711D01*
X0006600Y0099309D02*
X0178095Y0099309D01*
X0177428Y0100908D02*
X0006600Y0100908D01*
X0006600Y0102506D02*
X0177419Y0102506D01*
X0178013Y0104105D02*
X0006600Y0104105D01*
X0006600Y0105703D02*
X0179775Y0105703D01*
X0183059Y0107302D02*
X0006600Y0107302D01*
X0006600Y0108900D02*
X0183800Y0108900D01*
X0183800Y0110499D02*
X0006600Y0110499D01*
X0006600Y0112097D02*
X0183800Y0112097D01*
X0183800Y0113696D02*
X0006600Y0113696D01*
X0006600Y0115294D02*
X0183800Y0115294D01*
X0183800Y0116893D02*
X0006600Y0116893D01*
X0006600Y0118491D02*
X0183800Y0118491D01*
X0183800Y0120090D02*
X0006600Y0120090D01*
X0006600Y0121688D02*
X0130285Y0121688D01*
X0128686Y0123287D02*
X0006600Y0123287D01*
X0006600Y0124885D02*
X0128200Y0124885D01*
X0128200Y0126484D02*
X0006600Y0126484D01*
X0006600Y0128082D02*
X0128200Y0128082D01*
X0129054Y0129681D02*
X0006600Y0129681D01*
X0006600Y0131279D02*
X0130653Y0131279D01*
X0130095Y0132878D02*
X0006600Y0132878D01*
X0006600Y0134476D02*
X0128497Y0134476D01*
X0128200Y0136075D02*
X0006600Y0136075D01*
X0006600Y0137673D02*
X0128200Y0137673D01*
X0128200Y0139272D02*
X0006600Y0139272D01*
X0006600Y0140870D02*
X0129244Y0140870D01*
X0130842Y0142469D02*
X0006600Y0142469D01*
X0006600Y0144068D02*
X0131300Y0144068D01*
X0131300Y0145666D02*
X0006600Y0145666D01*
X0006600Y0147265D02*
X0131300Y0147265D01*
X0131300Y0148863D02*
X0006600Y0148863D01*
X0006600Y0150462D02*
X0131300Y0150462D01*
X0131300Y0152060D02*
X0006600Y0152060D01*
X0006600Y0153659D02*
X0131300Y0153659D01*
X0131300Y0155257D02*
X0006600Y0155257D01*
X0006600Y0156856D02*
X0131300Y0156856D01*
X0131300Y0158454D02*
X0006600Y0158454D01*
X0006600Y0160053D02*
X0131300Y0160053D01*
X0131300Y0161651D02*
X0006600Y0161651D01*
X0006600Y0163250D02*
X0131300Y0163250D01*
X0131300Y0164848D02*
X0006600Y0164848D01*
X0006600Y0166447D02*
X0131300Y0166447D01*
X0131300Y0168045D02*
X0006600Y0168045D01*
X0006600Y0169644D02*
X0131300Y0169644D01*
X0131300Y0171242D02*
X0006600Y0171242D01*
X0006600Y0172841D02*
X0131300Y0172841D01*
X0131300Y0174439D02*
X0006600Y0174439D01*
X0006600Y0176038D02*
X0131300Y0176038D01*
X0131300Y0177636D02*
X0006600Y0177636D01*
X0006600Y0179235D02*
X0131300Y0179235D01*
X0131300Y0180833D02*
X0006600Y0180833D01*
X0006600Y0182432D02*
X0131300Y0182432D01*
X0131300Y0184030D02*
X0006600Y0184030D01*
X0006600Y0185629D02*
X0131300Y0185629D01*
X0131300Y0187227D02*
X0006600Y0187227D01*
X0006600Y0188826D02*
X0131300Y0188826D01*
X0131300Y0190424D02*
X0006600Y0190424D01*
X0006600Y0192023D02*
X0131300Y0192023D01*
X0131300Y0193621D02*
X0006600Y0193621D01*
X0006600Y0195220D02*
X0131300Y0195220D01*
X0131300Y0196818D02*
X0006600Y0196818D01*
X0006600Y0198417D02*
X0131300Y0198417D01*
X0131300Y0200015D02*
X0006600Y0200015D01*
X0006600Y0201614D02*
X0131300Y0201614D01*
X0131300Y0203212D02*
X0006600Y0203212D01*
X0006600Y0204811D02*
X0131300Y0204811D01*
X0131300Y0206409D02*
X0006600Y0206409D01*
X0006600Y0208008D02*
X0131300Y0208008D01*
X0131300Y0209606D02*
X0006600Y0209606D01*
X0006600Y0211205D02*
X0131962Y0211205D01*
X0133561Y0212803D02*
X0006600Y0212803D01*
X0006600Y0214402D02*
X0135159Y0214402D01*
X0136758Y0216001D02*
X0006600Y0216001D01*
X0006600Y0217599D02*
X0138356Y0217599D01*
X0139955Y0219198D02*
X0024000Y0219198D01*
X0023584Y0218957D02*
X0026115Y0220418D01*
X0028182Y0222485D01*
X0029643Y0225016D01*
X0030399Y0227839D01*
X0030399Y0230761D01*
X0029643Y0233584D01*
X0028182Y0236115D01*
X0026115Y0238182D01*
X0023584Y0239643D01*
X0020761Y0240399D01*
X0017839Y0240399D01*
X0015016Y0239643D01*
X0012485Y0238182D01*
X0010418Y0236115D01*
X0008957Y0233584D01*
X0008201Y0230761D01*
X0008201Y0227839D01*
X0008957Y0225016D01*
X0010418Y0222485D01*
X0012485Y0220418D01*
X0015016Y0218957D01*
X0017839Y0218201D01*
X0020761Y0218201D01*
X0023584Y0218957D01*
X0026493Y0220796D02*
X0141553Y0220796D01*
X0143152Y0222395D02*
X0028091Y0222395D01*
X0029052Y0223993D02*
X0144750Y0223993D01*
X0159776Y0235183D02*
X0028720Y0235183D01*
X0029643Y0233584D02*
X0160897Y0233584D01*
X0163438Y0231986D02*
X0030071Y0231986D01*
X0030399Y0230387D02*
X0181144Y0230387D01*
X0182284Y0231986D02*
X0177130Y0231986D01*
X0179671Y0233584D02*
X0180897Y0233584D01*
X0179546Y0228789D02*
X0030399Y0228789D01*
X0030225Y0227190D02*
X0177947Y0227190D01*
X0176349Y0225592D02*
X0029797Y0225592D01*
X0014600Y0219198D02*
X0006600Y0219198D01*
X0006600Y0220796D02*
X0012107Y0220796D01*
X0010509Y0222395D02*
X0006600Y0222395D01*
X0006600Y0223993D02*
X0009548Y0223993D01*
X0008803Y0225592D02*
X0006600Y0225592D01*
X0006600Y0227190D02*
X0008375Y0227190D01*
X0008201Y0228789D02*
X0006600Y0228789D01*
X0006600Y0230387D02*
X0008201Y0230387D01*
X0008529Y0231986D02*
X0006600Y0231986D01*
X0006600Y0233584D02*
X0008957Y0233584D01*
X0009880Y0235183D02*
X0006600Y0235183D01*
X0006600Y0236781D02*
X0011085Y0236781D01*
X0012828Y0238380D02*
X0006600Y0238380D01*
X0006600Y0239978D02*
X0016268Y0239978D01*
X0022332Y0239978D02*
X0159574Y0239978D01*
X0159184Y0238380D02*
X0025772Y0238380D01*
X0027515Y0236781D02*
X0159184Y0236781D01*
X0160411Y0241577D02*
X0006600Y0241577D01*
X0006600Y0243175D02*
X0162264Y0243175D01*
X0168304Y0243175D02*
X0172264Y0243175D01*
X0170411Y0241577D02*
X0170158Y0241577D01*
X0178304Y0243175D02*
X0182264Y0243175D01*
X0180411Y0241577D02*
X0180158Y0241577D01*
X0188304Y0243175D02*
X0192264Y0243175D01*
X0190411Y0241577D02*
X0190158Y0241577D01*
X0198304Y0243175D02*
X0202264Y0243175D01*
X0200411Y0241577D02*
X0200158Y0241577D01*
X0208304Y0243175D02*
X0212264Y0243175D01*
X0210411Y0241577D02*
X0210158Y0241577D01*
X0218304Y0243175D02*
X0222264Y0243175D01*
X0220411Y0241577D02*
X0220158Y0241577D01*
X0228304Y0243175D02*
X0232264Y0243175D01*
X0230411Y0241577D02*
X0230158Y0241577D01*
X0229671Y0233584D02*
X0230897Y0233584D01*
X0233438Y0231986D02*
X0227130Y0231986D01*
X0223438Y0231986D02*
X0218284Y0231986D01*
X0218284Y0230387D02*
X0292284Y0230387D01*
X0292284Y0228789D02*
X0217912Y0228789D01*
X0216984Y0227741D02*
X0216984Y0227741D01*
X0216433Y0227190D02*
X0292284Y0227190D01*
X0292284Y0225592D02*
X0214834Y0225592D01*
X0213236Y0223993D02*
X0292284Y0223993D01*
X0292284Y0222395D02*
X0211637Y0222395D01*
X0210039Y0220796D02*
X0292284Y0220796D01*
X0292284Y0219198D02*
X0208440Y0219198D01*
X0206842Y0217599D02*
X0292284Y0217599D01*
X0292284Y0216001D02*
X0205243Y0216001D01*
X0203645Y0214402D02*
X0292284Y0214402D01*
X0292284Y0212803D02*
X0202046Y0212803D01*
X0200448Y0211205D02*
X0292284Y0211205D01*
X0292284Y0209606D02*
X0198849Y0209606D01*
X0197251Y0208008D02*
X0292284Y0208008D01*
X0292284Y0206409D02*
X0195652Y0206409D01*
X0194054Y0204811D02*
X0292284Y0204811D01*
X0292284Y0203212D02*
X0192455Y0203212D01*
X0190857Y0201614D02*
X0292284Y0201614D01*
X0292284Y0200015D02*
X0189258Y0200015D01*
X0187660Y0198417D02*
X0292284Y0198417D01*
X0292284Y0197719D02*
X0292741Y0196616D01*
X0293585Y0195772D01*
X0323800Y0165557D01*
X0323800Y0164717D01*
X0323253Y0164170D01*
X0322616Y0162632D01*
X0322616Y0160968D01*
X0323253Y0159430D01*
X0324430Y0158253D01*
X0325968Y0157616D01*
X0327632Y0157616D01*
X0329170Y0158253D01*
X0330347Y0159430D01*
X0330984Y0160968D01*
X0330984Y0162632D01*
X0330347Y0164170D01*
X0329800Y0164717D01*
X0329800Y0167397D01*
X0329343Y0168499D01*
X0328499Y0169343D01*
X0298284Y0199558D01*
X0298284Y0232464D01*
X0298740Y0232652D01*
X0300284Y0234197D01*
X0301829Y0232652D01*
X0304071Y0231724D01*
X0306498Y0231724D01*
X0308740Y0232652D01*
X0310456Y0234368D01*
X0311384Y0236610D01*
X0311384Y0239037D01*
X0310456Y0241279D01*
X0308740Y0242995D01*
X0306498Y0243924D01*
X0304071Y0243924D01*
X0301829Y0242995D01*
X0300284Y0241450D01*
X0298740Y0242995D01*
X0296498Y0243924D01*
X0294071Y0243924D01*
X0291829Y0242995D01*
X0290284Y0241450D01*
X0288740Y0242995D01*
X0286498Y0243924D01*
X0284071Y0243924D01*
X0281829Y0242995D01*
X0280113Y0241279D01*
X0279184Y0239037D01*
X0279184Y0236610D01*
X0280113Y0234368D01*
X0281829Y0232652D01*
X0284071Y0231724D01*
X0286498Y0231724D01*
X0288740Y0232652D01*
X0290284Y0234197D01*
X0291829Y0232652D01*
X0292284Y0232464D01*
X0292284Y0197719D01*
X0292657Y0196818D02*
X0186061Y0196818D01*
X0184462Y0195220D02*
X0294137Y0195220D01*
X0295736Y0193621D02*
X0182864Y0193621D01*
X0181265Y0192023D02*
X0297334Y0192023D01*
X0298933Y0190424D02*
X0179667Y0190424D01*
X0179343Y0190101D02*
X0179343Y0190101D01*
X0177459Y0188826D02*
X0300532Y0188826D01*
X0302130Y0187227D02*
X0171470Y0187227D01*
X0169871Y0185629D02*
X0303729Y0185629D01*
X0305327Y0184030D02*
X0168273Y0184030D01*
X0167300Y0182432D02*
X0306926Y0182432D01*
X0308524Y0180833D02*
X0167300Y0180833D01*
X0167300Y0179235D02*
X0310123Y0179235D01*
X0311721Y0177636D02*
X0167300Y0177636D01*
X0167300Y0176038D02*
X0313320Y0176038D01*
X0314918Y0174439D02*
X0167300Y0174439D01*
X0167300Y0172841D02*
X0316517Y0172841D01*
X0318115Y0171242D02*
X0167300Y0171242D01*
X0167300Y0169644D02*
X0319714Y0169644D01*
X0321312Y0168045D02*
X0167300Y0168045D01*
X0167300Y0166447D02*
X0322911Y0166447D01*
X0323800Y0164848D02*
X0167300Y0164848D01*
X0167300Y0163250D02*
X0322871Y0163250D01*
X0322616Y0161651D02*
X0167300Y0161651D01*
X0167300Y0160053D02*
X0322995Y0160053D01*
X0324228Y0158454D02*
X0167300Y0158454D01*
X0167300Y0156856D02*
X0374421Y0156856D01*
X0374421Y0158454D02*
X0329372Y0158454D01*
X0330605Y0160053D02*
X0374421Y0160053D01*
X0374421Y0161651D02*
X0330984Y0161651D01*
X0330729Y0163250D02*
X0374421Y0163250D01*
X0374421Y0164848D02*
X0329800Y0164848D01*
X0329800Y0166447D02*
X0374421Y0166447D01*
X0374421Y0168045D02*
X0329531Y0168045D01*
X0328199Y0169644D02*
X0374421Y0169644D01*
X0374421Y0171242D02*
X0326600Y0171242D01*
X0325002Y0172841D02*
X0374421Y0172841D01*
X0374421Y0174439D02*
X0323403Y0174439D01*
X0321805Y0176038D02*
X0374421Y0176038D01*
X0374421Y0177636D02*
X0320206Y0177636D01*
X0318608Y0179235D02*
X0374421Y0179235D01*
X0374421Y0180833D02*
X0317009Y0180833D01*
X0315411Y0182432D02*
X0374421Y0182432D01*
X0374421Y0184030D02*
X0313812Y0184030D01*
X0312214Y0185629D02*
X0374421Y0185629D01*
X0374421Y0187227D02*
X0310615Y0187227D01*
X0309017Y0188826D02*
X0374421Y0188826D01*
X0374421Y0190424D02*
X0307418Y0190424D01*
X0305820Y0192023D02*
X0374421Y0192023D01*
X0374421Y0193621D02*
X0304221Y0193621D01*
X0302623Y0195220D02*
X0374421Y0195220D01*
X0374421Y0196818D02*
X0301024Y0196818D01*
X0299426Y0198417D02*
X0374421Y0198417D01*
X0374421Y0200015D02*
X0298284Y0200015D01*
X0298284Y0201614D02*
X0374421Y0201614D01*
X0374421Y0203212D02*
X0298284Y0203212D01*
X0298284Y0204811D02*
X0374421Y0204811D01*
X0374421Y0206409D02*
X0298284Y0206409D01*
X0298284Y0208008D02*
X0374421Y0208008D01*
X0374421Y0209606D02*
X0298284Y0209606D01*
X0298284Y0211205D02*
X0374421Y0211205D01*
X0374421Y0212803D02*
X0298284Y0212803D01*
X0298284Y0214402D02*
X0374421Y0214402D01*
X0374421Y0216001D02*
X0298284Y0216001D01*
X0298284Y0217599D02*
X0374421Y0217599D01*
X0374421Y0219198D02*
X0366500Y0219198D01*
X0366084Y0218957D02*
X0368615Y0220418D01*
X0370682Y0222485D01*
X0372143Y0225016D01*
X0372899Y0227839D01*
X0372899Y0230761D01*
X0372143Y0233584D01*
X0370682Y0236115D01*
X0368615Y0238182D01*
X0366084Y0239643D01*
X0363261Y0240399D01*
X0360339Y0240399D01*
X0357516Y0239643D01*
X0354985Y0238182D01*
X0352918Y0236115D01*
X0351457Y0233584D01*
X0350701Y0230761D01*
X0350701Y0227839D01*
X0351457Y0225016D01*
X0352918Y0222485D01*
X0354985Y0220418D01*
X0357516Y0218957D01*
X0360339Y0218201D01*
X0363261Y0218201D01*
X0366084Y0218957D01*
X0368993Y0220796D02*
X0374421Y0220796D01*
X0374421Y0222395D02*
X0370591Y0222395D01*
X0371552Y0223993D02*
X0374421Y0223993D01*
X0374421Y0225592D02*
X0372297Y0225592D01*
X0372725Y0227190D02*
X0374421Y0227190D01*
X0374421Y0228789D02*
X0372899Y0228789D01*
X0372899Y0230387D02*
X0374421Y0230387D01*
X0374421Y0231986D02*
X0372571Y0231986D01*
X0372143Y0233584D02*
X0374421Y0233584D01*
X0374421Y0235183D02*
X0371220Y0235183D01*
X0370015Y0236781D02*
X0374421Y0236781D01*
X0374421Y0238380D02*
X0368272Y0238380D01*
X0364832Y0239978D02*
X0374421Y0239978D01*
X0374421Y0241577D02*
X0310158Y0241577D01*
X0310994Y0239978D02*
X0358768Y0239978D01*
X0355328Y0238380D02*
X0311384Y0238380D01*
X0311384Y0236781D02*
X0353585Y0236781D01*
X0352380Y0235183D02*
X0310793Y0235183D01*
X0309671Y0233584D02*
X0351457Y0233584D01*
X0351029Y0231986D02*
X0307130Y0231986D01*
X0303438Y0231986D02*
X0298284Y0231986D01*
X0298284Y0230387D02*
X0350701Y0230387D01*
X0350701Y0228789D02*
X0298284Y0228789D01*
X0298284Y0227190D02*
X0350875Y0227190D01*
X0351303Y0225592D02*
X0298284Y0225592D01*
X0298284Y0223993D02*
X0352048Y0223993D01*
X0353009Y0222395D02*
X0298284Y0222395D01*
X0298284Y0220796D02*
X0354607Y0220796D01*
X0357100Y0219198D02*
X0298284Y0219198D01*
X0292284Y0231986D02*
X0287130Y0231986D01*
X0289671Y0233584D02*
X0290897Y0233584D01*
X0283438Y0231986D02*
X0267130Y0231986D01*
X0269671Y0233584D02*
X0280897Y0233584D01*
X0279776Y0235183D02*
X0270793Y0235183D01*
X0271384Y0236781D02*
X0279184Y0236781D01*
X0279184Y0238380D02*
X0271384Y0238380D01*
X0270994Y0239978D02*
X0279574Y0239978D01*
X0280411Y0241577D02*
X0270158Y0241577D01*
X0268304Y0243175D02*
X0282264Y0243175D01*
X0288304Y0243175D02*
X0292264Y0243175D01*
X0290411Y0241577D02*
X0290158Y0241577D01*
X0298304Y0243175D02*
X0302264Y0243175D01*
X0300411Y0241577D02*
X0300158Y0241577D01*
X0308304Y0243175D02*
X0374421Y0243175D01*
X0374421Y0244774D02*
X0006600Y0244774D01*
X0006600Y0246372D02*
X0374421Y0246372D01*
X0374421Y0247971D02*
X0006600Y0247971D01*
X0006600Y0249569D02*
X0374421Y0249569D01*
X0374421Y0251168D02*
X0006600Y0251168D01*
X0006600Y0252766D02*
X0374421Y0252766D01*
X0374421Y0254365D02*
X0006600Y0254365D01*
X0006600Y0255963D02*
X0374421Y0255963D01*
X0374421Y0257562D02*
X0006600Y0257562D01*
X0167130Y0231986D02*
X0173438Y0231986D01*
X0170897Y0233584D02*
X0169671Y0233584D01*
X0219671Y0233584D02*
X0220897Y0233584D01*
X0237130Y0231986D02*
X0243438Y0231986D01*
X0240897Y0233584D02*
X0239671Y0233584D01*
X0247130Y0231986D02*
X0253438Y0231986D01*
X0250897Y0233584D02*
X0249671Y0233584D01*
X0257130Y0231986D02*
X0263438Y0231986D01*
X0260897Y0233584D02*
X0259671Y0233584D01*
X0260158Y0241577D02*
X0260411Y0241577D01*
X0262264Y0243175D02*
X0258304Y0243175D01*
X0252264Y0243175D02*
X0248304Y0243175D01*
X0250158Y0241577D02*
X0250411Y0241577D01*
X0242264Y0243175D02*
X0238304Y0243175D01*
X0240158Y0241577D02*
X0240411Y0241577D01*
X0299671Y0233584D02*
X0300897Y0233584D01*
X0374421Y0155257D02*
X0167300Y0155257D01*
X0167300Y0153659D02*
X0374421Y0153659D01*
X0374421Y0152060D02*
X0167300Y0152060D01*
X0167300Y0150462D02*
X0374421Y0150462D01*
X0374421Y0148863D02*
X0167300Y0148863D01*
X0167300Y0147265D02*
X0374421Y0147265D01*
X0374421Y0145666D02*
X0167300Y0145666D01*
X0167300Y0144068D02*
X0374421Y0144068D01*
X0374421Y0142469D02*
X0255258Y0142469D01*
X0256856Y0140870D02*
X0374421Y0140870D01*
X0374421Y0139272D02*
X0257900Y0139272D01*
X0257900Y0137673D02*
X0374421Y0137673D01*
X0374421Y0136075D02*
X0257900Y0136075D01*
X0257603Y0134476D02*
X0374421Y0134476D01*
X0374421Y0132878D02*
X0256005Y0132878D01*
X0255447Y0131279D02*
X0258153Y0131279D01*
X0265447Y0131279D02*
X0374421Y0131279D01*
X0374421Y0129681D02*
X0267046Y0129681D01*
X0267900Y0128082D02*
X0374421Y0128082D01*
X0374421Y0126484D02*
X0267900Y0126484D01*
X0267900Y0124885D02*
X0374421Y0124885D01*
X0374421Y0123287D02*
X0267414Y0123287D01*
X0265815Y0121688D02*
X0374421Y0121688D01*
X0374421Y0120090D02*
X0234800Y0120090D01*
X0234800Y0118491D02*
X0374421Y0118491D01*
X0374421Y0116893D02*
X0235950Y0116893D01*
X0237548Y0115294D02*
X0374421Y0115294D01*
X0374421Y0113696D02*
X0239147Y0113696D01*
X0240745Y0112097D02*
X0374421Y0112097D01*
X0374421Y0110499D02*
X0242344Y0110499D01*
X0243942Y0108900D02*
X0374421Y0108900D01*
X0374421Y0107302D02*
X0245541Y0107302D01*
X0247139Y0105703D02*
X0374421Y0105703D01*
X0374421Y0104105D02*
X0248738Y0104105D01*
X0250336Y0102506D02*
X0374421Y0102506D01*
X0374421Y0100908D02*
X0251935Y0100908D01*
X0278533Y0099309D02*
X0374421Y0099309D01*
X0374421Y0097711D02*
X0280132Y0097711D01*
X0257785Y0121688D02*
X0255815Y0121688D01*
X0247785Y0121688D02*
X0245815Y0121688D01*
X0237785Y0121688D02*
X0235815Y0121688D01*
X0218800Y0120090D02*
X0189800Y0120090D01*
X0189800Y0121688D02*
X0217785Y0121688D01*
X0216186Y0123287D02*
X0189800Y0123287D01*
X0189800Y0124885D02*
X0215700Y0124885D01*
X0215700Y0126484D02*
X0189800Y0126484D01*
X0189800Y0128082D02*
X0215700Y0128082D01*
X0216554Y0129681D02*
X0189800Y0129681D01*
X0189800Y0131279D02*
X0218153Y0131279D01*
X0217595Y0132878D02*
X0189601Y0132878D01*
X0188366Y0134476D02*
X0215997Y0134476D01*
X0215700Y0136075D02*
X0186768Y0136075D01*
X0185169Y0137673D02*
X0215700Y0137673D01*
X0215700Y0139272D02*
X0183571Y0139272D01*
X0179356Y0140870D02*
X0216744Y0140870D01*
X0218342Y0142469D02*
X0177758Y0142469D01*
X0170842Y0142469D02*
X0167758Y0142469D01*
X0160095Y0132878D02*
X0158505Y0132878D01*
X0156906Y0131279D02*
X0160653Y0131279D01*
X0159054Y0129681D02*
X0149546Y0129681D01*
X0150400Y0128082D02*
X0158200Y0128082D01*
X0158200Y0126484D02*
X0150400Y0126484D01*
X0150400Y0124885D02*
X0158200Y0124885D01*
X0158686Y0123287D02*
X0149914Y0123287D01*
X0148315Y0121688D02*
X0160285Y0121688D01*
X0168315Y0121688D02*
X0170285Y0121688D01*
X0178315Y0121688D02*
X0183800Y0121688D01*
X0183800Y0123287D02*
X0179914Y0123287D01*
X0180400Y0124885D02*
X0183800Y0124885D01*
X0183800Y0126484D02*
X0180400Y0126484D01*
X0180400Y0128082D02*
X0183800Y0128082D01*
X0183800Y0129681D02*
X0179546Y0129681D01*
X0177947Y0131279D02*
X0183078Y0131279D01*
X0181479Y0132878D02*
X0178505Y0132878D01*
X0189800Y0118491D02*
X0218800Y0118491D01*
X0218800Y0116893D02*
X0189800Y0116893D01*
X0189800Y0115294D02*
X0218800Y0115294D01*
X0218800Y0113696D02*
X0189800Y0113696D01*
X0189800Y0112097D02*
X0218800Y0112097D01*
X0218800Y0110499D02*
X0189800Y0110499D01*
X0189800Y0108900D02*
X0218800Y0108900D01*
X0218800Y0107302D02*
X0189800Y0107302D01*
X0189593Y0105703D02*
X0218800Y0105703D01*
X0218800Y0104105D02*
X0188347Y0104105D01*
X0186749Y0102506D02*
X0218800Y0102506D01*
X0218922Y0100908D02*
X0186172Y0100908D01*
X0185505Y0099309D02*
X0220048Y0099309D01*
X0225258Y0142469D02*
X0228342Y0142469D01*
X0235258Y0142469D02*
X0238342Y0142469D01*
X0245258Y0142469D02*
X0248342Y0142469D01*
X0151694Y0131279D02*
X0147947Y0131279D01*
X0148505Y0132878D02*
X0150095Y0132878D01*
X0140285Y0121688D02*
X0138315Y0121688D01*
D17*
X0141800Y0101800D03*
X0156800Y0101800D03*
X0171800Y0101800D03*
X0181800Y0101800D03*
X0126800Y0051800D03*
X0146800Y0031800D03*
X0196800Y0031800D03*
X0211800Y0026800D03*
X0256800Y0061800D03*
X0181800Y0181800D03*
X0171800Y0181800D03*
D18*
X0164300Y0184300D02*
X0171800Y0191800D01*
X0176800Y0191800D01*
X0215284Y0230284D01*
X0215284Y0237824D01*
X0205284Y0237824D02*
X0205284Y0230284D01*
X0176800Y0201800D01*
X0161800Y0201800D01*
X0154300Y0194300D01*
X0154300Y0137300D01*
X0164300Y0137300D02*
X0164300Y0184300D01*
X0144300Y0204300D02*
X0151800Y0211800D01*
X0176800Y0211800D01*
X0195284Y0230284D01*
X0195284Y0237824D01*
X0185284Y0237824D02*
X0185284Y0230284D01*
X0176800Y0221800D01*
X0146800Y0221800D01*
X0134300Y0209300D01*
X0134300Y0137300D01*
X0144300Y0137300D02*
X0144300Y0204300D01*
X0174300Y0137300D02*
X0181300Y0137300D01*
X0186800Y0131800D01*
X0186800Y0106800D01*
X0181800Y0101800D01*
X0221800Y0101800D02*
X0221800Y0126300D01*
X0231800Y0126300D02*
X0231800Y0116800D01*
X0251800Y0096800D01*
X0276800Y0096800D01*
X0286300Y0087300D01*
X0286300Y0061800D01*
X0271800Y0046800D02*
X0271800Y0086800D01*
X0266800Y0091800D01*
X0231800Y0091800D01*
X0221800Y0101800D01*
X0271800Y0046800D02*
X0276800Y0041800D01*
X0286300Y0041800D01*
X0211800Y0031800D02*
X0211800Y0026800D01*
X0211800Y0031800D02*
X0201800Y0041800D01*
X0136800Y0041800D01*
X0126800Y0051800D01*
X0146800Y0031800D02*
X0196800Y0031800D01*
X0326800Y0161800D02*
X0326800Y0166800D01*
X0295284Y0198316D01*
X0295284Y0237824D01*
D19*
X0326800Y0161800D03*
M02*
