%
M48
M72
T01C0.0197
T02C0.0236
T03C0.0320
T04C0.0354
T05C0.0400
T06C0.0900
T07C0.1260
%
T01
X32680Y16180
T02
X25680Y6180
X21180Y2680
X19680Y3180
X14680Y3180
X12680Y5180
X14180Y10180
X15680Y10180
X17180Y10180
X18180Y10180
X18180Y18180
X17180Y18180
T03
X10180Y6680
X9180Y6680
X9180Y3180
X10180Y3180
T04
X15900Y5180
X18460Y5180
T05
X22930Y4180
X22930Y6180
X28630Y6180
X28630Y5180
X28630Y4180
X26180Y12630
X25180Y12630
X24180Y12630
X23180Y12630
X22180Y12630
X22180Y13730
X23180Y13730
X24180Y13730
X25180Y13730
X26180Y13730
X17430Y13730
X16430Y13730
X15430Y13730
X14430Y13730
X13430Y13730
X13430Y12630
X14430Y12630
X15430Y12630
X16430Y12630
X17430Y12630
X17528Y23782
X16528Y23782
X18528Y23782
X19528Y23782
X20528Y23782
X21528Y23782
X22528Y23782
X23528Y23782
X24528Y23782
X25528Y23782
X26528Y23782
X27528Y23782
X28528Y23782
X29528Y23782
X30528Y23782
X31528Y23782
T06
X25680Y7780
X25680Y2580
T07
X3430Y3180
X1930Y22930
X33930Y3180
X36180Y22930
M30
