G75*
%MOIN*%
%OFA0B0*%
%FSLAX25Y25*%
%IPPOS*%
%LPD*%
%AMOC8*
5,1,8,0,0,1.08239X$1,22.5*
%
%ADD10R,0.04331X0.03937*%
%ADD11R,0.03937X0.04331*%
%ADD12R,0.05906X0.05118*%
%ADD13C,0.06500*%
%ADD14R,0.06500X0.06500*%
%ADD15C,0.07400*%
%ADD16R,0.05984X0.07008*%
%ADD17C,0.08850*%
%ADD18R,0.08800X0.04800*%
%ADD19R,0.08661X0.14173*%
%ADD20R,0.05000X0.02200*%
%ADD21R,0.02200X0.05000*%
%ADD22R,0.04331X0.04724*%
%ADD23C,0.07050*%
%ADD24C,0.14630*%
%ADD25C,0.01200*%
%ADD26C,0.03962*%
%ADD27C,0.01600*%
%ADD28C,0.02400*%
%ADD29C,0.05000*%
%ADD30C,0.06600*%
%ADD31C,0.02000*%
D10*
X0145754Y0096600D03*
X0152446Y0096600D03*
X0152446Y0106600D03*
X0145754Y0106600D03*
X0221600Y0089946D03*
X0221600Y0083254D03*
D11*
X0167446Y0114100D03*
X0160754Y0114100D03*
X0146600Y0133254D03*
X0146600Y0139946D03*
X0144946Y0151600D03*
X0138254Y0151600D03*
D12*
X0156600Y0140340D03*
X0156600Y0132860D03*
D13*
X0156600Y0031679D03*
D14*
X0156600Y0041521D03*
D15*
X0201600Y0084100D03*
X0211600Y0084100D03*
X0211600Y0094100D03*
X0211600Y0104100D03*
X0201600Y0104100D03*
X0201600Y0094100D03*
X0241600Y0091600D03*
X0251600Y0091600D03*
X0251600Y0081600D03*
X0241600Y0081600D03*
X0241600Y0071600D03*
X0251600Y0071600D03*
X0251600Y0061600D03*
X0241600Y0061600D03*
X0241600Y0051600D03*
X0251600Y0051600D03*
X0251600Y0136600D03*
X0241600Y0136600D03*
X0241600Y0146600D03*
X0251600Y0146600D03*
X0251600Y0156600D03*
X0241600Y0156600D03*
X0241600Y0166600D03*
X0251600Y0166600D03*
X0251600Y0176600D03*
X0241600Y0176600D03*
X0066600Y0156600D03*
X0066600Y0126600D03*
X0066600Y0106600D03*
X0066600Y0076600D03*
D16*
X0083313Y0101600D03*
X0083313Y0111600D03*
X0083313Y0121600D03*
X0119887Y0121600D03*
X0119887Y0111600D03*
X0119887Y0101600D03*
D17*
X0047525Y0111600D02*
X0038675Y0111600D01*
X0038675Y0089600D02*
X0047525Y0089600D01*
X0047525Y0133600D02*
X0038675Y0133600D01*
D18*
X0163800Y0075700D03*
X0163800Y0066600D03*
X0163800Y0057500D03*
D19*
X0139399Y0066600D03*
D20*
X0169700Y0125576D03*
X0169700Y0128726D03*
X0169700Y0131876D03*
X0169700Y0135025D03*
X0169700Y0138175D03*
X0169700Y0141324D03*
X0169700Y0144474D03*
X0169700Y0147624D03*
X0203500Y0147624D03*
X0203500Y0144474D03*
X0203500Y0141324D03*
X0203500Y0138175D03*
X0203500Y0135025D03*
X0203500Y0131876D03*
X0203500Y0128726D03*
X0203500Y0125576D03*
D21*
X0197624Y0119700D03*
X0194474Y0119700D03*
X0191324Y0119700D03*
X0188175Y0119700D03*
X0185025Y0119700D03*
X0181876Y0119700D03*
X0178726Y0119700D03*
X0175576Y0119700D03*
X0175576Y0153500D03*
X0178726Y0153500D03*
X0181876Y0153500D03*
X0185025Y0153500D03*
X0188175Y0153500D03*
X0191324Y0153500D03*
X0194474Y0153500D03*
X0197624Y0153500D03*
D22*
X0167545Y0106226D03*
X0160655Y0106226D03*
X0160655Y0096974D03*
X0167545Y0096974D03*
D23*
X0111443Y0035125D02*
X0111443Y0028075D01*
X0091757Y0028075D02*
X0091757Y0035125D01*
X0091443Y0183075D02*
X0091443Y0190125D01*
X0071757Y0190125D02*
X0071757Y0183075D01*
X0116757Y0183075D02*
X0116757Y0190125D01*
X0136443Y0190125D02*
X0136443Y0183075D01*
D24*
X0026600Y0161600D03*
X0026600Y0061600D03*
D25*
X0003400Y0003400D02*
X0003400Y0214761D01*
X0288501Y0214761D01*
X0288501Y0003400D01*
X0003400Y0003400D01*
X0003400Y0003997D02*
X0288501Y0003997D01*
X0288501Y0005196D02*
X0003400Y0005196D01*
X0003400Y0006394D02*
X0288501Y0006394D01*
X0288501Y0007593D02*
X0003400Y0007593D01*
X0003400Y0008791D02*
X0288501Y0008791D01*
X0288501Y0009990D02*
X0003400Y0009990D01*
X0003400Y0011188D02*
X0288501Y0011188D01*
X0288501Y0012387D02*
X0003400Y0012387D01*
X0003400Y0013585D02*
X0288501Y0013585D01*
X0288501Y0014784D02*
X0003400Y0014784D01*
X0003400Y0015982D02*
X0288501Y0015982D01*
X0288501Y0017181D02*
X0003400Y0017181D01*
X0003400Y0018379D02*
X0288501Y0018379D01*
X0288501Y0019578D02*
X0205811Y0019578D01*
X0206188Y0019734D02*
X0208466Y0022012D01*
X0209699Y0024989D01*
X0209699Y0028211D01*
X0208466Y0031188D01*
X0206188Y0033466D01*
X0203211Y0034699D01*
X0199989Y0034699D01*
X0197012Y0033466D01*
X0194734Y0031188D01*
X0193501Y0028211D01*
X0193501Y0024989D01*
X0194734Y0022012D01*
X0197012Y0019734D01*
X0199989Y0018501D01*
X0203211Y0018501D01*
X0206188Y0019734D01*
X0207230Y0020776D02*
X0288501Y0020776D01*
X0288501Y0021975D02*
X0208429Y0021975D01*
X0208947Y0023173D02*
X0288501Y0023173D01*
X0288501Y0024372D02*
X0209444Y0024372D01*
X0209699Y0025570D02*
X0288501Y0025570D01*
X0288501Y0026769D02*
X0209699Y0026769D01*
X0209699Y0027967D02*
X0288501Y0027967D01*
X0288501Y0029166D02*
X0209304Y0029166D01*
X0208807Y0030364D02*
X0288501Y0030364D01*
X0288501Y0031563D02*
X0208091Y0031563D01*
X0206893Y0032761D02*
X0288501Y0032761D01*
X0288501Y0033960D02*
X0204996Y0033960D01*
X0198204Y0033960D02*
X0116768Y0033960D01*
X0116768Y0035158D02*
X0288501Y0035158D01*
X0288501Y0036357D02*
X0116696Y0036357D01*
X0116768Y0036184D02*
X0115957Y0038141D01*
X0114459Y0039639D01*
X0112502Y0040450D01*
X0110383Y0040450D01*
X0108426Y0039639D01*
X0106928Y0038141D01*
X0106118Y0036184D01*
X0106118Y0027016D01*
X0106928Y0025059D01*
X0108426Y0023561D01*
X0110383Y0022750D01*
X0112502Y0022750D01*
X0114459Y0023561D01*
X0115957Y0025059D01*
X0116768Y0027016D01*
X0116768Y0036184D01*
X0116200Y0037555D02*
X0151550Y0037555D01*
X0151550Y0037526D02*
X0152604Y0036471D01*
X0160596Y0036471D01*
X0161650Y0037526D01*
X0161650Y0045517D01*
X0160596Y0046571D01*
X0155793Y0046571D01*
X0154600Y0047764D01*
X0154600Y0070357D01*
X0156943Y0072700D01*
X0157600Y0072700D01*
X0157600Y0072554D01*
X0158654Y0071500D01*
X0167257Y0071500D01*
X0166557Y0070800D01*
X0158654Y0070800D01*
X0157600Y0069746D01*
X0157600Y0063454D01*
X0158654Y0062400D01*
X0166557Y0062400D01*
X0168600Y0060357D01*
X0168600Y0056003D01*
X0169057Y0054901D01*
X0179057Y0044901D01*
X0179901Y0044057D01*
X0181003Y0043600D01*
X0230357Y0043600D01*
X0234057Y0039901D01*
X0234901Y0039057D01*
X0236003Y0038600D01*
X0247197Y0038600D01*
X0248299Y0039057D01*
X0253299Y0044057D01*
X0254143Y0044901D01*
X0254600Y0046003D01*
X0254600Y0046889D01*
X0254715Y0046937D01*
X0256263Y0048484D01*
X0256310Y0048600D01*
X0257197Y0048600D01*
X0258299Y0049057D01*
X0263299Y0054057D01*
X0264143Y0054901D01*
X0264600Y0056003D01*
X0264600Y0092197D01*
X0264143Y0093299D01*
X0257100Y0100343D01*
X0257100Y0134697D01*
X0256932Y0135101D01*
X0257100Y0135506D01*
X0257100Y0137694D01*
X0256263Y0139715D01*
X0254715Y0141263D01*
X0253901Y0141600D01*
X0254715Y0141937D01*
X0256263Y0143484D01*
X0256559Y0144200D01*
X0257077Y0144200D01*
X0257959Y0144565D01*
X0258635Y0145241D01*
X0264885Y0151491D01*
X0265250Y0152373D01*
X0265250Y0153327D01*
X0265250Y0190827D01*
X0264885Y0191709D01*
X0264209Y0192385D01*
X0260459Y0196135D01*
X0259577Y0196500D01*
X0213623Y0196500D01*
X0212741Y0196135D01*
X0212065Y0195459D01*
X0190575Y0173969D01*
X0190575Y0177181D01*
X0191213Y0177819D01*
X0192352Y0177819D01*
X0193742Y0178395D01*
X0194805Y0179458D01*
X0195381Y0180848D01*
X0195381Y0182352D01*
X0194805Y0183742D01*
X0193742Y0184805D01*
X0192352Y0185381D01*
X0190848Y0185381D01*
X0189458Y0184805D01*
X0188395Y0183742D01*
X0187819Y0182352D01*
X0187819Y0181213D01*
X0186140Y0179534D01*
X0185775Y0178652D01*
X0185775Y0157800D01*
X0173731Y0157800D01*
X0172676Y0156746D01*
X0172676Y0150524D01*
X0166454Y0150524D01*
X0166262Y0150332D01*
X0162959Y0153635D01*
X0162077Y0154000D01*
X0159547Y0154000D01*
X0158742Y0154805D01*
X0157352Y0155381D01*
X0155848Y0155381D01*
X0154458Y0154805D01*
X0153395Y0153742D01*
X0152819Y0152352D01*
X0152819Y0150848D01*
X0153395Y0149458D01*
X0153853Y0149000D01*
X0150941Y0149000D01*
X0148715Y0151226D01*
X0148715Y0154511D01*
X0147661Y0155565D01*
X0142232Y0155565D01*
X0141600Y0154933D01*
X0140968Y0155565D01*
X0135539Y0155565D01*
X0134485Y0154511D01*
X0134485Y0152879D01*
X0129565Y0147959D01*
X0129200Y0147077D01*
X0129200Y0137594D01*
X0125606Y0134000D01*
X0106123Y0134000D01*
X0105241Y0133635D01*
X0104565Y0132959D01*
X0099565Y0127959D01*
X0099200Y0127077D01*
X0099200Y0106123D01*
X0099565Y0105241D01*
X0100241Y0104565D01*
X0105241Y0099565D01*
X0106123Y0099200D01*
X0115095Y0099200D01*
X0115095Y0097350D01*
X0116150Y0096296D01*
X0123625Y0096296D01*
X0124680Y0097350D01*
X0124680Y0105850D01*
X0123625Y0106904D01*
X0116150Y0106904D01*
X0115095Y0105850D01*
X0115095Y0104000D01*
X0107594Y0104000D01*
X0104000Y0107594D01*
X0104000Y0125606D01*
X0107594Y0129200D01*
X0127077Y0129200D01*
X0127959Y0129565D01*
X0128635Y0130241D01*
X0132959Y0134565D01*
X0133236Y0134842D01*
X0133395Y0134458D01*
X0134458Y0133395D01*
X0135848Y0132819D01*
X0136138Y0132819D01*
X0137357Y0131600D01*
X0134057Y0128299D01*
X0133600Y0127197D01*
X0133600Y0091003D01*
X0134057Y0089901D01*
X0134901Y0089057D01*
X0139901Y0084057D01*
X0141003Y0083600D01*
X0165357Y0083600D01*
X0168600Y0080357D01*
X0168600Y0079900D01*
X0158654Y0079900D01*
X0157600Y0078846D01*
X0157600Y0078700D01*
X0155103Y0078700D01*
X0154001Y0078243D01*
X0149901Y0074143D01*
X0149057Y0073299D01*
X0148600Y0072197D01*
X0148600Y0045925D01*
X0149057Y0044822D01*
X0151550Y0042329D01*
X0151550Y0037526D01*
X0151550Y0038754D02*
X0115344Y0038754D01*
X0113703Y0039952D02*
X0151550Y0039952D01*
X0151550Y0041151D02*
X0003400Y0041151D01*
X0003400Y0042349D02*
X0151529Y0042349D01*
X0150331Y0043548D02*
X0003400Y0043548D01*
X0003400Y0044746D02*
X0149132Y0044746D01*
X0148600Y0045945D02*
X0003400Y0045945D01*
X0003400Y0047143D02*
X0148600Y0047143D01*
X0148600Y0048342D02*
X0003400Y0048342D01*
X0003400Y0049540D02*
X0148600Y0049540D01*
X0148600Y0050739D02*
X0003400Y0050739D01*
X0003400Y0051937D02*
X0148600Y0051937D01*
X0148600Y0053136D02*
X0029985Y0053136D01*
X0028413Y0052485D02*
X0031763Y0053873D01*
X0034327Y0056437D01*
X0035715Y0059787D01*
X0035715Y0063413D01*
X0034327Y0066763D01*
X0031763Y0069327D01*
X0028413Y0070715D01*
X0024787Y0070715D01*
X0021437Y0069327D01*
X0018873Y0066763D01*
X0017485Y0063413D01*
X0017485Y0059787D01*
X0018873Y0056437D01*
X0021437Y0053873D01*
X0024787Y0052485D01*
X0028413Y0052485D01*
X0032225Y0054334D02*
X0148600Y0054334D01*
X0148600Y0055533D02*
X0033423Y0055533D01*
X0034449Y0056732D02*
X0148600Y0056732D01*
X0148600Y0057930D02*
X0144692Y0057930D01*
X0144476Y0057713D02*
X0145530Y0058768D01*
X0145530Y0074432D01*
X0144476Y0075487D01*
X0134323Y0075487D01*
X0133269Y0074432D01*
X0133269Y0058768D01*
X0134323Y0057713D01*
X0144476Y0057713D01*
X0145530Y0059129D02*
X0148600Y0059129D01*
X0148600Y0060327D02*
X0145530Y0060327D01*
X0145530Y0061526D02*
X0148600Y0061526D01*
X0148600Y0062724D02*
X0145530Y0062724D01*
X0145530Y0063923D02*
X0148600Y0063923D01*
X0148600Y0065121D02*
X0145530Y0065121D01*
X0145530Y0066320D02*
X0148600Y0066320D01*
X0148600Y0067518D02*
X0145530Y0067518D01*
X0145530Y0068717D02*
X0148600Y0068717D01*
X0148600Y0069915D02*
X0145530Y0069915D01*
X0145530Y0071114D02*
X0148600Y0071114D01*
X0148648Y0072312D02*
X0145530Y0072312D01*
X0145530Y0073511D02*
X0149268Y0073511D01*
X0150467Y0074709D02*
X0145253Y0074709D01*
X0151665Y0075908D02*
X0078120Y0075908D01*
X0079319Y0077106D02*
X0152864Y0077106D01*
X0154149Y0078305D02*
X0080517Y0078305D01*
X0081716Y0079503D02*
X0158258Y0079503D01*
X0157842Y0072312D02*
X0156555Y0072312D01*
X0155356Y0071114D02*
X0166871Y0071114D01*
X0157770Y0069915D02*
X0154600Y0069915D01*
X0154600Y0068717D02*
X0157600Y0068717D01*
X0157600Y0067518D02*
X0154600Y0067518D01*
X0154600Y0066320D02*
X0157600Y0066320D01*
X0157600Y0065121D02*
X0154600Y0065121D01*
X0154600Y0063923D02*
X0157600Y0063923D01*
X0158330Y0062724D02*
X0154600Y0062724D01*
X0154600Y0061526D02*
X0167432Y0061526D01*
X0168600Y0060327D02*
X0154600Y0060327D01*
X0154600Y0059129D02*
X0168600Y0059129D01*
X0168600Y0057930D02*
X0154600Y0057930D01*
X0154600Y0056732D02*
X0168600Y0056732D01*
X0168795Y0055533D02*
X0154600Y0055533D01*
X0154600Y0054334D02*
X0169623Y0054334D01*
X0170821Y0053136D02*
X0154600Y0053136D01*
X0154600Y0051937D02*
X0172020Y0051937D01*
X0173218Y0050739D02*
X0154600Y0050739D01*
X0154600Y0049540D02*
X0174417Y0049540D01*
X0175615Y0048342D02*
X0154600Y0048342D01*
X0155220Y0047143D02*
X0176814Y0047143D01*
X0178012Y0045945D02*
X0161222Y0045945D01*
X0161650Y0044746D02*
X0179211Y0044746D01*
X0184100Y0051600D02*
X0176600Y0059100D01*
X0176600Y0084100D01*
X0171600Y0089100D01*
X0171600Y0096600D01*
X0174100Y0099100D01*
X0174100Y0109100D01*
X0175576Y0110576D01*
X0175576Y0119700D01*
X0178726Y0119700D02*
X0178726Y0103726D01*
X0176600Y0101600D01*
X0176600Y0094100D01*
X0171600Y0101600D02*
X0171600Y0114100D01*
X0167446Y0114100D01*
X0166354Y0113254D01*
X0171600Y0114100D02*
X0171600Y0119100D01*
X0169700Y0121000D01*
X0169700Y0125576D01*
X0169700Y0128726D02*
X0163726Y0128726D01*
X0161600Y0126600D01*
X0161600Y0121600D01*
X0156600Y0116600D01*
X0156600Y0114100D01*
X0160754Y0114100D01*
X0156600Y0114100D02*
X0156600Y0106600D01*
X0152446Y0106600D01*
X0148481Y0107069D02*
X0139600Y0107069D01*
X0139600Y0108268D02*
X0148481Y0108268D01*
X0148481Y0109314D02*
X0148481Y0103886D01*
X0149536Y0102831D01*
X0155357Y0102831D01*
X0156412Y0103886D01*
X0156412Y0104200D01*
X0156690Y0104200D01*
X0156690Y0103118D01*
X0157744Y0102064D01*
X0163566Y0102064D01*
X0164100Y0102598D01*
X0164634Y0102064D01*
X0168670Y0102064D01*
X0167742Y0101136D01*
X0164634Y0101136D01*
X0164100Y0100602D01*
X0163566Y0101136D01*
X0157744Y0101136D01*
X0156690Y0100082D01*
X0156690Y0094904D01*
X0156412Y0095182D01*
X0156412Y0099314D01*
X0155357Y0100368D01*
X0149536Y0100368D01*
X0148481Y0099314D01*
X0148481Y0093886D01*
X0149536Y0092831D01*
X0151974Y0092831D01*
X0154565Y0090241D01*
X0155206Y0089600D01*
X0142843Y0089600D01*
X0139600Y0092843D01*
X0139600Y0125357D01*
X0143299Y0129057D01*
X0143708Y0129466D01*
X0143886Y0129288D01*
X0149314Y0129288D01*
X0149886Y0129860D01*
X0151847Y0129860D01*
X0151847Y0129555D01*
X0152902Y0128501D01*
X0160107Y0128501D01*
X0159565Y0127959D01*
X0159200Y0127077D01*
X0159200Y0122594D01*
X0154565Y0117959D01*
X0154200Y0117077D01*
X0154200Y0110368D01*
X0149536Y0110368D01*
X0148481Y0109314D01*
X0148633Y0109466D02*
X0139600Y0109466D01*
X0139600Y0110665D02*
X0154200Y0110665D01*
X0154200Y0111863D02*
X0139600Y0111863D01*
X0139600Y0113062D02*
X0154200Y0113062D01*
X0154200Y0114260D02*
X0139600Y0114260D01*
X0139600Y0115459D02*
X0154200Y0115459D01*
X0154200Y0116657D02*
X0139600Y0116657D01*
X0139600Y0117856D02*
X0154522Y0117856D01*
X0155660Y0119054D02*
X0139600Y0119054D01*
X0139600Y0120253D02*
X0156859Y0120253D01*
X0158057Y0121451D02*
X0139600Y0121451D01*
X0139600Y0122650D02*
X0159200Y0122650D01*
X0159200Y0123848D02*
X0139600Y0123848D01*
X0139600Y0125047D02*
X0159200Y0125047D01*
X0159200Y0126245D02*
X0140488Y0126245D01*
X0141686Y0127444D02*
X0159352Y0127444D01*
X0152760Y0128642D02*
X0142885Y0128642D01*
X0136797Y0131039D02*
X0129433Y0131039D01*
X0128635Y0130241D02*
X0128635Y0130241D01*
X0128235Y0129841D02*
X0135598Y0129841D01*
X0134400Y0128642D02*
X0107036Y0128642D01*
X0105838Y0127444D02*
X0133702Y0127444D01*
X0133600Y0126245D02*
X0124284Y0126245D01*
X0124680Y0125850D02*
X0123625Y0126904D01*
X0116150Y0126904D01*
X0115095Y0125850D01*
X0115095Y0117350D01*
X0116150Y0116296D01*
X0123625Y0116296D01*
X0124680Y0117350D01*
X0124680Y0125850D01*
X0124680Y0125047D02*
X0133600Y0125047D01*
X0133600Y0123848D02*
X0124680Y0123848D01*
X0124680Y0122650D02*
X0133600Y0122650D01*
X0133600Y0121451D02*
X0124680Y0121451D01*
X0124680Y0120253D02*
X0133600Y0120253D01*
X0133600Y0119054D02*
X0124680Y0119054D01*
X0124680Y0117856D02*
X0133600Y0117856D01*
X0133600Y0116657D02*
X0123986Y0116657D01*
X0115789Y0116657D02*
X0104000Y0116657D01*
X0104000Y0115459D02*
X0133600Y0115459D01*
X0133600Y0114260D02*
X0104000Y0114260D01*
X0104000Y0113062D02*
X0133600Y0113062D01*
X0133600Y0111863D02*
X0104000Y0111863D01*
X0104000Y0110665D02*
X0133600Y0110665D01*
X0133600Y0109466D02*
X0104000Y0109466D01*
X0104000Y0108268D02*
X0133600Y0108268D01*
X0133600Y0107069D02*
X0104525Y0107069D01*
X0105724Y0105870D02*
X0115116Y0105870D01*
X0115095Y0104672D02*
X0106922Y0104672D01*
X0106600Y0101600D02*
X0101600Y0106600D01*
X0101600Y0126600D01*
X0106600Y0131600D01*
X0126600Y0131600D01*
X0131600Y0136600D01*
X0131600Y0146600D01*
X0136600Y0151600D01*
X0138254Y0151600D01*
X0134218Y0152612D02*
X0109825Y0152612D01*
X0109489Y0152276D02*
X0110924Y0153711D01*
X0119489Y0162276D01*
X0120924Y0163711D01*
X0121700Y0165586D01*
X0121700Y0181092D01*
X0122082Y0182016D01*
X0122082Y0191184D01*
X0121700Y0192108D01*
X0121700Y0197614D01*
X0120924Y0199489D01*
X0119489Y0200924D01*
X0114489Y0205924D01*
X0112614Y0206700D01*
X0060586Y0206700D01*
X0058711Y0205924D01*
X0057276Y0204489D01*
X0039488Y0186700D01*
X0015586Y0186700D01*
X0013711Y0185924D01*
X0012276Y0184489D01*
X0007276Y0179489D01*
X0006500Y0177614D01*
X0006500Y0140586D01*
X0007276Y0138711D01*
X0008711Y0137276D01*
X0011500Y0134488D01*
X0011500Y0095586D01*
X0012276Y0093711D01*
X0013711Y0092276D01*
X0020711Y0085276D01*
X0022586Y0084500D01*
X0034972Y0084500D01*
X0035149Y0084323D01*
X0037437Y0083375D01*
X0048763Y0083375D01*
X0051051Y0084323D01*
X0052802Y0086074D01*
X0053750Y0088362D01*
X0053750Y0090838D01*
X0052802Y0093126D01*
X0051051Y0094877D01*
X0048763Y0095825D01*
X0037437Y0095825D01*
X0035149Y0094877D01*
X0034972Y0094700D01*
X0025712Y0094700D01*
X0021700Y0098712D01*
X0021700Y0115103D01*
X0022276Y0113711D01*
X0023711Y0112276D01*
X0028711Y0107276D01*
X0030586Y0106500D01*
X0034972Y0106500D01*
X0035149Y0106323D01*
X0037437Y0105375D01*
X0048763Y0105375D01*
X0051051Y0106323D01*
X0051228Y0106500D01*
X0059487Y0106500D01*
X0061537Y0104450D01*
X0061937Y0103484D01*
X0063484Y0101937D01*
X0065506Y0101100D01*
X0067694Y0101100D01*
X0069715Y0101937D01*
X0071263Y0103484D01*
X0072100Y0105506D01*
X0072100Y0107694D01*
X0071263Y0109715D01*
X0069715Y0111263D01*
X0068750Y0111663D01*
X0064489Y0115924D01*
X0062614Y0116700D01*
X0051228Y0116700D01*
X0051051Y0116877D01*
X0048763Y0117825D01*
X0037437Y0117825D01*
X0035149Y0116877D01*
X0034972Y0116700D01*
X0033712Y0116700D01*
X0031700Y0118712D01*
X0031700Y0139488D01*
X0033712Y0141500D01*
X0037614Y0141500D01*
X0039489Y0142276D01*
X0054489Y0157276D01*
X0055924Y0158711D01*
X0056700Y0160586D01*
X0056700Y0164488D01*
X0058712Y0166500D01*
X0087614Y0166500D01*
X0089489Y0167276D01*
X0090924Y0168711D01*
X0095766Y0173554D01*
X0096543Y0175428D01*
X0096543Y0181473D01*
X0096768Y0182016D01*
X0096768Y0191184D01*
X0095957Y0193141D01*
X0094459Y0194639D01*
X0092502Y0195450D01*
X0090383Y0195450D01*
X0088426Y0194639D01*
X0086928Y0193141D01*
X0086118Y0191184D01*
X0086118Y0182016D01*
X0086343Y0181473D01*
X0086343Y0178555D01*
X0084488Y0176700D01*
X0055586Y0176700D01*
X0053711Y0175924D01*
X0047276Y0169489D01*
X0046500Y0167614D01*
X0046500Y0163712D01*
X0034488Y0151700D01*
X0030586Y0151700D01*
X0028711Y0150924D01*
X0027276Y0149489D01*
X0022276Y0144489D01*
X0021500Y0142614D01*
X0021500Y0138097D01*
X0020924Y0139489D01*
X0016700Y0143712D01*
X0016700Y0174487D01*
X0018712Y0176500D01*
X0042614Y0176500D01*
X0044489Y0177276D01*
X0063712Y0196500D01*
X0109487Y0196500D01*
X0111500Y0194487D01*
X0111500Y0191347D01*
X0111432Y0191184D01*
X0111432Y0182016D01*
X0111500Y0181853D01*
X0111500Y0168712D01*
X0104488Y0161700D01*
X0068660Y0161700D01*
X0067694Y0162100D01*
X0065506Y0162100D01*
X0063484Y0161263D01*
X0061937Y0159715D01*
X0061100Y0157694D01*
X0061100Y0155506D01*
X0061937Y0153484D01*
X0063484Y0151937D01*
X0065506Y0151100D01*
X0067694Y0151100D01*
X0068660Y0151500D01*
X0107614Y0151500D01*
X0109489Y0152276D01*
X0110924Y0153711D02*
X0110924Y0153711D01*
X0111023Y0153811D02*
X0134485Y0153811D01*
X0134984Y0155009D02*
X0112222Y0155009D01*
X0113420Y0156208D02*
X0172676Y0156208D01*
X0172676Y0155009D02*
X0158249Y0155009D01*
X0154951Y0155009D02*
X0148216Y0155009D01*
X0148715Y0153811D02*
X0153464Y0153811D01*
X0152927Y0152612D02*
X0148715Y0152612D01*
X0148715Y0151414D02*
X0152819Y0151414D01*
X0153081Y0150215D02*
X0149725Y0150215D01*
X0150924Y0149017D02*
X0153836Y0149017D01*
X0156600Y0151600D02*
X0161600Y0151600D01*
X0165576Y0147624D01*
X0169700Y0147624D01*
X0169700Y0144474D02*
X0163726Y0144474D01*
X0161600Y0146600D01*
X0149946Y0146600D01*
X0144946Y0151600D01*
X0145518Y0147635D02*
X0142232Y0147635D01*
X0141600Y0148267D01*
X0140968Y0147635D01*
X0136029Y0147635D01*
X0134000Y0145606D01*
X0134000Y0139347D01*
X0134458Y0139805D01*
X0135848Y0140381D01*
X0137352Y0140381D01*
X0138742Y0139805D01*
X0139805Y0138742D01*
X0140381Y0137352D01*
X0140381Y0137062D01*
X0141619Y0135824D01*
X0142657Y0136254D01*
X0142921Y0136254D01*
X0143886Y0137219D01*
X0149314Y0137219D01*
X0150368Y0136164D01*
X0150368Y0135860D01*
X0151847Y0135860D01*
X0151847Y0136164D01*
X0152902Y0137219D01*
X0160298Y0137219D01*
X0161353Y0136164D01*
X0161353Y0134676D01*
X0165520Y0134676D01*
X0166003Y0134876D01*
X0173600Y0134876D01*
X0173600Y0135175D01*
X0169103Y0135175D01*
X0168862Y0135275D01*
X0166454Y0135275D01*
X0165400Y0136329D01*
X0165400Y0140020D01*
X0166454Y0141075D01*
X0168862Y0141075D01*
X0169103Y0141175D01*
X0175622Y0141175D01*
X0176725Y0140718D01*
X0178299Y0139143D01*
X0179143Y0138299D01*
X0179600Y0137197D01*
X0179600Y0134876D01*
X0191921Y0134876D01*
X0193024Y0134419D01*
X0195717Y0131726D01*
X0199200Y0131726D01*
X0199200Y0136871D01*
X0200254Y0137925D01*
X0206746Y0137925D01*
X0207800Y0136871D01*
X0207800Y0134276D01*
X0235881Y0134276D01*
X0236396Y0134790D01*
X0236100Y0135506D01*
X0236100Y0137694D01*
X0236937Y0139715D01*
X0238484Y0141263D01*
X0239299Y0141600D01*
X0238484Y0141937D01*
X0236937Y0143484D01*
X0236641Y0144200D01*
X0227594Y0144200D01*
X0222684Y0139290D01*
X0221802Y0138924D01*
X0207246Y0138924D01*
X0206746Y0138424D01*
X0200254Y0138424D01*
X0199200Y0139479D01*
X0199200Y0149200D01*
X0187425Y0149200D01*
X0187425Y0149169D01*
X0188635Y0147959D01*
X0189000Y0147077D01*
X0189000Y0144547D01*
X0189805Y0143742D01*
X0190381Y0142352D01*
X0190381Y0140848D01*
X0189805Y0139458D01*
X0188742Y0138395D01*
X0187352Y0137819D01*
X0185848Y0137819D01*
X0184458Y0138395D01*
X0183395Y0139458D01*
X0182819Y0140848D01*
X0182819Y0142352D01*
X0183395Y0143742D01*
X0184200Y0144547D01*
X0184200Y0145606D01*
X0182991Y0146815D01*
X0182625Y0147697D01*
X0182625Y0149200D01*
X0174000Y0149200D01*
X0174000Y0142628D01*
X0172946Y0141574D01*
X0166454Y0141574D01*
X0165954Y0142074D01*
X0163249Y0142074D01*
X0162366Y0142439D01*
X0160606Y0144200D01*
X0149469Y0144200D01*
X0148587Y0144565D01*
X0145518Y0147635D01*
X0146532Y0146620D02*
X0135014Y0146620D01*
X0134000Y0145421D02*
X0147731Y0145421D01*
X0149414Y0144223D02*
X0134000Y0144223D01*
X0134000Y0143024D02*
X0161782Y0143024D01*
X0164100Y0139100D02*
X0166324Y0141324D01*
X0166203Y0141826D02*
X0134000Y0141826D01*
X0134000Y0140627D02*
X0166007Y0140627D01*
X0165400Y0139429D02*
X0139118Y0139429D01*
X0140017Y0138230D02*
X0165400Y0138230D01*
X0165400Y0137032D02*
X0160485Y0137032D01*
X0161353Y0135833D02*
X0165896Y0135833D01*
X0165675Y0135025D02*
X0164100Y0136600D01*
X0164100Y0139100D01*
X0165675Y0135025D02*
X0169700Y0135025D01*
X0173197Y0141826D02*
X0182819Y0141826D01*
X0182910Y0140627D02*
X0176815Y0140627D01*
X0178014Y0139429D02*
X0183424Y0139429D01*
X0184855Y0138230D02*
X0179172Y0138230D01*
X0179600Y0137032D02*
X0199361Y0137032D01*
X0199200Y0135833D02*
X0179600Y0135833D01*
X0186600Y0141600D02*
X0186600Y0146600D01*
X0185025Y0148175D01*
X0185025Y0153500D01*
X0188175Y0153500D02*
X0188175Y0178175D01*
X0191600Y0181600D01*
X0195104Y0180178D02*
X0196784Y0180178D01*
X0195586Y0178980D02*
X0194327Y0178980D01*
X0194387Y0177781D02*
X0191175Y0177781D01*
X0190575Y0176583D02*
X0193189Y0176583D01*
X0191990Y0175384D02*
X0190575Y0175384D01*
X0190575Y0174186D02*
X0190792Y0174186D01*
X0191324Y0171324D02*
X0214100Y0194100D01*
X0259100Y0194100D01*
X0262850Y0190350D01*
X0262850Y0152850D01*
X0256600Y0146600D01*
X0251600Y0146600D01*
X0246600Y0148901D02*
X0246263Y0149715D01*
X0244715Y0151263D01*
X0243901Y0151600D01*
X0244715Y0151937D01*
X0246263Y0153484D01*
X0247100Y0155506D01*
X0247100Y0157694D01*
X0246263Y0159715D01*
X0244715Y0161263D01*
X0243901Y0161600D01*
X0244715Y0161937D01*
X0246263Y0163484D01*
X0246600Y0164299D01*
X0246937Y0163484D01*
X0248484Y0161937D01*
X0250506Y0161100D01*
X0252694Y0161100D01*
X0254715Y0161937D01*
X0256263Y0163484D01*
X0256559Y0164200D01*
X0257077Y0164200D01*
X0257959Y0164565D01*
X0258635Y0165241D01*
X0260450Y0167056D01*
X0260450Y0153844D01*
X0256280Y0149674D01*
X0256263Y0149715D01*
X0254715Y0151263D01*
X0252694Y0152100D01*
X0250506Y0152100D01*
X0248484Y0151263D01*
X0246937Y0149715D01*
X0246600Y0148901D01*
X0246552Y0149017D02*
X0246648Y0149017D01*
X0247437Y0150215D02*
X0245763Y0150215D01*
X0244350Y0151414D02*
X0248850Y0151414D01*
X0246398Y0153811D02*
X0260417Y0153811D01*
X0260450Y0155009D02*
X0246894Y0155009D01*
X0247100Y0156208D02*
X0260450Y0156208D01*
X0260450Y0157406D02*
X0247100Y0157406D01*
X0246723Y0158605D02*
X0260450Y0158605D01*
X0260450Y0159803D02*
X0246175Y0159803D01*
X0244976Y0161002D02*
X0260450Y0161002D01*
X0260450Y0162201D02*
X0254979Y0162201D01*
X0256177Y0163399D02*
X0260450Y0163399D01*
X0260450Y0164598D02*
X0257992Y0164598D01*
X0259190Y0165796D02*
X0260450Y0165796D01*
X0260450Y0166995D02*
X0260389Y0166995D01*
X0259100Y0169100D02*
X0256600Y0166600D01*
X0251600Y0166600D01*
X0248221Y0162201D02*
X0244979Y0162201D01*
X0246177Y0163399D02*
X0247023Y0163399D01*
X0241600Y0166600D02*
X0226600Y0166600D01*
X0207624Y0147624D01*
X0203500Y0147624D01*
X0203500Y0144474D02*
X0214474Y0144474D01*
X0226600Y0156600D01*
X0241600Y0156600D01*
X0245391Y0152612D02*
X0259218Y0152612D01*
X0258020Y0151414D02*
X0254350Y0151414D01*
X0255763Y0150215D02*
X0256821Y0150215D01*
X0260014Y0146620D02*
X0288501Y0146620D01*
X0288501Y0147818D02*
X0261212Y0147818D01*
X0262411Y0149017D02*
X0288501Y0149017D01*
X0288501Y0150215D02*
X0263610Y0150215D01*
X0264808Y0151414D02*
X0288501Y0151414D01*
X0288501Y0152612D02*
X0265250Y0152612D01*
X0265250Y0153811D02*
X0288501Y0153811D01*
X0288501Y0155009D02*
X0265250Y0155009D01*
X0265250Y0156208D02*
X0288501Y0156208D01*
X0288501Y0157406D02*
X0265250Y0157406D01*
X0265250Y0158605D02*
X0288501Y0158605D01*
X0288501Y0159803D02*
X0265250Y0159803D01*
X0265250Y0161002D02*
X0288501Y0161002D01*
X0288501Y0162201D02*
X0265250Y0162201D01*
X0265250Y0163399D02*
X0288501Y0163399D01*
X0288501Y0164598D02*
X0265250Y0164598D01*
X0265250Y0165796D02*
X0288501Y0165796D01*
X0288501Y0166995D02*
X0265250Y0166995D01*
X0265250Y0168193D02*
X0288501Y0168193D01*
X0288501Y0169392D02*
X0265250Y0169392D01*
X0265250Y0170590D02*
X0288501Y0170590D01*
X0288501Y0171789D02*
X0265250Y0171789D01*
X0265250Y0172987D02*
X0288501Y0172987D01*
X0288501Y0174186D02*
X0265250Y0174186D01*
X0265250Y0175384D02*
X0288501Y0175384D01*
X0288501Y0176583D02*
X0265250Y0176583D01*
X0265250Y0177781D02*
X0288501Y0177781D01*
X0288501Y0178980D02*
X0265250Y0178980D01*
X0265250Y0180178D02*
X0288501Y0180178D01*
X0288501Y0181377D02*
X0265250Y0181377D01*
X0265250Y0182575D02*
X0288501Y0182575D01*
X0288501Y0183774D02*
X0265250Y0183774D01*
X0265250Y0184972D02*
X0288501Y0184972D01*
X0288501Y0186171D02*
X0265250Y0186171D01*
X0265250Y0187369D02*
X0288501Y0187369D01*
X0288501Y0188568D02*
X0265250Y0188568D01*
X0265250Y0189766D02*
X0288501Y0189766D01*
X0288501Y0190965D02*
X0265193Y0190965D01*
X0264431Y0192163D02*
X0288501Y0192163D01*
X0288501Y0193362D02*
X0263232Y0193362D01*
X0262034Y0194560D02*
X0288501Y0194560D01*
X0288501Y0195759D02*
X0260835Y0195759D01*
X0254100Y0189100D02*
X0259100Y0184100D01*
X0259100Y0169100D01*
X0251600Y0176600D02*
X0251600Y0181600D01*
X0249100Y0184100D01*
X0214100Y0184100D01*
X0197624Y0167624D01*
X0197624Y0153500D01*
X0194474Y0153500D02*
X0194474Y0169474D01*
X0214100Y0189100D01*
X0254100Y0189100D01*
X0288501Y0196957D02*
X0173961Y0196957D01*
X0173466Y0195762D02*
X0174699Y0198739D01*
X0174699Y0201961D01*
X0173466Y0204938D01*
X0171188Y0207216D01*
X0168211Y0208449D01*
X0164989Y0208449D01*
X0162012Y0207216D01*
X0159734Y0204938D01*
X0158501Y0201961D01*
X0158501Y0198739D01*
X0159734Y0195762D01*
X0162012Y0193484D01*
X0164989Y0192251D01*
X0168211Y0192251D01*
X0171188Y0193484D01*
X0173466Y0195762D01*
X0173463Y0195759D02*
X0212365Y0195759D01*
X0211166Y0194560D02*
X0172264Y0194560D01*
X0170893Y0193362D02*
X0209968Y0193362D01*
X0208769Y0192163D02*
X0141362Y0192163D01*
X0140957Y0193141D02*
X0139459Y0194639D01*
X0137502Y0195450D01*
X0135383Y0195450D01*
X0133426Y0194639D01*
X0131928Y0193141D01*
X0131118Y0191184D01*
X0131118Y0182016D01*
X0131928Y0180059D01*
X0133426Y0178561D01*
X0135383Y0177750D01*
X0137502Y0177750D01*
X0139459Y0178561D01*
X0140957Y0180059D01*
X0141768Y0182016D01*
X0141768Y0191184D01*
X0140957Y0193141D01*
X0140736Y0193362D02*
X0162307Y0193362D01*
X0160936Y0194560D02*
X0139538Y0194560D01*
X0141768Y0190965D02*
X0207571Y0190965D01*
X0206372Y0189766D02*
X0141768Y0189766D01*
X0141768Y0188568D02*
X0205174Y0188568D01*
X0203975Y0187369D02*
X0141768Y0187369D01*
X0141768Y0186171D02*
X0202777Y0186171D01*
X0201578Y0184972D02*
X0193339Y0184972D01*
X0194774Y0183774D02*
X0200380Y0183774D01*
X0199181Y0182575D02*
X0195289Y0182575D01*
X0195381Y0181377D02*
X0197983Y0181377D01*
X0189861Y0184972D02*
X0141768Y0184972D01*
X0141768Y0183774D02*
X0188426Y0183774D01*
X0187911Y0182575D02*
X0141768Y0182575D01*
X0141503Y0181377D02*
X0187819Y0181377D01*
X0186784Y0180178D02*
X0141006Y0180178D01*
X0139878Y0178980D02*
X0185910Y0178980D01*
X0185775Y0177781D02*
X0137577Y0177781D01*
X0135308Y0177781D02*
X0121700Y0177781D01*
X0121700Y0176583D02*
X0185775Y0176583D01*
X0185775Y0175384D02*
X0121700Y0175384D01*
X0121700Y0174186D02*
X0185775Y0174186D01*
X0185775Y0172987D02*
X0121700Y0172987D01*
X0121700Y0171789D02*
X0185775Y0171789D01*
X0185775Y0170590D02*
X0121700Y0170590D01*
X0121700Y0169392D02*
X0185775Y0169392D01*
X0185775Y0168193D02*
X0121700Y0168193D01*
X0121700Y0166995D02*
X0185775Y0166995D01*
X0185775Y0165796D02*
X0121700Y0165796D01*
X0121291Y0164598D02*
X0185775Y0164598D01*
X0185775Y0163399D02*
X0120612Y0163399D01*
X0119489Y0162276D02*
X0119489Y0162276D01*
X0119413Y0162201D02*
X0185775Y0162201D01*
X0185775Y0161002D02*
X0118214Y0161002D01*
X0117016Y0159803D02*
X0185775Y0159803D01*
X0185775Y0158605D02*
X0115817Y0158605D01*
X0114619Y0157406D02*
X0173337Y0157406D01*
X0172676Y0153811D02*
X0162534Y0153811D01*
X0163982Y0152612D02*
X0172676Y0152612D01*
X0172676Y0151414D02*
X0165180Y0151414D01*
X0174000Y0149017D02*
X0182625Y0149017D01*
X0182625Y0147818D02*
X0174000Y0147818D01*
X0174000Y0146620D02*
X0183186Y0146620D01*
X0184200Y0145421D02*
X0174000Y0145421D01*
X0174000Y0144223D02*
X0183876Y0144223D01*
X0183097Y0143024D02*
X0174000Y0143024D01*
X0187577Y0149017D02*
X0199200Y0149017D01*
X0199200Y0147818D02*
X0188693Y0147818D01*
X0189000Y0146620D02*
X0199200Y0146620D01*
X0199200Y0145421D02*
X0189000Y0145421D01*
X0189324Y0144223D02*
X0199200Y0144223D01*
X0199200Y0143024D02*
X0190103Y0143024D01*
X0190381Y0141826D02*
X0199200Y0141826D01*
X0199200Y0140627D02*
X0190290Y0140627D01*
X0189776Y0139429D02*
X0199250Y0139429D01*
X0203500Y0141324D02*
X0221324Y0141324D01*
X0226600Y0146600D01*
X0241600Y0146600D01*
X0237397Y0143024D02*
X0226418Y0143024D01*
X0225220Y0141826D02*
X0238754Y0141826D01*
X0237849Y0140627D02*
X0224021Y0140627D01*
X0222823Y0139429D02*
X0236819Y0139429D01*
X0236322Y0138230D02*
X0188345Y0138230D01*
X0192503Y0134635D02*
X0199200Y0134635D01*
X0199200Y0133436D02*
X0194006Y0133436D01*
X0195205Y0132238D02*
X0199200Y0132238D01*
X0203500Y0131876D02*
X0236876Y0131876D01*
X0241600Y0136600D01*
X0246600Y0134299D02*
X0246263Y0133484D01*
X0244715Y0131937D01*
X0242694Y0131100D01*
X0240506Y0131100D01*
X0239790Y0131396D01*
X0238235Y0129841D01*
X0237353Y0129476D01*
X0207800Y0129476D01*
X0207800Y0127976D01*
X0208101Y0127976D01*
X0208983Y0127611D01*
X0211213Y0125381D01*
X0212352Y0125381D01*
X0213742Y0124805D01*
X0214805Y0123742D01*
X0215381Y0122352D01*
X0215381Y0120848D01*
X0214805Y0119458D01*
X0213742Y0118395D01*
X0212352Y0117819D01*
X0210848Y0117819D01*
X0209458Y0118395D01*
X0208395Y0119458D01*
X0207819Y0120848D01*
X0207819Y0121987D01*
X0206938Y0122868D01*
X0206746Y0122676D01*
X0200524Y0122676D01*
X0200524Y0116454D01*
X0200332Y0116262D01*
X0202959Y0113635D01*
X0203635Y0112959D01*
X0204000Y0112077D01*
X0204000Y0109059D01*
X0204715Y0108763D01*
X0206263Y0107215D01*
X0206600Y0106401D01*
X0206937Y0107215D01*
X0208484Y0108763D01*
X0210506Y0109600D01*
X0212694Y0109600D01*
X0214715Y0108763D01*
X0216263Y0107215D01*
X0216310Y0107100D01*
X0219697Y0107100D01*
X0220799Y0106643D01*
X0225343Y0102100D01*
X0251100Y0102100D01*
X0251100Y0131100D01*
X0250506Y0131100D01*
X0248484Y0131937D01*
X0246937Y0133484D01*
X0246600Y0134299D01*
X0246214Y0133436D02*
X0246986Y0133436D01*
X0248184Y0132238D02*
X0245016Y0132238D01*
X0239433Y0131039D02*
X0251100Y0131039D01*
X0251100Y0129841D02*
X0238234Y0129841D01*
X0236241Y0134635D02*
X0207800Y0134635D01*
X0207800Y0135833D02*
X0236100Y0135833D01*
X0236100Y0137032D02*
X0207639Y0137032D01*
X0207800Y0128642D02*
X0251100Y0128642D01*
X0251100Y0127444D02*
X0209150Y0127444D01*
X0210349Y0126245D02*
X0251100Y0126245D01*
X0251100Y0125047D02*
X0213159Y0125047D01*
X0214699Y0123848D02*
X0251100Y0123848D01*
X0251100Y0122650D02*
X0215258Y0122650D01*
X0215381Y0121451D02*
X0251100Y0121451D01*
X0251100Y0120253D02*
X0215135Y0120253D01*
X0214401Y0119054D02*
X0251100Y0119054D01*
X0251100Y0117856D02*
X0212441Y0117856D01*
X0210759Y0117856D02*
X0200524Y0117856D01*
X0200524Y0119054D02*
X0208799Y0119054D01*
X0208065Y0120253D02*
X0200524Y0120253D01*
X0200524Y0121451D02*
X0207819Y0121451D01*
X0207156Y0122650D02*
X0200524Y0122650D01*
X0203500Y0125576D02*
X0207624Y0125576D01*
X0211600Y0121600D01*
X0202334Y0114260D02*
X0251100Y0114260D01*
X0251100Y0113062D02*
X0203533Y0113062D01*
X0204000Y0111863D02*
X0251100Y0111863D01*
X0251100Y0110665D02*
X0204000Y0110665D01*
X0204000Y0109466D02*
X0210183Y0109466D01*
X0207989Y0108268D02*
X0205211Y0108268D01*
X0206323Y0107069D02*
X0206877Y0107069D01*
X0201600Y0104100D02*
X0201600Y0111600D01*
X0197624Y0115576D01*
X0197624Y0119700D01*
X0194474Y0119700D02*
X0194474Y0114474D01*
X0191600Y0111600D01*
X0191600Y0079100D01*
X0196600Y0074100D01*
X0199100Y0074100D01*
X0204100Y0076600D02*
X0219100Y0076600D01*
X0221600Y0079100D01*
X0221600Y0083254D01*
X0217635Y0083099D02*
X0207100Y0083099D01*
X0207100Y0083006D02*
X0207100Y0085194D01*
X0206263Y0087215D01*
X0204715Y0088763D01*
X0203901Y0089100D01*
X0204715Y0089437D01*
X0206263Y0090984D01*
X0206600Y0091799D01*
X0206937Y0090984D01*
X0208484Y0089437D01*
X0210506Y0088600D01*
X0212694Y0088600D01*
X0214715Y0089437D01*
X0216263Y0090984D01*
X0217100Y0093006D01*
X0217100Y0095194D01*
X0216263Y0097215D01*
X0214715Y0098763D01*
X0213901Y0099100D01*
X0214715Y0099437D01*
X0216263Y0100984D01*
X0216310Y0101100D01*
X0217857Y0101100D01*
X0220282Y0098676D01*
X0219565Y0097959D01*
X0219200Y0097077D01*
X0219200Y0093715D01*
X0218689Y0093715D01*
X0217635Y0092661D01*
X0217635Y0087232D01*
X0218267Y0086600D01*
X0217635Y0085968D01*
X0217635Y0080539D01*
X0218640Y0079534D01*
X0218106Y0079000D01*
X0205094Y0079000D01*
X0204674Y0079420D01*
X0204715Y0079437D01*
X0206263Y0080984D01*
X0207100Y0083006D01*
X0206642Y0081900D02*
X0217635Y0081900D01*
X0217635Y0080702D02*
X0205980Y0080702D01*
X0204781Y0079503D02*
X0218609Y0079503D01*
X0217635Y0084297D02*
X0207100Y0084297D01*
X0206975Y0085496D02*
X0217635Y0085496D01*
X0218173Y0086694D02*
X0206479Y0086694D01*
X0205585Y0087893D02*
X0217635Y0087893D01*
X0217635Y0089091D02*
X0213880Y0089091D01*
X0215568Y0090290D02*
X0217635Y0090290D01*
X0217635Y0091488D02*
X0216471Y0091488D01*
X0216968Y0092687D02*
X0217661Y0092687D01*
X0217100Y0093885D02*
X0219200Y0093885D01*
X0219200Y0095084D02*
X0217100Y0095084D01*
X0216649Y0096282D02*
X0219200Y0096282D01*
X0219367Y0097481D02*
X0215997Y0097481D01*
X0214799Y0098679D02*
X0220278Y0098679D01*
X0219079Y0099878D02*
X0215156Y0099878D01*
X0216301Y0101076D02*
X0217881Y0101076D01*
X0222771Y0104672D02*
X0251100Y0104672D01*
X0251100Y0105870D02*
X0221572Y0105870D01*
X0219772Y0107069D02*
X0251100Y0107069D01*
X0251100Y0108268D02*
X0215211Y0108268D01*
X0213017Y0109466D02*
X0251100Y0109466D01*
X0251100Y0115459D02*
X0201136Y0115459D01*
X0200524Y0116657D02*
X0251100Y0116657D01*
X0257100Y0116657D02*
X0288501Y0116657D01*
X0288501Y0115459D02*
X0257100Y0115459D01*
X0257100Y0114260D02*
X0288501Y0114260D01*
X0288501Y0113062D02*
X0257100Y0113062D01*
X0257100Y0111863D02*
X0288501Y0111863D01*
X0288501Y0110665D02*
X0257100Y0110665D01*
X0257100Y0109466D02*
X0288501Y0109466D01*
X0288501Y0108268D02*
X0257100Y0108268D01*
X0257100Y0107069D02*
X0288501Y0107069D01*
X0288501Y0105870D02*
X0257100Y0105870D01*
X0257100Y0104672D02*
X0288501Y0104672D01*
X0288501Y0103473D02*
X0257100Y0103473D01*
X0257100Y0102275D02*
X0288501Y0102275D01*
X0288501Y0101076D02*
X0257100Y0101076D01*
X0257565Y0099878D02*
X0288501Y0099878D01*
X0288501Y0098679D02*
X0258763Y0098679D01*
X0259962Y0097481D02*
X0288501Y0097481D01*
X0288501Y0096282D02*
X0261160Y0096282D01*
X0262359Y0095084D02*
X0288501Y0095084D01*
X0288501Y0093885D02*
X0263557Y0093885D01*
X0264397Y0092687D02*
X0288501Y0092687D01*
X0288501Y0091488D02*
X0264600Y0091488D01*
X0264600Y0090290D02*
X0288501Y0090290D01*
X0288501Y0089091D02*
X0264600Y0089091D01*
X0264600Y0087893D02*
X0288501Y0087893D01*
X0288501Y0086694D02*
X0264600Y0086694D01*
X0264600Y0085496D02*
X0288501Y0085496D01*
X0288501Y0084297D02*
X0264600Y0084297D01*
X0264600Y0083099D02*
X0288501Y0083099D01*
X0288501Y0081900D02*
X0264600Y0081900D01*
X0264600Y0080702D02*
X0288501Y0080702D01*
X0288501Y0079503D02*
X0264600Y0079503D01*
X0264600Y0078305D02*
X0288501Y0078305D01*
X0288501Y0077106D02*
X0264600Y0077106D01*
X0264600Y0075908D02*
X0288501Y0075908D01*
X0288501Y0074709D02*
X0264600Y0074709D01*
X0264600Y0073511D02*
X0288501Y0073511D01*
X0288501Y0072312D02*
X0264600Y0072312D01*
X0264600Y0071114D02*
X0288501Y0071114D01*
X0288501Y0069915D02*
X0264600Y0069915D01*
X0264600Y0068717D02*
X0288501Y0068717D01*
X0288501Y0067518D02*
X0264600Y0067518D01*
X0264600Y0066320D02*
X0288501Y0066320D01*
X0288501Y0065121D02*
X0264600Y0065121D01*
X0264600Y0063923D02*
X0288501Y0063923D01*
X0288501Y0062724D02*
X0264600Y0062724D01*
X0264600Y0061526D02*
X0288501Y0061526D01*
X0288501Y0060327D02*
X0264600Y0060327D01*
X0264600Y0059129D02*
X0288501Y0059129D01*
X0288501Y0057930D02*
X0264600Y0057930D01*
X0264600Y0056732D02*
X0288501Y0056732D01*
X0288501Y0055533D02*
X0264405Y0055533D01*
X0263577Y0054334D02*
X0288501Y0054334D01*
X0288501Y0053136D02*
X0262379Y0053136D01*
X0261180Y0051937D02*
X0288501Y0051937D01*
X0288501Y0050739D02*
X0259982Y0050739D01*
X0258783Y0049540D02*
X0288501Y0049540D01*
X0288501Y0048342D02*
X0256120Y0048342D01*
X0254922Y0047143D02*
X0288501Y0047143D01*
X0288501Y0045945D02*
X0254576Y0045945D01*
X0253989Y0044746D02*
X0288501Y0044746D01*
X0288501Y0043548D02*
X0252791Y0043548D01*
X0251592Y0042349D02*
X0288501Y0042349D01*
X0288501Y0041151D02*
X0250394Y0041151D01*
X0249195Y0039952D02*
X0288501Y0039952D01*
X0288501Y0038754D02*
X0247568Y0038754D01*
X0235632Y0038754D02*
X0161650Y0038754D01*
X0161650Y0039952D02*
X0234005Y0039952D01*
X0232806Y0041151D02*
X0161650Y0041151D01*
X0161650Y0042349D02*
X0231608Y0042349D01*
X0230409Y0043548D02*
X0161650Y0043548D01*
X0161650Y0037555D02*
X0288501Y0037555D01*
X0258600Y0057843D02*
X0255868Y0055110D01*
X0254715Y0056263D01*
X0253901Y0056600D01*
X0254715Y0056937D01*
X0256263Y0058484D01*
X0257100Y0060506D01*
X0257100Y0062694D01*
X0256263Y0064715D01*
X0254715Y0066263D01*
X0253901Y0066600D01*
X0254715Y0066937D01*
X0256263Y0068484D01*
X0257100Y0070506D01*
X0257100Y0072694D01*
X0256263Y0074715D01*
X0254715Y0076263D01*
X0253901Y0076600D01*
X0254715Y0076937D01*
X0256263Y0078484D01*
X0257100Y0080506D01*
X0257100Y0082694D01*
X0256263Y0084715D01*
X0254715Y0086263D01*
X0252694Y0087100D01*
X0250506Y0087100D01*
X0248484Y0086263D01*
X0246937Y0084715D01*
X0246600Y0083901D01*
X0246263Y0084715D01*
X0244715Y0086263D01*
X0243901Y0086600D01*
X0244715Y0086937D01*
X0246263Y0088484D01*
X0247100Y0090506D01*
X0247100Y0092694D01*
X0246263Y0094715D01*
X0244878Y0096100D01*
X0252857Y0096100D01*
X0258600Y0090357D01*
X0258600Y0057843D01*
X0258600Y0057930D02*
X0255708Y0057930D01*
X0256529Y0059129D02*
X0258600Y0059129D01*
X0258600Y0060327D02*
X0257026Y0060327D01*
X0257100Y0061526D02*
X0258600Y0061526D01*
X0258600Y0062724D02*
X0257088Y0062724D01*
X0256591Y0063923D02*
X0258600Y0063923D01*
X0258600Y0065121D02*
X0255857Y0065121D01*
X0254578Y0066320D02*
X0258600Y0066320D01*
X0258600Y0067518D02*
X0255296Y0067518D01*
X0256359Y0068717D02*
X0258600Y0068717D01*
X0258600Y0069915D02*
X0256855Y0069915D01*
X0257100Y0071114D02*
X0258600Y0071114D01*
X0258600Y0072312D02*
X0257100Y0072312D01*
X0256762Y0073511D02*
X0258600Y0073511D01*
X0258600Y0074709D02*
X0256265Y0074709D01*
X0255070Y0075908D02*
X0258600Y0075908D01*
X0258600Y0077106D02*
X0254884Y0077106D01*
X0256083Y0078305D02*
X0258600Y0078305D01*
X0258600Y0079503D02*
X0256685Y0079503D01*
X0257100Y0080702D02*
X0258600Y0080702D01*
X0258600Y0081900D02*
X0257100Y0081900D01*
X0256932Y0083099D02*
X0258600Y0083099D01*
X0258600Y0084297D02*
X0256436Y0084297D01*
X0255482Y0085496D02*
X0258600Y0085496D01*
X0258600Y0086694D02*
X0253673Y0086694D01*
X0249527Y0086694D02*
X0244129Y0086694D01*
X0245482Y0085496D02*
X0247718Y0085496D01*
X0246764Y0084297D02*
X0246436Y0084297D01*
X0245671Y0087893D02*
X0258600Y0087893D01*
X0258600Y0089091D02*
X0246514Y0089091D01*
X0247010Y0090290D02*
X0258600Y0090290D01*
X0257469Y0091488D02*
X0247100Y0091488D01*
X0247100Y0092687D02*
X0256270Y0092687D01*
X0255072Y0093885D02*
X0246607Y0093885D01*
X0245894Y0095084D02*
X0253873Y0095084D01*
X0251100Y0102275D02*
X0225168Y0102275D01*
X0223969Y0103473D02*
X0251100Y0103473D01*
X0241600Y0091600D02*
X0236600Y0091600D01*
X0234100Y0089100D01*
X0234100Y0081600D01*
X0221600Y0069100D01*
X0195675Y0069100D01*
X0188175Y0076600D01*
X0188175Y0119700D01*
X0185025Y0119700D02*
X0185025Y0071600D01*
X0190025Y0066600D01*
X0226600Y0066600D01*
X0241600Y0081600D01*
X0241600Y0071600D02*
X0239100Y0071600D01*
X0229100Y0061600D01*
X0186600Y0061600D01*
X0181876Y0066324D01*
X0181876Y0119700D01*
X0171600Y0101600D02*
X0167545Y0097545D01*
X0167545Y0096974D01*
X0167545Y0092545D01*
X0166600Y0091600D01*
X0156600Y0091600D01*
X0152446Y0095754D01*
X0152446Y0096600D01*
X0148481Y0096282D02*
X0139600Y0096282D01*
X0139600Y0095084D02*
X0148481Y0095084D01*
X0148482Y0093885D02*
X0139600Y0093885D01*
X0139756Y0092687D02*
X0152119Y0092687D01*
X0153318Y0091488D02*
X0140954Y0091488D01*
X0142153Y0090290D02*
X0154516Y0090290D01*
X0156510Y0095084D02*
X0156690Y0095084D01*
X0156690Y0096282D02*
X0156412Y0096282D01*
X0156412Y0097481D02*
X0156690Y0097481D01*
X0156690Y0098679D02*
X0156412Y0098679D01*
X0156690Y0099878D02*
X0155848Y0099878D01*
X0157684Y0101076D02*
X0139600Y0101076D01*
X0139600Y0099878D02*
X0149045Y0099878D01*
X0148481Y0098679D02*
X0139600Y0098679D01*
X0139600Y0097481D02*
X0148481Y0097481D01*
X0148894Y0103473D02*
X0139600Y0103473D01*
X0139600Y0102275D02*
X0157533Y0102275D01*
X0156690Y0103473D02*
X0155999Y0103473D01*
X0156600Y0106600D02*
X0160281Y0106600D01*
X0160655Y0106226D01*
X0163777Y0102275D02*
X0164423Y0102275D01*
X0164574Y0101076D02*
X0163626Y0101076D01*
X0148481Y0104672D02*
X0139600Y0104672D01*
X0139600Y0105870D02*
X0148481Y0105870D01*
X0133600Y0105870D02*
X0124659Y0105870D01*
X0124680Y0104672D02*
X0133600Y0104672D01*
X0133600Y0103473D02*
X0124680Y0103473D01*
X0124680Y0102275D02*
X0133600Y0102275D01*
X0133600Y0101076D02*
X0124680Y0101076D01*
X0124680Y0099878D02*
X0133600Y0099878D01*
X0133600Y0098679D02*
X0124680Y0098679D01*
X0124680Y0097481D02*
X0133600Y0097481D01*
X0133600Y0096282D02*
X0088413Y0096282D01*
X0088413Y0095084D02*
X0133600Y0095084D01*
X0133600Y0093885D02*
X0088413Y0093885D01*
X0088413Y0092687D02*
X0133600Y0092687D01*
X0133600Y0091488D02*
X0088413Y0091488D01*
X0088413Y0090290D02*
X0133895Y0090290D01*
X0134866Y0089091D02*
X0088413Y0089091D01*
X0088413Y0087893D02*
X0136065Y0087893D01*
X0137263Y0086694D02*
X0088162Y0086694D01*
X0088413Y0087298D02*
X0088413Y0102614D01*
X0088105Y0103358D01*
X0088105Y0105850D01*
X0087354Y0106600D01*
X0088105Y0107350D01*
X0088105Y0115850D01*
X0087354Y0116600D01*
X0088105Y0117350D01*
X0088105Y0125850D01*
X0087613Y0126342D01*
X0087613Y0135743D01*
X0086958Y0137323D01*
X0080245Y0144036D01*
X0079036Y0145245D01*
X0077455Y0145900D01*
X0050745Y0145900D01*
X0049164Y0145245D01*
X0047955Y0144036D01*
X0043744Y0139825D01*
X0037437Y0139825D01*
X0035149Y0138877D01*
X0033398Y0137126D01*
X0032450Y0134838D01*
X0032450Y0132362D01*
X0033398Y0130074D01*
X0035149Y0128323D01*
X0037437Y0127375D01*
X0048763Y0127375D01*
X0051051Y0128323D01*
X0052802Y0130074D01*
X0053750Y0132362D01*
X0053750Y0134838D01*
X0052921Y0136840D01*
X0053381Y0137300D01*
X0062300Y0137300D01*
X0062300Y0130078D01*
X0061937Y0129715D01*
X0061100Y0127694D01*
X0061100Y0125506D01*
X0061937Y0123484D01*
X0063484Y0121937D01*
X0065506Y0121100D01*
X0067694Y0121100D01*
X0069715Y0121937D01*
X0071263Y0123484D01*
X0072100Y0125506D01*
X0072100Y0127694D01*
X0071263Y0129715D01*
X0070900Y0130078D01*
X0070900Y0137300D01*
X0074819Y0137300D01*
X0079013Y0133106D01*
X0079013Y0126342D01*
X0078520Y0125850D01*
X0078520Y0117350D01*
X0079271Y0116600D01*
X0078520Y0115850D01*
X0078520Y0107350D01*
X0079271Y0106600D01*
X0078520Y0105850D01*
X0078520Y0103358D01*
X0078213Y0102614D01*
X0078213Y0090425D01*
X0069488Y0081700D01*
X0068660Y0081700D01*
X0067694Y0082100D01*
X0065506Y0082100D01*
X0063484Y0081263D01*
X0061937Y0079715D01*
X0061100Y0077694D01*
X0061100Y0075506D01*
X0061937Y0073484D01*
X0063484Y0071937D01*
X0065506Y0071100D01*
X0067694Y0071100D01*
X0068660Y0071500D01*
X0072614Y0071500D01*
X0074489Y0072276D01*
X0087636Y0085424D01*
X0088413Y0087298D01*
X0087666Y0085496D02*
X0138462Y0085496D01*
X0139660Y0084297D02*
X0086510Y0084297D01*
X0085311Y0083099D02*
X0165859Y0083099D01*
X0167057Y0081900D02*
X0084113Y0081900D01*
X0082914Y0080702D02*
X0168256Y0080702D01*
X0201600Y0079100D02*
X0204100Y0076600D01*
X0201600Y0079100D02*
X0201600Y0084100D01*
X0203922Y0089091D02*
X0209320Y0089091D01*
X0207632Y0090290D02*
X0205568Y0090290D01*
X0206471Y0091488D02*
X0206729Y0091488D01*
X0221600Y0089946D02*
X0221600Y0096600D01*
X0224100Y0099100D01*
X0257100Y0117856D02*
X0288501Y0117856D01*
X0288501Y0119054D02*
X0257100Y0119054D01*
X0257100Y0120253D02*
X0288501Y0120253D01*
X0288501Y0121451D02*
X0257100Y0121451D01*
X0257100Y0122650D02*
X0288501Y0122650D01*
X0288501Y0123848D02*
X0257100Y0123848D01*
X0257100Y0125047D02*
X0288501Y0125047D01*
X0288501Y0126245D02*
X0257100Y0126245D01*
X0257100Y0127444D02*
X0288501Y0127444D01*
X0288501Y0128642D02*
X0257100Y0128642D01*
X0257100Y0129841D02*
X0288501Y0129841D01*
X0288501Y0131039D02*
X0257100Y0131039D01*
X0257100Y0132238D02*
X0288501Y0132238D01*
X0288501Y0133436D02*
X0257100Y0133436D01*
X0257100Y0134635D02*
X0288501Y0134635D01*
X0288501Y0135833D02*
X0257100Y0135833D01*
X0257100Y0137032D02*
X0288501Y0137032D01*
X0288501Y0138230D02*
X0256878Y0138230D01*
X0256381Y0139429D02*
X0288501Y0139429D01*
X0288501Y0140627D02*
X0255351Y0140627D01*
X0254446Y0141826D02*
X0288501Y0141826D01*
X0288501Y0143024D02*
X0255802Y0143024D01*
X0257133Y0144223D02*
X0288501Y0144223D01*
X0288501Y0145421D02*
X0258815Y0145421D01*
X0191324Y0153500D02*
X0191324Y0171324D01*
X0159737Y0195759D02*
X0121700Y0195759D01*
X0121700Y0196957D02*
X0159239Y0196957D01*
X0158742Y0198156D02*
X0121476Y0198156D01*
X0120979Y0199354D02*
X0158501Y0199354D01*
X0158501Y0200553D02*
X0119860Y0200553D01*
X0118661Y0201751D02*
X0158501Y0201751D01*
X0158910Y0202950D02*
X0117463Y0202950D01*
X0116264Y0204148D02*
X0159407Y0204148D01*
X0160143Y0205347D02*
X0115066Y0205347D01*
X0112988Y0206545D02*
X0161341Y0206545D01*
X0163286Y0207744D02*
X0029914Y0207744D01*
X0031188Y0207216D02*
X0028211Y0208449D01*
X0024989Y0208449D01*
X0022012Y0207216D01*
X0019734Y0204938D01*
X0018501Y0201961D01*
X0018501Y0198739D01*
X0019734Y0195762D01*
X0022012Y0193484D01*
X0024989Y0192251D01*
X0028211Y0192251D01*
X0031188Y0193484D01*
X0033466Y0195762D01*
X0034699Y0198739D01*
X0034699Y0201961D01*
X0033466Y0204938D01*
X0031188Y0207216D01*
X0031859Y0206545D02*
X0060212Y0206545D01*
X0058134Y0205347D02*
X0033057Y0205347D01*
X0033793Y0204148D02*
X0056936Y0204148D01*
X0055737Y0202950D02*
X0034290Y0202950D01*
X0034699Y0201751D02*
X0054539Y0201751D01*
X0053340Y0200553D02*
X0034699Y0200553D01*
X0034699Y0199354D02*
X0052142Y0199354D01*
X0050943Y0198156D02*
X0034458Y0198156D01*
X0033961Y0196957D02*
X0049745Y0196957D01*
X0048546Y0195759D02*
X0033463Y0195759D01*
X0032264Y0194560D02*
X0047348Y0194560D01*
X0046149Y0193362D02*
X0030893Y0193362D01*
X0022307Y0193362D02*
X0003400Y0193362D01*
X0003400Y0194560D02*
X0020936Y0194560D01*
X0019737Y0195759D02*
X0003400Y0195759D01*
X0003400Y0196957D02*
X0019239Y0196957D01*
X0018742Y0198156D02*
X0003400Y0198156D01*
X0003400Y0199354D02*
X0018501Y0199354D01*
X0018501Y0200553D02*
X0003400Y0200553D01*
X0003400Y0201751D02*
X0018501Y0201751D01*
X0018910Y0202950D02*
X0003400Y0202950D01*
X0003400Y0204148D02*
X0019407Y0204148D01*
X0020143Y0205347D02*
X0003400Y0205347D01*
X0003400Y0206545D02*
X0021341Y0206545D01*
X0023286Y0207744D02*
X0003400Y0207744D01*
X0003400Y0208942D02*
X0288501Y0208942D01*
X0288501Y0207744D02*
X0169914Y0207744D01*
X0171859Y0206545D02*
X0288501Y0206545D01*
X0288501Y0205347D02*
X0173057Y0205347D01*
X0173793Y0204148D02*
X0288501Y0204148D01*
X0288501Y0202950D02*
X0174290Y0202950D01*
X0174699Y0201751D02*
X0288501Y0201751D01*
X0288501Y0200553D02*
X0174699Y0200553D01*
X0174699Y0199354D02*
X0288501Y0199354D01*
X0288501Y0198156D02*
X0174458Y0198156D01*
X0133347Y0194560D02*
X0121700Y0194560D01*
X0121700Y0193362D02*
X0132149Y0193362D01*
X0131523Y0192163D02*
X0121700Y0192163D01*
X0122082Y0190965D02*
X0131118Y0190965D01*
X0131118Y0189766D02*
X0122082Y0189766D01*
X0122082Y0188568D02*
X0131118Y0188568D01*
X0131118Y0187369D02*
X0122082Y0187369D01*
X0122082Y0186171D02*
X0131118Y0186171D01*
X0131118Y0184972D02*
X0122082Y0184972D01*
X0122082Y0183774D02*
X0131118Y0183774D01*
X0131118Y0182575D02*
X0122082Y0182575D01*
X0121818Y0181377D02*
X0131382Y0181377D01*
X0131879Y0180178D02*
X0121700Y0180178D01*
X0121700Y0178980D02*
X0133007Y0178980D01*
X0111500Y0178980D02*
X0096543Y0178980D01*
X0096543Y0180178D02*
X0111500Y0180178D01*
X0111500Y0181377D02*
X0096543Y0181377D01*
X0096768Y0182575D02*
X0111432Y0182575D01*
X0111432Y0183774D02*
X0096768Y0183774D01*
X0096768Y0184972D02*
X0111432Y0184972D01*
X0111432Y0186171D02*
X0096768Y0186171D01*
X0096768Y0187369D02*
X0111432Y0187369D01*
X0111432Y0188568D02*
X0096768Y0188568D01*
X0096768Y0189766D02*
X0111432Y0189766D01*
X0111432Y0190965D02*
X0096768Y0190965D01*
X0096362Y0192163D02*
X0111500Y0192163D01*
X0111500Y0193362D02*
X0095736Y0193362D01*
X0094538Y0194560D02*
X0111427Y0194560D01*
X0110229Y0195759D02*
X0062971Y0195759D01*
X0061773Y0194560D02*
X0068662Y0194560D01*
X0068741Y0194639D02*
X0067243Y0193141D01*
X0066432Y0191184D01*
X0066432Y0182016D01*
X0067243Y0180059D01*
X0068741Y0178561D01*
X0070698Y0177750D01*
X0072817Y0177750D01*
X0074774Y0178561D01*
X0076272Y0180059D01*
X0077082Y0182016D01*
X0077082Y0191184D01*
X0076272Y0193141D01*
X0074774Y0194639D01*
X0072817Y0195450D01*
X0070698Y0195450D01*
X0068741Y0194639D01*
X0067464Y0193362D02*
X0060574Y0193362D01*
X0059376Y0192163D02*
X0066838Y0192163D01*
X0066432Y0190965D02*
X0058177Y0190965D01*
X0056979Y0189766D02*
X0066432Y0189766D01*
X0066432Y0188568D02*
X0055780Y0188568D01*
X0054582Y0187369D02*
X0066432Y0187369D01*
X0066432Y0186171D02*
X0053383Y0186171D01*
X0052185Y0184972D02*
X0066432Y0184972D01*
X0066432Y0183774D02*
X0050986Y0183774D01*
X0049788Y0182575D02*
X0066432Y0182575D01*
X0066697Y0181377D02*
X0048589Y0181377D01*
X0047391Y0180178D02*
X0067194Y0180178D01*
X0068322Y0178980D02*
X0046192Y0178980D01*
X0044994Y0177781D02*
X0070623Y0177781D01*
X0072892Y0177781D02*
X0085569Y0177781D01*
X0086343Y0178980D02*
X0075193Y0178980D01*
X0076321Y0180178D02*
X0086343Y0180178D01*
X0086343Y0181377D02*
X0076818Y0181377D01*
X0077082Y0182575D02*
X0086118Y0182575D01*
X0086118Y0183774D02*
X0077082Y0183774D01*
X0077082Y0184972D02*
X0086118Y0184972D01*
X0086118Y0186171D02*
X0077082Y0186171D01*
X0077082Y0187369D02*
X0086118Y0187369D01*
X0086118Y0188568D02*
X0077082Y0188568D01*
X0077082Y0189766D02*
X0086118Y0189766D01*
X0086118Y0190965D02*
X0077082Y0190965D01*
X0076677Y0192163D02*
X0086523Y0192163D01*
X0087149Y0193362D02*
X0076051Y0193362D01*
X0074853Y0194560D02*
X0088347Y0194560D01*
X0096543Y0177781D02*
X0111500Y0177781D01*
X0111500Y0176583D02*
X0096543Y0176583D01*
X0096524Y0175384D02*
X0111500Y0175384D01*
X0111500Y0174186D02*
X0096028Y0174186D01*
X0095200Y0172987D02*
X0111500Y0172987D01*
X0111500Y0171789D02*
X0094001Y0171789D01*
X0092803Y0170590D02*
X0111500Y0170590D01*
X0111500Y0169392D02*
X0091604Y0169392D01*
X0090406Y0168193D02*
X0110981Y0168193D01*
X0109782Y0166995D02*
X0088808Y0166995D01*
X0104988Y0162201D02*
X0056700Y0162201D01*
X0056700Y0163399D02*
X0106187Y0163399D01*
X0107385Y0164598D02*
X0056810Y0164598D01*
X0058009Y0165796D02*
X0108584Y0165796D01*
X0130623Y0149017D02*
X0046229Y0149017D01*
X0045031Y0147818D02*
X0129507Y0147818D01*
X0129200Y0146620D02*
X0043832Y0146620D01*
X0042634Y0145421D02*
X0049589Y0145421D01*
X0048142Y0144223D02*
X0041435Y0144223D01*
X0040237Y0143024D02*
X0046943Y0143024D01*
X0045745Y0141826D02*
X0038401Y0141826D01*
X0036480Y0139429D02*
X0031700Y0139429D01*
X0031700Y0138230D02*
X0034502Y0138230D01*
X0033359Y0137032D02*
X0031700Y0137032D01*
X0031700Y0135833D02*
X0032862Y0135833D01*
X0032450Y0134635D02*
X0031700Y0134635D01*
X0031700Y0133436D02*
X0032450Y0133436D01*
X0032501Y0132238D02*
X0031700Y0132238D01*
X0031700Y0131039D02*
X0032998Y0131039D01*
X0033631Y0129841D02*
X0031700Y0129841D01*
X0031700Y0128642D02*
X0034829Y0128642D01*
X0037271Y0127444D02*
X0031700Y0127444D01*
X0031700Y0126245D02*
X0061100Y0126245D01*
X0061100Y0127444D02*
X0048929Y0127444D01*
X0051371Y0128642D02*
X0061493Y0128642D01*
X0062063Y0129841D02*
X0052569Y0129841D01*
X0053202Y0131039D02*
X0062300Y0131039D01*
X0062300Y0132238D02*
X0053699Y0132238D01*
X0053750Y0133436D02*
X0062300Y0133436D01*
X0062300Y0134635D02*
X0053750Y0134635D01*
X0053338Y0135833D02*
X0062300Y0135833D01*
X0062300Y0137032D02*
X0053113Y0137032D01*
X0044546Y0140627D02*
X0032840Y0140627D01*
X0025606Y0147818D02*
X0016700Y0147818D01*
X0016700Y0146620D02*
X0024407Y0146620D01*
X0023209Y0145421D02*
X0016700Y0145421D01*
X0016700Y0144223D02*
X0022166Y0144223D01*
X0021670Y0143024D02*
X0017388Y0143024D01*
X0018587Y0141826D02*
X0021500Y0141826D01*
X0021500Y0140627D02*
X0019785Y0140627D01*
X0020948Y0139429D02*
X0021500Y0139429D01*
X0021500Y0138230D02*
X0021445Y0138230D01*
X0011353Y0134635D02*
X0003400Y0134635D01*
X0003400Y0135833D02*
X0010154Y0135833D01*
X0008956Y0137032D02*
X0003400Y0137032D01*
X0003400Y0138230D02*
X0007757Y0138230D01*
X0006979Y0139429D02*
X0003400Y0139429D01*
X0003400Y0140627D02*
X0006500Y0140627D01*
X0006500Y0141826D02*
X0003400Y0141826D01*
X0003400Y0143024D02*
X0006500Y0143024D01*
X0006500Y0144223D02*
X0003400Y0144223D01*
X0003400Y0145421D02*
X0006500Y0145421D01*
X0006500Y0146620D02*
X0003400Y0146620D01*
X0003400Y0147818D02*
X0006500Y0147818D01*
X0006500Y0149017D02*
X0003400Y0149017D01*
X0003400Y0150215D02*
X0006500Y0150215D01*
X0006500Y0151414D02*
X0003400Y0151414D01*
X0003400Y0152612D02*
X0006500Y0152612D01*
X0006500Y0153811D02*
X0003400Y0153811D01*
X0003400Y0155009D02*
X0006500Y0155009D01*
X0006500Y0156208D02*
X0003400Y0156208D01*
X0003400Y0157406D02*
X0006500Y0157406D01*
X0006500Y0158605D02*
X0003400Y0158605D01*
X0003400Y0159803D02*
X0006500Y0159803D01*
X0006500Y0161002D02*
X0003400Y0161002D01*
X0003400Y0162201D02*
X0006500Y0162201D01*
X0006500Y0163399D02*
X0003400Y0163399D01*
X0003400Y0164598D02*
X0006500Y0164598D01*
X0006500Y0165796D02*
X0003400Y0165796D01*
X0003400Y0166995D02*
X0006500Y0166995D01*
X0006500Y0168193D02*
X0003400Y0168193D01*
X0003400Y0169392D02*
X0006500Y0169392D01*
X0006500Y0170590D02*
X0003400Y0170590D01*
X0003400Y0171789D02*
X0006500Y0171789D01*
X0006500Y0172987D02*
X0003400Y0172987D01*
X0003400Y0174186D02*
X0006500Y0174186D01*
X0006500Y0175384D02*
X0003400Y0175384D01*
X0003400Y0176583D02*
X0006500Y0176583D01*
X0006569Y0177781D02*
X0003400Y0177781D01*
X0003400Y0178980D02*
X0007066Y0178980D01*
X0007966Y0180178D02*
X0003400Y0180178D01*
X0003400Y0181377D02*
X0009164Y0181377D01*
X0010363Y0182575D02*
X0003400Y0182575D01*
X0003400Y0183774D02*
X0011561Y0183774D01*
X0012760Y0184972D02*
X0003400Y0184972D01*
X0003400Y0186171D02*
X0014308Y0186171D01*
X0003400Y0187369D02*
X0040157Y0187369D01*
X0041355Y0188568D02*
X0003400Y0188568D01*
X0003400Y0189766D02*
X0042554Y0189766D01*
X0043752Y0190965D02*
X0003400Y0190965D01*
X0003400Y0192163D02*
X0044951Y0192163D01*
X0042814Y0176583D02*
X0055302Y0176583D01*
X0053172Y0175384D02*
X0017597Y0175384D01*
X0016700Y0174186D02*
X0051973Y0174186D01*
X0050775Y0172987D02*
X0016700Y0172987D01*
X0016700Y0171789D02*
X0049576Y0171789D01*
X0048378Y0170590D02*
X0028715Y0170590D01*
X0028413Y0170715D02*
X0024787Y0170715D01*
X0021437Y0169327D01*
X0018873Y0166763D01*
X0017485Y0163413D01*
X0017485Y0159787D01*
X0018873Y0156437D01*
X0021437Y0153873D01*
X0024787Y0152485D01*
X0028413Y0152485D01*
X0031763Y0153873D01*
X0034327Y0156437D01*
X0035715Y0159787D01*
X0035715Y0163413D01*
X0034327Y0166763D01*
X0031763Y0169327D01*
X0028413Y0170715D01*
X0031608Y0169392D02*
X0047236Y0169392D01*
X0046740Y0168193D02*
X0032897Y0168193D01*
X0034096Y0166995D02*
X0046500Y0166995D01*
X0046500Y0165796D02*
X0034728Y0165796D01*
X0035224Y0164598D02*
X0046500Y0164598D01*
X0046187Y0163399D02*
X0035715Y0163399D01*
X0035715Y0162201D02*
X0044988Y0162201D01*
X0043790Y0161002D02*
X0035715Y0161002D01*
X0035715Y0159803D02*
X0042591Y0159803D01*
X0041392Y0158605D02*
X0035225Y0158605D01*
X0034729Y0157406D02*
X0040194Y0157406D01*
X0038995Y0156208D02*
X0034098Y0156208D01*
X0032900Y0155009D02*
X0037797Y0155009D01*
X0036598Y0153811D02*
X0031614Y0153811D01*
X0029895Y0151414D02*
X0016700Y0151414D01*
X0016700Y0152612D02*
X0024479Y0152612D01*
X0021586Y0153811D02*
X0016700Y0153811D01*
X0016700Y0155009D02*
X0020300Y0155009D01*
X0019102Y0156208D02*
X0016700Y0156208D01*
X0016700Y0157406D02*
X0018471Y0157406D01*
X0017975Y0158605D02*
X0016700Y0158605D01*
X0016700Y0159803D02*
X0017485Y0159803D01*
X0017485Y0161002D02*
X0016700Y0161002D01*
X0016700Y0162201D02*
X0017485Y0162201D01*
X0017485Y0163399D02*
X0016700Y0163399D01*
X0016700Y0164598D02*
X0017976Y0164598D01*
X0018472Y0165796D02*
X0016700Y0165796D01*
X0016700Y0166995D02*
X0019104Y0166995D01*
X0020303Y0168193D02*
X0016700Y0168193D01*
X0016700Y0169392D02*
X0021592Y0169392D01*
X0024485Y0170590D02*
X0016700Y0170590D01*
X0028721Y0152612D02*
X0035400Y0152612D01*
X0028003Y0150215D02*
X0016700Y0150215D01*
X0016700Y0149017D02*
X0026804Y0149017D01*
X0047428Y0150215D02*
X0131821Y0150215D01*
X0133020Y0151414D02*
X0068452Y0151414D01*
X0064748Y0151414D02*
X0048626Y0151414D01*
X0049825Y0152612D02*
X0062809Y0152612D01*
X0061802Y0153811D02*
X0051023Y0153811D01*
X0052222Y0155009D02*
X0061306Y0155009D01*
X0061100Y0156208D02*
X0053420Y0156208D01*
X0054619Y0157406D02*
X0061100Y0157406D01*
X0061477Y0158605D02*
X0055817Y0158605D01*
X0056376Y0159803D02*
X0062025Y0159803D01*
X0063224Y0161002D02*
X0056700Y0161002D01*
X0078611Y0145421D02*
X0129200Y0145421D01*
X0129200Y0144223D02*
X0080058Y0144223D01*
X0081257Y0143024D02*
X0129200Y0143024D01*
X0129200Y0141826D02*
X0082455Y0141826D01*
X0083654Y0140627D02*
X0129200Y0140627D01*
X0129200Y0139429D02*
X0084852Y0139429D01*
X0086051Y0138230D02*
X0129200Y0138230D01*
X0128638Y0137032D02*
X0087079Y0137032D01*
X0087575Y0135833D02*
X0127439Y0135833D01*
X0126241Y0134635D02*
X0087613Y0134635D01*
X0087613Y0133436D02*
X0105042Y0133436D01*
X0103844Y0132238D02*
X0087613Y0132238D01*
X0087613Y0131039D02*
X0102645Y0131039D01*
X0101447Y0129841D02*
X0087613Y0129841D01*
X0087613Y0128642D02*
X0100248Y0128642D01*
X0099352Y0127444D02*
X0087613Y0127444D01*
X0087709Y0126245D02*
X0099200Y0126245D01*
X0099200Y0125047D02*
X0088105Y0125047D01*
X0088105Y0123848D02*
X0099200Y0123848D01*
X0099200Y0122650D02*
X0088105Y0122650D01*
X0088105Y0121451D02*
X0099200Y0121451D01*
X0099200Y0120253D02*
X0088105Y0120253D01*
X0088105Y0119054D02*
X0099200Y0119054D01*
X0099200Y0117856D02*
X0088105Y0117856D01*
X0087411Y0116657D02*
X0099200Y0116657D01*
X0099200Y0115459D02*
X0088105Y0115459D01*
X0088105Y0114260D02*
X0099200Y0114260D01*
X0099200Y0113062D02*
X0088105Y0113062D01*
X0088105Y0111863D02*
X0099200Y0111863D01*
X0099200Y0110665D02*
X0088105Y0110665D01*
X0088105Y0109466D02*
X0099200Y0109466D01*
X0099200Y0108268D02*
X0088105Y0108268D01*
X0087823Y0107069D02*
X0099200Y0107069D01*
X0099304Y0105870D02*
X0088084Y0105870D01*
X0088105Y0104672D02*
X0100134Y0104672D01*
X0101332Y0103473D02*
X0088105Y0103473D01*
X0088413Y0102275D02*
X0102531Y0102275D01*
X0103729Y0101076D02*
X0088413Y0101076D01*
X0088413Y0099878D02*
X0104928Y0099878D01*
X0106600Y0101600D02*
X0119887Y0101600D01*
X0115095Y0098679D02*
X0088413Y0098679D01*
X0088413Y0097481D02*
X0115095Y0097481D01*
X0115095Y0117856D02*
X0104000Y0117856D01*
X0104000Y0119054D02*
X0115095Y0119054D01*
X0115095Y0120253D02*
X0104000Y0120253D01*
X0104000Y0121451D02*
X0115095Y0121451D01*
X0115095Y0122650D02*
X0104000Y0122650D01*
X0104000Y0123848D02*
X0115095Y0123848D01*
X0115095Y0125047D02*
X0104000Y0125047D01*
X0104639Y0126245D02*
X0115491Y0126245D01*
X0130632Y0132238D02*
X0136720Y0132238D01*
X0134416Y0133436D02*
X0131830Y0133436D01*
X0133029Y0134635D02*
X0133321Y0134635D01*
X0134000Y0139429D02*
X0134082Y0139429D01*
X0140411Y0137032D02*
X0143699Y0137032D01*
X0141642Y0135833D02*
X0141609Y0135833D01*
X0149501Y0137032D02*
X0152715Y0137032D01*
X0151847Y0129841D02*
X0149867Y0129841D01*
X0142049Y0147818D02*
X0141151Y0147818D01*
X0141524Y0155009D02*
X0141676Y0155009D01*
X0079214Y0116657D02*
X0062718Y0116657D01*
X0064954Y0115459D02*
X0078520Y0115459D01*
X0078520Y0114260D02*
X0066152Y0114260D01*
X0067351Y0113062D02*
X0078520Y0113062D01*
X0078520Y0111863D02*
X0068549Y0111863D01*
X0070314Y0110665D02*
X0078520Y0110665D01*
X0078520Y0109466D02*
X0071366Y0109466D01*
X0071862Y0108268D02*
X0078520Y0108268D01*
X0078802Y0107069D02*
X0072100Y0107069D01*
X0072100Y0105870D02*
X0078541Y0105870D01*
X0078520Y0104672D02*
X0071755Y0104672D01*
X0071252Y0103473D02*
X0078520Y0103473D01*
X0078213Y0102275D02*
X0070053Y0102275D01*
X0063147Y0102275D02*
X0021700Y0102275D01*
X0021700Y0103473D02*
X0061948Y0103473D01*
X0061316Y0104672D02*
X0021700Y0104672D01*
X0021700Y0105870D02*
X0036241Y0105870D01*
X0029212Y0107069D02*
X0021700Y0107069D01*
X0021700Y0108268D02*
X0027720Y0108268D01*
X0026521Y0109466D02*
X0021700Y0109466D01*
X0021700Y0110665D02*
X0025323Y0110665D01*
X0024124Y0111863D02*
X0021700Y0111863D01*
X0021700Y0113062D02*
X0022926Y0113062D01*
X0022049Y0114260D02*
X0021700Y0114260D01*
X0031700Y0119054D02*
X0078520Y0119054D01*
X0078520Y0117856D02*
X0032557Y0117856D01*
X0031700Y0120253D02*
X0078520Y0120253D01*
X0078520Y0121451D02*
X0068542Y0121451D01*
X0070428Y0122650D02*
X0078520Y0122650D01*
X0078520Y0123848D02*
X0071413Y0123848D01*
X0071910Y0125047D02*
X0078520Y0125047D01*
X0078916Y0126245D02*
X0072100Y0126245D01*
X0072100Y0127444D02*
X0079013Y0127444D01*
X0079013Y0128642D02*
X0071707Y0128642D01*
X0071137Y0129841D02*
X0079013Y0129841D01*
X0079013Y0131039D02*
X0070900Y0131039D01*
X0070900Y0132238D02*
X0079013Y0132238D01*
X0078683Y0133436D02*
X0070900Y0133436D01*
X0070900Y0134635D02*
X0077484Y0134635D01*
X0076286Y0135833D02*
X0070900Y0135833D01*
X0070900Y0137032D02*
X0075087Y0137032D01*
X0061290Y0125047D02*
X0031700Y0125047D01*
X0031700Y0123848D02*
X0061787Y0123848D01*
X0062772Y0122650D02*
X0031700Y0122650D01*
X0031700Y0121451D02*
X0064658Y0121451D01*
X0060117Y0105870D02*
X0049959Y0105870D01*
X0050552Y0095084D02*
X0078213Y0095084D01*
X0078213Y0096282D02*
X0024130Y0096282D01*
X0025329Y0095084D02*
X0035648Y0095084D01*
X0035210Y0084297D02*
X0003400Y0084297D01*
X0003400Y0083099D02*
X0070886Y0083099D01*
X0069688Y0081900D02*
X0068176Y0081900D01*
X0065024Y0081900D02*
X0003400Y0081900D01*
X0003400Y0080702D02*
X0062924Y0080702D01*
X0061849Y0079503D02*
X0003400Y0079503D01*
X0003400Y0078305D02*
X0061353Y0078305D01*
X0061100Y0077106D02*
X0003400Y0077106D01*
X0003400Y0075908D02*
X0061100Y0075908D01*
X0061430Y0074709D02*
X0003400Y0074709D01*
X0003400Y0073511D02*
X0061926Y0073511D01*
X0063110Y0072312D02*
X0003400Y0072312D01*
X0003400Y0071114D02*
X0065473Y0071114D01*
X0067727Y0071114D02*
X0133269Y0071114D01*
X0133269Y0072312D02*
X0074525Y0072312D01*
X0075723Y0073511D02*
X0133269Y0073511D01*
X0133545Y0074709D02*
X0076922Y0074709D01*
X0072085Y0084297D02*
X0050990Y0084297D01*
X0052224Y0085496D02*
X0073283Y0085496D01*
X0074482Y0086694D02*
X0053059Y0086694D01*
X0053556Y0087893D02*
X0075680Y0087893D01*
X0076879Y0089091D02*
X0053750Y0089091D01*
X0053750Y0090290D02*
X0078077Y0090290D01*
X0078213Y0091488D02*
X0053481Y0091488D01*
X0052984Y0092687D02*
X0078213Y0092687D01*
X0078213Y0093885D02*
X0052043Y0093885D01*
X0078213Y0097481D02*
X0022932Y0097481D01*
X0021733Y0098679D02*
X0078213Y0098679D01*
X0078213Y0099878D02*
X0021700Y0099878D01*
X0021700Y0101076D02*
X0078213Y0101076D01*
X0032374Y0068717D02*
X0133269Y0068717D01*
X0133269Y0069915D02*
X0030344Y0069915D01*
X0033572Y0067518D02*
X0133269Y0067518D01*
X0133269Y0066320D02*
X0034511Y0066320D01*
X0035007Y0065121D02*
X0133269Y0065121D01*
X0133269Y0063923D02*
X0035504Y0063923D01*
X0035715Y0062724D02*
X0133269Y0062724D01*
X0133269Y0061526D02*
X0035715Y0061526D01*
X0035715Y0060327D02*
X0133269Y0060327D01*
X0133269Y0059129D02*
X0035442Y0059129D01*
X0034946Y0057930D02*
X0134106Y0057930D01*
X0109182Y0039952D02*
X0094018Y0039952D01*
X0094774Y0039639D02*
X0092817Y0040450D01*
X0090698Y0040450D01*
X0088741Y0039639D01*
X0087243Y0038141D01*
X0086432Y0036184D01*
X0086432Y0027016D01*
X0087243Y0025059D01*
X0088741Y0023561D01*
X0090698Y0022750D01*
X0092817Y0022750D01*
X0094774Y0023561D01*
X0096272Y0025059D01*
X0097082Y0027016D01*
X0097082Y0036184D01*
X0096272Y0038141D01*
X0094774Y0039639D01*
X0095659Y0038754D02*
X0107541Y0038754D01*
X0106685Y0037555D02*
X0096515Y0037555D01*
X0097011Y0036357D02*
X0106189Y0036357D01*
X0106118Y0035158D02*
X0097082Y0035158D01*
X0097082Y0033960D02*
X0106118Y0033960D01*
X0106118Y0032761D02*
X0097082Y0032761D01*
X0097082Y0031563D02*
X0106118Y0031563D01*
X0106118Y0030364D02*
X0097082Y0030364D01*
X0097082Y0029166D02*
X0106118Y0029166D01*
X0106118Y0027967D02*
X0097082Y0027967D01*
X0096980Y0026769D02*
X0106220Y0026769D01*
X0106716Y0025570D02*
X0096484Y0025570D01*
X0095585Y0024372D02*
X0107615Y0024372D01*
X0109362Y0023173D02*
X0093838Y0023173D01*
X0089677Y0023173D02*
X0033947Y0023173D01*
X0033466Y0022012D02*
X0034699Y0024989D01*
X0034699Y0028211D01*
X0033466Y0031188D01*
X0031188Y0033466D01*
X0028211Y0034699D01*
X0024989Y0034699D01*
X0022012Y0033466D01*
X0019734Y0031188D01*
X0018501Y0028211D01*
X0018501Y0024989D01*
X0019734Y0022012D01*
X0022012Y0019734D01*
X0024989Y0018501D01*
X0028211Y0018501D01*
X0031188Y0019734D01*
X0033466Y0022012D01*
X0033429Y0021975D02*
X0194771Y0021975D01*
X0194253Y0023173D02*
X0113523Y0023173D01*
X0115270Y0024372D02*
X0193756Y0024372D01*
X0193501Y0025570D02*
X0116169Y0025570D01*
X0116665Y0026769D02*
X0193501Y0026769D01*
X0193501Y0027967D02*
X0116768Y0027967D01*
X0116768Y0029166D02*
X0193896Y0029166D01*
X0194393Y0030364D02*
X0116768Y0030364D01*
X0116768Y0031563D02*
X0195109Y0031563D01*
X0196307Y0032761D02*
X0116768Y0032761D01*
X0089497Y0039952D02*
X0003400Y0039952D01*
X0003400Y0038754D02*
X0087856Y0038754D01*
X0087000Y0037555D02*
X0003400Y0037555D01*
X0003400Y0036357D02*
X0086504Y0036357D01*
X0086432Y0035158D02*
X0003400Y0035158D01*
X0003400Y0033960D02*
X0023204Y0033960D01*
X0021307Y0032761D02*
X0003400Y0032761D01*
X0003400Y0031563D02*
X0020109Y0031563D01*
X0019393Y0030364D02*
X0003400Y0030364D01*
X0003400Y0029166D02*
X0018896Y0029166D01*
X0018501Y0027967D02*
X0003400Y0027967D01*
X0003400Y0026769D02*
X0018501Y0026769D01*
X0018501Y0025570D02*
X0003400Y0025570D01*
X0003400Y0024372D02*
X0018756Y0024372D01*
X0019253Y0023173D02*
X0003400Y0023173D01*
X0003400Y0021975D02*
X0019771Y0021975D01*
X0020970Y0020776D02*
X0003400Y0020776D01*
X0003400Y0019578D02*
X0022389Y0019578D01*
X0030811Y0019578D02*
X0197389Y0019578D01*
X0195970Y0020776D02*
X0032230Y0020776D01*
X0034444Y0024372D02*
X0087930Y0024372D01*
X0087031Y0025570D02*
X0034699Y0025570D01*
X0034699Y0026769D02*
X0086535Y0026769D01*
X0086432Y0027967D02*
X0034699Y0027967D01*
X0034304Y0029166D02*
X0086432Y0029166D01*
X0086432Y0030364D02*
X0033807Y0030364D01*
X0033091Y0031563D02*
X0086432Y0031563D01*
X0086432Y0032761D02*
X0031893Y0032761D01*
X0029996Y0033960D02*
X0086432Y0033960D01*
X0023215Y0053136D02*
X0003400Y0053136D01*
X0003400Y0054334D02*
X0020975Y0054334D01*
X0019776Y0055533D02*
X0003400Y0055533D01*
X0003400Y0056732D02*
X0018751Y0056732D01*
X0018254Y0057930D02*
X0003400Y0057930D01*
X0003400Y0059129D02*
X0017758Y0059129D01*
X0017485Y0060327D02*
X0003400Y0060327D01*
X0003400Y0061526D02*
X0017485Y0061526D01*
X0017485Y0062724D02*
X0003400Y0062724D01*
X0003400Y0063923D02*
X0017696Y0063923D01*
X0018193Y0065121D02*
X0003400Y0065121D01*
X0003400Y0066320D02*
X0018689Y0066320D01*
X0019628Y0067518D02*
X0003400Y0067518D01*
X0003400Y0068717D02*
X0020826Y0068717D01*
X0022856Y0069915D02*
X0003400Y0069915D01*
X0003400Y0085496D02*
X0020492Y0085496D01*
X0019293Y0086694D02*
X0003400Y0086694D01*
X0003400Y0087893D02*
X0018095Y0087893D01*
X0016896Y0089091D02*
X0003400Y0089091D01*
X0003400Y0090290D02*
X0015698Y0090290D01*
X0014499Y0091488D02*
X0003400Y0091488D01*
X0003400Y0092687D02*
X0013301Y0092687D01*
X0012204Y0093885D02*
X0003400Y0093885D01*
X0003400Y0095084D02*
X0011708Y0095084D01*
X0011500Y0096282D02*
X0003400Y0096282D01*
X0003400Y0097481D02*
X0011500Y0097481D01*
X0011500Y0098679D02*
X0003400Y0098679D01*
X0003400Y0099878D02*
X0011500Y0099878D01*
X0011500Y0101076D02*
X0003400Y0101076D01*
X0003400Y0102275D02*
X0011500Y0102275D01*
X0011500Y0103473D02*
X0003400Y0103473D01*
X0003400Y0104672D02*
X0011500Y0104672D01*
X0011500Y0105870D02*
X0003400Y0105870D01*
X0003400Y0107069D02*
X0011500Y0107069D01*
X0011500Y0108268D02*
X0003400Y0108268D01*
X0003400Y0109466D02*
X0011500Y0109466D01*
X0011500Y0110665D02*
X0003400Y0110665D01*
X0003400Y0111863D02*
X0011500Y0111863D01*
X0011500Y0113062D02*
X0003400Y0113062D01*
X0003400Y0114260D02*
X0011500Y0114260D01*
X0011500Y0115459D02*
X0003400Y0115459D01*
X0003400Y0116657D02*
X0011500Y0116657D01*
X0011500Y0117856D02*
X0003400Y0117856D01*
X0003400Y0119054D02*
X0011500Y0119054D01*
X0011500Y0120253D02*
X0003400Y0120253D01*
X0003400Y0121451D02*
X0011500Y0121451D01*
X0011500Y0122650D02*
X0003400Y0122650D01*
X0003400Y0123848D02*
X0011500Y0123848D01*
X0011500Y0125047D02*
X0003400Y0125047D01*
X0003400Y0126245D02*
X0011500Y0126245D01*
X0011500Y0127444D02*
X0003400Y0127444D01*
X0003400Y0128642D02*
X0011500Y0128642D01*
X0011500Y0129841D02*
X0003400Y0129841D01*
X0003400Y0131039D02*
X0011500Y0131039D01*
X0011500Y0132238D02*
X0003400Y0132238D01*
X0003400Y0133436D02*
X0011500Y0133436D01*
X0003400Y0210141D02*
X0288501Y0210141D01*
X0288501Y0211339D02*
X0003400Y0211339D01*
X0003400Y0212538D02*
X0288501Y0212538D01*
X0288501Y0213737D02*
X0003400Y0213737D01*
X0254219Y0056732D02*
X0257489Y0056732D01*
X0256290Y0055533D02*
X0255445Y0055533D01*
D26*
X0199100Y0074100D03*
X0184100Y0051600D03*
X0176600Y0094100D03*
X0151600Y0116600D03*
X0141600Y0116600D03*
X0136600Y0136600D03*
X0139100Y0141600D03*
X0156600Y0151600D03*
X0179100Y0144100D03*
X0186600Y0141600D03*
X0194100Y0144100D03*
X0211600Y0121600D03*
X0221600Y0116600D03*
X0229100Y0139100D03*
X0191600Y0181600D03*
D27*
X0169700Y0141324D02*
X0166324Y0141324D01*
D28*
X0169700Y0138175D02*
X0175025Y0138175D01*
X0176600Y0136600D01*
X0176600Y0131876D01*
X0191324Y0131876D01*
X0194474Y0128726D01*
X0203500Y0128726D01*
X0176600Y0131876D02*
X0169700Y0131876D01*
X0166600Y0131876D01*
X0156600Y0132860D02*
X0146994Y0132860D01*
X0146600Y0133254D01*
X0143254Y0133254D01*
X0141600Y0131600D01*
X0136600Y0136600D01*
X0141600Y0131600D02*
X0136600Y0126600D01*
X0136600Y0091600D01*
X0141600Y0086600D01*
X0166600Y0086600D01*
X0171600Y0081600D01*
X0171600Y0071600D01*
X0166600Y0066600D01*
X0171600Y0061600D01*
X0171600Y0056600D01*
X0181600Y0046600D01*
X0231600Y0046600D01*
X0236600Y0041600D01*
X0246600Y0041600D01*
X0251600Y0046600D01*
X0251600Y0051600D01*
X0256600Y0051600D01*
X0261600Y0056600D01*
X0261600Y0091600D01*
X0254100Y0099100D01*
X0254100Y0134100D01*
X0251600Y0136600D01*
X0219100Y0104100D02*
X0211600Y0104100D01*
X0219100Y0104100D02*
X0224100Y0099100D01*
X0254100Y0099100D01*
X0166600Y0066600D02*
X0163800Y0066600D01*
X0163800Y0075700D02*
X0155700Y0075700D01*
X0151600Y0071600D01*
X0151600Y0046521D01*
X0156600Y0041521D01*
D29*
X0083313Y0121600D02*
X0083313Y0134887D01*
X0076600Y0141600D01*
X0066600Y0141600D01*
X0066600Y0126600D01*
X0066600Y0141600D02*
X0051600Y0141600D01*
X0043600Y0133600D01*
X0043100Y0133600D01*
X0116600Y0186443D02*
X0116757Y0186600D01*
D30*
X0116600Y0186443D02*
X0116600Y0196600D01*
X0111600Y0201600D01*
X0061600Y0201600D01*
X0041600Y0181600D01*
X0016600Y0181600D01*
X0011600Y0176600D01*
X0011600Y0141600D01*
X0016600Y0136600D01*
X0016600Y0096600D01*
X0023600Y0089600D01*
X0043100Y0089600D01*
X0066600Y0076600D02*
X0071600Y0076600D01*
X0083313Y0088313D01*
X0083313Y0101600D01*
X0066600Y0106600D02*
X0061600Y0111600D01*
X0043100Y0111600D01*
X0031600Y0111600D01*
X0026600Y0116600D01*
X0026600Y0141600D01*
X0031600Y0146600D01*
X0036600Y0146600D01*
X0051600Y0161600D01*
X0051600Y0166600D01*
X0056600Y0171600D01*
X0086600Y0171600D01*
X0091443Y0176443D01*
X0091443Y0186600D01*
X0116600Y0186443D02*
X0116600Y0166600D01*
X0106600Y0156600D01*
X0066600Y0156600D01*
D31*
X0156600Y0132860D02*
X0157584Y0131876D01*
X0166600Y0131876D01*
M02*
