%
M48
M72
T01C0.0197
T02C0.0236
T03C0.0276
T04C0.0320
T05C0.0354
T06C0.0400
T07C0.0472
T08C0.0590
T09C0.1063
T10C0.1260
%
T01
X18180Y17180
X18680Y17930
X19180Y16180
X18680Y11680
X24680Y18680
X25680Y18430
X26430Y17680
X27680Y15055
X30180Y13180
X32680Y13180
X30680Y17680
X21680Y21180
X21180Y22430
X18680Y23180
X16680Y24680
X14180Y24180
X12930Y22430
X9680Y26680
X7180Y25680
X7680Y23180
X8680Y22680
X12180Y36930
X18680Y39180
X21680Y39180
X25180Y39180
T02
X30180Y22180
X30180Y20680
X30180Y19180
X28680Y19180
X28680Y20680
X10180Y33680
X8180Y33180
X7680Y34180
X6680Y34680
X6680Y35680
X8680Y37180
X6180Y23180
X6180Y21680
X7180Y20180
X8180Y19180
T03
X31688Y16680
X32672Y16680
T04
X30180Y35680
X29180Y35680
X28180Y35680
X27180Y35680
X26180Y35680
X25180Y35680
X24180Y35680
X23180Y35680
X22180Y35680
X21180Y35680
X19180Y35680
X18180Y35680
X17180Y35680
X16180Y35680
X15180Y35680
X14180Y35680
X13180Y35680
X12180Y35680
X11180Y35680
X10180Y35680
X10180Y41680
X11180Y41680
X12180Y41680
X13180Y41680
X14180Y41680
X15180Y41680
X16180Y41680
X17180Y41680
X18180Y41680
X19180Y41680
X21180Y41680
X22180Y41680
X23180Y41680
X24180Y41680
X25180Y41680
X26180Y41680
X27180Y41680
X28180Y41680
X29180Y41680
X30180Y41680
X14180Y10180
X13180Y10180
X13180Y7180
X14180Y7180
T05
X10180Y10680
X10180Y13680
X7680Y17930
X4680Y17930
X32400Y25180
X34960Y25180
T06
X23680Y20180
X23680Y19180
X22680Y19180
X22680Y20180
X21680Y20180
X21680Y19180
X26680Y3180
X27680Y3180
X28680Y3180
X15680Y3180
X14680Y3180
X13680Y3180
X11680Y3180
X10680Y3180
X9680Y3180
T07
X17219Y7696
X17219Y9664
X22141Y9664
X22141Y7696
X24719Y7696
X24719Y9664
X24719Y14196
X24719Y16164
X29641Y16164
X29641Y14196
X29641Y9664
X29641Y7696
X28164Y26719
X26196Y26719
X26196Y31641
X28164Y31641
X21164Y31641
X19196Y31641
X19196Y26719
X21164Y26719
X13664Y26719
X11696Y26719
X11696Y31641
X13664Y31641
T08
X7330Y11380
X7330Y9180
X7330Y6980
T09
X5680Y4180
X5680Y14180
T10
X18180Y3180
X34180Y3180
X34180Y40680
X3180Y40680
M30
