%!PS-Adobe-3.0 EPSF-3.0
%%Title: EAGLE Drawing /home/agustin/Documentos/eagle/insoladora/insoladora.brd
%%Creator: EAGLE
%%Pages: 1
%%BoundingBox: 0 0 576 810
%%EndComments

% Coordinate transfer:

/EU { 254 div 0.072 mul } def
/inch { 72 mul } def

% Linestyle:

1 setlinecap
1 setlinejoin

% Drawing functions:

/l {  % draw a line
   /lw exch def
   /y2 exch def
   /x2 exch def
   /y1 exch def
   /x1 exch def
   newpath
   x1 EU y1 EU moveto
   x2 EU y2 EU lineto
   lw EU setlinewidth
   stroke
   } def

/h {  % draw a hole
   /d  exch def
   /y  exch def
   /x  exch def
   d 0 gt {
     newpath
     x EU y EU d 2 div EU 0 360 arc
     currentgray dup
     1 exch sub setgray
     fill
     setgray
     } if
   } def

/b {  % draw a bar
   /an exch def
   /y2 exch def
   /x2 exch def
   /y1 exch def
   /x1 exch def
   /w2 x2 x1 sub 2 div EU def
   /h2 y2 y1 sub 2 div EU def
   gsave
   x1 x2 add 2 div EU y1 y2 add 2 div EU translate
   an rotate
   newpath
   w2     h2     moveto
   w2 neg h2     lineto
   w2 neg h2 neg lineto
   w2     h2 neg lineto
   closepath
   fill
   grestore
   } def

/c {  % draw a circle
   /lw exch def
   /rd exch def
   /y  exch def
   /x  exch def
   newpath
   lw EU setlinewidth
   x EU y EU rd EU 0 360 arc
   stroke
   } def

/a {  % draw an arc
   /lc exch def
   /ae exch def
   /as exch def
   /lw exch def
   /rd exch def
   /y  exch def
   /x  exch def
   lw rd 2 mul gt {
     /rd rd lw 2 div add 2 div def
     /lw rd 2 mul def
     } if
   currentlinecap currentlinejoin
   lc setlinecap 0 setlinejoin
   newpath
   lw EU setlinewidth
   x EU y EU rd EU as ae arc
   stroke
   setlinejoin setlinecap
   } def

/p {  % draw a pie
   /d exch def
   /y exch def
   /x exch def
   newpath
   x EU y EU d 2 div EU 0 360 arc
   fill
   } def

/edge { 0.20710678119 mul } def

/o {  % draw an octagon
   /an exch def
   /dy exch def
   /dx exch def
   /y  exch def
   /x  exch def
   gsave
   x EU y EU translate
   an dx dy lt { 90 add /dx dy /dy dx def def } if rotate
   newpath
      0 dx 2 div sub EU                    0 dy edge  add EU moveto
      0 dx dy sub 2 div sub dy edge sub EU 0 dy 2 div add EU lineto
      0 dx dy sub 2 div add dy edge add EU 0 dy 2 div add EU lineto
      0 dx 2 div add EU                    0 dy edge  add EU lineto
      0 dx 2 div add EU                    0 dy edge  sub EU lineto
      0 dx dy sub 2 div add dy edge add EU 0 dy 2 div sub EU lineto
      0 dx dy sub 2 div sub dy edge sub EU 0 dy 2 div sub EU lineto
      0 dx 2 div sub EU                    0 dy edge  sub EU lineto
   closepath
   fill
   grestore
   } def

% the real drawing size:

/MinDrawX      0 EU def
/MinDrawY      0 EU def
/MaxDrawX 644144 EU def
/MaxDrawY 555244 EU def

% the usable page size:

/LeftMargin 0.25 inch def  % change these if drawing gets clipped!
/BotMargin  0.25 inch def
/PageWidth   7.7500 inch def
/PageHeight 11.0000 inch def

% are we going to rotate?:

/RotateDrawing 0 0 ne def

% Media size functions:

/AbortMessage {  % Show a message in a box and stop printing
   /h 100 def
   /Courier findfont 12 scalefont setfont
   mediawidth pagemargin sub h 1 setpage
   newpath
   0 0 moveto
   0 h rlineto
   mediawidth pagemargin sub 0 rlineto
   0 h neg rlineto
   closepath
   5 setlinewidth
   stroke
   newpath 50 60 moveto (ERROR: Jobsize exceeds physical printing area!) show
   newpath 50 40 moveto (       Job has been aborted!) show
   showpage
   stop
   } def

/SelectPage {  % Select the page identified by Row and Column
   /Column exch def
   /Row    exch def

   % the actually exposed area (if the machine knows these parameters!):

   /DrawX MaxDrawX MinDrawX sub def
   /DrawY MaxDrawY MinDrawY sub def
   statusdict /setpage known
   statusdict /mediawidth known and
   statusdict /medialength known and
   statusdict /pagemargin known and {
      % this is for machines that can tell the media size:
      statusdict begin
         /MediaW mediawidth pagemargin sub def
         DrawX DrawY ge {
            DrawX MediaW le DrawY medialength le and {
               MediaW DrawY 1 setpage
               MediaW DrawX sub 2 div 0 translate
               }{
            DrawY MediaW le DrawX medialength le and {
               MediaW DrawX 0 setpage
               0 MediaW DrawY sub 2 div translate
               }{
               AbortMessage
               } ifelse
               } ifelse
            }{
            DrawY MediaW le DrawX medialength le and {
               MediaW DrawX 0 setpage
               0 MediaW DrawY sub 2 div translate
               }{
            DrawX MediaW le DrawY medialength le and {
               MediaW DrawY 1 setpage
               MediaW DrawX sub 2 div 0 translate
               }{
               AbortMessage
               } ifelse
               } ifelse
            } ifelse
         end
      }{
      % this is for machines that can NOT tell the media size:
      % (Ghostscript doesn't like this!)
      /Product product length string def
      /i 0 def
      product { dup 97 lt { 32 add } if Product exch i exch put /i i 1 add def } forall 
      Product (ghostscript) search dup /IsGhostscript exch def
      { pop pop } if
      pop
      IsGhostscript not {
         statusdict /setpage known {
            statusdict begin
               RotateDrawing {
                  LeftMargin PageHeight add BotMargin DrawY add
                  }{
                  BotMargin DrawY add LeftMargin DrawX add 
                  } ifelse
               0 setpage
               end
            } if
         } if
      % set clipping boundary:
      newpath
      LeftMargin BotMargin moveto
      0 PageHeight rlineto
      PageWidth  0 rlineto
      0 PageHeight neg rlineto
      closepath
      clip
      % set the origin:
      LeftMargin BotMargin translate
      RotateDrawing {
         0 PageHeight translate
         -90 rotate
         PageHeight Column mul neg PageWidth Row mul neg translate
         }{
         PageWidth Column mul neg PageHeight Row mul neg translate
         } ifelse
      } ifelse
   % move the lower left corner of the drawing to the origin:
   MinDrawX neg MinDrawY neg translate
   
   % Linestyle:
   
   1 setlinecap
   1 setlinejoin
   
   % invert drawing:
   newpath
   MinDrawX MinDrawY moveto
   MaxDrawX MinDrawY lineto
   MaxDrawX MaxDrawY lineto
   MinDrawX MaxDrawY lineto
   0 setgray
   closepath fill
   1 setgray
   
   } def

% TheDrawing

gsave 0 0 SelectPage
4572 4572 636272 4572 0 l
636272 4572 636272 550572 0 l
636272 550572 4572 550572 0 l
4572 550572 4572 4572 0 l
106172 461772 16000 0 c
106172 55372 16000 0 c
334772 55372 16000 0 c
550672 461772 16000 0 c
576072 245872 18796 p
550672 245872 18796 p
576072 271272 18796 p
550672 271272 18796 p
576072 296672 18796 p
550672 296672 18796 p
436372 106172 18796 p
436372 131572 18796 p
461772 106172 18796 p
461772 131572 18796 p
487172 106172 18796 p
487172 131572 18796 p
512572 106172 18796 p
512572 131572 18796 p
537972 106172 18796 p
537972 131572 18796 p
83376 118872 65469 118872 17907 l
83376 169672 65469 169672 17907 l
83376 220472 65469 220472 17907 l
83376 271272 65469 271272 17907 l
83376 322072 65469 322072 17907 l
83376 372872 65469 372872 17907 l
350774 465074 369570 483870 180.0 b
334772 474472 18796 p
309372 474472 18796 p
465074 465074 483870 483870 180.0 b
449072 474472 18796 p
423672 474472 18796 p
521905 63500 452439 63500 4064 l
452439 63500 444500 71439 4064 l
444500 71439 444500 92768 4064 l
444500 92768 445149 93037 4064 l
445149 93037 449072 96960 4064 l
449072 96960 452995 93037 4064 l
452995 93037 454152 92558 4064 l
454152 92558 454152 91956 4064 l
454152 91956 455312 89156 4064 l
455312 89156 457456 87012 4064 l
457456 87012 462026 82442 4064 l
462026 82442 462026 78296 4064 l
462026 78296 463921 73722 4064 l
463921 73722 467422 70221 4064 l
467422 70221 471996 68326 4064 l
471996 68326 476948 68326 4064 l
476948 68326 481522 70221 4064 l
481522 70221 485023 73722 4064 l
485023 73722 486918 78296 4064 l
486918 78296 486918 83248 4064 l
486918 83248 485023 87822 4064 l
485023 87822 481522 91323 4064 l
481522 91323 476948 93218 4064 l
476948 93218 472802 93218 4064 l
472802 93218 471766 94254 4064 l
471766 94254 474907 97395 4064 l
474907 97395 477266 103090 4064 l
477266 103090 477266 109254 4064 l
477266 109254 474907 114949 4064 l
474907 114949 470984 118872 4064 l
470984 118872 474472 122360 4064 l
474472 122360 478395 118437 4064 l
478395 118437 484090 116078 4064 l
484090 116078 490254 116078 4064 l
490254 116078 495949 118437 4064 l
495949 118437 499872 122360 4064 l
499872 122360 503360 118872 4064 l
503360 118872 499437 114949 4064 l
499437 114949 497078 109254 4064 l
497078 109254 497078 103090 4064 l
497078 103090 499437 97395 4064 l
499437 97395 503795 93037 4064 l
503795 93037 504952 92558 4064 l
504952 92558 504952 90753 4064 l
504952 90753 502021 87822 4064 l
502021 87822 500126 83248 4064 l
500126 83248 500126 78296 4064 l
500126 78296 502021 73722 4064 l
502021 73722 505522 70221 4064 l
505522 70221 510096 68326 4064 l
510096 68326 515048 68326 4064 l
515048 68326 519622 70221 4064 l
519622 70221 523123 73722 4064 l
523123 73722 525018 78296 4064 l
525018 78296 525018 83248 4064 l
525018 83248 523123 87822 4064 l
523123 87822 520192 90753 4064 l
520192 90753 520192 92558 4064 l
520192 92558 521349 93037 4064 l
521349 93037 525272 96960 4064 l
525272 96960 529195 93037 4064 l
529195 93037 529844 92768 4064 l
529844 92768 529844 71439 4064 l
529844 71439 521905 63500 4064 l
529588 290212 529588 290212 4064 l
529588 290212 531732 292356 4064 l
531732 292356 532892 295156 4064 l
532892 295156 532892 318916 4064 l
532892 318916 540910 326933 4064 l
540910 326933 543622 324221 4064 l
543622 324221 548196 322326 4064 l
548196 322326 553148 322326 4064 l
553148 322326 557722 324221 4064 l
557722 324221 560434 326933 4064 l
560434 326933 568452 318916 4064 l
568452 318916 568452 310286 4064 l
568452 310286 567295 309807 4064 l
567295 309807 562937 305449 4064 l
562937 305449 560578 299754 4064 l
560578 299754 560578 293590 4064 l
560578 293590 562937 287895 4064 l
562937 287895 566860 283972 4064 l
566860 283972 563372 280484 4064 l
563372 280484 559449 284407 4064 l
559449 284407 553754 286766 4064 l
553754 286766 547590 286766 4064 l
547590 286766 541895 284407 4064 l
541895 284407 537537 280049 4064 l
537537 280049 537058 278892 4064 l
537058 278892 518268 278892 4064 l
518268 278892 529588 290212 4064 l
624080 16764 16764 16764 4064 l
16764 16764 16764 538380 4064 l
16764 538380 624080 538380 4064 l
624080 538380 624080 16764 4064 l
448818 332296 448818 337248 4064 l
448818 337248 446923 341822 4064 l
446923 341822 443992 344753 4064 l
443992 344753 443992 382416 4064 l
443992 382416 478788 417212 4064 l
478788 417212 480932 419356 4064 l
480932 419356 482092 422156 4064 l
482092 422156 482092 458978 4064 l
482092 458978 485083 458978 4064 l
485083 458978 487323 459906 4064 l
487323 459906 489038 461621 4064 l
489038 461621 489966 463861 4064 l
489966 463861 489966 485083 4064 l
489966 485083 489038 487323 4064 l
489038 487323 487323 489038 4064 l
487323 489038 485083 489966 4064 l
485083 489966 463861 489966 4064 l
463861 489966 461621 489038 4064 l
461621 489038 459906 487323 4064 l
459906 487323 459387 486069 4064 l
459387 486069 457849 487607 4064 l
457849 487607 452154 489966 4064 l
452154 489966 445990 489966 4064 l
445990 489966 440295 487607 4064 l
440295 487607 435937 483249 4064 l
435937 483249 433578 477554 4064 l
433578 477554 433578 471390 4064 l
433578 471390 435937 465695 4064 l
435937 465695 440295 461337 4064 l
440295 461337 445990 458978 4064 l
445990 458978 452154 458978 4064 l
452154 458978 457849 461337 4064 l
457849 461337 459387 462875 4064 l
459387 462875 459906 461621 4064 l
459906 461621 461621 459906 4064 l
461621 459906 463861 458978 4064 l
463861 458978 466852 458978 4064 l
466852 458978 466852 426828 4064 l
466852 426828 429912 389888 4064 l
429912 389888 428752 387088 4064 l
428752 387088 428752 344753 4064 l
428752 344753 425821 341822 4064 l
425821 341822 423926 337248 4064 l
423926 337248 423926 332296 4064 l
423926 332296 425821 327722 4064 l
425821 327722 429322 324221 4064 l
429322 324221 433896 322326 4064 l
433896 322326 438848 322326 4064 l
438848 322326 443422 324221 4064 l
443422 324221 446923 327722 4064 l
446923 327722 448818 332296 4064 l
436118 280098 434223 284672 4064 l
434223 284672 430722 288173 4064 l
430722 288173 426148 290068 4064 l
426148 290068 421196 290068 4064 l
421196 290068 416622 288173 4064 l
416622 288173 413121 284672 4064 l
413121 284672 411226 280098 4064 l
411226 280098 411226 275146 4064 l
411226 275146 413121 270572 4064 l
413121 270572 416622 267071 4064 l
416622 267071 421196 265176 4064 l
421196 265176 425342 265176 4064 l
425342 265176 425706 264812 4064 l
425706 264812 428506 263652 4064 l
428506 263652 475805 263652 4064 l
475805 263652 474726 261048 4064 l
474726 261048 474726 256096 4064 l
474726 256096 476621 251522 4064 l
476621 251522 479044 249099 4064 l
479044 249099 479044 206155 4064 l
479044 206155 480281 203168 4064 l
480281 203168 482568 200881 4064 l
482568 200881 520668 162781 4064 l
520668 162781 523655 161544 4064 l
523655 161544 534605 161544 4064 l
534605 161544 555244 140905 4064 l
555244 140905 555244 122239 4064 l
555244 122239 549531 116525 4064 l
549531 116525 547184 118872 4064 l
547184 118872 551107 122795 4064 l
551107 122795 553466 128490 4064 l
553466 128490 553466 134654 4064 l
553466 134654 551107 140349 4064 l
551107 140349 546749 144707 4064 l
546749 144707 541054 147066 4064 l
541054 147066 534890 147066 4064 l
534890 147066 529195 144707 4064 l
529195 144707 525272 140784 4064 l
525272 140784 521349 144707 4064 l
521349 144707 520192 145186 4064 l
520192 145186 520192 145788 4064 l
520192 145788 519032 148588 4064 l
519032 148588 516888 150732 4064 l
516888 150732 512318 155302 4064 l
512318 155302 512318 159448 4064 l
512318 159448 510423 164022 4064 l
510423 164022 506922 167523 4064 l
506922 167523 502348 169418 4064 l
502348 169418 497396 169418 4064 l
497396 169418 492822 167523 4064 l
492822 167523 489321 164022 4064 l
489321 164022 487426 159448 4064 l
487426 159448 487426 154794 4064 l
487426 154794 486918 155302 4064 l
486918 155302 486918 159448 4064 l
486918 159448 485023 164022 4064 l
485023 164022 481522 167523 4064 l
481522 167523 476948 169418 4064 l
476948 169418 471996 169418 4064 l
471996 169418 467422 167523 4064 l
467422 167523 463921 164022 4064 l
463921 164022 462026 159448 4064 l
462026 159448 462026 154794 4064 l
462026 154794 461882 154938 4064 l
461882 154938 459738 157082 4064 l
459738 157082 456938 158242 4064 l
456938 158242 440003 158242 4064 l
440003 158242 437072 161173 4064 l
437072 161173 432498 163068 4064 l
432498 163068 427546 163068 4064 l
427546 163068 422972 161173 4064 l
422972 161173 419471 157672 4064 l
419471 157672 417576 153098 4064 l
417576 153098 417576 148444 4064 l
417576 148444 408118 157902 4064 l
408118 157902 408118 162048 4064 l
408118 162048 406223 166622 4064 l
406223 166622 402722 170123 4064 l
402722 170123 398148 172018 4064 l
398148 172018 393196 172018 4064 l
393196 172018 388622 170123 4064 l
388622 170123 385121 166622 4064 l
385121 166622 383226 162048 4064 l
383226 162048 383226 157096 4064 l
383226 157096 385121 152522 4064 l
385121 152522 388622 149021 4064 l
388622 149021 393196 147126 4064 l
393196 147126 397342 147126 4064 l
397342 147126 419356 125112 4064 l
419356 125112 422156 123952 4064 l
422156 123952 422758 123952 4064 l
422758 123952 423237 122795 4064 l
423237 122795 427160 118872 4064 l
427160 118872 423237 114949 4064 l
423237 114949 420878 109254 4064 l
420878 109254 420878 103090 4064 l
420878 103090 423237 97395 4064 l
423237 97395 427595 93037 4064 l
427595 93037 428244 92768 4064 l
428244 92768 428244 66455 4064 l
428244 66455 429481 63468 4064 l
429481 63468 442181 50768 4064 l
442181 50768 444468 48481 4064 l
444468 48481 447455 47244 4064 l
447455 47244 526889 47244 4064 l
526889 47244 529876 48481 4064 l
529876 48481 532163 50768 4064 l
532163 50768 532163 50768 4064 l
532163 50768 538226 56831 4064 l
538226 56831 538226 52896 4064 l
538226 52896 540121 48322 4064 l
540121 48322 543622 44821 4064 l
543622 44821 548196 42926 4064 l
548196 42926 553148 42926 4064 l
553148 42926 557722 44821 4064 l
557722 44821 561223 48322 4064 l
561223 48322 563118 52896 4064 l
563118 52896 563118 57848 4064 l
563118 57848 561223 62422 4064 l
561223 62422 558292 65353 4064 l
558292 65353 558292 70791 4064 l
558292 70791 561223 73722 4064 l
561223 73722 563118 78296 4064 l
563118 78296 563118 83248 4064 l
563118 83248 561223 87822 4064 l
561223 87822 557722 91323 4064 l
557722 91323 553148 93218 4064 l
553148 93218 548196 93218 4064 l
548196 93218 546100 92350 4064 l
546100 92350 546100 92768 4064 l
546100 92768 546749 93037 4064 l
546749 93037 551107 97395 4064 l
551107 97395 551376 98044 4064 l
551376 98044 552289 98044 4064 l
552289 98044 555276 99281 4064 l
555276 99281 567976 111981 4064 l
567976 111981 570263 114268 4064 l
570263 114268 571500 117255 4064 l
571500 117255 571500 145889 4064 l
571500 145889 570263 148876 4064 l
570263 148876 544863 174276 4064 l
544863 174276 542576 176563 4064 l
542576 176563 539589 177800 4064 l
539589 177800 528639 177800 4064 l
528639 177800 495300 211139 4064 l
495300 211139 495300 239668 4064 l
495300 239668 506112 228856 4064 l
506112 228856 508256 226712 4064 l
508256 226712 511056 225552 4064 l
511056 225552 522116 225552 4064 l
522116 225552 531512 216156 4064 l
531512 216156 533656 214012 4064 l
533656 214012 536456 212852 4064 l
536456 212852 560216 212852 4064 l
560216 212852 563372 209696 4064 l
563372 209696 563372 205848 4064 l
563372 205848 558692 201168 4064 l
558692 201168 554546 201168 4064 l
554546 201168 549972 199273 4064 l
549972 199273 546471 195772 4064 l
546471 195772 544576 191198 4064 l
544576 191198 544576 186246 4064 l
544576 186246 546471 181672 4064 l
546471 181672 549972 178171 4064 l
549972 178171 554546 176276 4064 l
554546 176276 559498 176276 4064 l
559498 176276 564072 178171 4064 l
564072 178171 567573 181672 4064 l
567573 181672 569468 186246 4064 l
569468 186246 569468 190392 4064 l
569468 190392 577452 198376 4064 l
577452 198376 578364 200578 4064 l
578364 200578 581722 197221 4064 l
581722 197221 586296 195326 4064 l
586296 195326 591248 195326 4064 l
591248 195326 595822 197221 4064 l
595822 197221 599323 200722 4064 l
599323 200722 601218 205296 4064 l
601218 205296 601218 210248 4064 l
601218 210248 599323 214822 4064 l
599323 214822 596392 217753 4064 l
596392 217753 596392 221894 4064 l
596392 221894 597271 219772 4064 l
597271 219772 600772 216271 4064 l
600772 216271 605346 214376 4064 l
605346 214376 610298 214376 4064 l
610298 214376 614872 216271 4064 l
614872 216271 618373 219772 4064 l
618373 219772 620268 224346 4064 l
620268 224346 620268 229298 4064 l
620268 229298 618373 233872 4064 l
618373 233872 615442 236803 4064 l
615442 236803 615442 266438 4064 l
615442 266438 614282 269238 4064 l
614282 269238 607932 275588 4064 l
607932 275588 605788 277732 4064 l
605788 277732 602988 278892 4064 l
602988 278892 589686 278892 4064 l
589686 278892 589207 280049 4064 l
589207 280049 585284 283972 4064 l
585284 283972 589207 287895 4064 l
589207 287895 591566 293590 4064 l
591566 293590 591566 299754 4064 l
591566 299754 589207 305449 4064 l
589207 305449 584849 309807 4064 l
584849 309807 583692 310286 4064 l
583692 310286 583692 323588 4064 l
583692 323588 582532 326388 4064 l
582532 326388 580388 328532 4064 l
580388 328532 580388 328532 4064 l
580388 328532 569832 339088 4064 l
569832 339088 569832 339088 4064 l
569832 339088 567688 341232 4064 l
567688 341232 564888 342392 4064 l
564888 342392 560653 342392 4064 l
560653 342392 557722 345323 4064 l
557722 345323 553148 347218 4064 l
553148 347218 548196 347218 4064 l
548196 347218 543622 345323 4064 l
543622 345323 540691 342392 4064 l
540691 342392 536456 342392 4064 l
536456 342392 533656 341232 4064 l
533656 341232 520956 328532 4064 l
520956 328532 518812 326388 4064 l
518812 326388 517652 323588 4064 l
517652 323588 517652 299828 4064 l
517652 299828 496716 278892 4064 l
496716 278892 436118 278892 4064 l
436118 278892 436118 280098 4064 l
345606 461621 347321 459906 4064 l
347321 459906 349561 458978 4064 l
349561 458978 352552 458978 4064 l
352552 458978 352552 433653 4064 l
352552 433653 349621 430722 4064 l
349621 430722 347726 426148 4064 l
347726 426148 347726 421196 4064 l
347726 421196 349621 416622 4064 l
349621 416622 353122 413121 4064 l
353122 413121 357696 411226 4064 l
357696 411226 362648 411226 4064 l
362648 411226 367222 413121 4064 l
367222 413121 370723 416622 4064 l
370723 416622 372618 421196 4064 l
372618 421196 372618 426148 4064 l
372618 426148 370723 430722 4064 l
370723 430722 367792 433653 4064 l
367792 433653 367792 458978 4064 l
367792 458978 370783 458978 4064 l
370783 458978 373023 459906 4064 l
373023 459906 374738 461621 4064 l
374738 461621 375666 463861 4064 l
375666 463861 375666 485083 4064 l
375666 485083 374738 487323 4064 l
374738 487323 373023 489038 4064 l
373023 489038 370783 489966 4064 l
370783 489966 349561 489966 4064 l
349561 489966 347321 489038 4064 l
347321 489038 345606 487323 4064 l
345606 487323 345087 486069 4064 l
345087 486069 343549 487607 4064 l
343549 487607 337854 489966 4064 l
337854 489966 331690 489966 4064 l
331690 489966 325995 487607 4064 l
325995 487607 322072 483684 4064 l
322072 483684 318149 487607 4064 l
318149 487607 312454 489966 4064 l
312454 489966 306290 489966 4064 l
306290 489966 300595 487607 4064 l
300595 487607 296237 483249 4064 l
296237 483249 293878 477554 4064 l
293878 477554 293878 471390 4064 l
293878 471390 296237 465695 4064 l
296237 465695 300595 461337 4064 l
300595 461337 301752 460858 4064 l
301752 460858 301752 433653 4064 l
301752 433653 298821 430722 4064 l
298821 430722 296926 426148 4064 l
296926 426148 296926 421196 4064 l
296926 421196 298821 416622 4064 l
298821 416622 302322 413121 4064 l
302322 413121 306896 411226 4064 l
306896 411226 311848 411226 4064 l
311848 411226 316422 413121 4064 l
316422 413121 319923 416622 4064 l
319923 416622 321818 421196 4064 l
321818 421196 321818 426148 4064 l
321818 426148 319923 430722 4064 l
319923 430722 316992 433653 4064 l
316992 433653 316992 460858 4064 l
316992 460858 318149 461337 4064 l
318149 461337 322072 465260 4064 l
322072 465260 325995 461337 4064 l
325995 461337 327152 460858 4064 l
327152 460858 327152 433653 4064 l
327152 433653 324221 430722 4064 l
324221 430722 322326 426148 4064 l
322326 426148 322326 421196 4064 l
322326 421196 324221 416622 4064 l
324221 416622 327722 413121 4064 l
327722 413121 332296 411226 4064 l
332296 411226 337248 411226 4064 l
337248 411226 341822 413121 4064 l
341822 413121 345323 416622 4064 l
345323 416622 347218 421196 4064 l
347218 421196 347218 426148 4064 l
347218 426148 345323 430722 4064 l
345323 430722 342392 433653 4064 l
342392 433653 342392 460858 4064 l
342392 460858 343549 461337 4064 l
343549 461337 345087 462875 4064 l
345087 462875 345606 461621 4064 l
62475 307023 86369 307023 4064 l
86369 307023 91900 309314 4064 l
91900 309314 96134 313547 4064 l
96134 313547 98425 319078 4064 l
98425 319078 98425 325066 4064 l
98425 325066 96134 330597 4064 l
96134 330597 91900 334830 4064 l
91900 334830 86369 337121 4064 l
86369 337121 62475 337121 4064 l
62475 337121 58029 335280 4064 l
58029 335280 52745 335280 4064 l
52745 335280 47890 333269 4064 l
47890 333269 31475 316854 4064 l
31475 316854 29464 311999 4064 l
29464 311999 29464 306745 4064 l
29464 306745 31475 301890 4064 l
31475 301890 35190 298175 4064 l
35190 298175 40045 296164 4064 l
40045 296164 45299 296164 4064 l
45299 296164 50154 298175 4064 l
50154 298175 60019 308040 4064 l
60019 308040 62475 307023 4064 l
62475 256223 86369 256223 4064 l
86369 256223 90815 258064 4064 l
90815 258064 108799 258064 4064 l
108799 258064 113654 260075 4064 l
113654 260075 117369 263790 4064 l
117369 263790 119380 268645 4064 l
119380 268645 119380 273899 4064 l
119380 273899 117369 278754 4064 l
117369 278754 113654 282469 4064 l
113654 282469 108799 284480 4064 l
108799 284480 90815 284480 4064 l
90815 284480 86369 286321 4064 l
86369 286321 62475 286321 4064 l
62475 286321 56944 284030 4064 l
56944 284030 52710 279797 4064 l
52710 279797 50419 274266 4064 l
50419 274266 50419 268278 4064 l
50419 268278 52710 262747 4064 l
52710 262747 56944 258514 4064 l
56944 258514 62475 256223 4064 l
62475 205423 86369 205423 4064 l
86369 205423 91900 207714 4064 l
91900 207714 96134 211947 4064 l
96134 211947 98425 217478 4064 l
98425 217478 98425 223466 4064 l
98425 223466 96134 228997 4064 l
96134 228997 91900 233230 4064 l
91900 233230 86369 235521 4064 l
86369 235521 62475 235521 4064 l
62475 235521 60019 234504 4064 l
60019 234504 50154 244369 4064 l
50154 244369 45299 246380 4064 l
45299 246380 40045 246380 4064 l
40045 246380 35190 244369 4064 l
35190 244369 31475 240654 4064 l
31475 240654 29464 235799 4064 l
29464 235799 29464 230545 4064 l
29464 230545 31475 225690 4064 l
31475 225690 36693 220472 4064 l
36693 220472 31475 215254 4064 l
31475 215254 29464 210399 4064 l
29464 210399 29464 205145 4064 l
29464 205145 31475 200290 4064 l
31475 200290 35190 196575 4064 l
35190 196575 40045 194564 4064 l
40045 194564 45299 194564 4064 l
45299 194564 50154 196575 4064 l
50154 196575 60019 206440 4064 l
60019 206440 62475 205423 4064 l
62475 154623 86369 154623 4064 l
86369 154623 90815 156464 4064 l
90815 156464 108799 156464 4064 l
108799 156464 113654 158475 4064 l
113654 158475 117369 162190 4064 l
117369 162190 119380 167045 4064 l
119380 167045 119380 172299 4064 l
119380 172299 117369 177154 4064 l
117369 177154 113654 180869 4064 l
113654 180869 108799 182880 4064 l
108799 182880 90815 182880 4064 l
90815 182880 86369 184721 4064 l
86369 184721 62475 184721 4064 l
62475 184721 56944 182430 4064 l
56944 182430 52710 178197 4064 l
52710 178197 50419 172666 4064 l
50419 172666 50419 166678 4064 l
50419 166678 52710 161147 4064 l
52710 161147 56944 156914 4064 l
56944 156914 62475 154623 4064 l
62475 103823 86369 103823 4064 l
86369 103823 91900 106114 4064 l
91900 106114 94499 108712 4064 l
94499 108712 98731 108712 4064 l
98731 108712 99122 108321 4064 l
99122 108321 103696 106426 4064 l
103696 106426 108648 106426 4064 l
108648 106426 113222 108321 4064 l
113222 108321 116723 111822 4064 l
116723 111822 118618 116396 4064 l
118618 116396 118618 121348 4064 l
118618 121348 116723 125922 4064 l
116723 125922 113222 129423 4064 l
113222 129423 108648 131318 4064 l
108648 131318 103696 131318 4064 l
103696 131318 99122 129423 4064 l
99122 129423 98731 129032 4064 l
98731 129032 94499 129032 4064 l
94499 129032 91900 131630 4064 l
91900 131630 86369 133921 4064 l
86369 133921 62475 133921 4064 l
62475 133921 60019 132904 4064 l
60019 132904 50154 142769 4064 l
50154 142769 45299 144780 4064 l
45299 144780 40045 144780 4064 l
40045 144780 35190 142769 4064 l
35190 142769 31475 139054 4064 l
31475 139054 29464 134199 4064 l
29464 134199 29464 128945 4064 l
29464 128945 31475 124090 4064 l
31475 124090 44175 111390 4064 l
44175 111390 47890 107675 4064 l
47890 107675 52745 105664 4064 l
52745 105664 58029 105664 4064 l
58029 105664 62475 103823 4064 l
578864 458060 578864 465484 4064 l
578864 465484 576943 472654 4064 l
576943 472654 573231 479082 4064 l
573231 479082 567982 484331 4064 l
567982 484331 561554 488043 4064 l
561554 488043 554384 489964 4064 l
554384 489964 546960 489964 4064 l
546960 489964 539790 488043 4064 l
539790 488043 533362 484331 4064 l
533362 484331 528113 479082 4064 l
528113 479082 524401 472654 4064 l
524401 472654 522480 465484 4064 l
522480 465484 522480 458060 4064 l
522480 458060 524401 450890 4064 l
524401 450890 528113 444462 4064 l
528113 444462 533362 439213 4064 l
533362 439213 539790 435501 4064 l
539790 435501 546960 433580 4064 l
546960 433580 554384 433580 4064 l
554384 433580 561554 435501 4064 l
561554 435501 567982 439213 4064 l
567982 439213 573231 444462 4064 l
573231 444462 576943 450890 4064 l
576943 450890 578864 458060 4064 l
362964 51660 362964 59084 4064 l
362964 59084 361043 66254 4064 l
361043 66254 357331 72682 4064 l
357331 72682 352082 77931 4064 l
352082 77931 345654 81643 4064 l
345654 81643 338484 83564 4064 l
338484 83564 331060 83564 4064 l
331060 83564 323890 81643 4064 l
323890 81643 317462 77931 4064 l
317462 77931 312213 72682 4064 l
312213 72682 308501 66254 4064 l
308501 66254 306580 59084 4064 l
306580 59084 306580 51660 4064 l
306580 51660 308501 44490 4064 l
308501 44490 312213 38062 4064 l
312213 38062 317462 32813 4064 l
317462 32813 323890 29101 4064 l
323890 29101 331060 27180 4064 l
331060 27180 338484 27180 4064 l
338484 27180 345654 29101 4064 l
345654 29101 352082 32813 4064 l
352082 32813 357331 38062 4064 l
357331 38062 361043 44490 4064 l
361043 44490 362964 51660 4064 l
134364 51660 134364 59084 4064 l
134364 59084 132443 66254 4064 l
132443 66254 128731 72682 4064 l
128731 72682 123482 77931 4064 l
123482 77931 117054 81643 4064 l
117054 81643 109884 83564 4064 l
109884 83564 102460 83564 4064 l
102460 83564 95290 81643 4064 l
95290 81643 88862 77931 4064 l
88862 77931 83613 72682 4064 l
83613 72682 79901 66254 4064 l
79901 66254 77980 59084 4064 l
77980 59084 77980 51660 4064 l
77980 51660 79901 44490 4064 l
79901 44490 83613 38062 4064 l
83613 38062 88862 32813 4064 l
88862 32813 95290 29101 4064 l
95290 29101 102460 27180 4064 l
102460 27180 109884 27180 4064 l
109884 27180 117054 29101 4064 l
117054 29101 123482 32813 4064 l
123482 32813 128731 38062 4064 l
128731 38062 132443 44490 4064 l
132443 44490 134364 51660 4064 l
134364 458060 134364 465484 4064 l
134364 465484 132443 472654 4064 l
132443 472654 128731 479082 4064 l
128731 479082 123482 484331 4064 l
123482 484331 117054 488043 4064 l
117054 488043 109884 489964 4064 l
109884 489964 102460 489964 4064 l
102460 489964 95290 488043 4064 l
95290 488043 88862 484331 4064 l
88862 484331 83613 479082 4064 l
83613 479082 79901 472654 4064 l
79901 472654 77980 465484 4064 l
77980 465484 77980 458060 4064 l
77980 458060 79901 450890 4064 l
79901 450890 83613 444462 4064 l
83613 444462 88862 439213 4064 l
88862 439213 95290 435501 4064 l
95290 435501 102460 433580 4064 l
102460 433580 109884 433580 4064 l
109884 433580 117054 435501 4064 l
117054 435501 123482 439213 4064 l
123482 439213 128731 444462 4064 l
128731 444462 132443 450890 4064 l
132443 450890 134364 458060 4064 l
16764 19304 624080 19304 4064 l
16764 22987 624080 22987 4064 l
16764 26670 624080 26670 4064 l
16764 30353 93122 30353 4064 l
119222 30353 321722 30353 4064 l
347822 30353 624080 30353 4064 l
16764 34036 87638 34036 4064 l
124706 34036 316238 34036 4064 l
353306 34036 624080 34036 4064 l
16764 37719 83955 37719 4064 l
128389 37719 312555 37719 4064 l
356989 37719 624080 37719 4064 l
16764 41402 81684 41402 4064 l
130660 41402 310284 41402 4064 l
359260 41402 624080 41402 4064 l
16764 45085 79742 45085 4064 l
132602 45085 308342 45085 4064 l
361202 45085 543358 45085 4064 l
557986 45085 624080 45085 4064 l
16764 48768 78755 48768 4064 l
133589 48768 307355 48768 4064 l
362189 48768 444181 48768 4064 l
530163 48768 539936 48768 4064 l
561408 48768 624080 48768 4064 l
16764 52451 77980 52451 4064 l
134364 52451 306580 52451 4064 l
362964 52451 440498 52451 4064 l
533846 52451 538410 52451 4064 l
562934 52451 624080 52451 4064 l
16764 56134 77980 56134 4064 l
134364 56134 306580 56134 4064 l
362964 56134 436815 56134 4064 l
537529 56134 538226 56134 4064 l
563118 56134 624080 56134 4064 l
16764 59817 78177 59817 4064 l
134167 59817 306777 59817 4064 l
362767 59817 433132 59817 4064 l
562302 59817 624080 59817 4064 l
16764 63500 79163 63500 4064 l
133181 63500 307763 63500 4064 l
361781 63500 429468 63500 4064 l
452439 63500 521905 63500 4064 l
560145 63500 624080 63500 4064 l
16764 67183 80438 67183 4064 l
131906 67183 309038 67183 4064 l
360506 67183 428244 67183 4064 l
448756 67183 525588 67183 4064 l
558292 67183 624080 67183 4064 l
16764 70866 82564 70866 4064 l
129780 70866 311164 70866 4064 l
358380 70866 428244 70866 4064 l
445073 70866 466777 70866 4064 l
482167 70866 504877 70866 4064 l
520267 70866 529271 70866 4064 l
558367 70866 624080 70866 4064 l
16764 74549 85480 74549 4064 l
126864 74549 314080 74549 4064 l
355464 74549 428244 74549 4064 l
444500 74549 463578 74549 4064 l
485366 74549 501678 74549 4064 l
523466 74549 529844 74549 4064 l
561566 74549 624080 74549 4064 l
16764 78232 89383 78232 4064 l
122961 78232 317983 78232 4064 l
351561 78232 428244 78232 4064 l
444500 78232 462053 78232 4064 l
486891 78232 500153 78232 4064 l
524991 78232 529844 78232 4064 l
563091 78232 624080 78232 4064 l
16764 81915 96306 81915 4064 l
116038 81915 324906 81915 4064 l
344638 81915 428244 81915 4064 l
444500 81915 462026 81915 4064 l
486918 81915 500126 81915 4064 l
525018 81915 529844 81915 4064 l
563118 81915 624080 81915 4064 l
16764 85598 428244 85598 4064 l
444500 85598 458870 85598 4064 l
485944 85598 501100 85598 4064 l
524044 85598 529844 85598 4064 l
562144 85598 624080 85598 4064 l
16764 89281 428244 89281 4064 l
444500 89281 455260 89281 4064 l
483564 89281 503480 89281 4064 l
521664 89281 529844 89281 4064 l
559764 89281 624080 89281 4064 l
16764 92964 427771 92964 4064 l
444973 92964 453171 92964 4064 l
477561 92964 503971 92964 4064 l
521173 92964 529371 92964 4064 l
546573 92964 547583 92964 4064 l
553761 92964 624080 92964 4064 l
16764 96647 423985 96647 4064 l
448759 96647 449385 96647 4064 l
474159 96647 500185 96647 4064 l
524959 96647 525585 96647 4064 l
550359 96647 624080 96647 4064 l
16764 100330 422021 100330 4064 l
476123 100330 498221 100330 4064 l
556325 100330 624080 100330 4064 l
16764 104013 62015 104013 4064 l
86829 104013 420878 104013 4064 l
477266 104013 497078 104013 4064 l
560008 104013 624080 104013 4064 l
16764 107696 47869 107696 4064 l
93483 107696 100630 107696 4064 l
111714 107696 420878 107696 4064 l
477266 107696 497078 107696 4064 l
563691 107696 624080 107696 4064 l
16764 111379 44186 111379 4064 l
116280 111379 421758 111379 4064 l
476386 111379 497958 111379 4064 l
567374 111379 624080 111379 4064 l
16764 115062 40503 115062 4064 l
118065 115062 423350 115062 4064 l
474794 115062 499550 115062 4064 l
570592 115062 624080 115062 4064 l
16764 118745 36820 118745 4064 l
118618 118745 427033 118745 4064 l
471111 118745 478087 118745 4064 l
496257 118745 503233 118745 4064 l
547311 118745 551750 118745 4064 l
571500 118745 624080 118745 4064 l
16764 122428 33137 122428 4064 l
118171 122428 423604 122428 4064 l
550740 122428 555244 122428 4064 l
571500 122428 624080 122428 4064 l
16764 126111 30638 126111 4064 l
116534 126111 418357 126111 4064 l
552481 126111 555244 126111 4064 l
571500 126111 624080 126111 4064 l
16764 129794 29464 129794 4064 l
93737 129794 100017 129794 4064 l
112327 129794 414674 129794 4064 l
553466 129794 555244 129794 4064 l
571500 129794 624080 129794 4064 l
16764 133477 29464 133477 4064 l
59446 133477 61402 133477 4064 l
87442 133477 410991 133477 4064 l
553466 133477 555244 133477 4064 l
571500 133477 624080 133477 4064 l
16764 137160 30690 137160 4064 l
55763 137160 407308 137160 4064 l
552428 137160 555244 137160 4064 l
571500 137160 624080 137160 4064 l
16764 140843 33264 140843 4064 l
52080 140843 403625 140843 4064 l
525213 140843 525331 140843 4064 l
550613 140843 555244 140843 4064 l
571500 140843 624080 140843 4064 l
16764 144526 39432 144526 4064 l
45912 144526 399942 144526 4064 l
521530 144526 529014 144526 4064 l
546930 144526 551623 144526 4064 l
571500 144526 624080 144526 4064 l
16764 148209 390582 148209 4064 l
519189 148209 547940 148209 4064 l
570539 148209 624080 148209 4064 l
16764 151892 385751 151892 4064 l
414128 151892 417576 151892 4064 l
515728 151892 544257 151892 4064 l
567247 151892 624080 151892 4064 l
16764 155575 60175 155575 4064 l
88669 155575 383856 155575 4064 l
410445 155575 418602 155575 4064 l
461245 155575 462026 155575 4064 l
486918 155575 487426 155575 4064 l
512318 155575 540574 155575 4064 l
563564 155575 624080 155575 4064 l
16764 159258 54599 159258 4064 l
114437 159258 383226 159258 4064 l
408118 159258 421057 159258 4064 l
438987 159258 462026 159258 4064 l
486918 159258 487426 159258 4064 l
512318 159258 536891 159258 4064 l
559881 159258 624080 159258 4064 l
16764 162941 51967 162941 4064 l
117680 162941 383596 162941 4064 l
407748 162941 427240 162941 4064 l
432804 162941 463473 162941 4064 l
485471 162941 488873 162941 4064 l
510871 162941 520508 162941 4064 l
556198 162941 624080 162941 4064 l
16764 166624 50442 166624 4064 l
119206 166624 385123 166624 4064 l
406221 166624 466523 166624 4064 l
482421 166624 491923 166624 4064 l
507821 166624 516825 166624 4064 l
552515 166624 624080 166624 4064 l
16764 170307 50419 170307 4064 l
119380 170307 389066 170307 4064 l
402278 170307 513142 170307 4064 l
548832 170307 624080 170307 4064 l
16764 173990 50968 173990 4064 l
118680 173990 509459 173990 4064 l
545149 173990 624080 173990 4064 l
16764 177673 52493 177673 4064 l
116850 177673 505776 177673 4064 l
539895 177673 551174 177673 4064 l
562870 177673 624080 177673 4064 l
16764 181356 55869 181356 4064 l
112478 181356 502093 181356 4064 l
525083 181356 546787 181356 4064 l
567257 181356 624080 181356 4064 l
16764 185039 498410 185039 4064 l
521400 185039 545076 185039 4064 l
568968 185039 624080 185039 4064 l
16764 188722 494727 188722 4064 l
517717 188722 544576 188722 4064 l
569468 188722 624080 188722 4064 l
16764 192405 491044 192405 4064 l
514034 192405 545076 192405 4064 l
571481 192405 624080 192405 4064 l
16764 196088 36365 196088 4064 l
48979 196088 487361 196088 4064 l
510351 196088 546787 196088 4064 l
575164 196088 584457 196088 4064 l
593087 196088 624080 196088 4064 l
16764 199771 31994 199771 4064 l
53350 199771 483678 199771 4064 l
506668 199771 551174 199771 4064 l
578030 199771 579172 199771 4064 l
598372 199771 624080 199771 4064 l
16764 203454 30164 203454 4064 l
57033 203454 480163 203454 4064 l
502985 203454 560978 203454 4064 l
600455 203454 624080 203454 4064 l
16764 207137 29464 207137 4064 l
90508 207137 479044 207137 4064 l
499302 207137 563372 207137 4064 l
601218 207137 624080 207137 4064 l
16764 210820 29638 210820 4064 l
95007 210820 479044 210820 4064 l
495619 210820 562248 210820 4064 l
600981 210820 624080 210820 4064 l
16764 214503 31164 214503 4064 l
97192 214503 479044 214503 4064 l
495300 214503 533165 214503 4064 l
599455 214503 605040 214503 4064 l
610604 214503 624080 214503 4064 l
16764 218186 34407 218186 4064 l
98425 218186 479044 218186 4064 l
495300 218186 529482 218186 4064 l
596392 218186 598857 218186 4064 l
616787 218186 624080 218186 4064 l
16764 221869 35296 221869 4064 l
98425 221869 479044 221869 4064 l
495300 221869 525799 221869 4064 l
596392 221869 596402 221869 4064 l
619242 221869 624080 221869 4064 l
16764 225552 31613 225552 4064 l
97561 225552 479044 225552 4064 l
495300 225552 511056 225552 4064 l
620268 225552 624080 225552 4064 l
16764 229235 30007 229235 4064 l
95896 229235 479044 229235 4064 l
495300 229235 505733 229235 4064 l
620268 229235 624080 229235 4064 l
16764 232918 29464 232918 4064 l
92213 232918 479044 232918 4064 l
495300 232918 502050 232918 4064 l
618768 232918 624080 232918 4064 l
16764 236601 29796 236601 4064 l
57922 236601 479044 236601 4064 l
495300 236601 498367 236601 4064 l
615644 236601 624080 236601 4064 l
16764 240284 31322 240284 4064 l
54239 240284 479044 240284 4064 l
615442 240284 624080 240284 4064 l
16764 243967 34788 243967 4064 l
50556 243967 479044 243967 4064 l
615442 243967 624080 243967 4064 l
16764 247650 479044 247650 4064 l
615442 247650 624080 247650 4064 l
16764 251333 476810 251333 4064 l
615442 251333 624080 251333 4064 l
16764 255016 475173 255016 4064 l
615442 255016 624080 255016 4064 l
16764 258699 56758 258699 4064 l
110332 258699 474726 258699 4064 l
615442 258699 624080 258699 4064 l
16764 262382 53075 262382 4064 l
115961 262382 475279 262382 4064 l
615442 262382 624080 262382 4064 l
16764 266065 51336 266065 4064 l
118311 266065 419050 266065 4064 l
615442 266065 624080 266065 4064 l
16764 269748 50419 269748 4064 l
119380 269748 413945 269748 4064 l
613772 269748 624080 269748 4064 l
16764 273431 50419 273431 4064 l
119380 273431 411937 273431 4064 l
610089 273431 624080 273431 4064 l
16764 277114 51599 277114 4064 l
118048 277114 411226 277114 4064 l
606406 277114 624080 277114 4064 l
16764 280797 53710 280797 4064 l
115326 280797 411516 280797 4064 l
435828 280797 498621 280797 4064 l
520173 280797 538285 280797 4064 l
563059 280797 563685 280797 4064 l
588459 280797 624080 280797 4064 l
16764 284480 58029 284480 4064 l
90815 284480 413041 284480 4064 l
434303 284480 502304 284480 4064 l
523856 284480 542071 284480 4064 l
559273 284480 566352 284480 4064 l
585792 284480 624080 284480 4064 l
16764 288163 416612 288163 4064 l
430732 288163 505987 288163 4064 l
527539 288163 562826 288163 4064 l
589318 288163 624080 288163 4064 l
16764 291846 509670 291846 4064 l
531222 291846 561300 291846 4064 l
590844 291846 624080 291846 4064 l
16764 295529 513353 295529 4064 l
532892 295529 560578 295529 4064 l
591566 295529 624080 295529 4064 l
16764 299212 34153 299212 4064 l
51191 299212 517036 299212 4064 l
532892 299212 560578 299212 4064 l
591566 299212 624080 299212 4064 l
16764 302895 31059 302895 4064 l
54874 302895 517652 302895 4064 l
532892 302895 561879 302895 4064 l
590265 302895 624080 302895 4064 l
16764 306578 29533 306578 4064 l
58557 306578 517652 306578 4064 l
532892 306578 564066 306578 4064 l
588078 306578 624080 306578 4064 l
16764 310261 29464 310261 4064 l
92848 310261 517652 310261 4064 l
532892 310261 568391 310261 4064 l
583753 310261 624080 310261 4064 l
16764 313944 30270 313944 4064 l
96298 313944 517652 313944 4064 l
532892 313944 568452 313944 4064 l
583692 313944 624080 313944 4064 l
16764 317627 32248 317627 4064 l
97824 317627 517652 317627 4064 l
532892 317627 568452 317627 4064 l
583692 317627 624080 317627 4064 l
16764 321310 35931 321310 4064 l
98425 321310 517652 321310 4064 l
535286 321310 566058 321310 4064 l
583692 321310 624080 321310 4064 l
16764 324993 39614 324993 4064 l
98425 324993 428550 324993 4064 l
444194 324993 518234 324993 4064 l
538969 324993 542850 324993 4064 l
558494 324993 562375 324993 4064 l
583110 324993 624080 324993 4064 l
16764 328676 43297 328676 4064 l
96929 328676 425426 328676 4064 l
447318 328676 521100 328676 4064 l
580244 328676 624080 328676 4064 l
16764 332359 46980 332359 4064 l
94372 332359 423926 332359 4064 l
448818 332359 524783 332359 4064 l
576561 332359 624080 332359 4064 l
16764 336042 59869 336042 4064 l
88975 336042 423926 336042 4064 l
448818 336042 528466 336042 4064 l
572878 336042 624080 336042 4064 l
16764 339725 424952 339725 4064 l
447792 339725 532149 339725 4064 l
569195 339725 624080 339725 4064 l
16764 343408 427407 343408 4064 l
445337 343408 541707 343408 4064 l
559637 343408 624080 343408 4064 l
16764 347091 428752 347091 4064 l
443992 347091 547890 347091 4064 l
553454 347091 624080 347091 4064 l
16764 350774 428752 350774 4064 l
443992 350774 624080 350774 4064 l
16764 354457 428752 354457 4064 l
443992 354457 624080 354457 4064 l
16764 358140 428752 358140 4064 l
443992 358140 624080 358140 4064 l
16764 361823 428752 361823 4064 l
443992 361823 624080 361823 4064 l
16764 365506 428752 365506 4064 l
443992 365506 624080 365506 4064 l
16764 369189 428752 369189 4064 l
443992 369189 624080 369189 4064 l
16764 372872 428752 372872 4064 l
443992 372872 624080 372872 4064 l
16764 376555 428752 376555 4064 l
443992 376555 624080 376555 4064 l
16764 380238 428752 380238 4064 l
443992 380238 624080 380238 4064 l
16764 383921 428752 383921 4064 l
445497 383921 624080 383921 4064 l
16764 387604 428966 387604 4064 l
449180 387604 624080 387604 4064 l
16764 391287 431311 391287 4064 l
452863 391287 624080 391287 4064 l
16764 394970 434994 394970 4064 l
456546 394970 624080 394970 4064 l
16764 398653 438677 398653 4064 l
460229 398653 624080 398653 4064 l
16764 402336 442360 402336 4064 l
463912 402336 624080 402336 4064 l
16764 406019 446043 406019 4064 l
467595 406019 624080 406019 4064 l
16764 409702 449726 409702 4064 l
471278 409702 624080 409702 4064 l
16764 413385 302058 413385 4064 l
316686 413385 327458 413385 4064 l
342086 413385 352858 413385 4064 l
367486 413385 453409 413385 4064 l
474961 413385 624080 413385 4064 l
16764 417068 298636 417068 4064 l
320108 417068 324036 417068 4064 l
345508 417068 349436 417068 4064 l
370908 417068 457092 417068 4064 l
478644 417068 624080 417068 4064 l
16764 420751 297110 420751 4064 l
321634 420751 322510 420751 4064 l
347034 420751 347910 420751 4064 l
372434 420751 460775 420751 4064 l
481510 420751 624080 420751 4064 l
16764 424434 296926 424434 4064 l
321818 424434 322326 424434 4064 l
347218 424434 347726 424434 4064 l
372618 424434 464458 424434 4064 l
482092 424434 624080 424434 4064 l
16764 428117 297742 428117 4064 l
321002 428117 323142 428117 4064 l
346402 428117 348542 428117 4064 l
371802 428117 466852 428117 4064 l
482092 428117 624080 428117 4064 l
16764 431800 299899 431800 4064 l
318845 431800 325299 431800 4064 l
344245 431800 350699 431800 4064 l
369645 431800 466852 431800 4064 l
482092 431800 624080 431800 4064 l
16764 435483 95358 435483 4064 l
116986 435483 301752 435483 4064 l
316992 435483 327152 435483 4064 l
342392 435483 352552 435483 4064 l
367792 435483 466852 435483 4064 l
482092 435483 539858 435483 4064 l
561486 435483 624080 435483 4064 l
16764 439166 88943 439166 4064 l
123401 439166 301752 439166 4064 l
316992 439166 327152 439166 4064 l
342392 439166 352552 439166 4064 l
367792 439166 466852 439166 4064 l
482092 439166 533443 439166 4064 l
567901 439166 624080 439166 4064 l
16764 442849 85225 442849 4064 l
127119 442849 301752 442849 4064 l
316992 442849 327152 442849 4064 l
342392 442849 352552 442849 4064 l
367792 442849 466852 442849 4064 l
482092 442849 529725 442849 4064 l
571619 442849 624080 442849 4064 l
16764 446532 82417 446532 4064 l
129926 446532 301752 446532 4064 l
316992 446532 327152 446532 4064 l
342392 446532 352552 446532 4064 l
367792 446532 466852 446532 4064 l
482092 446532 526917 446532 4064 l
574426 446532 624080 446532 4064 l
16764 450215 80291 450215 4064 l
132053 450215 301752 450215 4064 l
316992 450215 327152 450215 4064 l
342392 450215 352552 450215 4064 l
367792 450215 466852 450215 4064 l
482092 450215 524791 450215 4064 l
576553 450215 624080 450215 4064 l
16764 453898 79095 453898 4064 l
133249 453898 301752 453898 4064 l
316992 453898 327152 453898 4064 l
342392 453898 352552 453898 4064 l
367792 453898 466852 453898 4064 l
482092 453898 523595 453898 4064 l
577749 453898 624080 453898 4064 l
16764 457581 78108 457581 4064 l
134236 457581 301752 457581 4064 l
316992 457581 327152 457581 4064 l
342392 457581 352552 457581 4064 l
367792 457581 466852 457581 4064 l
482092 457581 522608 457581 4064 l
578736 457581 624080 457581 4064 l
16764 461264 77980 461264 4064 l
134364 461264 300771 461264 4064 l
317973 461264 326171 461264 4064 l
343373 461264 345963 461264 4064 l
374381 461264 440471 461264 4064 l
457673 461264 460263 461264 4064 l
488681 461264 522480 461264 4064 l
578864 461264 624080 461264 4064 l
16764 464947 77980 464947 4064 l
134364 464947 296985 464947 4064 l
321759 464947 322385 464947 4064 l
375666 464947 436685 464947 4064 l
489966 464947 522480 464947 4064 l
578864 464947 624080 464947 4064 l
16764 468630 78823 468630 4064 l
133521 468630 295021 468630 4064 l
375666 468630 434721 468630 4064 l
489966 468630 523323 468630 4064 l
578021 468630 624080 468630 4064 l
16764 472313 79810 472313 4064 l
132534 472313 293878 472313 4064 l
375666 472313 433578 472313 4064 l
489966 472313 524310 472313 4064 l
577034 472313 624080 472313 4064 l
16764 475996 81831 475996 4064 l
130513 475996 293878 475996 4064 l
375666 475996 433578 475996 4064 l
489966 475996 526331 475996 4064 l
575013 475996 624080 475996 4064 l
16764 479679 84210 479679 4064 l
128134 479679 294758 479679 4064 l
375666 479679 434458 479679 4064 l
489966 479679 528710 479679 4064 l
572634 479679 624080 479679 4064 l
16764 483362 87893 483362 4064 l
124451 483362 296350 483362 4064 l
375666 483362 436050 483362 4064 l
489966 483362 532393 483362 4064 l
568951 483362 624080 483362 4064 l
16764 487045 93562 487045 4064 l
118782 487045 300033 487045 4064 l
318711 487045 325433 487045 4064 l
344111 487045 345491 487045 4064 l
374853 487045 439733 487045 4064 l
458411 487045 459791 487045 4064 l
489153 487045 538062 487045 4064 l
563282 487045 624080 487045 4064 l
16764 490728 624080 490728 4064 l
16764 494411 624080 494411 4064 l
16764 498094 624080 498094 4064 l
16764 501777 624080 501777 4064 l
16764 505460 624080 505460 4064 l
16764 509143 624080 509143 4064 l
16764 512826 624080 512826 4064 l
16764 516509 624080 516509 4064 l
16764 520192 624080 520192 4064 l
16764 523875 624080 523875 4064 l
16764 527558 624080 527558 4064 l
16764 531241 624080 531241 4064 l
16764 534924 624080 534924 4064 l
423672 252222 12700 p
487172 347472 12700 p
493522 74422 12700 p
550672 245872 525272 245872 6096 l
525272 245872 12700 p
436372 106172 436372 68072 4064 l
436372 68072 449072 55372 4064 l
449072 55372 525272 55372 4064 l
525272 55372 537972 68072 4064 l
537972 68072 537972 106172 4064 l
537972 106172 550672 106172 4064 l
550672 106172 563372 118872 4064 l
563372 118872 563372 144272 4064 l
563372 144272 537972 169672 4064 l
537972 169672 525272 169672 4064 l
525272 169672 487172 207772 4064 l
487172 207772 487172 258572 4064 l
487172 258572 12700 p
106172 169672 74422 169672 14224 l
106172 169672 12700 p
106172 271272 74422 271272 14224 l
106172 271272 12700 p
74422 220472 55372 220472 14224 l
55372 220472 42672 207772 14224 l
42672 131572 55372 118872 14224 l
55372 118872 74422 118872 14224 l
74422 322072 55372 322072 14224 l
55372 322072 42672 309372 14224 l
42672 233172 55372 220472 14224 l
74422 118872 106172 118872 8128 l
106172 118872 12700 p
42672 309372 12700 p
42672 233172 12700 p
42672 207772 12700 p
42672 131572 12700 p
576072 245872 576072 233172 3048 l
576072 233172 588772 220472 3048 l
588772 220472 588772 207772 3048 l
588772 207772 12700 p
607822 226822 607822 264922 3048 l
607822 264922 601472 271272 3048 l
601472 271272 576072 271272 3048 l
607822 226822 12700 p
576072 296672 576072 322072 3048 l
576072 322072 563372 334772 3048 l
563372 334772 550672 334772 3048 l
550672 334772 12700 p
423672 277622 12700 p
525272 296672 499872 271272 3048 l
550672 334772 537972 334772 3048 l
537972 334772 525272 322072 3048 l
525272 322072 525272 296672 3048 l
499872 271272 430022 271272 3048 l
430022 271272 423672 277622 3048 l
525272 233172 537972 220472 3048 l
537972 220472 563372 220472 3048 l
563372 220472 570992 212852 3048 l
570992 202692 570992 212852 3048 l
557022 188722 570992 202692 3048 l
557022 188722 12700 p
512572 271272 499872 258572 3048 l
499872 258572 499872 245872 3048 l
499872 245872 512572 233172 3048 l
512572 233172 525272 233172 3048 l
550672 271272 512572 271272 3048 l
461772 93472 474472 80772 3048 l
461772 93472 461772 106172 3048 l
550672 55372 550672 80772 3048 l
474472 80772 12700 p
550672 55372 12700 p
550672 80772 12700 p
512572 80772 512572 106172 3048 l
512572 80772 12700 p
423672 131572 436372 131572 3048 l
395672 159572 423672 131572 3048 l
395672 159572 12700 p
430022 150622 12700 p
461772 131572 461772 144272 3048 l
461772 144272 455422 150622 3048 l
455422 150622 430022 150622 3048 l
487172 144272 487172 131572 3048 l
474472 156972 487172 144272 3048 l
474472 156972 12700 p
499872 156972 512572 144272 3048 l
512572 144272 512572 131572 3048 l
499872 156972 12700 p
360172 474472 360172 423672 3048 l
360172 423672 12700 p
334772 474472 334772 423672 3048 l
334772 423672 12700 p
309372 474472 309372 423672 3048 l
309372 423672 12700 p
436372 334772 12700 p
436372 334772 436372 385572 3048 l
436372 385572 474472 423672 3048 l
474472 423672 474472 474472 3048 l
showpage grestore
