%!PS-Adobe-3.0 EPSF-3.0
%%Title: EAGLE Drawing /home/agustin/Documentos/eagle/insoladora/insoladora.brd
%%Creator: EAGLE
%%Pages: 1
%%BoundingBox: 0 0 576 810
%%EndComments

% Coordinate transfer:

/EU { 254 div 0.072 mul } def
/inch { 72 mul } def

% Linestyle:

1 setlinecap
1 setlinejoin

% Drawing functions:

/l {  % draw a line
   /lw exch def
   /y2 exch def
   /x2 exch def
   /y1 exch def
   /x1 exch def
   newpath
   x1 EU y1 EU moveto
   x2 EU y2 EU lineto
   lw EU setlinewidth
   stroke
   } def

/h {  % draw a hole
   /d  exch def
   /y  exch def
   /x  exch def
   d 0 gt {
     newpath
     x EU y EU d 2 div EU 0 360 arc
     currentgray dup
     1 exch sub setgray
     fill
     setgray
     } if
   } def

/b {  % draw a bar
   /an exch def
   /y2 exch def
   /x2 exch def
   /y1 exch def
   /x1 exch def
   /w2 x2 x1 sub 2 div EU def
   /h2 y2 y1 sub 2 div EU def
   gsave
   x1 x2 add 2 div EU y1 y2 add 2 div EU translate
   an rotate
   newpath
   w2     h2     moveto
   w2 neg h2     lineto
   w2 neg h2 neg lineto
   w2     h2 neg lineto
   closepath
   fill
   grestore
   } def

/c {  % draw a circle
   /lw exch def
   /rd exch def
   /y  exch def
   /x  exch def
   newpath
   lw EU setlinewidth
   x EU y EU rd EU 0 360 arc
   stroke
   } def

/a {  % draw an arc
   /lc exch def
   /ae exch def
   /as exch def
   /lw exch def
   /rd exch def
   /y  exch def
   /x  exch def
   lw rd 2 mul gt {
     /rd rd lw 2 div add 2 div def
     /lw rd 2 mul def
     } if
   currentlinecap currentlinejoin
   lc setlinecap 0 setlinejoin
   newpath
   lw EU setlinewidth
   x EU y EU rd EU as ae arc
   stroke
   setlinejoin setlinecap
   } def

/p {  % draw a pie
   /d exch def
   /y exch def
   /x exch def
   newpath
   x EU y EU d 2 div EU 0 360 arc
   fill
   } def

/edge { 0.20710678119 mul } def

/o {  % draw an octagon
   /an exch def
   /dy exch def
   /dx exch def
   /y  exch def
   /x  exch def
   gsave
   x EU y EU translate
   an dx dy lt { 90 add /dx dy /dy dx def def } if rotate
   newpath
      0 dx 2 div sub EU                    0 dy edge  add EU moveto
      0 dx dy sub 2 div sub dy edge sub EU 0 dy 2 div add EU lineto
      0 dx dy sub 2 div add dy edge add EU 0 dy 2 div add EU lineto
      0 dx 2 div add EU                    0 dy edge  add EU lineto
      0 dx 2 div add EU                    0 dy edge  sub EU lineto
      0 dx dy sub 2 div add dy edge add EU 0 dy 2 div sub EU lineto
      0 dx dy sub 2 div sub dy edge sub EU 0 dy 2 div sub EU lineto
      0 dx 2 div sub EU                    0 dy edge  sub EU lineto
   closepath
   fill
   grestore
   } def

% the real drawing size:

/MinDrawX      0 EU def
/MinDrawY      0 EU def
/MaxDrawX 644144 EU def
/MaxDrawY 555244 EU def

% the usable page size:

/LeftMargin 0.25 inch def  % change these if drawing gets clipped!
/BotMargin  0.25 inch def
/PageWidth   7.7500 inch def
/PageHeight 11.0000 inch def

% are we going to rotate?:

/RotateDrawing 0 0 ne def

% Media size functions:

/AbortMessage {  % Show a message in a box and stop printing
   /h 100 def
   /Courier findfont 12 scalefont setfont
   mediawidth pagemargin sub h 1 setpage
   newpath
   0 0 moveto
   0 h rlineto
   mediawidth pagemargin sub 0 rlineto
   0 h neg rlineto
   closepath
   5 setlinewidth
   stroke
   newpath 50 60 moveto (ERROR: Jobsize exceeds physical printing area!) show
   newpath 50 40 moveto (       Job has been aborted!) show
   showpage
   stop
   } def

/SelectPage {  % Select the page identified by Row and Column
   /Column exch def
   /Row    exch def

   % the actually exposed area (if the machine knows these parameters!):

   /DrawX MaxDrawX MinDrawX sub def
   /DrawY MaxDrawY MinDrawY sub def
   statusdict /setpage known
   statusdict /mediawidth known and
   statusdict /medialength known and
   statusdict /pagemargin known and {
      % this is for machines that can tell the media size:
      statusdict begin
         /MediaW mediawidth pagemargin sub def
         DrawX DrawY ge {
            DrawX MediaW le DrawY medialength le and {
               MediaW DrawY 1 setpage
               MediaW DrawX sub 2 div 0 translate
               }{
            DrawY MediaW le DrawX medialength le and {
               MediaW DrawX 0 setpage
               0 MediaW DrawY sub 2 div translate
               }{
               AbortMessage
               } ifelse
               } ifelse
            }{
            DrawY MediaW le DrawX medialength le and {
               MediaW DrawX 0 setpage
               0 MediaW DrawY sub 2 div translate
               }{
            DrawX MediaW le DrawY medialength le and {
               MediaW DrawY 1 setpage
               MediaW DrawX sub 2 div 0 translate
               }{
               AbortMessage
               } ifelse
               } ifelse
            } ifelse
         end
      }{
      % this is for machines that can NOT tell the media size:
      % (Ghostscript doesn't like this!)
      /Product product length string def
      /i 0 def
      product { dup 97 lt { 32 add } if Product exch i exch put /i i 1 add def } forall 
      Product (ghostscript) search dup /IsGhostscript exch def
      { pop pop } if
      pop
      IsGhostscript not {
         statusdict /setpage known {
            statusdict begin
               RotateDrawing {
                  LeftMargin PageHeight add BotMargin DrawY add
                  }{
                  BotMargin DrawY add LeftMargin DrawX add 
                  } ifelse
               0 setpage
               end
            } if
         } if
      % set clipping boundary:
      newpath
      LeftMargin BotMargin moveto
      0 PageHeight rlineto
      PageWidth  0 rlineto
      0 PageHeight neg rlineto
      closepath
      clip
      % set the origin:
      LeftMargin BotMargin translate
      RotateDrawing {
         0 PageHeight translate
         -90 rotate
         PageHeight Column mul neg PageWidth Row mul neg translate
         }{
         PageWidth Column mul neg PageHeight Row mul neg translate
         } ifelse
      } ifelse
   % move the lower left corner of the drawing to the origin:
   MinDrawX neg MinDrawY neg translate
   
   % Linestyle:
   
   1 setlinecap
   1 setlinejoin
   
   % invert drawing:
   newpath
   MinDrawX MinDrawY moveto
   MaxDrawX MinDrawY lineto
   MaxDrawX MaxDrawY lineto
   MinDrawX MaxDrawY lineto
   0 setgray
   closepath fill
   1 setgray
   
   } def

% TheDrawing

gsave 0 0 SelectPage
4572 4572 636272 4572 0 l
636272 4572 636272 550572 0 l
636272 550572 4572 550572 0 l
4572 550572 4572 4572 0 l
106172 461772 16000 0 c
106172 55372 16000 0 c
334772 55372 16000 0 c
550672 461772 16000 0 c
295372 139272 306372 149272 0.0 b
312372 139272 323372 149272 0.0 b
181072 101172 192072 111172 0.0 b
198072 101172 209072 111172 0.0 b
274272 380572 285272 390572 180.0 b
257272 380572 268272 390572 180.0 b
348322 257772 359322 267772 90.0 b
348322 274772 359322 284772 90.0 b
295372 164672 306372 174672 0.0 b
312372 164672 323372 174672 0.0 b
576072 245872 18796 p
550672 245872 18796 p
576072 271272 18796 p
550672 271272 18796 p
576072 296672 18796 p
550672 296672 18796 p
436372 106172 18796 p
436372 131572 18796 p
461772 106172 18796 p
461772 131572 18796 p
487172 106172 18796 p
487172 131572 18796 p
512572 106172 18796 p
512572 131572 18796 p
537972 106172 18796 p
537972 131572 18796 p
350972 202272 360972 213272 180.0 b
333972 202272 343972 213272 180.0 b
494872 299672 504872 310672 270.0 b
494872 282672 504872 293672 270.0 b
266272 286972 276272 297972 270.0 b
266272 269972 276272 280972 270.0 b
355172 384272 365172 395272 90.0 b
355172 401272 365172 412272 90.0 b
312872 316572 322872 327572 180.0 b
295872 316572 305872 327572 180.0 b
312872 278472 322872 289472 180.0 b
295872 278472 305872 289472 180.0 b
266272 325072 276272 336072 270.0 b
266272 308072 276272 319072 270.0 b
227472 220772 243472 250772 90.0 b
227472 266372 243472 296372 90.0 b
149982 237617 198242 279527 90.0 b
227472 309672 243472 339672 90.0 b
227472 355272 243472 385272 90.0 b
149982 326517 198242 368427 90.0 b
374396 283778 387096 289366 0.0 b
374396 275778 387096 281366 0.0 b
374396 267778 387096 273366 0.0 b
374396 259778 387096 265366 0.0 b
374396 251778 387096 257366 0.0 b
374396 243778 387096 249366 0.0 b
374396 235778 387096 241366 0.0 b
374396 227778 387096 233366 0.0 b
392878 209296 398466 221996 0.0 b
400878 209296 406466 221996 0.0 b
408878 209296 414466 221996 0.0 b
416878 209296 422466 221996 0.0 b
424878 209296 430466 221996 0.0 b
432878 209296 438466 221996 0.0 b
440878 209296 446466 221996 0.0 b
448878 209296 454466 221996 0.0 b
460248 227778 472948 233366 0.0 b
460248 235778 472948 241366 0.0 b
460248 243778 472948 249366 0.0 b
460248 251778 472948 257366 0.0 b
460248 259778 472948 265366 0.0 b
460248 267778 472948 273366 0.0 b
460248 275778 472948 281366 0.0 b
460248 283778 472948 289366 0.0 b
448878 295148 454466 307848 0.0 b
440878 295148 446466 307848 0.0 b
432878 295148 438466 307848 0.0 b
424878 295148 430466 307848 0.0 b
416878 295148 422466 307848 0.0 b
408878 295148 414466 307848 0.0 b
400878 295148 406466 307848 0.0 b
392878 295148 398466 307848 0.0 b
83376 118872 65469 118872 17907 l
83376 169672 65469 169672 17907 l
83376 220472 65469 220472 17907 l
83376 271272 65469 271272 17907 l
83376 322072 65469 322072 17907 l
83376 372872 65469 372872 17907 l
349472 132972 368472 143972 90.0 b
326472 169972 345472 180972 90.0 b
326472 132972 345472 143972 90.0 b
349472 169972 368472 180972 90.0 b
207264 122682 219456 145034 90.0 b
207264 145796 219456 168148 90.0 b
207264 168910 219456 191262 90.0 b
133382 145972 169382 167972 90.0 b
253072 135072 264072 145072 270.0 b
253072 118072 264072 128072 270.0 b
350774 465074 369570 483870 180.0 b
334772 474472 18796 p
309372 474472 18796 p
465074 465074 483870 483870 180.0 b
449072 474472 18796 p
423672 474472 18796 p
329772 384272 339772 395272 90.0 b
329772 401272 339772 412272 90.0 b
304372 384272 314372 395272 90.0 b
304372 401272 314372 412272 90.0 b
447772 367872 458772 377872 0.0 b
464772 367872 475772 377872 0.0 b
384272 405972 395272 415972 0.0 b
401272 405972 412272 415972 0.0 b
355972 193219 355972 207772 4064 l
355972 193219 349408 186655 4064 l
349408 186655 349408 148036 4064 l
349408 148036 358972 138472 4064 l
317872 144272 317872 123072 4064 l
317872 123072 322072 118872 4064 l
347472 118872 322072 118872 4064 l
358972 138472 358972 130372 4064 l
358972 130372 347472 118872 4064 l
370272 230572 380746 230572 4064 l
355972 207772 355972 216272 4064 l
355972 216272 370272 230572 4064 l
317872 169672 330172 169672 4064 l
335972 175472 330172 169672 4064 l
335972 204772 338972 207772 4064 l
338972 207772 338972 178472 4064 l
338972 178472 335972 175472 4064 l
352872 238572 380746 238572 4064 l
338972 207772 338972 224672 4064 l
338972 224672 352872 238572 4064 l
407679 289052 412052 289052 4064 l
412052 289052 412052 286456 4064 l
412052 286456 412956 284274 4064 l
412956 284274 411226 280098 4064 l
411226 280098 411226 275146 4064 l
411226 275146 413121 270572 4064 l
413121 270572 416622 267071 4064 l
416622 267071 421196 265176 4064 l
421196 265176 426148 265176 4064 l
426148 265176 430722 267071 4064 l
430722 267071 434223 270572 4064 l
434223 270572 436118 275146 4064 l
436118 275146 436118 280098 4064 l
436118 280098 434223 284672 4064 l
434223 284672 430722 288173 4064 l
430722 288173 429911 288509 4064 l
429911 288509 429368 289052 4064 l
429368 289052 454152 289052 4064 l
454152 289052 454152 266565 4064 l
454152 266565 455080 264325 4064 l
455080 264325 456795 262610 4064 l
456795 262610 456887 262572 4064 l
456887 262572 456795 262534 4064 l
456795 262534 455080 260819 4064 l
455080 260819 454152 258579 4064 l
454152 258579 454152 247716 4064 l
454152 247716 452653 247716 4064 l
452653 247716 449292 246324 4064 l
449292 246324 445284 242316 4064 l
445284 242316 414760 242316 4064 l
414760 242316 407416 249660 4064 l
407416 249660 407416 260391 4064 l
407416 260391 406024 263752 4064 l
406024 263752 403452 266324 4064 l
403452 266324 399452 270324 4064 l
399452 270324 396091 271716 4064 l
396091 271716 391655 271716 4064 l
391655 271716 392264 272325 4064 l
392264 272325 393192 274565 4064 l
393192 274565 393192 289052 4064 l
393192 289052 399679 289052 4064 l
399679 289052 407679 289052 4064 l
464868 379085 463940 381325 4064 l
463940 381325 462225 383040 4064 l
462225 383040 459985 383968 4064 l
459985 383968 451894 383968 4064 l
451894 383968 458578 390652 4064 l
458578 390652 496716 390652 4064 l
496716 390652 504952 382416 4064 l
504952 382416 504952 350628 4064 l
504952 350628 476506 322182 4064 l
476506 322182 476506 322182 4064 l
476506 322182 474362 320038 4064 l
474362 320038 474218 319690 4064 l
474218 319690 474218 356862 4064 l
474218 356862 473058 359662 4064 l
473058 359662 464868 367852 4064 l
464868 367852 464868 379085 4064 l
624080 16764 16764 16764 4064 l
16764 16764 16764 538380 4064 l
16764 538380 624080 538380 4064 l
624080 538380 624080 16764 4064 l
268176 391785 268176 379359 4064 l
268176 379359 269104 377119 4064 l
269104 377119 270819 375404 4064 l
270819 375404 273059 374476 4064 l
273059 374476 286485 374476 4064 l
286485 374476 288725 375404 4064 l
288725 375404 290440 377119 4064 l
290440 377119 290785 377952 4064 l
290785 377952 298188 377952 4064 l
298188 377952 300988 379112 4064 l
300988 379112 301169 379293 4064 l
301169 379293 301752 379052 4064 l
301752 379052 301752 371356 4064 l
301752 371356 302912 368556 4064 l
302912 368556 305056 366412 4064 l
305056 366412 317756 353712 4064 l
317756 353712 320556 352552 4064 l
320556 352552 328357 352552 4064 l
328357 352552 310981 335176 4064 l
310981 335176 310087 333017 4064 l
310087 333017 309419 332740 4064 l
309419 332740 309372 332693 4064 l
309372 332693 309325 332740 4064 l
309325 332740 307085 333668 4064 l
307085 333668 294659 333668 4064 l
294659 333668 292419 332740 4064 l
292419 332740 290704 331025 4064 l
290704 331025 290362 330200 4064 l
290362 330200 288705 330200 4064 l
288705 330200 285718 328963 4064 l
285718 328963 280360 323605 4064 l
280360 323605 280225 323740 4064 l
280225 323740 277985 324668 4064 l
277985 324668 267471 324668 4064 l
267471 324668 260576 331563 4064 l
260576 331563 257589 332800 4064 l
257589 332800 256568 332800 4064 l
256568 332800 256568 333885 4064 l
256568 333885 255640 336125 4064 l
255640 336125 253925 337840 4064 l
253925 337840 251685 338768 4064 l
251685 338768 219259 338768 4064 l
219259 338768 217019 337840 4064 l
217019 337840 215304 336125 4064 l
215304 336125 214376 333885 4064 l
214376 333885 214376 315459 4064 l
214376 315459 215304 313219 4064 l
215304 313219 217019 311504 4064 l
217019 311504 219259 310576 4064 l
219259 310576 251685 310576 4064 l
251685 310576 253925 311504 4064 l
253925 311504 255640 313219 4064 l
255640 313219 255725 313424 4064 l
255725 313424 259676 309473 4064 l
259676 309473 259676 307359 4064 l
259676 307359 260604 305119 4064 l
260604 305119 262319 303404 4064 l
262319 303404 264559 302476 4064 l
264559 302476 277985 302476 4064 l
277985 302476 280225 303404 4064 l
280225 303404 281940 305119 4064 l
281940 305119 282075 305444 4064 l
282075 305444 283439 305444 4064 l
283439 305444 286426 306681 4064 l
286426 306681 291784 312039 4064 l
291784 312039 292419 311404 4064 l
292419 311404 294659 310476 4064 l
294659 310476 307085 310476 4064 l
307085 310476 309325 311404 4064 l
309325 311404 309372 311451 4064 l
309372 311451 309419 311404 4064 l
309419 311404 311659 310476 4064 l
311659 310476 324085 310476 4064 l
324085 310476 326325 311404 4064 l
326325 311404 326644 311723 4064 l
326644 311723 326644 300039 4064 l
326644 300039 322173 295568 4064 l
322173 295568 311659 295568 4064 l
311659 295568 309419 294640 4064 l
309419 294640 309372 294593 4064 l
309372 294593 309325 294640 4064 l
309325 294640 307085 295568 4064 l
307085 295568 294659 295568 4064 l
294659 295568 292419 294640 4064 l
292419 294640 290704 292925 4064 l
290704 292925 290362 292100 4064 l
290362 292100 288705 292100 4064 l
288705 292100 285718 290863 4064 l
285718 290863 283431 288576 4064 l
283431 288576 283431 288576 4064 l
283431 288576 280360 285505 4064 l
280360 285505 280225 285640 4064 l
280225 285640 277985 286568 4064 l
277985 286568 264559 286568 4064 l
264559 286568 262319 285640 4064 l
262319 285640 260604 283925 4064 l
260604 283925 259676 281685 4064 l
259676 281685 259676 269259 4064 l
259676 269259 260604 267019 4064 l
260604 267019 262319 265304 4064 l
262319 265304 263144 264962 4064 l
263144 264962 263144 249239 4064 l
263144 249239 257805 243900 4064 l
257805 243900 256568 243900 4064 l
256568 243900 256568 244985 4064 l
256568 244985 255640 247225 4064 l
255640 247225 253925 248940 4064 l
253925 248940 251685 249868 4064 l
251685 249868 219259 249868 4064 l
219259 249868 217019 248940 4064 l
217019 248940 215304 247225 4064 l
215304 247225 214376 244985 4064 l
214376 244985 214376 226559 4064 l
214376 226559 215304 224319 4064 l
215304 224319 217019 222604 4064 l
217019 222604 219259 221676 4064 l
219259 221676 251685 221676 4064 l
251685 221676 253925 222604 4064 l
253925 222604 255640 224319 4064 l
255640 224319 256568 226559 4064 l
256568 226559 256568 227644 4064 l
256568 227644 262789 227644 4064 l
262789 227644 265776 228881 4064 l
265776 228881 275876 238981 4064 l
275876 238981 278163 241268 4064 l
278163 241268 279400 244255 4064 l
279400 244255 279400 264962 4064 l
279400 264962 280225 265304 4064 l
280225 265304 281940 267019 4064 l
281940 267019 282075 267344 4064 l
282075 267344 283439 267344 4064 l
283439 267344 286426 268581 4064 l
286426 268581 291784 273939 4064 l
291784 273939 292419 273304 4064 l
292419 273304 294659 272376 4064 l
294659 272376 307085 272376 4064 l
307085 272376 309325 273304 4064 l
309325 273304 309372 273351 4064 l
309372 273351 309419 273304 4064 l
309419 273304 311659 272376 4064 l
311659 272376 324085 272376 4064 l
324085 272376 326325 273304 4064 l
326325 273304 328040 275019 4064 l
328040 275019 328968 277259 4064 l
328968 277259 328968 279373 4064 l
328968 279373 339376 289781 4064 l
339376 289781 341663 292068 4064 l
341663 292068 342900 295055 4064 l
342900 295055 342900 318705 4064 l
342900 318705 350839 326644 4064 l
350839 326644 394905 326644 4064 l
394905 326644 395544 326005 4064 l
395544 326005 395544 313944 4064 l
395544 313944 391665 313944 4064 l
391665 313944 389425 313016 4064 l
389425 313016 387710 311301 4064 l
387710 311301 386782 309061 4064 l
386782 309061 386782 295462 4064 l
386782 295462 373183 295462 4064 l
373183 295462 370943 294534 4064 l
370943 294534 369228 292819 4064 l
369228 292819 368300 290579 4064 l
368300 290579 368300 274565 4064 l
368300 274565 369228 272325 4064 l
369228 272325 369837 271716 4064 l
369837 271716 363994 271716 4064 l
363994 271716 363990 271725 4064 l
363990 271725 362275 273440 4064 l
362275 273440 360035 274368 4064 l
360035 274368 347609 274368 4064 l
347609 274368 345369 273440 4064 l
345369 273440 343845 271916 4064 l
343845 271916 311753 271916 4064 l
311753 271916 308392 270524 4064 l
308392 270524 253392 215524 4064 l
253392 215524 250820 212952 4064 l
250820 212952 249428 209591 4064 l
249428 209591 249428 177660 4064 l
249428 177660 237884 166116 4064 l
237884 166116 229872 166116 4064 l
229872 166116 229704 166521 4064 l
229704 166521 227989 168236 4064 l
227989 168236 227282 168529 4064 l
227282 168529 227989 168822 4064 l
227989 168822 229704 170537 4064 l
229704 170537 230632 172777 4064 l
230632 172777 230632 187395 4064 l
230632 187395 229704 189635 4064 l
229704 189635 227989 191350 4064 l
227989 191350 225749 192278 4064 l
225749 192278 200971 192278 4064 l
200971 192278 198731 191350 4064 l
198731 191350 197627 190246 4064 l
197627 190246 190765 190246 4064 l
190765 190246 187031 188699 4064 l
187031 188699 173759 175427 4064 l
173759 175427 172212 171693 4064 l
172212 171693 172212 129551 4064 l
172212 129551 173759 125817 4064 l
173759 125817 176412 123164 4064 l
176412 123164 176412 116332 4064 l
176412 116332 123080 116332 4064 l
123080 116332 118618 120794 4064 l
118618 120794 118618 121348 4064 l
118618 121348 116723 125922 4064 l
116723 125922 113222 129423 4064 l
113222 129423 108648 131318 4064 l
108648 131318 103696 131318 4064 l
103696 131318 99122 129423 4064 l
99122 129423 96416 126717 4064 l
96416 126717 96134 127397 4064 l
96134 127397 91900 131630 4064 l
91900 131630 86369 133921 4064 l
86369 133921 62475 133921 4064 l
62475 133921 56944 131630 4064 l
56944 131630 55880 130567 4064 l
55880 130567 55880 157977 4064 l
55880 157977 56944 156914 4064 l
56944 156914 62475 154623 4064 l
62475 154623 86369 154623 4064 l
86369 154623 91900 156914 4064 l
91900 156914 96076 161089 4064 l
96076 161089 98690 158475 4064 l
98690 158475 103545 156464 4064 l
103545 156464 108799 156464 4064 l
108799 156464 113654 158475 4064 l
113654 158475 130069 174890 4064 l
130069 174890 132080 179745 4064 l
132080 179745 132080 227701 4064 l
132080 227701 147061 242682 4064 l
147061 242682 147061 233229 4064 l
147061 233229 147989 230989 4064 l
147989 230989 149704 229274 4064 l
149704 229274 151944 228346 4064 l
151944 228346 196280 228346 4064 l
196280 228346 198520 229274 4064 l
198520 229274 200235 230989 4064 l
200235 230989 201163 233229 4064 l
201163 233229 201163 283915 4064 l
201163 283915 200235 286155 4064 l
200235 286155 198520 287870 4064 l
198520 287870 196280 288798 4064 l
196280 288798 151944 288798 4064 l
151944 288798 149704 287870 4064 l
149704 287870 147989 286155 4064 l
147989 286155 147061 283915 4064 l
147061 283915 147061 271780 4064 l
147061 271780 141645 271780 4064 l
141645 271780 136790 269769 4064 l
136790 269769 111390 244369 4064 l
111390 244369 107675 240654 4064 l
107675 240654 105664 235799 4064 l
105664 235799 105664 187843 4064 l
105664 187843 96076 178255 4064 l
96076 178255 91900 182430 4064 l
91900 182430 86369 184721 4064 l
86369 184721 62475 184721 4064 l
62475 184721 56944 182430 4064 l
56944 182430 55880 181367 4064 l
55880 181367 55880 208777 4064 l
55880 208777 56944 207714 4064 l
56944 207714 62475 205423 4064 l
62475 205423 86369 205423 4064 l
86369 205423 91900 207714 4064 l
91900 207714 96134 211947 4064 l
96134 211947 98425 217478 4064 l
98425 217478 98425 223466 4064 l
98425 223466 96134 228997 4064 l
96134 228997 91900 233230 4064 l
91900 233230 86369 235521 4064 l
86369 235521 62475 235521 4064 l
62475 235521 56944 233230 4064 l
56944 233230 55880 232167 4064 l
55880 232167 55880 259577 4064 l
55880 259577 56944 258514 4064 l
56944 258514 62475 256223 4064 l
62475 256223 86369 256223 4064 l
86369 256223 91900 258514 4064 l
91900 258514 96076 262689 4064 l
96076 262689 98690 260075 4064 l
98690 260075 103545 258064 4064 l
103545 258064 108799 258064 4064 l
108799 258064 113654 260075 4064 l
113654 260075 130069 276490 4064 l
130069 276490 132080 281345 4064 l
132080 281345 132080 329301 4064 l
132080 329301 137043 334264 4064 l
137043 334264 147061 334264 4064 l
147061 334264 147061 322129 4064 l
147061 322129 147989 319889 4064 l
147989 319889 149704 318174 4064 l
149704 318174 151944 317246 4064 l
151944 317246 196280 317246 4064 l
196280 317246 198520 318174 4064 l
198520 318174 200235 319889 4064 l
200235 319889 201163 322129 4064 l
201163 322129 201163 372815 4064 l
201163 372815 200235 375055 4064 l
200235 375055 198520 376770 4064 l
198520 376770 196280 377698 4064 l
196280 377698 151944 377698 4064 l
151944 377698 149704 376770 4064 l
149704 376770 147989 375055 4064 l
147989 375055 147061 372815 4064 l
147061 372815 147061 360680 4064 l
147061 360680 128945 360680 4064 l
128945 360680 124090 358669 4064 l
124090 358669 111390 345969 4064 l
111390 345969 107675 342254 4064 l
107675 342254 105664 337399 4064 l
105664 337399 105664 289443 4064 l
105664 289443 96076 279855 4064 l
96076 279855 91900 284030 4064 l
91900 284030 86369 286321 4064 l
86369 286321 62475 286321 4064 l
62475 286321 56944 284030 4064 l
56944 284030 55880 282967 4064 l
55880 282967 55880 310377 4064 l
55880 310377 56944 309314 4064 l
56944 309314 62475 307023 4064 l
62475 307023 86369 307023 4064 l
86369 307023 91900 309314 4064 l
91900 309314 96134 313547 4064 l
96134 313547 98425 319078 4064 l
98425 319078 98425 325066 4064 l
98425 325066 96134 330597 4064 l
96134 330597 91900 334830 4064 l
91900 334830 86369 337121 4064 l
86369 337121 62475 337121 4064 l
62475 337121 56944 334830 4064 l
56944 334830 52710 330597 4064 l
52710 330597 50419 325066 4064 l
50419 325066 50419 320304 4064 l
50419 320304 50154 320569 4064 l
50154 320569 45299 322580 4064 l
45299 322580 40045 322580 4064 l
40045 322580 35190 320569 4064 l
35190 320569 31475 316854 4064 l
31475 316854 29464 311999 4064 l
29464 311999 29464 230545 4064 l
29464 230545 31475 225690 4064 l
31475 225690 35190 221975 4064 l
35190 221975 38818 220472 4064 l
38818 220472 35190 218969 4064 l
35190 218969 31475 215254 4064 l
31475 215254 29464 210399 4064 l
29464 210399 29464 128945 4064 l
29464 128945 31475 124090 4064 l
31475 124090 35190 120375 4064 l
35190 120375 40045 118364 4064 l
40045 118364 45299 118364 4064 l
45299 118364 50154 120375 4064 l
50154 120375 50419 120640 4064 l
50419 120640 50419 115878 4064 l
50419 115878 52710 110347 4064 l
52710 110347 56944 106114 4064 l
56944 106114 62475 103823 4064 l
62475 103823 86369 103823 4064 l
86369 103823 91900 106114 4064 l
91900 106114 96134 110347 4064 l
96134 110347 96416 111027 4064 l
96416 111027 99122 108321 4064 l
99122 108321 103696 106426 4064 l
103696 106426 104250 106426 4064 l
104250 106426 110259 100417 4064 l
110259 100417 113117 97559 4064 l
113117 97559 116851 96012 4064 l
116851 96012 177611 96012 4064 l
177611 96012 177619 96004 4064 l
177619 96004 179859 95076 4064 l
179859 95076 193285 95076 4064 l
193285 95076 195525 96004 4064 l
195525 96004 197240 97719 4064 l
197240 97719 198168 99959 4064 l
198168 99959 198168 112385 4064 l
198168 112385 197240 114625 4064 l
197240 114625 196732 115133 4064 l
196732 115133 196732 129393 4064 l
196732 129393 195185 133127 4064 l
195185 133127 192532 135780 4064 l
192532 135780 192532 165464 4064 l
192532 165464 196994 169926 4064 l
196994 169926 197627 169926 4064 l
197627 169926 198731 168822 4064 l
198731 168822 199438 168529 4064 l
199438 168529 198731 168236 4064 l
198731 168236 197016 166521 4064 l
197016 166521 196088 164281 4064 l
196088 164281 196088 149663 4064 l
196088 149663 197016 147423 4064 l
197016 147423 198731 145708 4064 l
198731 145708 200971 144780 4064 l
200971 144780 225749 144780 4064 l
225749 144780 227989 145708 4064 l
227989 145708 229704 147423 4064 l
229704 147423 229872 147828 4064 l
229872 147828 237884 147828 4064 l
237884 147828 247476 138236 4064 l
247476 138236 247476 133359 4064 l
247476 133359 248404 131119 4064 l
248404 131119 250119 129404 4064 l
250119 129404 252359 128476 4064 l
252359 128476 264785 128476 4064 l
264785 128476 267025 129404 4064 l
267025 129404 268740 131119 4064 l
268740 131119 269668 133359 4064 l
269668 133359 269668 146785 4064 l
269668 146785 268740 149025 4064 l
268740 149025 267025 150740 4064 l
267025 150740 264785 151668 4064 l
264785 151668 259908 151668 4064 l
259908 151668 254604 156972 4064 l
254604 156972 266324 168692 4064 l
266324 168692 267716 172053 4064 l
267716 172053 267716 203984 4064 l
267716 203984 317360 253628 4064 l
317360 253628 343845 253628 4064 l
343845 253628 345369 252104 4064 l
345369 252104 347609 251176 4064 l
347609 251176 360035 251176 4064 l
360035 251176 362275 252104 4064 l
362275 252104 363599 253428 4064 l
363599 253428 369837 253428 4064 l
369837 253428 369228 252819 4064 l
369228 252819 368300 250579 4064 l
368300 250579 368300 246700 4064 l
368300 246700 351255 246700 4064 l
351255 246700 348268 245463 4064 l
348268 245463 332081 229276 4064 l
332081 229276 330844 226289 4064 l
330844 226289 330844 218575 4064 l
330844 218575 330519 218440 4064 l
330519 218440 328804 216725 4064 l
328804 216725 327876 214485 4064 l
327876 214485 327876 206466 4064 l
327876 206466 327844 206389 4064 l
327844 206389 327844 203155 4064 l
327844 203155 327876 203078 4064 l
327876 203078 327876 201059 4064 l
327876 201059 328804 198819 4064 l
328804 198819 330519 197104 4064 l
330519 197104 330844 196969 4064 l
330844 196969 330844 191068 4064 l
330844 191068 329259 191068 4064 l
329259 191068 327019 190140 4064 l
327019 190140 325304 188425 4064 l
325304 188425 324376 186185 4064 l
324376 186185 324376 180768 4064 l
324376 180768 311159 180768 4064 l
311159 180768 308919 179840 4064 l
308919 179840 307204 178125 4064 l
307204 178125 306276 175885 4064 l
306276 175885 306276 163459 4064 l
306276 163459 307204 161219 4064 l
307204 161219 308919 159504 4064 l
308919 159504 311159 158576 4064 l
311159 158576 324585 158576 4064 l
324585 158576 326825 159504 4064 l
326825 159504 327801 160480 4064 l
327801 160480 329259 159876 4064 l
329259 159876 341280 159876 4064 l
341280 159876 341280 154068 4064 l
341280 154068 329259 154068 4064 l
329259 154068 327801 153464 4064 l
327801 153464 326825 154440 4064 l
326825 154440 324585 155368 4064 l
324585 155368 311159 155368 4064 l
311159 155368 308919 154440 4064 l
308919 154440 307204 152725 4064 l
307204 152725 306276 150485 4064 l
306276 150485 306276 138059 4064 l
306276 138059 307204 135819 4064 l
307204 135819 308919 134104 4064 l
308919 134104 309744 133762 4064 l
309744 133762 309744 121455 4064 l
309744 121455 310981 118468 4064 l
310981 118468 315181 114268 4064 l
315181 114268 317468 111981 4064 l
317468 111981 320455 110744 4064 l
320455 110744 349089 110744 4064 l
349089 110744 352076 111981 4064 l
352076 111981 362971 122876 4064 l
362971 122876 365685 122876 4064 l
365685 122876 367925 123804 4064 l
367925 123804 369640 125519 4064 l
369640 125519 370568 127759 4064 l
370568 127759 370568 149185 4064 l
370568 149185 369640 151425 4064 l
369640 151425 367925 153140 4064 l
367925 153140 365685 154068 4064 l
365685 154068 357536 154068 4064 l
357536 154068 357536 159876 4064 l
357536 159876 365685 159876 4064 l
365685 159876 367925 160804 4064 l
367925 160804 369640 162519 4064 l
369640 162519 370568 164759 4064 l
370568 164759 370568 186185 4064 l
370568 186185 369640 188425 4064 l
369640 188425 367925 190140 4064 l
367925 190140 365685 191068 4064 l
365685 191068 363879 191068 4064 l
363879 191068 364100 191603 4064 l
364100 191603 364100 196969 4064 l
364100 196969 364425 197104 4064 l
364425 197104 366140 198819 4064 l
366140 198819 367068 201059 4064 l
367068 201059 367068 214485 4064 l
367068 214485 366661 215467 4064 l
366661 215467 372967 221772 4064 l
372967 221772 373183 221682 4064 l
373183 221682 386782 221682 4064 l
386782 221682 386782 208083 4064 l
386782 208083 387710 205843 4064 l
387710 205843 388052 205501 4064 l
388052 205501 388052 169553 4064 l
388052 169553 385121 166622 4064 l
385121 166622 383226 162048 4064 l
383226 162048 383226 157096 4064 l
383226 157096 385121 152522 4064 l
385121 152522 388622 149021 4064 l
388622 149021 393196 147126 4064 l
393196 147126 398148 147126 4064 l
398148 147126 402722 149021 4064 l
402722 149021 406223 152522 4064 l
406223 152522 408118 157096 4064 l
408118 157096 408118 161750 4064 l
408118 161750 417576 152292 4064 l
417576 152292 417576 148146 4064 l
417576 148146 419471 143572 4064 l
419471 143572 422972 140071 4064 l
422972 140071 423100 140018 4064 l
423100 140018 420878 134654 4064 l
420878 134654 420878 128490 4064 l
420878 128490 423237 122795 4064 l
423237 122795 427160 118872 4064 l
427160 118872 423237 114949 4064 l
423237 114949 420878 109254 4064 l
420878 109254 420878 103090 4064 l
420878 103090 423237 97395 4064 l
423237 97395 427595 93037 4064 l
427595 93037 433290 90678 4064 l
433290 90678 439454 90678 4064 l
439454 90678 445149 93037 4064 l
445149 93037 449072 96960 4064 l
449072 96960 452995 93037 4064 l
452995 93037 458690 90678 4064 l
458690 90678 464854 90678 4064 l
464854 90678 470549 93037 4064 l
470549 93037 474907 97395 4064 l
474907 97395 477266 103090 4064 l
477266 103090 477266 109254 4064 l
477266 109254 474907 114949 4064 l
474907 114949 470984 118872 4064 l
470984 118872 474472 122360 4064 l
474472 122360 478395 118437 4064 l
478395 118437 484090 116078 4064 l
484090 116078 490254 116078 4064 l
490254 116078 495949 118437 4064 l
495949 118437 499872 122360 4064 l
499872 122360 503360 118872 4064 l
503360 118872 499437 114949 4064 l
499437 114949 497078 109254 4064 l
497078 109254 497078 103090 4064 l
497078 103090 499437 97395 4064 l
499437 97395 503795 93037 4064 l
503795 93037 506727 91822 4064 l
506727 91822 505522 91323 4064 l
505522 91323 502021 87822 4064 l
502021 87822 500126 83248 4064 l
500126 83248 500126 78296 4064 l
500126 78296 502021 73722 4064 l
502021 73722 505522 70221 4064 l
505522 70221 510096 68326 4064 l
510096 68326 514242 68326 4064 l
514242 68326 519576 62992 4064 l
519576 62992 490328 62992 4064 l
490328 62992 482311 71010 4064 l
482311 71010 485023 73722 4064 l
485023 73722 486918 78296 4064 l
486918 78296 486918 83248 4064 l
486918 83248 485023 87822 4064 l
485023 87822 481522 91323 4064 l
481522 91323 476948 93218 4064 l
476948 93218 471996 93218 4064 l
471996 93218 467422 91323 4064 l
467422 91323 463921 87822 4064 l
463921 87822 462026 83248 4064 l
462026 83248 462026 78296 4064 l
462026 78296 463921 73722 4064 l
463921 73722 466852 70791 4064 l
466852 70791 466852 66556 4064 l
466852 66556 468012 63756 4064 l
468012 63756 480712 51056 4064 l
480712 51056 480712 51056 4064 l
480712 51056 482856 48912 4064 l
482856 48912 485656 47752 4064 l
485656 47752 540691 47752 4064 l
540691 47752 543622 44821 4064 l
543622 44821 548196 42926 4064 l
548196 42926 553148 42926 4064 l
553148 42926 557722 44821 4064 l
557722 44821 561223 48322 4064 l
561223 48322 563118 52896 4064 l
563118 52896 563118 57848 4064 l
563118 57848 562039 60452 4064 l
562039 60452 564888 60452 4064 l
564888 60452 567688 61612 4064 l
567688 61612 569832 63756 4064 l
569832 63756 582532 76456 4064 l
582532 76456 583692 79256 4064 l
583692 79256 583692 158488 4064 l
583692 158488 582532 161288 4064 l
582532 161288 580388 163432 4064 l
580388 163432 564861 178960 4064 l
564861 178960 567573 181672 4064 l
567573 181672 569468 186246 4064 l
569468 186246 569468 191198 4064 l
569468 191198 568389 193802 4064 l
568389 193802 583938 193802 4064 l
583938 193802 586738 194962 4064 l
586738 194962 587102 195326 4064 l
587102 195326 591248 195326 4064 l
591248 195326 595822 197221 4064 l
595822 197221 599323 200722 4064 l
599323 200722 601218 205296 4064 l
601218 205296 601218 210248 4064 l
601218 210248 600139 212852 4064 l
600139 212852 602988 212852 4064 l
602988 212852 605788 214012 4064 l
605788 214012 606152 214376 4064 l
606152 214376 610298 214376 4064 l
610298 214376 614872 216271 4064 l
614872 216271 618373 219772 4064 l
618373 219772 620268 224346 4064 l
620268 224346 620268 229298 4064 l
620268 229298 618373 233872 4064 l
618373 233872 614872 237373 4064 l
614872 237373 610298 239268 4064 l
610298 239268 605346 239268 4064 l
605346 239268 600772 237373 4064 l
600772 237373 597271 233872 4064 l
597271 233872 595376 229298 4064 l
595376 229298 595376 228092 4064 l
595376 228092 503028 228092 4064 l
503028 228092 501692 229428 4064 l
501692 229428 519791 229428 4064 l
519791 229428 523152 230820 4064 l
523152 230820 525758 233426 4064 l
525758 233426 527748 233426 4064 l
527748 233426 532322 235321 4064 l
532322 235321 535823 238822 4064 l
535823 238822 536322 240027 4064 l
536322 240027 537537 237095 4064 l
537537 237095 541895 232737 4064 l
541895 232737 547590 230378 4064 l
547590 230378 553754 230378 4064 l
553754 230378 559449 232737 4064 l
559449 232737 563372 236660 4064 l
563372 236660 567295 232737 4064 l
567295 232737 572990 230378 4064 l
572990 230378 579154 230378 4064 l
579154 230378 584849 232737 4064 l
584849 232737 589207 237095 4064 l
589207 237095 591566 242790 4064 l
591566 242790 591566 248954 4064 l
591566 248954 589207 254649 4064 l
589207 254649 585284 258572 4064 l
585284 258572 589207 262495 4064 l
589207 262495 591566 268190 4064 l
591566 268190 591566 274354 4064 l
591566 274354 589207 280049 4064 l
589207 280049 585284 283972 4064 l
585284 283972 589207 287895 4064 l
589207 287895 591566 293590 4064 l
591566 293590 591566 299754 4064 l
591566 299754 589207 305449 4064 l
589207 305449 584849 309807 4064 l
584849 309807 579154 312166 4064 l
579154 312166 572990 312166 4064 l
572990 312166 567295 309807 4064 l
567295 309807 562937 305449 4064 l
562937 305449 560578 299754 4064 l
560578 299754 560578 293590 4064 l
560578 293590 562937 287895 4064 l
562937 287895 566860 283972 4064 l
566860 283972 563372 280484 4064 l
563372 280484 559449 284407 4064 l
559449 284407 553754 286766 4064 l
553754 286766 547590 286766 4064 l
547590 286766 541895 284407 4064 l
541895 284407 537537 280049 4064 l
537537 280049 535178 274354 4064 l
535178 274354 535178 268190 4064 l
535178 268190 537537 262495 4064 l
537537 262495 541460 258572 4064 l
541460 258572 537537 254649 4064 l
537537 254649 536322 251717 4064 l
536322 251717 535823 252922 4064 l
535823 252922 532322 256423 4064 l
532322 256423 527748 258318 4064 l
527748 258318 522796 258318 4064 l
522796 258318 518222 256423 4064 l
518222 256423 514721 252922 4064 l
514721 252922 512826 248348 4064 l
512826 248348 512826 247716 4064 l
512826 247716 494792 247716 4064 l
494792 247716 494792 248591 4064 l
494792 248591 497723 251522 4064 l
497723 251522 499618 256096 4064 l
499618 256096 499618 261048 4064 l
499618 261048 497723 265622 4064 l
497723 265622 494792 268553 4064 l
494792 268553 494792 272316 4064 l
494792 272316 499552 277076 4064 l
499552 277076 506585 277076 4064 l
506585 277076 508825 278004 4064 l
508825 278004 510540 279719 4064 l
510540 279719 511468 281959 4064 l
511468 281959 511468 294385 4064 l
511468 294385 510540 296625 4064 l
510540 296625 510493 296672 4064 l
510493 296672 510540 296719 4064 l
510540 296719 511468 298959 4064 l
511468 298959 511468 311385 4064 l
511468 311385 510540 313625 4064 l
510540 313625 508825 315340 4064 l
508825 315340 507492 315892 4064 l
507492 315892 507492 318916 4064 l
507492 318916 515728 327152 4064 l
515728 327152 540691 327152 4064 l
540691 327152 543622 324221 4064 l
543622 324221 548196 322326 4064 l
548196 322326 553148 322326 4064 l
553148 322326 557722 324221 4064 l
557722 324221 561223 327722 4064 l
561223 327722 563118 332296 4064 l
563118 332296 563118 337248 4064 l
563118 337248 561223 341822 4064 l
561223 341822 557722 345323 4064 l
557722 345323 553148 347218 4064 l
553148 347218 548196 347218 4064 l
548196 347218 543622 345323 4064 l
543622 345323 540691 342392 4064 l
540691 342392 518268 342392 4064 l
518268 342392 519032 343156 4064 l
519032 343156 520192 345956 4064 l
520192 345956 520192 387088 4064 l
520192 387088 519032 389888 4064 l
519032 389888 506332 402588 4064 l
506332 402588 504188 404732 4064 l
504188 404732 501388 405892 4064 l
501388 405892 453906 405892 4064 l
453906 405892 451106 404732 4064 l
451106 404732 439566 393192 4064 l
439566 393192 397392 393192 4064 l
397392 393192 397392 400252 4064 l
397392 400252 398725 400804 4064 l
398725 400804 400440 402519 4064 l
400440 402519 401368 404759 4064 l
401368 404759 401368 417185 4064 l
401368 417185 400440 419425 4064 l
400440 419425 398725 421140 4064 l
398725 421140 396485 422068 4064 l
396485 422068 383059 422068 4064 l
383059 422068 380819 421140 4064 l
380819 421140 379104 419425 4064 l
379104 419425 378176 417185 4064 l
378176 417185 378176 404759 4064 l
378176 404759 379104 402519 4064 l
379104 402519 380819 400804 4064 l
380819 400804 382152 400252 4064 l
382152 400252 382152 393192 4064 l
382152 393192 371768 393192 4064 l
371768 393192 371768 395985 4064 l
371768 395985 370840 398225 4064 l
370840 398225 370793 398272 4064 l
370793 398272 370840 398319 4064 l
370840 398319 371768 400559 4064 l
371768 400559 371768 412985 4064 l
371768 412985 370840 415225 4064 l
370840 415225 370083 415982 4064 l
370083 415982 370723 416622 4064 l
370723 416622 372618 421196 4064 l
372618 421196 372618 426148 4064 l
372618 426148 370723 430722 4064 l
370723 430722 367222 434223 4064 l
367222 434223 362648 436118 4064 l
362648 436118 357696 436118 4064 l
357696 436118 353122 434223 4064 l
353122 434223 349621 430722 4064 l
349621 430722 347726 426148 4064 l
347726 426148 347726 421196 4064 l
347726 421196 349621 416622 4064 l
349621 416622 350261 415982 4064 l
350261 415982 349504 415225 4064 l
349504 415225 348576 412985 4064 l
348576 412985 348576 400559 4064 l
348576 400559 349504 398319 4064 l
349504 398319 349551 398272 4064 l
349551 398272 349504 398225 4064 l
349504 398225 348576 395985 4064 l
348576 395985 348576 383559 4064 l
348576 383559 349294 381826 4064 l
349294 381826 346368 384752 4064 l
346368 384752 346368 395985 4064 l
346368 395985 345440 398225 4064 l
345440 398225 345393 398272 4064 l
345393 398272 345440 398319 4064 l
345440 398319 346368 400559 4064 l
346368 400559 346368 412985 4064 l
346368 412985 345440 415225 4064 l
345440 415225 344683 415982 4064 l
344683 415982 345323 416622 4064 l
345323 416622 347218 421196 4064 l
347218 421196 347218 426148 4064 l
347218 426148 345323 430722 4064 l
345323 430722 341822 434223 4064 l
341822 434223 337248 436118 4064 l
337248 436118 332296 436118 4064 l
332296 436118 327722 434223 4064 l
327722 434223 324221 430722 4064 l
324221 430722 322326 426148 4064 l
322326 426148 322326 421196 4064 l
322326 421196 324221 416622 4064 l
324221 416622 324861 415982 4064 l
324861 415982 324104 415225 4064 l
324104 415225 323176 412985 4064 l
323176 412985 323176 400559 4064 l
323176 400559 324104 398319 4064 l
324104 398319 324151 398272 4064 l
324151 398272 324104 398225 4064 l
324104 398225 323176 395985 4064 l
323176 395985 323176 383559 4064 l
323176 383559 324104 381319 4064 l
324104 381319 325819 379604 4064 l
325819 379604 328059 378676 4064 l
328059 378676 330892 378676 4064 l
330892 378676 341776 367792 4064 l
341776 367792 325228 367792 4064 l
325228 367792 316992 376028 4064 l
316992 376028 316992 379052 4064 l
316992 379052 318325 379604 4064 l
318325 379604 320040 381319 4064 l
320040 381319 320968 383559 4064 l
320968 383559 320968 395985 4064 l
320968 395985 320040 398225 4064 l
320040 398225 319993 398272 4064 l
319993 398272 320040 398319 4064 l
320040 398319 320968 400559 4064 l
320968 400559 320968 412985 4064 l
320968 412985 320040 415225 4064 l
320040 415225 319283 415982 4064 l
319283 415982 319923 416622 4064 l
319923 416622 321818 421196 4064 l
321818 421196 321818 426148 4064 l
321818 426148 319923 430722 4064 l
319923 430722 316422 434223 4064 l
316422 434223 311848 436118 4064 l
311848 436118 306896 436118 4064 l
306896 436118 302322 434223 4064 l
302322 434223 298821 430722 4064 l
298821 430722 296926 426148 4064 l
296926 426148 296926 421196 4064 l
296926 421196 298821 416622 4064 l
298821 416622 299461 415982 4064 l
299461 415982 298704 415225 4064 l
298704 415225 297776 412985 4064 l
297776 412985 297776 400559 4064 l
297776 400559 298704 398319 4064 l
298704 398319 298751 398272 4064 l
298751 398272 298704 398225 4064 l
298704 398225 298152 396893 4064 l
298152 396893 296556 396232 4064 l
296556 396232 293516 393192 4064 l
293516 393192 290785 393192 4064 l
290785 393192 290440 394025 4064 l
290440 394025 288725 395740 4064 l
288725 395740 286485 396668 4064 l
286485 396668 273059 396668 4064 l
273059 396668 270819 395740 4064 l
270819 395740 269104 394025 4064 l
269104 394025 268176 391785 4064 l
578864 458060 578864 465484 4064 l
578864 465484 576943 472654 4064 l
576943 472654 573231 479082 4064 l
573231 479082 567982 484331 4064 l
567982 484331 561554 488043 4064 l
561554 488043 554384 489964 4064 l
554384 489964 546960 489964 4064 l
546960 489964 539790 488043 4064 l
539790 488043 533362 484331 4064 l
533362 484331 528113 479082 4064 l
528113 479082 524401 472654 4064 l
524401 472654 522480 465484 4064 l
522480 465484 522480 458060 4064 l
522480 458060 524401 450890 4064 l
524401 450890 528113 444462 4064 l
528113 444462 533362 439213 4064 l
533362 439213 539790 435501 4064 l
539790 435501 546960 433580 4064 l
546960 433580 554384 433580 4064 l
554384 433580 561554 435501 4064 l
561554 435501 567982 439213 4064 l
567982 439213 573231 444462 4064 l
573231 444462 576943 450890 4064 l
576943 450890 578864 458060 4064 l
362964 51660 362964 59084 4064 l
362964 59084 361043 66254 4064 l
361043 66254 357331 72682 4064 l
357331 72682 352082 77931 4064 l
352082 77931 345654 81643 4064 l
345654 81643 338484 83564 4064 l
338484 83564 331060 83564 4064 l
331060 83564 323890 81643 4064 l
323890 81643 317462 77931 4064 l
317462 77931 312213 72682 4064 l
312213 72682 308501 66254 4064 l
308501 66254 306580 59084 4064 l
306580 59084 306580 51660 4064 l
306580 51660 308501 44490 4064 l
308501 44490 312213 38062 4064 l
312213 38062 317462 32813 4064 l
317462 32813 323890 29101 4064 l
323890 29101 331060 27180 4064 l
331060 27180 338484 27180 4064 l
338484 27180 345654 29101 4064 l
345654 29101 352082 32813 4064 l
352082 32813 357331 38062 4064 l
357331 38062 361043 44490 4064 l
361043 44490 362964 51660 4064 l
134364 51660 134364 59084 4064 l
134364 59084 132443 66254 4064 l
132443 66254 128731 72682 4064 l
128731 72682 123482 77931 4064 l
123482 77931 117054 81643 4064 l
117054 81643 109884 83564 4064 l
109884 83564 102460 83564 4064 l
102460 83564 95290 81643 4064 l
95290 81643 88862 77931 4064 l
88862 77931 83613 72682 4064 l
83613 72682 79901 66254 4064 l
79901 66254 77980 59084 4064 l
77980 59084 77980 51660 4064 l
77980 51660 79901 44490 4064 l
79901 44490 83613 38062 4064 l
83613 38062 88862 32813 4064 l
88862 32813 95290 29101 4064 l
95290 29101 102460 27180 4064 l
102460 27180 109884 27180 4064 l
109884 27180 117054 29101 4064 l
117054 29101 123482 32813 4064 l
123482 32813 128731 38062 4064 l
128731 38062 132443 44490 4064 l
132443 44490 134364 51660 4064 l
134364 458060 134364 465484 4064 l
134364 465484 132443 472654 4064 l
132443 472654 128731 479082 4064 l
128731 479082 123482 484331 4064 l
123482 484331 117054 488043 4064 l
117054 488043 109884 489964 4064 l
109884 489964 102460 489964 4064 l
102460 489964 95290 488043 4064 l
95290 488043 88862 484331 4064 l
88862 484331 83613 479082 4064 l
83613 479082 79901 472654 4064 l
79901 472654 77980 465484 4064 l
77980 465484 77980 458060 4064 l
77980 458060 79901 450890 4064 l
79901 450890 83613 444462 4064 l
83613 444462 88862 439213 4064 l
88862 439213 95290 435501 4064 l
95290 435501 102460 433580 4064 l
102460 433580 109884 433580 4064 l
109884 433580 117054 435501 4064 l
117054 435501 123482 439213 4064 l
123482 439213 128731 444462 4064 l
128731 444462 132443 450890 4064 l
132443 450890 134364 458060 4064 l
163595 181068 139169 181068 4064 l
139169 181068 136929 180140 4064 l
136929 180140 135214 178425 4064 l
135214 178425 134286 176185 4064 l
134286 176185 134286 137759 4064 l
134286 137759 135214 135519 4064 l
135214 135519 136929 133804 4064 l
136929 133804 139169 132876 4064 l
139169 132876 163595 132876 4064 l
163595 132876 165835 133804 4064 l
165835 133804 167550 135519 4064 l
167550 135519 168478 137759 4064 l
168478 137759 168478 176185 4064 l
168478 176185 167550 178425 4064 l
167550 178425 165835 180140 4064 l
165835 180140 163595 181068 4064 l
345606 461621 347321 459906 4064 l
347321 459906 349561 458978 4064 l
349561 458978 370783 458978 4064 l
370783 458978 373023 459906 4064 l
373023 459906 374738 461621 4064 l
374738 461621 375666 463861 4064 l
375666 463861 375666 485083 4064 l
375666 485083 374738 487323 4064 l
374738 487323 373023 489038 4064 l
373023 489038 370783 489966 4064 l
370783 489966 349561 489966 4064 l
349561 489966 347321 489038 4064 l
347321 489038 345606 487323 4064 l
345606 487323 345087 486069 4064 l
345087 486069 343549 487607 4064 l
343549 487607 337854 489966 4064 l
337854 489966 331690 489966 4064 l
331690 489966 325995 487607 4064 l
325995 487607 322072 483684 4064 l
322072 483684 318149 487607 4064 l
318149 487607 312454 489966 4064 l
312454 489966 306290 489966 4064 l
306290 489966 300595 487607 4064 l
300595 487607 296237 483249 4064 l
296237 483249 293878 477554 4064 l
293878 477554 293878 471390 4064 l
293878 471390 296237 465695 4064 l
296237 465695 300595 461337 4064 l
300595 461337 306290 458978 4064 l
306290 458978 312454 458978 4064 l
312454 458978 318149 461337 4064 l
318149 461337 322072 465260 4064 l
322072 465260 325995 461337 4064 l
325995 461337 331690 458978 4064 l
331690 458978 337854 458978 4064 l
337854 458978 343549 461337 4064 l
343549 461337 345087 462875 4064 l
345087 462875 345606 461621 4064 l
459906 461621 461621 459906 4064 l
461621 459906 463861 458978 4064 l
463861 458978 485083 458978 4064 l
485083 458978 487323 459906 4064 l
487323 459906 489038 461621 4064 l
489038 461621 489966 463861 4064 l
489966 463861 489966 485083 4064 l
489966 485083 489038 487323 4064 l
489038 487323 487323 489038 4064 l
487323 489038 485083 489966 4064 l
485083 489966 463861 489966 4064 l
463861 489966 461621 489038 4064 l
461621 489038 459906 487323 4064 l
459906 487323 459387 486069 4064 l
459387 486069 457849 487607 4064 l
457849 487607 452154 489966 4064 l
452154 489966 445990 489966 4064 l
445990 489966 440295 487607 4064 l
440295 487607 435937 483249 4064 l
435937 483249 433578 477554 4064 l
433578 477554 433578 471390 4064 l
433578 471390 435937 465695 4064 l
435937 465695 440295 461337 4064 l
440295 461337 445990 458978 4064 l
445990 458978 452154 458978 4064 l
452154 458978 457849 461337 4064 l
457849 461337 459387 462875 4064 l
459387 462875 459906 461621 4064 l
16764 19304 624080 19304 4064 l
16764 22987 624080 22987 4064 l
16764 26670 624080 26670 4064 l
16764 30353 93122 30353 4064 l
119222 30353 321722 30353 4064 l
347822 30353 624080 30353 4064 l
16764 34036 87638 34036 4064 l
124706 34036 316238 34036 4064 l
353306 34036 624080 34036 4064 l
16764 37719 83955 37719 4064 l
128389 37719 312555 37719 4064 l
356989 37719 624080 37719 4064 l
16764 41402 81684 41402 4064 l
130660 41402 310284 41402 4064 l
359260 41402 624080 41402 4064 l
16764 45085 79742 45085 4064 l
132602 45085 308342 45085 4064 l
361202 45085 543358 45085 4064 l
557986 45085 624080 45085 4064 l
16764 48768 78755 48768 4064 l
133589 48768 307355 48768 4064 l
362189 48768 483203 48768 4064 l
561408 48768 624080 48768 4064 l
16764 52451 77980 52451 4064 l
134364 52451 306580 52451 4064 l
362964 52451 479317 52451 4064 l
562934 52451 624080 52451 4064 l
16764 56134 77980 56134 4064 l
134364 56134 306580 56134 4064 l
362964 56134 475634 56134 4064 l
563118 56134 624080 56134 4064 l
16764 59817 78177 59817 4064 l
134167 59817 306777 59817 4064 l
362767 59817 471951 59817 4064 l
562302 59817 624080 59817 4064 l
16764 63500 79163 63500 4064 l
133181 63500 307763 63500 4064 l
361781 63500 468268 63500 4064 l
489820 63500 519068 63500 4064 l
569576 63500 624080 63500 4064 l
16764 67183 80438 67183 4064 l
131906 67183 309038 67183 4064 l
360506 67183 466852 67183 4064 l
486137 67183 515385 67183 4064 l
573259 67183 624080 67183 4064 l
16764 70866 82564 70866 4064 l
129780 70866 311164 70866 4064 l
358380 70866 466777 70866 4064 l
482454 70866 504877 70866 4064 l
576942 70866 624080 70866 4064 l
16764 74549 85480 74549 4064 l
126864 74549 314080 74549 4064 l
355464 74549 463578 74549 4064 l
485366 74549 501678 74549 4064 l
580625 74549 624080 74549 4064 l
16764 78232 89383 78232 4064 l
122961 78232 317983 78232 4064 l
351561 78232 462053 78232 4064 l
486891 78232 500153 78232 4064 l
583268 78232 624080 78232 4064 l
16764 81915 96306 81915 4064 l
116038 81915 324906 81915 4064 l
344638 81915 462026 81915 4064 l
486918 81915 500126 81915 4064 l
583692 81915 624080 81915 4064 l
16764 85598 463000 85598 4064 l
485944 85598 501100 85598 4064 l
583692 85598 624080 85598 4064 l
16764 89281 465380 89281 4064 l
483564 89281 503480 89281 4064 l
583692 89281 624080 89281 4064 l
16764 92964 427771 92964 4064 l
444973 92964 453171 92964 4064 l
470373 92964 471383 92964 4064 l
477561 92964 503971 92964 4064 l
583692 92964 624080 92964 4064 l
16764 96647 115318 96647 4064 l
196168 96647 423985 96647 4064 l
448759 96647 449385 96647 4064 l
474159 96647 500185 96647 4064 l
583692 96647 624080 96647 4064 l
16764 100330 110346 100330 4064 l
198168 100330 422021 100330 4064 l
476123 100330 498221 100330 4064 l
583692 100330 624080 100330 4064 l
16764 104013 62015 104013 4064 l
86829 104013 106663 104013 4064 l
198168 104013 420878 104013 4064 l
477266 104013 497078 104013 4064 l
583692 104013 624080 104013 4064 l
16764 107696 55361 107696 4064 l
93483 107696 100630 107696 4064 l
198168 107696 420878 107696 4064 l
477266 107696 497078 107696 4064 l
583692 107696 624080 107696 4064 l
16764 111379 52283 111379 4064 l
198168 111379 318922 111379 4064 l
350622 111379 421758 111379 4064 l
476386 111379 497958 111379 4064 l
583692 111379 624080 111379 4064 l
16764 115062 50757 115062 4064 l
196803 115062 314387 115062 4064 l
355157 115062 423350 115062 4064 l
474794 115062 499550 115062 4064 l
583692 115062 624080 115062 4064 l
16764 118745 39125 118745 4064 l
46219 118745 50419 118745 4064 l
120667 118745 176412 118745 4064 l
196732 118745 310867 118745 4064 l
358840 118745 427033 118745 4064 l
471111 118745 478087 118745 4064 l
496257 118745 503233 118745 4064 l
583692 118745 624080 118745 4064 l
16764 122428 33137 122428 4064 l
118171 122428 176412 122428 4064 l
196732 122428 309744 122428 4064 l
362523 122428 423604 122428 4064 l
583692 122428 624080 122428 4064 l
16764 126111 30638 126111 4064 l
116534 126111 173637 126111 4064 l
196732 126111 309744 126111 4064 l
369885 126111 421863 126111 4064 l
583692 126111 624080 126111 4064 l
16764 129794 29464 129794 4064 l
93737 129794 100017 129794 4064 l
112327 129794 172212 129794 4064 l
196566 129794 249729 129794 4064 l
267415 129794 309744 129794 4064 l
370568 129794 420878 129794 4064 l
583692 129794 624080 129794 4064 l
16764 133477 29464 133477 4064 l
55880 133477 61402 133477 4064 l
87442 133477 137718 133477 4064 l
165045 133477 172212 133477 4064 l
194835 133477 247476 133477 4064 l
269668 133477 309744 133477 4064 l
370568 133477 420878 133477 4064 l
583692 133477 624080 133477 4064 l
16764 137160 29464 137160 4064 l
55880 137160 134534 137160 4064 l
168230 137160 172212 137160 4064 l
192532 137160 247476 137160 4064 l
269668 137160 306649 137160 4064 l
370568 137160 421916 137160 4064 l
583692 137160 624080 137160 4064 l
16764 140843 29464 140843 4064 l
55880 140843 134286 140843 4064 l
168478 140843 172212 140843 4064 l
192532 140843 244869 140843 4064 l
269668 140843 306276 140843 4064 l
370568 140843 422200 140843 4064 l
583692 140843 624080 140843 4064 l
16764 144526 29464 144526 4064 l
55880 144526 134286 144526 4064 l
168478 144526 172212 144526 4064 l
192532 144526 241186 144526 4064 l
269668 144526 306276 144526 4064 l
370568 144526 419076 144526 4064 l
583692 144526 624080 144526 4064 l
16764 148209 29464 148209 4064 l
55880 148209 134286 148209 4064 l
168478 148209 172212 148209 4064 l
192532 148209 196690 148209 4064 l
269078 148209 306276 148209 4064 l
370568 148209 390582 148209 4064 l
400762 148209 417576 148209 4064 l
583692 148209 624080 148209 4064 l
16764 151892 29464 151892 4064 l
55880 151892 134286 151892 4064 l
168478 151892 172212 151892 4064 l
192532 151892 196088 151892 4064 l
259684 151892 306859 151892 4064 l
369173 151892 385751 151892 4064 l
405593 151892 417576 151892 4064 l
583692 151892 624080 151892 4064 l
16764 155575 29464 155575 4064 l
55880 155575 60175 155575 4064 l
88669 155575 134286 155575 4064 l
168478 155575 172212 155575 4064 l
192532 155575 196088 155575 4064 l
256001 155575 341280 155575 4064 l
357536 155575 383856 155575 4064 l
407488 155575 414293 155575 4064 l
583692 155575 624080 155575 4064 l
16764 159258 29464 159258 4064 l
94245 159258 97907 159258 4064 l
114437 159258 134286 159258 4064 l
168478 159258 172212 159258 4064 l
192532 159258 196088 159258 4064 l
256890 159258 309513 159258 4064 l
326231 159258 341280 159258 4064 l
357536 159258 383226 159258 4064 l
408118 159258 410610 159258 4064 l
583373 159258 624080 159258 4064 l
16764 162941 29464 162941 4064 l
118120 162941 134286 162941 4064 l
168478 162941 172212 162941 4064 l
192532 162941 196088 162941 4064 l
260573 162941 306491 162941 4064 l
369815 162941 383596 162941 4064 l
580879 162941 624080 162941 4064 l
16764 166624 29464 166624 4064 l
121803 166624 134286 166624 4064 l
168478 166624 172212 166624 4064 l
193692 166624 197119 166624 4064 l
229601 166624 238392 166624 4064 l
264256 166624 306276 166624 4064 l
370568 166624 385123 166624 4064 l
577196 166624 624080 166624 4064 l
16764 170307 29464 170307 4064 l
125486 170307 134286 170307 4064 l
168478 170307 172212 170307 4064 l
229474 170307 242075 170307 4064 l
266993 170307 306276 170307 4064 l
370568 170307 388052 170307 4064 l
573513 170307 624080 170307 4064 l
16764 173990 29464 173990 4064 l
129169 173990 134286 173990 4064 l
168478 173990 173163 173990 4064 l
230632 173990 245758 173990 4064 l
267716 173990 306276 173990 4064 l
370568 173990 388052 173990 4064 l
569830 173990 624080 173990 4064 l
16764 177673 29464 177673 4064 l
131222 177673 134903 177673 4064 l
167861 177673 176005 177673 4064 l
230632 177673 249428 177673 4064 l
267716 177673 307017 177673 4064 l
370568 177673 388052 177673 4064 l
566147 177673 624080 177673 4064 l
16764 181356 29464 181356 4064 l
92975 181356 99177 181356 4064 l
132080 181356 179688 181356 4064 l
230632 181356 249428 181356 4064 l
267716 181356 324376 181356 4064 l
370568 181356 388052 181356 4064 l
567257 181356 624080 181356 4064 l
16764 185039 29464 185039 4064 l
55880 185039 102860 185039 4064 l
132080 185039 183371 185039 4064 l
230632 185039 249428 185039 4064 l
267716 185039 324376 185039 4064 l
370568 185039 388052 185039 4064 l
568968 185039 624080 185039 4064 l
16764 188722 29464 188722 4064 l
55880 188722 105664 188722 4064 l
132080 188722 187086 188722 4064 l
230082 188722 249428 188722 4064 l
267716 188722 325601 188722 4064 l
369343 188722 388052 188722 4064 l
569468 188722 624080 188722 4064 l
16764 192405 29464 192405 4064 l
55880 192405 105664 192405 4064 l
132080 192405 249428 192405 4064 l
267716 192405 330844 192405 4064 l
364100 192405 388052 192405 4064 l
568968 192405 624080 192405 4064 l
16764 196088 29464 196088 4064 l
55880 196088 105664 196088 4064 l
132080 196088 249428 196088 4064 l
267716 196088 330844 196088 4064 l
364100 196088 388052 196088 4064 l
593087 196088 624080 196088 4064 l
16764 199771 29464 199771 4064 l
55880 199771 105664 199771 4064 l
132080 199771 249428 199771 4064 l
267716 199771 328410 199771 4064 l
366534 199771 388052 199771 4064 l
598372 199771 624080 199771 4064 l
16764 203454 29464 203454 4064 l
55880 203454 105664 203454 4064 l
132080 203454 249428 203454 4064 l
267716 203454 327844 203454 4064 l
367068 203454 388052 203454 4064 l
600455 203454 624080 203454 4064 l
16764 207137 29464 207137 4064 l
55880 207137 58336 207137 4064 l
90508 207137 105664 207137 4064 l
132080 207137 249428 207137 4064 l
270869 207137 327876 207137 4064 l
367068 207137 387174 207137 4064 l
601218 207137 624080 207137 4064 l
16764 210820 29638 210820 4064 l
95007 210820 105664 210820 4064 l
132080 210820 249937 210820 4064 l
274552 210820 327876 210820 4064 l
367068 210820 386782 210820 4064 l
600981 210820 624080 210820 4064 l
16764 214503 31164 214503 4064 l
97192 214503 105664 214503 4064 l
132080 214503 252371 214503 4064 l
278235 214503 327884 214503 4064 l
367060 214503 386782 214503 4064 l
610604 214503 624080 214503 4064 l
16764 218186 34407 218186 4064 l
98425 218186 105664 218186 4064 l
132080 218186 256054 218186 4064 l
281918 218186 330265 218186 4064 l
369381 218186 386782 218186 4064 l
616787 218186 624080 218186 4064 l
16764 221869 35446 221869 4064 l
98425 221869 105664 221869 4064 l
132080 221869 218793 221869 4064 l
252151 221869 259737 221869 4064 l
285601 221869 330844 221869 4064 l
619242 221869 624080 221869 4064 l
16764 225552 31613 225552 4064 l
97561 225552 105664 225552 4064 l
132080 225552 214793 225552 4064 l
256151 225552 263420 225552 4064 l
289284 225552 330844 225552 4064 l
620268 225552 624080 225552 4064 l
16764 229235 30007 229235 4064 l
95896 229235 105664 229235 4064 l
133614 229235 149798 229235 4064 l
198426 229235 214376 229235 4064 l
266130 229235 267103 229235 4064 l
292967 229235 332064 229235 4064 l
501885 229235 595376 229235 4064 l
620268 229235 624080 229235 4064 l
16764 232918 29464 232918 4064 l
55880 232918 56631 232918 4064 l
92213 232918 105664 232918 4064 l
137297 232918 147190 232918 4064 l
201034 232918 214376 232918 4064 l
269813 232918 270786 232918 4064 l
296650 232918 335723 232918 4064 l
525250 232918 541714 232918 4064 l
559630 232918 567114 232918 4064 l
585030 232918 596876 232918 4064 l
618768 232918 624080 232918 4064 l
16764 236601 29464 236601 4064 l
55880 236601 105996 236601 4064 l
140980 236601 147061 236601 4064 l
201163 236601 214376 236601 4064 l
273496 236601 274469 236601 4064 l
300333 236601 339406 236601 4064 l
533602 236601 538031 236601 4064 l
563313 236601 563431 236601 4064 l
588713 236601 600000 236601 4064 l
615644 236601 624080 236601 4064 l
16764 240284 29464 240284 4064 l
55880 240284 107522 240284 4064 l
144663 240284 147061 240284 4064 l
201163 240284 214376 240284 4064 l
277179 240284 278152 240284 4064 l
304016 240284 343089 240284 4064 l
590528 240284 624080 240284 4064 l
16764 243967 29464 243967 4064 l
55880 243967 110988 243967 4064 l
201163 243967 214376 243967 4064 l
256568 243967 257872 243967 4064 l
279281 243967 281835 243967 4064 l
307699 243967 346772 243967 4064 l
413109 243967 446935 243967 4064 l
591566 243967 624080 243967 4064 l
16764 247650 29464 247650 4064 l
55880 247650 114671 247650 4064 l
201163 247650 215729 247650 4064 l
255215 247650 261555 247650 4064 l
279400 247650 285518 247650 4064 l
311382 247650 368300 247650 4064 l
409426 247650 452494 247650 4064 l
591566 247650 624080 247650 4064 l
16764 251333 29464 251333 4064 l
55880 251333 118354 251333 4064 l
201163 251333 263144 251333 4064 l
279400 251333 289201 251333 4064 l
315065 251333 347230 251333 4064 l
360414 251333 368613 251333 4064 l
407416 251333 454152 251333 4064 l
497534 251333 514063 251333 4064 l
590581 251333 624080 251333 4064 l
16764 255016 29464 255016 4064 l
55880 255016 122037 255016 4064 l
201163 255016 263144 255016 4064 l
279400 255016 292884 255016 4064 l
407416 255016 454152 255016 4064 l
499170 255016 516815 255016 4064 l
533729 255016 537904 255016 4064 l
588840 255016 624080 255016 4064 l
16764 258699 29464 258699 4064 l
55880 258699 56758 258699 4064 l
92086 258699 102012 258699 4064 l
110332 258699 125720 258699 4064 l
201163 258699 263144 258699 4064 l
279400 258699 296567 258699 4064 l
407416 258699 454202 258699 4064 l
499618 258699 541333 258699 4064 l
585411 258699 624080 258699 4064 l
16764 262382 29464 262382 4064 l
95769 262382 96383 262382 4064 l
115961 262382 129403 262382 4064 l
201163 262382 263144 262382 4064 l
279400 262382 300250 262382 4064 l
406591 262382 456643 262382 4064 l
499065 262382 537650 262382 4064 l
589094 262382 624080 262382 4064 l
16764 266065 29464 266065 4064 l
119644 266065 133086 266065 4064 l
201163 266065 261558 266065 4064 l
280986 266065 303933 266065 4064 l
403711 266065 419050 266065 4064 l
428294 266065 454359 266065 4064 l
497280 266065 536058 266065 4064 l
590686 266065 624080 266065 4064 l
16764 269748 29464 269748 4064 l
123327 269748 136769 269748 4064 l
201163 269748 259676 269748 4064 l
287593 269748 307616 269748 4064 l
400028 269748 413945 269748 4064 l
433399 269748 454152 269748 4064 l
494792 269748 535178 269748 4064 l
591566 269748 624080 269748 4064 l
16764 273431 29464 273431 4064 l
127010 273431 147061 273431 4064 l
201163 273431 259676 273431 4064 l
291276 273431 292292 273431 4064 l
326452 273431 345360 273431 4064 l
362284 273431 368770 273431 4064 l
392722 273431 411937 273431 4064 l
435407 273431 454152 273431 4064 l
495907 273431 535178 273431 4064 l
591566 273431 624080 273431 4064 l
16764 277114 29464 277114 4064 l
130328 277114 147061 277114 4064 l
201163 277114 259676 277114 4064 l
328908 277114 368300 277114 4064 l
393192 277114 411226 277114 4064 l
436118 277114 454152 277114 4064 l
506676 277114 536321 277114 4064 l
590423 277114 624080 277114 4064 l
16764 280797 29464 280797 4064 l
95134 280797 97018 280797 4064 l
131853 280797 147061 280797 4064 l
201163 280797 259676 280797 4064 l
330392 280797 368300 280797 4064 l
393192 280797 411516 280797 4064 l
435828 280797 454152 280797 4064 l
510986 280797 538285 280797 4064 l
563059 280797 563685 280797 4064 l
588459 280797 624080 280797 4064 l
16764 284480 29464 284480 4064 l
55880 284480 58029 284480 4064 l
90815 284480 100701 284480 4064 l
132080 284480 147295 284480 4064 l
200929 284480 261159 284480 4064 l
334075 284480 368300 284480 4064 l
393192 284480 412871 284480 4064 l
434303 284480 454152 284480 4064 l
511468 284480 542071 284480 4064 l
559273 284480 566352 284480 4064 l
585792 284480 624080 284480 4064 l
16764 288163 29464 288163 4064 l
55880 288163 104384 288163 4064 l
132080 288163 150411 288163 4064 l
197813 288163 283018 288163 4064 l
337758 288163 368300 288163 4064 l
393192 288163 412052 288163 4064 l
430732 288163 454152 288163 4064 l
511468 288163 562826 288163 4064 l
589318 288163 624080 288163 4064 l
16764 291846 29464 291846 4064 l
55880 291846 105664 291846 4064 l
132080 291846 288092 291846 4064 l
341441 291846 368825 291846 4064 l
511468 291846 561300 291846 4064 l
590844 291846 624080 291846 4064 l
16764 295529 29464 295529 4064 l
55880 295529 105664 295529 4064 l
132080 295529 294565 295529 4064 l
307179 295529 311565 295529 4064 l
342900 295529 386782 295529 4064 l
510994 295529 560578 295529 4064 l
591566 295529 624080 295529 4064 l
16764 299212 29464 299212 4064 l
55880 299212 105664 299212 4064 l
132080 299212 325817 299212 4064 l
342900 299212 386782 299212 4064 l
511468 299212 560578 299212 4064 l
591566 299212 624080 299212 4064 l
16764 302895 29464 302895 4064 l
55880 302895 105664 302895 4064 l
132080 302895 263548 302895 4064 l
278996 302895 326644 302895 4064 l
342900 302895 386782 302895 4064 l
511468 302895 561879 302895 4064 l
590265 302895 624080 302895 4064 l
16764 306578 29464 306578 4064 l
55880 306578 105664 306578 4064 l
132080 306578 260000 306578 4064 l
286176 306578 326644 306578 4064 l
342900 306578 386782 306578 4064 l
511468 306578 564066 306578 4064 l
588078 306578 624080 306578 4064 l
16764 310261 29464 310261 4064 l
55880 310261 55996 310261 4064 l
92848 310261 105664 310261 4064 l
132080 310261 258888 310261 4064 l
290006 310261 326644 310261 4064 l
342900 310261 387279 310261 4064 l
511468 310261 568391 310261 4064 l
583753 310261 624080 310261 4064 l
16764 313944 30270 313944 4064 l
96298 313944 105664 313944 4064 l
132080 313944 215004 313944 4064 l
342900 313944 395544 313944 4064 l
510221 313944 624080 313944 4064 l
16764 317627 32248 317627 4064 l
97824 317627 105664 317627 4064 l
132080 317627 151025 317627 4064 l
197199 317627 214376 317627 4064 l
342900 317627 395544 317627 4064 l
507492 317627 624080 317627 4064 l
16764 321310 36979 321310 4064 l
48365 321310 50419 321310 4064 l
98425 321310 105664 321310 4064 l
132080 321310 147400 321310 4064 l
200824 321310 214376 321310 4064 l
345505 321310 395544 321310 4064 l
474218 321310 475634 321310 4064 l
509886 321310 624080 321310 4064 l
16764 324993 50419 324993 4064 l
98425 324993 105664 324993 4064 l
132080 324993 147061 324993 4064 l
201163 324993 214376 324993 4064 l
267146 324993 281748 324993 4064 l
349188 324993 395544 324993 4064 l
474218 324993 479317 324993 4064 l
513569 324993 542850 324993 4064 l
558494 324993 624080 324993 4064 l
16764 328676 51915 328676 4064 l
96929 328676 105664 328676 4064 l
132080 328676 147061 328676 4064 l
201163 328676 214376 328676 4064 l
263463 328676 285431 328676 4064 l
474218 328676 483000 328676 4064 l
561618 328676 624080 328676 4064 l
16764 332359 54472 332359 4064 l
94372 332359 105664 332359 4064 l
135138 332359 147061 332359 4064 l
201163 332359 214376 332359 4064 l
258653 332359 292038 332359 4064 l
474218 332359 486683 332359 4064 l
563118 332359 624080 332359 4064 l
16764 336042 59869 336042 4064 l
88975 336042 105664 336042 4064 l
201163 336042 215270 336042 4064 l
255674 336042 311847 336042 4064 l
474218 336042 490366 336042 4064 l
563118 336042 624080 336042 4064 l
16764 339725 106627 339725 4064 l
201163 339725 315530 339725 4064 l
474218 339725 494049 339725 4064 l
562092 339725 624080 339725 4064 l
16764 343408 108829 343408 4064 l
201163 343408 319213 343408 4064 l
474218 343408 497732 343408 4064 l
519136 343408 541707 343408 4064 l
559637 343408 624080 343408 4064 l
16764 347091 112512 347091 4064 l
201163 347091 322896 347091 4064 l
474218 347091 501415 347091 4064 l
520192 347091 547890 347091 4064 l
553454 347091 624080 347091 4064 l
16764 350774 116195 350774 4064 l
201163 350774 326579 350774 4064 l
474218 350774 504952 350774 4064 l
520192 350774 624080 350774 4064 l
16764 354457 119878 354457 4064 l
201163 354457 317011 354457 4064 l
474218 354457 504952 354457 4064 l
520192 354457 624080 354457 4064 l
16764 358140 123561 358140 4064 l
201163 358140 313328 358140 4064 l
473689 358140 504952 358140 4064 l
520192 358140 624080 358140 4064 l
16764 361823 147061 361823 4064 l
201163 361823 309645 361823 4064 l
470897 361823 504952 361823 4064 l
520192 361823 624080 361823 4064 l
16764 365506 147061 365506 4064 l
201163 365506 305962 365506 4064 l
467214 365506 504952 365506 4064 l
520192 365506 624080 365506 4064 l
16764 369189 147061 369189 4064 l
201163 369189 302650 369189 4064 l
323831 369189 340379 369189 4064 l
464868 369189 504952 369189 4064 l
520192 369189 624080 369189 4064 l
16764 372872 147085 372872 4064 l
201139 372872 301752 372872 4064 l
320148 372872 336696 372872 4064 l
464868 372872 504952 372872 4064 l
520192 372872 624080 372872 4064 l
16764 376555 149489 376555 4064 l
198735 376555 269668 376555 4064 l
289876 376555 301752 376555 4064 l
316992 376555 333013 376555 4064 l
464868 376555 504952 376555 4064 l
520192 376555 624080 376555 4064 l
16764 380238 268176 380238 4064 l
318959 380238 325185 380238 4064 l
464390 380238 504952 380238 4064 l
520192 380238 624080 380238 4064 l
16764 383921 268176 383921 4064 l
320968 383921 323176 383921 4064 l
347199 383921 348576 383921 4064 l
460098 383921 503447 383921 4064 l
520192 383921 624080 383921 4064 l
16764 387604 268176 387604 4064 l
320968 387604 323176 387604 4064 l
346368 387604 348576 387604 4064 l
455530 387604 499764 387604 4064 l
519978 387604 624080 387604 4064 l
16764 391287 268176 391287 4064 l
320968 391287 323176 391287 4064 l
346368 391287 348576 391287 4064 l
517633 391287 624080 391287 4064 l
16764 394970 270049 394970 4064 l
289495 394970 295294 394970 4064 l
320968 394970 323176 394970 4064 l
346368 394970 348576 394970 4064 l
371768 394970 382152 394970 4064 l
397392 394970 441344 394970 4064 l
513950 394970 624080 394970 4064 l
16764 398653 298566 398653 4064 l
320178 398653 323966 398653 4064 l
345578 398653 349366 398653 4064 l
370978 398653 382152 398653 4064 l
397392 398653 445027 398653 4064 l
510267 398653 624080 398653 4064 l
16764 402336 297776 402336 4064 l
320968 402336 323176 402336 4064 l
346368 402336 348576 402336 4064 l
371768 402336 379287 402336 4064 l
400257 402336 448710 402336 4064 l
506584 402336 624080 402336 4064 l
16764 406019 297776 406019 4064 l
320968 406019 323176 406019 4064 l
346368 406019 348576 406019 4064 l
371768 406019 378176 406019 4064 l
401368 406019 624080 406019 4064 l
16764 409702 297776 409702 4064 l
320968 409702 323176 409702 4064 l
346368 409702 348576 409702 4064 l
371768 409702 378176 409702 4064 l
401368 409702 624080 409702 4064 l
16764 413385 297942 413385 4064 l
320802 413385 323342 413385 4064 l
346202 413385 348742 413385 4064 l
371602 413385 378176 413385 4064 l
401368 413385 624080 413385 4064 l
16764 417068 298636 417068 4064 l
320108 417068 324036 417068 4064 l
345508 417068 349436 417068 4064 l
370908 417068 378176 417068 4064 l
401368 417068 624080 417068 4064 l
16764 420751 297110 420751 4064 l
321634 420751 322510 420751 4064 l
347034 420751 347910 420751 4064 l
372434 420751 380430 420751 4064 l
399114 420751 624080 420751 4064 l
16764 424434 296926 424434 4064 l
321818 424434 322326 424434 4064 l
347218 424434 347726 424434 4064 l
372618 424434 624080 424434 4064 l
16764 428117 297742 428117 4064 l
321002 428117 323142 428117 4064 l
346402 428117 348542 428117 4064 l
371802 428117 624080 428117 4064 l
16764 431800 299899 431800 4064 l
318845 431800 325299 431800 4064 l
344245 431800 350699 431800 4064 l
369645 431800 624080 431800 4064 l
16764 435483 95358 435483 4064 l
116986 435483 305363 435483 4064 l
313381 435483 330763 435483 4064 l
338781 435483 356163 435483 4064 l
364181 435483 539858 435483 4064 l
561486 435483 624080 435483 4064 l
16764 439166 88943 439166 4064 l
123401 439166 533443 439166 4064 l
567901 439166 624080 439166 4064 l
16764 442849 85225 442849 4064 l
127119 442849 529725 442849 4064 l
571619 442849 624080 442849 4064 l
16764 446532 82417 446532 4064 l
129926 446532 526917 446532 4064 l
574426 446532 624080 446532 4064 l
16764 450215 80291 450215 4064 l
132053 450215 524791 450215 4064 l
576553 450215 624080 450215 4064 l
16764 453898 79095 453898 4064 l
133249 453898 523595 453898 4064 l
577749 453898 624080 453898 4064 l
16764 457581 78108 457581 4064 l
134236 457581 522608 457581 4064 l
578736 457581 624080 457581 4064 l
16764 461264 77980 461264 4064 l
134364 461264 300771 461264 4064 l
317973 461264 326171 461264 4064 l
343373 461264 345963 461264 4064 l
374381 461264 440471 461264 4064 l
457673 461264 460263 461264 4064 l
488681 461264 522480 461264 4064 l
578864 461264 624080 461264 4064 l
16764 464947 77980 464947 4064 l
134364 464947 296985 464947 4064 l
321759 464947 322385 464947 4064 l
375666 464947 436685 464947 4064 l
489966 464947 522480 464947 4064 l
578864 464947 624080 464947 4064 l
16764 468630 78823 468630 4064 l
133521 468630 295021 468630 4064 l
375666 468630 434721 468630 4064 l
489966 468630 523323 468630 4064 l
578021 468630 624080 468630 4064 l
16764 472313 79810 472313 4064 l
132534 472313 293878 472313 4064 l
375666 472313 433578 472313 4064 l
489966 472313 524310 472313 4064 l
577034 472313 624080 472313 4064 l
16764 475996 81831 475996 4064 l
130513 475996 293878 475996 4064 l
375666 475996 433578 475996 4064 l
489966 475996 526331 475996 4064 l
575013 475996 624080 475996 4064 l
16764 479679 84210 479679 4064 l
128134 479679 294758 479679 4064 l
375666 479679 434458 479679 4064 l
489966 479679 528710 479679 4064 l
572634 479679 624080 479679 4064 l
16764 483362 87893 483362 4064 l
124451 483362 296350 483362 4064 l
375666 483362 436050 483362 4064 l
489966 483362 532393 483362 4064 l
568951 483362 624080 483362 4064 l
16764 487045 93562 487045 4064 l
118782 487045 300033 487045 4064 l
318711 487045 325433 487045 4064 l
344111 487045 345491 487045 4064 l
374853 487045 439733 487045 4064 l
458411 487045 459791 487045 4064 l
489153 487045 538062 487045 4064 l
563282 487045 624080 487045 4064 l
16764 490728 624080 490728 4064 l
16764 494411 624080 494411 4064 l
16764 498094 624080 498094 4064 l
16764 501777 624080 501777 4064 l
16764 505460 624080 505460 4064 l
16764 509143 624080 509143 4064 l
16764 512826 624080 512826 4064 l
16764 516509 624080 516509 4064 l
16764 520192 624080 520192 4064 l
16764 523875 624080 523875 4064 l
16764 527558 624080 527558 4064 l
16764 531241 624080 531241 4064 l
16764 534924 624080 534924 4064 l
423672 252222 12700 p
487172 347472 12700 p
466598 262572 453072 262572 4064 l
453072 262572 449072 258572 4064 l
397572 270572 380746 270572 4064 l
397572 270572 398272 271272 4064 l
380746 270572 362269 270572 4064 l
362269 270572 360871 271971 4064 l
380746 254572 368872 254572 4064 l
368872 254572 366522 252222 4064 l
493522 74422 12700 p
241672 156972 213360 156972 6096 l
241672 156972 258572 140072 6096 l
353822 262772 313572 262772 6096 l
313572 262772 258572 207772 6096 l
258572 207772 258572 173872 6096 l
258572 173872 241672 156972 6096 l
354022 262572 380746 262572 6096 l
354022 262572 353822 262772 4064 l
525272 245872 12700 p
487172 238572 466598 238572 6096 l
487172 238572 517972 238572 6096 l
517972 238572 525272 245872 6096 l
487172 258572 12700 p
487172 238572 487172 258572 3048 l
487172 258572 487172 275472 3048 l
487172 275472 499872 288172 3048 l
397572 246572 380746 246572 6096 l
397572 246572 410972 233172 6096 l
449072 233172 410972 233172 6096 l
466598 238572 454472 238572 6096 l
454472 238572 449072 233172 6096 l
380746 262572 394272 262572 6096 l
394272 262572 398272 258572 6096 l
398272 258572 398272 247272 6096 l
398272 247272 397572 246572 4064 l
235472 235772 261172 235772 4064 l
261172 235772 271272 245872 4064 l
271272 245872 271272 275472 4064 l
290322 283972 300872 283972 4064 l
271272 275472 281822 275472 4064 l
281822 275472 290322 283972 4064 l
290322 322072 300872 322072 4064 l
281822 313572 271272 313572 4064 l
281822 313572 290322 322072 4064 l
255972 324672 235472 324672 4064 l
271272 313572 267072 313572 4064 l
267072 313572 255972 324672 4064 l
317872 283972 322072 283972 4064 l
322072 283972 334772 296672 4064 l
334772 296672 334772 322072 4064 l
347472 334772 334772 322072 4064 l
403672 301498 403672 329372 4064 l
403672 329372 398272 334772 4064 l
398272 334772 347472 334772 4064 l
411672 301498 411672 334072 4064 l
411672 334072 398272 347472 4064 l
334772 347472 398272 347472 4064 l
317872 322072 317872 330572 4064 l
317872 330572 334772 347472 4064 l
174112 258572 144272 258572 14224 l
144272 258572 118872 233172 14224 l
118872 233172 118872 182372 14224 l
118872 182372 106172 169672 14224 l
106172 169672 12700 p
174112 347472 131572 347472 14224 l
131572 347472 118872 334772 14224 l
118872 334772 118872 283972 14224 l
118872 283972 106172 271272 14224 l
106172 271272 12700 p
42672 207772 42672 131572 14224 l
42672 309372 42672 233172 14224 l
213360 180086 192786 180086 8128 l
106172 118872 118872 106172 8128 l
118872 106172 186572 106172 8128 l
192786 180086 182372 169672 8128 l
182372 131572 182372 169672 8128 l
186572 106172 186572 127372 8128 l
186572 127372 182372 131572 8128 l
106172 118872 12700 p
42672 309372 12700 p
42672 233172 12700 p
42672 207772 12700 p
42672 131572 12700 p
451672 215646 451672 205172 3048 l
451672 205172 461772 195072 3048 l
537972 195072 544322 201422 3048 l
588772 207772 12700 p
461772 195072 537972 195072 3048 l
544322 201422 582422 201422 3048 l
582422 201422 588772 207772 3048 l
466598 230572 489772 230572 3048 l
489772 230572 499872 220472 3048 l
499872 220472 601472 220472 3048 l
601472 220472 607822 226822 3048 l
607822 226822 12700 p
550672 334772 12700 p
550672 334772 512572 334772 3048 l
512572 334772 499872 322072 3048 l
499872 322072 499872 305172 3048 l
419672 301498 419672 287972 3048 l
419672 287972 423672 283972 3048 l
423672 283972 423672 277622 3048 l
423672 277622 12700 p
443672 215646 443672 200472 3048 l
443672 200472 455422 188722 3048 l
455422 188722 557022 188722 3048 l
557022 188722 12700 p
506222 176022 525272 156972 3048 l
525272 156972 550672 156972 3048 l
550672 156972 563372 144272 3048 l
563372 144272 563372 93472 3048 l
550672 80772 563372 93472 3048 l
474472 80772 474472 68072 3048 l
474472 68072 487172 55372 3048 l
487172 55372 550672 55372 3048 l
427672 215646 427672 191072 3048 l
427672 191072 442722 176022 3048 l
442722 176022 506222 176022 3048 l
474472 80772 12700 p
550672 55372 12700 p
550672 80772 12700 p
435672 215646 435672 195772 3048 l
435672 195772 449072 182372 3048 l
449072 182372 550672 182372 3048 l
550672 182372 576072 156972 3048 l
576072 156972 576072 80772 3048 l
576072 80772 563372 68072 3048 l
563372 68072 525272 68072 3048 l
525272 68072 512572 80772 3048 l
512572 80772 12700 p
395672 215646 395672 159572 3048 l
395672 159572 12700 p
403672 215646 403672 176972 3048 l
403672 176972 430022 150622 3048 l
430022 150622 12700 p
411672 215646 411672 181672 3048 l
411672 181672 430022 163322 3048 l
474472 156972 12700 p
430022 163322 442722 163322 3048 l
442722 163322 449072 156972 3048 l
449072 156972 474472 156972 3048 l
419672 215646 419672 186372 3048 l
419672 186372 436372 169672 3048 l
499872 156972 12700 p
436372 169672 487172 169672 3048 l
487172 169672 499872 156972 3048 l
360172 423672 12700 p
360172 423672 360172 406772 3048 l
334772 423672 12700 p
334772 423672 334772 406772 3048 l
309372 423672 12700 p
309372 423672 309372 406772 3048 l
480822 315722 512572 347472 3048 l
512572 347472 512572 385572 3048 l
512572 385572 499872 398272 3048 l
499872 398272 455422 398272 3048 l
455422 398272 442722 385572 3048 l
466598 278572 475422 278572 3048 l
475422 278572 480822 283972 3048 l
480822 283972 480822 315722 3048 l
364372 385572 360172 389772 3048 l
442722 385572 389772 385572 3048 l
385572 385572 364372 385572 3048 l
385572 385572 389772 385572 3048 l
389772 385572 389772 410972 3048 l
347472 372872 453272 372872 3048 l
347472 372872 334772 385572 3048 l
334772 385572 334772 389772 3048 l
466598 355346 466598 286572 3048 l
453272 372872 453272 368672 3048 l
453272 368672 466598 355346 3048 l
451672 301498 451672 344872 3048 l
451672 344872 436372 360172 3048 l
436372 360172 322072 360172 3048 l
322072 360172 309372 372872 3048 l
309372 372872 309372 389772 3048 l
309372 389772 300872 389772 3048 l
296672 385572 300872 389772 3048 l
279772 385572 296672 385572 3048 l
443672 301498 443672 314772 3048 l
443672 314772 436372 322072 3048 l
436372 322072 436372 334772 3048 l
436372 334772 12700 p
showpage grestore
