%!PS-Adobe-3.0 EPSF-3.0
%%Title: EAGLE Drawing /home/agustin/Documentos/eagle/insoladora/insoladora.brd
%%Creator: EAGLE
%%Pages: 1
%%BoundingBox: 0 0 576 810
%%EndComments

% Coordinate transfer:

/EU { 254 div 0.072 mul } def
/inch { 72 mul } def

% Linestyle:

1 setlinecap
1 setlinejoin

% Drawing functions:

/l {  % draw a line
   /lw exch def
   /y2 exch def
   /x2 exch def
   /y1 exch def
   /x1 exch def
   newpath
   x1 EU y1 EU moveto
   x2 EU y2 EU lineto
   lw EU setlinewidth
   stroke
   } def

/h {  % draw a hole
   /d  exch def
   /y  exch def
   /x  exch def
   d 0 gt {
     newpath
     x EU y EU d 2 div EU 0 360 arc
     currentgray dup
     1 exch sub setgray
     fill
     setgray
     } if
   } def

/b {  % draw a bar
   /an exch def
   /y2 exch def
   /x2 exch def
   /y1 exch def
   /x1 exch def
   /w2 x2 x1 sub 2 div EU def
   /h2 y2 y1 sub 2 div EU def
   gsave
   x1 x2 add 2 div EU y1 y2 add 2 div EU translate
   an rotate
   newpath
   w2     h2     moveto
   w2 neg h2     lineto
   w2 neg h2 neg lineto
   w2     h2 neg lineto
   closepath
   fill
   grestore
   } def

/c {  % draw a circle
   /lw exch def
   /rd exch def
   /y  exch def
   /x  exch def
   newpath
   lw EU setlinewidth
   x EU y EU rd EU 0 360 arc
   stroke
   } def

/a {  % draw an arc
   /lc exch def
   /ae exch def
   /as exch def
   /lw exch def
   /rd exch def
   /y  exch def
   /x  exch def
   lw rd 2 mul gt {
     /rd rd lw 2 div add 2 div def
     /lw rd 2 mul def
     } if
   currentlinecap currentlinejoin
   lc setlinecap 0 setlinejoin
   newpath
   lw EU setlinewidth
   x EU y EU rd EU as ae arc
   stroke
   setlinejoin setlinecap
   } def

/p {  % draw a pie
   /d exch def
   /y exch def
   /x exch def
   newpath
   x EU y EU d 2 div EU 0 360 arc
   fill
   } def

/edge { 0.20710678119 mul } def

/o {  % draw an octagon
   /an exch def
   /dy exch def
   /dx exch def
   /y  exch def
   /x  exch def
   gsave
   x EU y EU translate
   an dx dy lt { 90 add /dx dy /dy dx def def } if rotate
   newpath
      0 dx 2 div sub EU                    0 dy edge  add EU moveto
      0 dx dy sub 2 div sub dy edge sub EU 0 dy 2 div add EU lineto
      0 dx dy sub 2 div add dy edge add EU 0 dy 2 div add EU lineto
      0 dx 2 div add EU                    0 dy edge  add EU lineto
      0 dx 2 div add EU                    0 dy edge  sub EU lineto
      0 dx dy sub 2 div add dy edge add EU 0 dy 2 div sub EU lineto
      0 dx dy sub 2 div sub dy edge sub EU 0 dy 2 div sub EU lineto
      0 dx 2 div sub EU                    0 dy edge  sub EU lineto
   closepath
   fill
   grestore
   } def

% the real drawing size:

/MinDrawX      0 EU def
/MinDrawY      0 EU def
/MaxDrawX 644144 EU def
/MaxDrawY 555244 EU def

% the usable page size:

/LeftMargin 0.25 inch def  % change these if drawing gets clipped!
/BotMargin  0.25 inch def
/PageWidth   7.7500 inch def
/PageHeight 11.0000 inch def

% are we going to rotate?:

/RotateDrawing 0 0 ne def

% Media size functions:

/AbortMessage {  % Show a message in a box and stop printing
   /h 100 def
   /Courier findfont 12 scalefont setfont
   mediawidth pagemargin sub h 1 setpage
   newpath
   0 0 moveto
   0 h rlineto
   mediawidth pagemargin sub 0 rlineto
   0 h neg rlineto
   closepath
   5 setlinewidth
   stroke
   newpath 50 60 moveto (ERROR: Jobsize exceeds physical printing area!) show
   newpath 50 40 moveto (       Job has been aborted!) show
   showpage
   stop
   } def

/SelectPage {  % Select the page identified by Row and Column
   /Column exch def
   /Row    exch def

   % the actually exposed area (if the machine knows these parameters!):

   /DrawX MaxDrawX MinDrawX sub def
   /DrawY MaxDrawY MinDrawY sub def
   statusdict /setpage known
   statusdict /mediawidth known and
   statusdict /medialength known and
   statusdict /pagemargin known and {
      % this is for machines that can tell the media size:
      statusdict begin
         /MediaW mediawidth pagemargin sub def
         DrawX DrawY ge {
            DrawX MediaW le DrawY medialength le and {
               MediaW DrawY 1 setpage
               MediaW DrawX sub 2 div 0 translate
               }{
            DrawY MediaW le DrawX medialength le and {
               MediaW DrawX 0 setpage
               0 MediaW DrawY sub 2 div translate
               }{
               AbortMessage
               } ifelse
               } ifelse
            }{
            DrawY MediaW le DrawX medialength le and {
               MediaW DrawX 0 setpage
               0 MediaW DrawY sub 2 div translate
               }{
            DrawX MediaW le DrawY medialength le and {
               MediaW DrawY 1 setpage
               MediaW DrawX sub 2 div 0 translate
               }{
               AbortMessage
               } ifelse
               } ifelse
            } ifelse
         end
      }{
      % this is for machines that can NOT tell the media size:
      % (Ghostscript doesn't like this!)
      /Product product length string def
      /i 0 def
      product { dup 97 lt { 32 add } if Product exch i exch put /i i 1 add def } forall 
      Product (ghostscript) search dup /IsGhostscript exch def
      { pop pop } if
      pop
      IsGhostscript not {
         statusdict /setpage known {
            statusdict begin
               RotateDrawing {
                  LeftMargin PageHeight add BotMargin DrawY add
                  }{
                  BotMargin DrawY add LeftMargin DrawX add 
                  } ifelse
               0 setpage
               end
            } if
         } if
      % set clipping boundary:
      newpath
      LeftMargin BotMargin moveto
      0 PageHeight rlineto
      PageWidth  0 rlineto
      0 PageHeight neg rlineto
      closepath
      clip
      % set the origin:
      LeftMargin BotMargin translate
      RotateDrawing {
         0 PageHeight translate
         -90 rotate
         PageHeight Column mul neg PageWidth Row mul neg translate
         }{
         PageWidth Column mul neg PageHeight Row mul neg translate
         } ifelse
      } ifelse
   % move the lower left corner of the drawing to the origin:
   MinDrawX neg MinDrawY neg translate
   
   % Linestyle:
   
   1 setlinecap
   1 setlinejoin
   
   } def

% TheDrawing

gsave 0 0 SelectPage
4572 4572 636272 4572 0 l
636272 4572 636272 550572 0 l
636272 550572 4572 550572 0 l
4572 550572 4572 4572 0 l
106172 461772 16000 0 c
106172 461772 34032 p
106172 55372 16000 0 c
106172 55372 34032 p
334772 55372 16000 0 c
334772 55372 34032 p
550672 461772 16000 0 c
550672 461772 34032 p
294356 138256 307388 150288 0.0 b
311356 138256 324388 150288 0.0 b
180056 100156 193088 112188 0.0 b
197056 100156 210088 112188 0.0 b
273256 379556 286288 391588 180.0 b
256256 379556 269288 391588 180.0 b
347306 256756 360338 268788 90.0 b
347306 273756 360338 285788 90.0 b
294356 163656 307388 175688 0.0 b
311356 163656 324388 175688 0.0 b
576072 245872 20828 p
550672 245872 20828 p
576072 271272 20828 p
550672 271272 20828 p
576072 296672 20828 p
550672 296672 20828 p
436372 106172 20828 p
436372 131572 20828 p
461772 106172 20828 p
461772 131572 20828 p
487172 106172 20828 p
487172 131572 20828 p
512572 106172 20828 p
512572 131572 20828 p
537972 106172 20828 p
537972 131572 20828 p
349956 201256 361988 214288 180.0 b
332956 201256 344988 214288 180.0 b
493856 298656 505888 311688 270.0 b
493856 281656 505888 294688 270.0 b
265256 285956 277288 298988 270.0 b
265256 268956 277288 281988 270.0 b
354156 383256 366188 396288 90.0 b
354156 400256 366188 413288 90.0 b
311856 315556 323888 328588 180.0 b
294856 315556 306888 328588 180.0 b
311856 277456 323888 290488 180.0 b
294856 277456 306888 290488 180.0 b
265256 324056 277288 337088 270.0 b
265256 307056 277288 320088 270.0 b
226456 219756 244488 251788 90.0 b
226456 265356 244488 297388 90.0 b
148966 236601 199258 280543 90.0 b
226456 308656 244488 340688 90.0 b
226456 354256 244488 386288 90.0 b
148966 325501 199258 369443 90.0 b
373380 282762 388112 290382 0.0 b
373380 274762 388112 282382 0.0 b
373380 266762 388112 274382 0.0 b
373380 258762 388112 266382 0.0 b
373380 250762 388112 258382 0.0 b
373380 242762 388112 250382 0.0 b
373380 234762 388112 242382 0.0 b
373380 226762 388112 234382 0.0 b
391862 208280 399482 223012 0.0 b
399862 208280 407482 223012 0.0 b
407862 208280 415482 223012 0.0 b
415862 208280 423482 223012 0.0 b
423862 208280 431482 223012 0.0 b
431862 208280 439482 223012 0.0 b
439862 208280 447482 223012 0.0 b
447862 208280 455482 223012 0.0 b
459232 226762 473964 234382 0.0 b
459232 234762 473964 242382 0.0 b
459232 242762 473964 250382 0.0 b
459232 250762 473964 258382 0.0 b
459232 258762 473964 266382 0.0 b
459232 266762 473964 274382 0.0 b
459232 274762 473964 282382 0.0 b
459232 282762 473964 290382 0.0 b
447862 294132 455482 308864 0.0 b
439862 294132 447482 308864 0.0 b
431862 294132 439482 308864 0.0 b
423862 294132 431482 308864 0.0 b
415862 294132 423482 308864 0.0 b
407862 294132 415482 308864 0.0 b
399862 294132 407482 308864 0.0 b
391862 294132 399482 308864 0.0 b
83376 118872 65469 118872 19939 l
83376 169672 65469 169672 19939 l
83376 220472 65469 220472 19939 l
83376 271272 65469 271272 19939 l
83376 322072 65469 322072 19939 l
83376 372872 65469 372872 19939 l
348456 131956 369488 144988 90.0 b
325456 168956 346488 181988 90.0 b
325456 131956 346488 144988 90.0 b
348456 168956 369488 181988 90.0 b
206248 121666 220472 146050 90.0 b
206248 144780 220472 169164 90.0 b
206248 167894 220472 192278 90.0 b
132366 144956 170398 168988 90.0 b
252056 134056 265088 146088 270.0 b
252056 117056 265088 129088 270.0 b
349758 464058 370586 484886 180.0 b
334772 474472 20828 p
309372 474472 20828 p
464058 464058 484886 484886 180.0 b
449072 474472 20828 p
423672 474472 20828 p
328756 383256 340788 396288 90.0 b
328756 400256 340788 413288 90.0 b
303356 383256 315388 396288 90.0 b
303356 400256 315388 413288 90.0 b
446756 366856 459788 378888 0.0 b
463756 366856 476788 378888 0.0 b
383256 404956 396288 416988 0.0 b
400256 404956 413288 416988 0.0 b
423672 252222 14732 p
487172 347472 14732 p
493522 74422 14732 p
525272 245872 14732 p
487172 258572 14732 p
106172 169672 14732 p
106172 271272 14732 p
106172 118872 14732 p
42672 309372 14732 p
42672 233172 14732 p
42672 207772 14732 p
42672 131572 14732 p
588772 207772 14732 p
607822 226822 14732 p
550672 334772 14732 p
423672 277622 14732 p
557022 188722 14732 p
474472 80772 14732 p
550672 55372 14732 p
550672 80772 14732 p
512572 80772 14732 p
395672 159572 14732 p
430022 150622 14732 p
474472 156972 14732 p
499872 156972 14732 p
360172 423672 14732 p
334772 423672 14732 p
309372 423672 14732 p
436372 334772 14732 p
showpage grestore
