G75*
%MOIN*%
%OFA0B0*%
%FSLAX25Y25*%
%IPPOS*%
%LPD*%
%AMOC8*
5,1,8,0,0,1.08239X$1,22.5*
%
%ADD10C,0.07500*%
%ADD11C,0.10500*%
%ADD12C,0.07050*%
%ADD13C,0.07400*%
%ADD14R,0.07400X0.07400*%
%ADD15C,0.01200*%
%ADD16C,0.03175*%
%ADD17C,0.01000*%
%ADD18C,0.01600*%
%ADD19C,0.03569*%
D10*
X0089100Y0253000D03*
D11*
X0099139Y0242961D03*
X0099139Y0263039D03*
X0079061Y0263039D03*
X0079061Y0242961D03*
D12*
X0071757Y0051525D02*
X0071757Y0044475D01*
X0091443Y0044475D02*
X0091443Y0051525D01*
X0041443Y0051525D02*
X0041443Y0044475D01*
X0021757Y0044475D02*
X0021757Y0051525D01*
X0146757Y0051525D02*
X0146757Y0044475D01*
X0166443Y0044475D02*
X0166443Y0051525D01*
D13*
X0121600Y0083000D03*
X0111600Y0083000D03*
X0131600Y0178000D03*
X0131600Y0188000D03*
X0141600Y0188000D03*
X0141600Y0178000D03*
X0151600Y0178000D03*
X0151600Y0188000D03*
D14*
X0131600Y0083000D03*
D15*
X0003400Y0019800D02*
X0003400Y0268661D01*
X0183501Y0268661D01*
X0183501Y0019800D01*
X0003400Y0019800D01*
X0003400Y0020397D02*
X0183501Y0020397D01*
X0183501Y0021596D02*
X0003400Y0021596D01*
X0003400Y0022794D02*
X0183501Y0022794D01*
X0183501Y0023993D02*
X0003400Y0023993D01*
X0003400Y0025191D02*
X0183501Y0025191D01*
X0183501Y0026390D02*
X0003400Y0026390D01*
X0003400Y0027588D02*
X0183501Y0027588D01*
X0183501Y0028787D02*
X0003400Y0028787D01*
X0003400Y0029985D02*
X0183501Y0029985D01*
X0183501Y0031184D02*
X0003400Y0031184D01*
X0003400Y0032382D02*
X0183501Y0032382D01*
X0183501Y0033581D02*
X0003400Y0033581D01*
X0003400Y0034779D02*
X0183501Y0034779D01*
X0183501Y0035978D02*
X0003400Y0035978D01*
X0003400Y0037176D02*
X0183501Y0037176D01*
X0183501Y0038375D02*
X0003400Y0038375D01*
X0003400Y0039573D02*
X0039362Y0039573D01*
X0038426Y0039961D02*
X0040383Y0039150D01*
X0042502Y0039150D01*
X0044459Y0039961D01*
X0045957Y0041459D01*
X0046768Y0043416D01*
X0046768Y0052584D01*
X0045957Y0054541D01*
X0044459Y0056039D01*
X0042502Y0056850D01*
X0040383Y0056850D01*
X0038426Y0056039D01*
X0036928Y0054541D01*
X0036118Y0052584D01*
X0036118Y0043416D01*
X0036928Y0041459D01*
X0038426Y0039961D01*
X0037615Y0040772D02*
X0003400Y0040772D01*
X0003400Y0041970D02*
X0036716Y0041970D01*
X0036220Y0043169D02*
X0003400Y0043169D01*
X0003400Y0044367D02*
X0036118Y0044367D01*
X0036118Y0045566D02*
X0003400Y0045566D01*
X0003400Y0046764D02*
X0036118Y0046764D01*
X0036118Y0047963D02*
X0003400Y0047963D01*
X0003400Y0049161D02*
X0036118Y0049161D01*
X0036118Y0050360D02*
X0003400Y0050360D01*
X0003400Y0051558D02*
X0036118Y0051558D01*
X0036189Y0052757D02*
X0003400Y0052757D01*
X0003400Y0053955D02*
X0036685Y0053955D01*
X0037541Y0055154D02*
X0003400Y0055154D01*
X0003400Y0056352D02*
X0039182Y0056352D01*
X0043703Y0056352D02*
X0089182Y0056352D01*
X0088426Y0056039D02*
X0090383Y0056850D01*
X0092502Y0056850D01*
X0094459Y0056039D01*
X0095957Y0054541D01*
X0096768Y0052584D01*
X0096768Y0043416D01*
X0095957Y0041459D01*
X0094459Y0039961D01*
X0092502Y0039150D01*
X0090383Y0039150D01*
X0088426Y0039961D01*
X0086928Y0041459D01*
X0086118Y0043416D01*
X0086118Y0052584D01*
X0086928Y0054541D01*
X0088426Y0056039D01*
X0087541Y0055154D02*
X0045344Y0055154D01*
X0046200Y0053955D02*
X0086685Y0053955D01*
X0086189Y0052757D02*
X0046696Y0052757D01*
X0046768Y0051558D02*
X0086118Y0051558D01*
X0086118Y0050360D02*
X0046768Y0050360D01*
X0046768Y0049161D02*
X0086118Y0049161D01*
X0086118Y0047963D02*
X0046768Y0047963D01*
X0046768Y0046764D02*
X0086118Y0046764D01*
X0086118Y0045566D02*
X0046768Y0045566D01*
X0046768Y0044367D02*
X0086118Y0044367D01*
X0086220Y0043169D02*
X0046665Y0043169D01*
X0046169Y0041970D02*
X0086716Y0041970D01*
X0087615Y0040772D02*
X0045270Y0040772D01*
X0043523Y0039573D02*
X0089362Y0039573D01*
X0093523Y0039573D02*
X0144677Y0039573D01*
X0143741Y0039961D02*
X0145698Y0039150D01*
X0147817Y0039150D01*
X0149774Y0039961D01*
X0151272Y0041459D01*
X0152082Y0043416D01*
X0152082Y0052584D01*
X0151272Y0054541D01*
X0149774Y0056039D01*
X0147817Y0056850D01*
X0145698Y0056850D01*
X0143741Y0056039D01*
X0142243Y0054541D01*
X0141432Y0052584D01*
X0141432Y0043416D01*
X0142243Y0041459D01*
X0143741Y0039961D01*
X0142930Y0040772D02*
X0095270Y0040772D01*
X0096169Y0041970D02*
X0142031Y0041970D01*
X0141535Y0043169D02*
X0096665Y0043169D01*
X0096768Y0044367D02*
X0141432Y0044367D01*
X0141432Y0045566D02*
X0096768Y0045566D01*
X0096768Y0046764D02*
X0141432Y0046764D01*
X0141432Y0047963D02*
X0096768Y0047963D01*
X0096768Y0049161D02*
X0141432Y0049161D01*
X0141432Y0050360D02*
X0096768Y0050360D01*
X0096768Y0051558D02*
X0141432Y0051558D01*
X0141504Y0052757D02*
X0096696Y0052757D01*
X0096200Y0053955D02*
X0142000Y0053955D01*
X0142856Y0055154D02*
X0095344Y0055154D01*
X0093703Y0056352D02*
X0144497Y0056352D01*
X0149018Y0056352D02*
X0164182Y0056352D01*
X0163426Y0056039D02*
X0161928Y0054541D01*
X0161118Y0052584D01*
X0161118Y0043416D01*
X0161928Y0041459D01*
X0163426Y0039961D01*
X0165383Y0039150D01*
X0167502Y0039150D01*
X0169459Y0039961D01*
X0170957Y0041459D01*
X0171768Y0043416D01*
X0171768Y0052584D01*
X0170957Y0054541D01*
X0169459Y0056039D01*
X0167502Y0056850D01*
X0165383Y0056850D01*
X0163426Y0056039D01*
X0162541Y0055154D02*
X0150659Y0055154D01*
X0151515Y0053955D02*
X0161685Y0053955D01*
X0161189Y0052757D02*
X0152011Y0052757D01*
X0152082Y0051558D02*
X0161118Y0051558D01*
X0161118Y0050360D02*
X0152082Y0050360D01*
X0152082Y0049161D02*
X0161118Y0049161D01*
X0161118Y0047963D02*
X0152082Y0047963D01*
X0152082Y0046764D02*
X0161118Y0046764D01*
X0161118Y0045566D02*
X0152082Y0045566D01*
X0152082Y0044367D02*
X0161118Y0044367D01*
X0161220Y0043169D02*
X0151980Y0043169D01*
X0151484Y0041970D02*
X0161716Y0041970D01*
X0162615Y0040772D02*
X0150585Y0040772D01*
X0148838Y0039573D02*
X0164362Y0039573D01*
X0168523Y0039573D02*
X0183501Y0039573D01*
X0183501Y0040772D02*
X0170270Y0040772D01*
X0171169Y0041970D02*
X0183501Y0041970D01*
X0183501Y0043169D02*
X0171665Y0043169D01*
X0171768Y0044367D02*
X0183501Y0044367D01*
X0183501Y0045566D02*
X0171768Y0045566D01*
X0171768Y0046764D02*
X0183501Y0046764D01*
X0183501Y0047963D02*
X0171768Y0047963D01*
X0171768Y0049161D02*
X0183501Y0049161D01*
X0183501Y0050360D02*
X0171768Y0050360D01*
X0171768Y0051558D02*
X0183501Y0051558D01*
X0183501Y0052757D02*
X0171696Y0052757D01*
X0171200Y0053955D02*
X0183501Y0053955D01*
X0183501Y0055154D02*
X0170344Y0055154D01*
X0168703Y0056352D02*
X0183501Y0056352D01*
X0183501Y0057551D02*
X0003400Y0057551D01*
X0003400Y0058749D02*
X0183501Y0058749D01*
X0183501Y0059948D02*
X0003400Y0059948D01*
X0003400Y0061146D02*
X0183501Y0061146D01*
X0183501Y0062345D02*
X0003400Y0062345D01*
X0003400Y0063543D02*
X0183501Y0063543D01*
X0183501Y0064742D02*
X0003400Y0064742D01*
X0003400Y0065940D02*
X0183501Y0065940D01*
X0183501Y0067139D02*
X0003400Y0067139D01*
X0003400Y0068337D02*
X0183501Y0068337D01*
X0183501Y0069536D02*
X0003400Y0069536D01*
X0003400Y0070734D02*
X0183501Y0070734D01*
X0183501Y0071933D02*
X0003400Y0071933D01*
X0003400Y0073132D02*
X0183501Y0073132D01*
X0183501Y0074330D02*
X0158376Y0074330D01*
X0158328Y0074310D02*
X0161522Y0075633D01*
X0163967Y0078078D01*
X0165290Y0081271D01*
X0165290Y0084728D01*
X0163967Y0087922D01*
X0161522Y0090367D01*
X0158328Y0091690D01*
X0154871Y0091690D01*
X0151678Y0090367D01*
X0149233Y0087922D01*
X0147910Y0084728D01*
X0147910Y0081271D01*
X0149233Y0078078D01*
X0151678Y0075633D01*
X0154871Y0074310D01*
X0158328Y0074310D01*
X0161270Y0075529D02*
X0183501Y0075529D01*
X0183501Y0076727D02*
X0162616Y0076727D01*
X0163815Y0077926D02*
X0183501Y0077926D01*
X0183501Y0079124D02*
X0164400Y0079124D01*
X0164897Y0080323D02*
X0183501Y0080323D01*
X0183501Y0081521D02*
X0165290Y0081521D01*
X0165290Y0082720D02*
X0183501Y0082720D01*
X0183501Y0083918D02*
X0165290Y0083918D01*
X0165129Y0085117D02*
X0183501Y0085117D01*
X0183501Y0086315D02*
X0164633Y0086315D01*
X0164136Y0087514D02*
X0183501Y0087514D01*
X0183501Y0088712D02*
X0163177Y0088712D01*
X0161978Y0089911D02*
X0183501Y0089911D01*
X0183501Y0091109D02*
X0159730Y0091109D01*
X0153470Y0091109D02*
X0024730Y0091109D01*
X0023328Y0091690D02*
X0026522Y0090367D01*
X0028967Y0087922D01*
X0030290Y0084728D01*
X0030290Y0081271D01*
X0028967Y0078078D01*
X0026522Y0075633D01*
X0023328Y0074310D01*
X0019871Y0074310D01*
X0016678Y0075633D01*
X0014233Y0078078D01*
X0012910Y0081271D01*
X0012910Y0084728D01*
X0014233Y0087922D01*
X0016678Y0090367D01*
X0019871Y0091690D01*
X0023328Y0091690D01*
X0026978Y0089911D02*
X0151221Y0089911D01*
X0150023Y0088712D02*
X0028177Y0088712D01*
X0029136Y0087514D02*
X0118335Y0087514D01*
X0118484Y0087663D02*
X0116937Y0086115D01*
X0116100Y0084094D01*
X0116100Y0081906D01*
X0116937Y0079884D01*
X0118484Y0078337D01*
X0120506Y0077500D01*
X0122694Y0077500D01*
X0124715Y0078337D01*
X0126100Y0079722D01*
X0126100Y0078554D01*
X0127154Y0077500D01*
X0136046Y0077500D01*
X0137100Y0078554D01*
X0137100Y0087446D01*
X0136046Y0088500D01*
X0127154Y0088500D01*
X0126100Y0087446D01*
X0126100Y0086278D01*
X0124715Y0087663D01*
X0122694Y0088500D01*
X0120506Y0088500D01*
X0118484Y0087663D01*
X0117137Y0086315D02*
X0029633Y0086315D01*
X0030129Y0085117D02*
X0116524Y0085117D01*
X0116100Y0083918D02*
X0030290Y0083918D01*
X0030290Y0082720D02*
X0116100Y0082720D01*
X0116259Y0081521D02*
X0030290Y0081521D01*
X0029897Y0080323D02*
X0116756Y0080323D01*
X0117698Y0079124D02*
X0029400Y0079124D01*
X0028815Y0077926D02*
X0119479Y0077926D01*
X0123721Y0077926D02*
X0126729Y0077926D01*
X0126100Y0079124D02*
X0125502Y0079124D01*
X0126063Y0086315D02*
X0126100Y0086315D01*
X0126168Y0087514D02*
X0124864Y0087514D01*
X0137032Y0087514D02*
X0149064Y0087514D01*
X0148567Y0086315D02*
X0137100Y0086315D01*
X0137100Y0085117D02*
X0148071Y0085117D01*
X0147910Y0083918D02*
X0137100Y0083918D01*
X0137100Y0082720D02*
X0147910Y0082720D01*
X0147910Y0081521D02*
X0137100Y0081521D01*
X0137100Y0080323D02*
X0148303Y0080323D01*
X0148800Y0079124D02*
X0137100Y0079124D01*
X0136471Y0077926D02*
X0149385Y0077926D01*
X0150584Y0076727D02*
X0027616Y0076727D01*
X0026270Y0075529D02*
X0151930Y0075529D01*
X0154824Y0074330D02*
X0023376Y0074330D01*
X0019824Y0074330D02*
X0003400Y0074330D01*
X0003400Y0075529D02*
X0016930Y0075529D01*
X0015584Y0076727D02*
X0003400Y0076727D01*
X0003400Y0077926D02*
X0014385Y0077926D01*
X0013800Y0079124D02*
X0003400Y0079124D01*
X0003400Y0080323D02*
X0013303Y0080323D01*
X0012910Y0081521D02*
X0003400Y0081521D01*
X0003400Y0082720D02*
X0012910Y0082720D01*
X0012910Y0083918D02*
X0003400Y0083918D01*
X0003400Y0085117D02*
X0013071Y0085117D01*
X0013567Y0086315D02*
X0003400Y0086315D01*
X0003400Y0087514D02*
X0014064Y0087514D01*
X0015023Y0088712D02*
X0003400Y0088712D01*
X0003400Y0089911D02*
X0016221Y0089911D01*
X0018470Y0091109D02*
X0003400Y0091109D01*
X0003400Y0092308D02*
X0183501Y0092308D01*
X0183501Y0093506D02*
X0003400Y0093506D01*
X0003400Y0094705D02*
X0183501Y0094705D01*
X0183501Y0095903D02*
X0003400Y0095903D01*
X0003400Y0097102D02*
X0183501Y0097102D01*
X0183501Y0098300D02*
X0003400Y0098300D01*
X0003400Y0099499D02*
X0183501Y0099499D01*
X0183501Y0100697D02*
X0003400Y0100697D01*
X0003400Y0101896D02*
X0183501Y0101896D01*
X0183501Y0103094D02*
X0003400Y0103094D01*
X0003400Y0104293D02*
X0183501Y0104293D01*
X0183501Y0105491D02*
X0003400Y0105491D01*
X0003400Y0106690D02*
X0183501Y0106690D01*
X0183501Y0107888D02*
X0003400Y0107888D01*
X0003400Y0109087D02*
X0183501Y0109087D01*
X0183501Y0110285D02*
X0003400Y0110285D01*
X0003400Y0111484D02*
X0183501Y0111484D01*
X0183501Y0112682D02*
X0003400Y0112682D01*
X0003400Y0113881D02*
X0183501Y0113881D01*
X0183501Y0115079D02*
X0138401Y0115079D01*
X0138519Y0115128D02*
X0139472Y0116081D01*
X0139987Y0117326D01*
X0139987Y0118674D01*
X0139472Y0119919D01*
X0138900Y0120491D01*
X0138900Y0128410D01*
X0139681Y0127628D01*
X0140926Y0127113D01*
X0142274Y0127113D01*
X0143519Y0127628D01*
X0144472Y0128581D01*
X0144987Y0129826D01*
X0144987Y0130210D01*
X0146304Y0131527D01*
X0146700Y0132483D01*
X0146700Y0156923D01*
X0153804Y0164027D01*
X0154200Y0164983D01*
X0154200Y0173124D01*
X0154715Y0173337D01*
X0156263Y0174884D01*
X0157100Y0176906D01*
X0157100Y0179094D01*
X0156263Y0181115D01*
X0154715Y0182663D01*
X0153901Y0183000D01*
X0154715Y0183337D01*
X0156263Y0184884D01*
X0157100Y0186906D01*
X0157100Y0189094D01*
X0156263Y0191115D01*
X0154715Y0192663D01*
X0152694Y0193500D01*
X0150506Y0193500D01*
X0148484Y0192663D01*
X0146937Y0191115D01*
X0146600Y0190301D01*
X0146263Y0191115D01*
X0144715Y0192663D01*
X0142694Y0193500D01*
X0140506Y0193500D01*
X0138484Y0192663D01*
X0136937Y0191115D01*
X0136600Y0190301D01*
X0136263Y0191115D01*
X0134715Y0192663D01*
X0132694Y0193500D01*
X0130506Y0193500D01*
X0128484Y0192663D01*
X0126937Y0191115D01*
X0126100Y0189094D01*
X0126100Y0186906D01*
X0126765Y0185300D01*
X0120647Y0185300D01*
X0115647Y0180300D01*
X0114300Y0178953D01*
X0114300Y0158953D01*
X0103147Y0147800D01*
X0102841Y0147800D01*
X0102269Y0148372D01*
X0101024Y0148887D01*
X0099676Y0148887D01*
X0098431Y0148372D01*
X0097478Y0147419D01*
X0096963Y0146174D01*
X0096963Y0144826D01*
X0097478Y0143581D01*
X0098431Y0142628D01*
X0099676Y0142113D01*
X0101024Y0142113D01*
X0102269Y0142628D01*
X0102841Y0143200D01*
X0105053Y0143200D01*
X0118900Y0157047D01*
X0118900Y0177047D01*
X0122553Y0180700D01*
X0136765Y0180700D01*
X0136100Y0179094D01*
X0136100Y0176906D01*
X0136937Y0174884D01*
X0138484Y0173337D01*
X0140506Y0172500D01*
X0142694Y0172500D01*
X0144715Y0173337D01*
X0146263Y0174884D01*
X0146600Y0175699D01*
X0146937Y0174884D01*
X0148484Y0173337D01*
X0149000Y0173124D01*
X0149000Y0166577D01*
X0141896Y0159473D01*
X0141500Y0158517D01*
X0141500Y0134077D01*
X0141310Y0133887D01*
X0140926Y0133887D01*
X0139681Y0133372D01*
X0138900Y0132590D01*
X0138900Y0163953D01*
X0133900Y0168953D01*
X0132553Y0170300D01*
X0127553Y0170300D01*
X0127487Y0170365D01*
X0127487Y0171174D01*
X0126972Y0172419D01*
X0126019Y0173372D01*
X0124774Y0173887D01*
X0123426Y0173887D01*
X0122181Y0173372D01*
X0121228Y0172419D01*
X0120713Y0171174D01*
X0120713Y0169826D01*
X0121228Y0168581D01*
X0122181Y0167628D01*
X0123426Y0167113D01*
X0124235Y0167113D01*
X0125647Y0165700D01*
X0130647Y0165700D01*
X0134300Y0162047D01*
X0134300Y0160090D01*
X0133519Y0160872D01*
X0132274Y0161387D01*
X0130926Y0161387D01*
X0129681Y0160872D01*
X0128728Y0159919D01*
X0128213Y0158674D01*
X0128213Y0157326D01*
X0128728Y0156081D01*
X0129300Y0155509D01*
X0129300Y0142637D01*
X0128426Y0142637D01*
X0127181Y0142122D01*
X0126700Y0141640D01*
X0126700Y0155809D01*
X0126972Y0156081D01*
X0127487Y0157326D01*
X0127487Y0158674D01*
X0126972Y0159919D01*
X0126019Y0160872D01*
X0124774Y0161387D01*
X0123426Y0161387D01*
X0122181Y0160872D01*
X0121228Y0159919D01*
X0120713Y0158674D01*
X0120713Y0157326D01*
X0121228Y0156081D01*
X0121500Y0155809D01*
X0121500Y0136233D01*
X0121896Y0135277D01*
X0126963Y0130210D01*
X0126963Y0129826D01*
X0127478Y0128581D01*
X0128431Y0127628D01*
X0129676Y0127113D01*
X0131024Y0127113D01*
X0132269Y0127628D01*
X0133222Y0128581D01*
X0133737Y0129826D01*
X0133737Y0131174D01*
X0133222Y0132419D01*
X0132269Y0133372D01*
X0131024Y0133887D01*
X0130640Y0133887D01*
X0128664Y0135863D01*
X0129774Y0135863D01*
X0131019Y0136378D01*
X0131972Y0137331D01*
X0132175Y0137823D01*
X0132650Y0138297D01*
X0133900Y0139547D01*
X0133900Y0155509D01*
X0134300Y0155910D01*
X0134300Y0120491D01*
X0133728Y0119919D01*
X0133213Y0118674D01*
X0133213Y0117326D01*
X0133728Y0116081D01*
X0134681Y0115128D01*
X0135926Y0114613D01*
X0137274Y0114613D01*
X0138519Y0115128D01*
X0139553Y0116278D02*
X0183501Y0116278D01*
X0183501Y0117476D02*
X0139987Y0117476D01*
X0139987Y0118675D02*
X0183501Y0118675D01*
X0183501Y0119873D02*
X0139490Y0119873D01*
X0138900Y0121072D02*
X0183501Y0121072D01*
X0183501Y0122270D02*
X0138900Y0122270D01*
X0138900Y0123469D02*
X0183501Y0123469D01*
X0183501Y0124668D02*
X0138900Y0124668D01*
X0138900Y0125866D02*
X0183501Y0125866D01*
X0183501Y0127065D02*
X0138900Y0127065D01*
X0138900Y0128263D02*
X0139046Y0128263D01*
X0138900Y0133057D02*
X0139367Y0133057D01*
X0138900Y0134256D02*
X0141500Y0134256D01*
X0141500Y0135454D02*
X0138900Y0135454D01*
X0138900Y0136653D02*
X0141500Y0136653D01*
X0141500Y0137851D02*
X0138900Y0137851D01*
X0138900Y0139050D02*
X0141500Y0139050D01*
X0141500Y0140248D02*
X0138900Y0140248D01*
X0138900Y0141447D02*
X0141500Y0141447D01*
X0141500Y0142645D02*
X0138900Y0142645D01*
X0138900Y0143844D02*
X0141500Y0143844D01*
X0141500Y0145042D02*
X0138900Y0145042D01*
X0138900Y0146241D02*
X0141500Y0146241D01*
X0141500Y0147439D02*
X0138900Y0147439D01*
X0138900Y0148638D02*
X0141500Y0148638D01*
X0141500Y0149836D02*
X0138900Y0149836D01*
X0138900Y0151035D02*
X0141500Y0151035D01*
X0141500Y0152233D02*
X0138900Y0152233D01*
X0138900Y0153432D02*
X0141500Y0153432D01*
X0141500Y0154630D02*
X0138900Y0154630D01*
X0138900Y0155829D02*
X0141500Y0155829D01*
X0141500Y0157027D02*
X0138900Y0157027D01*
X0138900Y0158226D02*
X0141500Y0158226D01*
X0141876Y0159424D02*
X0138900Y0159424D01*
X0138900Y0160623D02*
X0143046Y0160623D01*
X0144244Y0161821D02*
X0138900Y0161821D01*
X0138900Y0163020D02*
X0145443Y0163020D01*
X0146641Y0164218D02*
X0138634Y0164218D01*
X0137436Y0165417D02*
X0147840Y0165417D01*
X0149000Y0166615D02*
X0136237Y0166615D01*
X0135039Y0167814D02*
X0149000Y0167814D01*
X0149000Y0169012D02*
X0133840Y0169012D01*
X0132642Y0170211D02*
X0149000Y0170211D01*
X0149000Y0171409D02*
X0127390Y0171409D01*
X0126783Y0172608D02*
X0140245Y0172608D01*
X0142955Y0172608D02*
X0149000Y0172608D01*
X0148015Y0173806D02*
X0145185Y0173806D01*
X0146313Y0175005D02*
X0146887Y0175005D01*
X0154200Y0172608D02*
X0183501Y0172608D01*
X0183501Y0173806D02*
X0155185Y0173806D01*
X0156313Y0175005D02*
X0183501Y0175005D01*
X0183501Y0176203D02*
X0156809Y0176203D01*
X0157100Y0177402D02*
X0183501Y0177402D01*
X0183501Y0178601D02*
X0157100Y0178601D01*
X0156808Y0179799D02*
X0183501Y0179799D01*
X0183501Y0180998D02*
X0156312Y0180998D01*
X0155182Y0182196D02*
X0183501Y0182196D01*
X0183501Y0183395D02*
X0154773Y0183395D01*
X0155971Y0184593D02*
X0183501Y0184593D01*
X0183501Y0185792D02*
X0156638Y0185792D01*
X0157100Y0186990D02*
X0183501Y0186990D01*
X0183501Y0188189D02*
X0157100Y0188189D01*
X0156979Y0189387D02*
X0183501Y0189387D01*
X0183501Y0190586D02*
X0156482Y0190586D01*
X0155594Y0191784D02*
X0183501Y0191784D01*
X0183501Y0192983D02*
X0153943Y0192983D01*
X0149257Y0192983D02*
X0143943Y0192983D01*
X0145594Y0191784D02*
X0147606Y0191784D01*
X0146718Y0190586D02*
X0146482Y0190586D01*
X0139257Y0192983D02*
X0133943Y0192983D01*
X0135594Y0191784D02*
X0137606Y0191784D01*
X0136718Y0190586D02*
X0136482Y0190586D01*
X0129257Y0192983D02*
X0003400Y0192983D01*
X0003400Y0194181D02*
X0183501Y0194181D01*
X0183501Y0195380D02*
X0003400Y0195380D01*
X0003400Y0196578D02*
X0183501Y0196578D01*
X0183501Y0197777D02*
X0003400Y0197777D01*
X0003400Y0198975D02*
X0183501Y0198975D01*
X0183501Y0200174D02*
X0003400Y0200174D01*
X0003400Y0201372D02*
X0183501Y0201372D01*
X0183501Y0202571D02*
X0003400Y0202571D01*
X0003400Y0203769D02*
X0183501Y0203769D01*
X0183501Y0204968D02*
X0110631Y0204968D01*
X0111019Y0205128D02*
X0111972Y0206081D01*
X0112487Y0207326D01*
X0112487Y0208674D01*
X0111972Y0209919D01*
X0111019Y0210872D01*
X0109774Y0211387D01*
X0108426Y0211387D01*
X0107181Y0210872D01*
X0106609Y0210300D01*
X0046303Y0210300D01*
X0044987Y0211615D01*
X0044987Y0212424D01*
X0044472Y0213669D01*
X0043519Y0214622D01*
X0042274Y0215137D01*
X0040926Y0215137D01*
X0039681Y0214622D01*
X0038728Y0213669D01*
X0038213Y0212424D01*
X0038213Y0211076D01*
X0038728Y0209831D01*
X0039681Y0208878D01*
X0040926Y0208363D01*
X0041735Y0208363D01*
X0044397Y0205700D01*
X0106609Y0205700D01*
X0107181Y0205128D01*
X0108426Y0204613D01*
X0109774Y0204613D01*
X0111019Y0205128D01*
X0112007Y0206166D02*
X0183501Y0206166D01*
X0183501Y0207365D02*
X0112487Y0207365D01*
X0112487Y0208563D02*
X0183501Y0208563D01*
X0183501Y0209762D02*
X0112037Y0209762D01*
X0110805Y0210960D02*
X0183501Y0210960D01*
X0183501Y0212159D02*
X0044987Y0212159D01*
X0044601Y0213357D02*
X0183501Y0213357D01*
X0183501Y0214556D02*
X0043585Y0214556D01*
X0045642Y0210960D02*
X0107395Y0210960D01*
X0107569Y0204968D02*
X0003400Y0204968D01*
X0003400Y0206166D02*
X0043931Y0206166D01*
X0042733Y0207365D02*
X0003400Y0207365D01*
X0003400Y0208563D02*
X0040442Y0208563D01*
X0038798Y0209762D02*
X0003400Y0209762D01*
X0003400Y0210960D02*
X0038261Y0210960D01*
X0038213Y0212159D02*
X0003400Y0212159D01*
X0003400Y0213357D02*
X0038599Y0213357D01*
X0039615Y0214556D02*
X0003400Y0214556D01*
X0003400Y0215754D02*
X0183501Y0215754D01*
X0183501Y0216953D02*
X0003400Y0216953D01*
X0003400Y0218151D02*
X0183501Y0218151D01*
X0183501Y0219350D02*
X0003400Y0219350D01*
X0003400Y0220548D02*
X0183501Y0220548D01*
X0183501Y0221747D02*
X0003400Y0221747D01*
X0003400Y0222945D02*
X0183501Y0222945D01*
X0183501Y0224144D02*
X0003400Y0224144D01*
X0003400Y0225342D02*
X0183501Y0225342D01*
X0183501Y0226541D02*
X0003400Y0226541D01*
X0003400Y0227739D02*
X0183501Y0227739D01*
X0183501Y0228938D02*
X0003400Y0228938D01*
X0003400Y0230137D02*
X0183501Y0230137D01*
X0183501Y0231335D02*
X0003400Y0231335D01*
X0003400Y0232534D02*
X0183501Y0232534D01*
X0183501Y0233732D02*
X0003400Y0233732D01*
X0003400Y0234931D02*
X0183501Y0234931D01*
X0183501Y0236129D02*
X0003400Y0236129D01*
X0003400Y0237328D02*
X0183501Y0237328D01*
X0183501Y0238526D02*
X0003400Y0238526D01*
X0003400Y0239725D02*
X0183501Y0239725D01*
X0183501Y0240923D02*
X0003400Y0240923D01*
X0003400Y0242122D02*
X0183501Y0242122D01*
X0183501Y0243320D02*
X0003400Y0243320D01*
X0003400Y0244519D02*
X0019368Y0244519D01*
X0019871Y0244310D02*
X0023328Y0244310D01*
X0026522Y0245633D01*
X0028967Y0248078D01*
X0030290Y0251271D01*
X0030290Y0254728D01*
X0028967Y0257922D01*
X0026522Y0260367D01*
X0023328Y0261690D01*
X0019871Y0261690D01*
X0016678Y0260367D01*
X0014233Y0257922D01*
X0012910Y0254728D01*
X0012910Y0251271D01*
X0014233Y0248078D01*
X0016678Y0245633D01*
X0019871Y0244310D01*
X0016594Y0245717D02*
X0003400Y0245717D01*
X0003400Y0246916D02*
X0015395Y0246916D01*
X0014218Y0248114D02*
X0003400Y0248114D01*
X0003400Y0249313D02*
X0013722Y0249313D01*
X0013225Y0250511D02*
X0003400Y0250511D01*
X0003400Y0251710D02*
X0012910Y0251710D01*
X0012910Y0252908D02*
X0003400Y0252908D01*
X0003400Y0254107D02*
X0012910Y0254107D01*
X0013149Y0255305D02*
X0003400Y0255305D01*
X0003400Y0256504D02*
X0013646Y0256504D01*
X0014142Y0257702D02*
X0003400Y0257702D01*
X0003400Y0258901D02*
X0015212Y0258901D01*
X0016410Y0260099D02*
X0003400Y0260099D01*
X0003400Y0261298D02*
X0018925Y0261298D01*
X0024275Y0261298D02*
X0153925Y0261298D01*
X0154871Y0261690D02*
X0151678Y0260367D01*
X0149233Y0257922D01*
X0147910Y0254728D01*
X0147910Y0251271D01*
X0149233Y0248078D01*
X0151678Y0245633D01*
X0154871Y0244310D01*
X0158328Y0244310D01*
X0161522Y0245633D01*
X0163967Y0248078D01*
X0165290Y0251271D01*
X0165290Y0254728D01*
X0163967Y0257922D01*
X0161522Y0260367D01*
X0158328Y0261690D01*
X0154871Y0261690D01*
X0151410Y0260099D02*
X0026790Y0260099D01*
X0027988Y0258901D02*
X0150212Y0258901D01*
X0149142Y0257702D02*
X0092247Y0257702D01*
X0092244Y0257705D02*
X0090204Y0258550D01*
X0087996Y0258550D01*
X0085956Y0257705D01*
X0084395Y0256144D01*
X0083550Y0254104D01*
X0083550Y0251896D01*
X0084395Y0249856D01*
X0085956Y0248295D01*
X0087996Y0247450D01*
X0090204Y0247450D01*
X0092244Y0248295D01*
X0093805Y0249856D01*
X0094650Y0251896D01*
X0094650Y0254104D01*
X0093805Y0256144D01*
X0092244Y0257705D01*
X0093445Y0256504D02*
X0148646Y0256504D01*
X0148149Y0255305D02*
X0094152Y0255305D01*
X0094649Y0254107D02*
X0147910Y0254107D01*
X0147910Y0252908D02*
X0094650Y0252908D01*
X0094573Y0251710D02*
X0147910Y0251710D01*
X0148225Y0250511D02*
X0094076Y0250511D01*
X0093262Y0249313D02*
X0148722Y0249313D01*
X0149218Y0248114D02*
X0091807Y0248114D01*
X0086393Y0248114D02*
X0028982Y0248114D01*
X0029478Y0249313D02*
X0084938Y0249313D01*
X0084124Y0250511D02*
X0029975Y0250511D01*
X0030290Y0251710D02*
X0083627Y0251710D01*
X0083550Y0252908D02*
X0030290Y0252908D01*
X0030290Y0254107D02*
X0083551Y0254107D01*
X0084048Y0255305D02*
X0030051Y0255305D01*
X0029554Y0256504D02*
X0084755Y0256504D01*
X0085953Y0257702D02*
X0029058Y0257702D01*
X0027805Y0246916D02*
X0150395Y0246916D01*
X0151594Y0245717D02*
X0026606Y0245717D01*
X0023832Y0244519D02*
X0154368Y0244519D01*
X0158832Y0244519D02*
X0183501Y0244519D01*
X0183501Y0245717D02*
X0161606Y0245717D01*
X0162805Y0246916D02*
X0183501Y0246916D01*
X0183501Y0248114D02*
X0163982Y0248114D01*
X0164478Y0249313D02*
X0183501Y0249313D01*
X0183501Y0250511D02*
X0164975Y0250511D01*
X0165290Y0251710D02*
X0183501Y0251710D01*
X0183501Y0252908D02*
X0165290Y0252908D01*
X0165290Y0254107D02*
X0183501Y0254107D01*
X0183501Y0255305D02*
X0165051Y0255305D01*
X0164554Y0256504D02*
X0183501Y0256504D01*
X0183501Y0257702D02*
X0164058Y0257702D01*
X0162988Y0258901D02*
X0183501Y0258901D01*
X0183501Y0260099D02*
X0161790Y0260099D01*
X0159275Y0261298D02*
X0183501Y0261298D01*
X0183501Y0262496D02*
X0003400Y0262496D01*
X0003400Y0263695D02*
X0183501Y0263695D01*
X0183501Y0264893D02*
X0003400Y0264893D01*
X0003400Y0266092D02*
X0183501Y0266092D01*
X0183501Y0267290D02*
X0003400Y0267290D01*
X0003400Y0268489D02*
X0183501Y0268489D01*
X0136392Y0179799D02*
X0121652Y0179799D01*
X0120453Y0178601D02*
X0136100Y0178601D01*
X0136100Y0177402D02*
X0119255Y0177402D01*
X0118900Y0176203D02*
X0136391Y0176203D01*
X0136887Y0175005D02*
X0118900Y0175005D01*
X0118900Y0173806D02*
X0123231Y0173806D01*
X0124969Y0173806D02*
X0138015Y0173806D01*
X0130930Y0165417D02*
X0118900Y0165417D01*
X0118900Y0166615D02*
X0124732Y0166615D01*
X0121996Y0167814D02*
X0118900Y0167814D01*
X0118900Y0169012D02*
X0121050Y0169012D01*
X0120713Y0170211D02*
X0118900Y0170211D01*
X0118900Y0171409D02*
X0120810Y0171409D01*
X0121417Y0172608D02*
X0118900Y0172608D01*
X0114300Y0172608D02*
X0111783Y0172608D01*
X0111972Y0172419D02*
X0111019Y0173372D01*
X0109774Y0173887D01*
X0108426Y0173887D01*
X0107181Y0173372D01*
X0106609Y0172800D01*
X0091591Y0172800D01*
X0091019Y0173372D01*
X0089774Y0173887D01*
X0088426Y0173887D01*
X0087181Y0173372D01*
X0086228Y0172419D01*
X0085713Y0171174D01*
X0085713Y0169826D01*
X0086228Y0168581D01*
X0087181Y0167628D01*
X0088426Y0167113D01*
X0089774Y0167113D01*
X0091019Y0167628D01*
X0091591Y0168200D01*
X0106609Y0168200D01*
X0107181Y0167628D01*
X0108426Y0167113D01*
X0109774Y0167113D01*
X0111019Y0167628D01*
X0111972Y0168581D01*
X0112487Y0169826D01*
X0112487Y0171174D01*
X0111972Y0172419D01*
X0112390Y0171409D02*
X0114300Y0171409D01*
X0114300Y0170211D02*
X0112487Y0170211D01*
X0112150Y0169012D02*
X0114300Y0169012D01*
X0114300Y0167814D02*
X0111204Y0167814D01*
X0114300Y0166615D02*
X0003400Y0166615D01*
X0003400Y0165417D02*
X0114300Y0165417D01*
X0114300Y0164218D02*
X0003400Y0164218D01*
X0003400Y0163020D02*
X0114300Y0163020D01*
X0114300Y0161821D02*
X0003400Y0161821D01*
X0003400Y0160623D02*
X0114300Y0160623D01*
X0114300Y0159424D02*
X0003400Y0159424D01*
X0003400Y0158226D02*
X0113573Y0158226D01*
X0112375Y0157027D02*
X0003400Y0157027D01*
X0003400Y0155829D02*
X0111176Y0155829D01*
X0109978Y0154630D02*
X0003400Y0154630D01*
X0003400Y0153432D02*
X0108779Y0153432D01*
X0107581Y0152233D02*
X0003400Y0152233D01*
X0003400Y0151035D02*
X0106382Y0151035D01*
X0105184Y0149836D02*
X0003400Y0149836D01*
X0003400Y0148638D02*
X0099073Y0148638D01*
X0097499Y0147439D02*
X0003400Y0147439D01*
X0003400Y0146241D02*
X0096990Y0146241D01*
X0096963Y0145042D02*
X0003400Y0145042D01*
X0003400Y0143844D02*
X0097370Y0143844D01*
X0098414Y0142645D02*
X0003400Y0142645D01*
X0003400Y0141447D02*
X0121500Y0141447D01*
X0121500Y0142645D02*
X0102286Y0142645D01*
X0105696Y0143844D02*
X0121500Y0143844D01*
X0121500Y0145042D02*
X0106895Y0145042D01*
X0108093Y0146241D02*
X0121500Y0146241D01*
X0121500Y0147439D02*
X0109292Y0147439D01*
X0110490Y0148638D02*
X0121500Y0148638D01*
X0121500Y0149836D02*
X0111689Y0149836D01*
X0112887Y0151035D02*
X0121500Y0151035D01*
X0121500Y0152233D02*
X0114086Y0152233D01*
X0115284Y0153432D02*
X0121500Y0153432D01*
X0121500Y0154630D02*
X0116483Y0154630D01*
X0117681Y0155829D02*
X0121481Y0155829D01*
X0120836Y0157027D02*
X0118880Y0157027D01*
X0118900Y0158226D02*
X0120713Y0158226D01*
X0121023Y0159424D02*
X0118900Y0159424D01*
X0118900Y0160623D02*
X0121932Y0160623D01*
X0118900Y0161821D02*
X0134300Y0161821D01*
X0134300Y0160623D02*
X0133768Y0160623D01*
X0133327Y0163020D02*
X0118900Y0163020D01*
X0118900Y0164218D02*
X0132129Y0164218D01*
X0129432Y0160623D02*
X0126268Y0160623D01*
X0127177Y0159424D02*
X0128523Y0159424D01*
X0128213Y0158226D02*
X0127487Y0158226D01*
X0127364Y0157027D02*
X0128336Y0157027D01*
X0128981Y0155829D02*
X0126719Y0155829D01*
X0126700Y0154630D02*
X0129300Y0154630D01*
X0129300Y0153432D02*
X0126700Y0153432D01*
X0126700Y0152233D02*
X0129300Y0152233D01*
X0129300Y0151035D02*
X0126700Y0151035D01*
X0126700Y0149836D02*
X0129300Y0149836D01*
X0129300Y0148638D02*
X0126700Y0148638D01*
X0126700Y0147439D02*
X0129300Y0147439D01*
X0129300Y0146241D02*
X0126700Y0146241D01*
X0126700Y0145042D02*
X0129300Y0145042D01*
X0129300Y0143844D02*
X0126700Y0143844D01*
X0126700Y0142645D02*
X0129300Y0142645D01*
X0132204Y0137851D02*
X0134300Y0137851D01*
X0134300Y0136653D02*
X0131293Y0136653D01*
X0129073Y0135454D02*
X0134300Y0135454D01*
X0134300Y0134256D02*
X0130271Y0134256D01*
X0132583Y0133057D02*
X0134300Y0133057D01*
X0134300Y0131859D02*
X0133454Y0131859D01*
X0133737Y0130660D02*
X0134300Y0130660D01*
X0134300Y0129462D02*
X0133586Y0129462D01*
X0132904Y0128263D02*
X0134300Y0128263D01*
X0134300Y0127065D02*
X0003400Y0127065D01*
X0003400Y0128263D02*
X0127796Y0128263D01*
X0127114Y0129462D02*
X0003400Y0129462D01*
X0003400Y0130660D02*
X0126513Y0130660D01*
X0125314Y0131859D02*
X0003400Y0131859D01*
X0003400Y0133057D02*
X0124116Y0133057D01*
X0122917Y0134256D02*
X0003400Y0134256D01*
X0003400Y0135454D02*
X0121823Y0135454D01*
X0121500Y0136653D02*
X0003400Y0136653D01*
X0003400Y0137851D02*
X0121500Y0137851D01*
X0121500Y0139050D02*
X0003400Y0139050D01*
X0003400Y0140248D02*
X0121500Y0140248D01*
X0133402Y0139050D02*
X0134300Y0139050D01*
X0134300Y0140248D02*
X0133900Y0140248D01*
X0133900Y0141447D02*
X0134300Y0141447D01*
X0134300Y0142645D02*
X0133900Y0142645D01*
X0133900Y0143844D02*
X0134300Y0143844D01*
X0134300Y0145042D02*
X0133900Y0145042D01*
X0133900Y0146241D02*
X0134300Y0146241D01*
X0134300Y0147439D02*
X0133900Y0147439D01*
X0133900Y0148638D02*
X0134300Y0148638D01*
X0134300Y0149836D02*
X0133900Y0149836D01*
X0133900Y0151035D02*
X0134300Y0151035D01*
X0134300Y0152233D02*
X0133900Y0152233D01*
X0133900Y0153432D02*
X0134300Y0153432D01*
X0134300Y0154630D02*
X0133900Y0154630D01*
X0134219Y0155829D02*
X0134300Y0155829D01*
X0146700Y0155829D02*
X0183501Y0155829D01*
X0183501Y0157027D02*
X0146804Y0157027D01*
X0148003Y0158226D02*
X0183501Y0158226D01*
X0183501Y0159424D02*
X0149201Y0159424D01*
X0150400Y0160623D02*
X0183501Y0160623D01*
X0183501Y0161821D02*
X0151598Y0161821D01*
X0152797Y0163020D02*
X0183501Y0163020D01*
X0183501Y0164218D02*
X0153883Y0164218D01*
X0154200Y0165417D02*
X0183501Y0165417D01*
X0183501Y0166615D02*
X0154200Y0166615D01*
X0154200Y0167814D02*
X0183501Y0167814D01*
X0183501Y0169012D02*
X0154200Y0169012D01*
X0154200Y0170211D02*
X0183501Y0170211D01*
X0183501Y0171409D02*
X0154200Y0171409D01*
X0146700Y0154630D02*
X0183501Y0154630D01*
X0183501Y0153432D02*
X0146700Y0153432D01*
X0146700Y0152233D02*
X0183501Y0152233D01*
X0183501Y0151035D02*
X0146700Y0151035D01*
X0146700Y0149836D02*
X0183501Y0149836D01*
X0183501Y0148638D02*
X0146700Y0148638D01*
X0146700Y0147439D02*
X0183501Y0147439D01*
X0183501Y0146241D02*
X0146700Y0146241D01*
X0146700Y0145042D02*
X0183501Y0145042D01*
X0183501Y0143844D02*
X0146700Y0143844D01*
X0146700Y0142645D02*
X0183501Y0142645D01*
X0183501Y0141447D02*
X0146700Y0141447D01*
X0146700Y0140248D02*
X0183501Y0140248D01*
X0183501Y0139050D02*
X0146700Y0139050D01*
X0146700Y0137851D02*
X0183501Y0137851D01*
X0183501Y0136653D02*
X0146700Y0136653D01*
X0146700Y0135454D02*
X0183501Y0135454D01*
X0183501Y0134256D02*
X0146700Y0134256D01*
X0146700Y0133057D02*
X0183501Y0133057D01*
X0183501Y0131859D02*
X0146441Y0131859D01*
X0145437Y0130660D02*
X0183501Y0130660D01*
X0183501Y0129462D02*
X0144836Y0129462D01*
X0144154Y0128263D02*
X0183501Y0128263D01*
X0134799Y0115079D02*
X0003400Y0115079D01*
X0003400Y0116278D02*
X0133647Y0116278D01*
X0133213Y0117476D02*
X0003400Y0117476D01*
X0003400Y0118675D02*
X0133213Y0118675D01*
X0133710Y0119873D02*
X0003400Y0119873D01*
X0003400Y0121072D02*
X0134300Y0121072D01*
X0134300Y0122270D02*
X0003400Y0122270D01*
X0003400Y0123469D02*
X0134300Y0123469D01*
X0134300Y0124668D02*
X0003400Y0124668D01*
X0003400Y0125866D02*
X0134300Y0125866D01*
X0106996Y0167814D02*
X0091204Y0167814D01*
X0089969Y0173806D02*
X0108231Y0173806D01*
X0109969Y0173806D02*
X0114300Y0173806D01*
X0114300Y0175005D02*
X0003400Y0175005D01*
X0003400Y0176203D02*
X0114300Y0176203D01*
X0114300Y0177402D02*
X0003400Y0177402D01*
X0003400Y0178601D02*
X0114300Y0178601D01*
X0115146Y0179799D02*
X0003400Y0179799D01*
X0003400Y0180998D02*
X0116345Y0180998D01*
X0117543Y0182196D02*
X0003400Y0182196D01*
X0003400Y0183395D02*
X0118742Y0183395D01*
X0119940Y0184593D02*
X0112741Y0184593D01*
X0112313Y0184416D02*
X0113630Y0184961D01*
X0114639Y0185970D01*
X0115184Y0187287D01*
X0115184Y0188713D01*
X0114639Y0190030D01*
X0113630Y0191039D01*
X0112313Y0191584D01*
X0110887Y0191584D01*
X0109570Y0191039D01*
X0108831Y0190300D01*
X0099369Y0190300D01*
X0098630Y0191039D01*
X0097313Y0191584D01*
X0095887Y0191584D01*
X0094570Y0191039D01*
X0093561Y0190030D01*
X0093016Y0188713D01*
X0093016Y0187287D01*
X0093561Y0185970D01*
X0094570Y0184961D01*
X0095887Y0184416D01*
X0097313Y0184416D01*
X0098630Y0184961D01*
X0099369Y0185700D01*
X0108831Y0185700D01*
X0109570Y0184961D01*
X0110887Y0184416D01*
X0112313Y0184416D01*
X0110459Y0184593D02*
X0097741Y0184593D01*
X0095459Y0184593D02*
X0003400Y0184593D01*
X0003400Y0185792D02*
X0093740Y0185792D01*
X0093139Y0186990D02*
X0003400Y0186990D01*
X0003400Y0188189D02*
X0093016Y0188189D01*
X0093295Y0189387D02*
X0003400Y0189387D01*
X0003400Y0190586D02*
X0094117Y0190586D01*
X0099083Y0190586D02*
X0109117Y0190586D01*
X0114083Y0190586D02*
X0126718Y0190586D01*
X0126221Y0189387D02*
X0114905Y0189387D01*
X0115184Y0188189D02*
X0126100Y0188189D01*
X0126100Y0186990D02*
X0115061Y0186990D01*
X0114460Y0185792D02*
X0126562Y0185792D01*
X0127606Y0191784D02*
X0003400Y0191784D01*
X0003400Y0173806D02*
X0088231Y0173806D01*
X0086417Y0172608D02*
X0003400Y0172608D01*
X0003400Y0171409D02*
X0085810Y0171409D01*
X0085713Y0170211D02*
X0003400Y0170211D01*
X0003400Y0169012D02*
X0086050Y0169012D01*
X0086996Y0167814D02*
X0003400Y0167814D01*
X0101627Y0148638D02*
X0103985Y0148638D01*
D16*
X0100350Y0145500D03*
X0110350Y0121750D03*
X0130350Y0130500D03*
X0129100Y0139250D03*
X0141600Y0130500D03*
X0136600Y0118000D03*
X0160350Y0124250D03*
X0160350Y0131750D03*
X0180350Y0164250D03*
X0180350Y0174250D03*
X0180350Y0184250D03*
X0180350Y0194250D03*
X0180350Y0204250D03*
X0180350Y0214250D03*
X0180350Y0224250D03*
X0180350Y0234250D03*
X0180350Y0244250D03*
X0180350Y0254250D03*
X0180350Y0263000D03*
X0170350Y0251750D03*
X0166600Y0263000D03*
X0151600Y0263000D03*
X0141600Y0263000D03*
X0141600Y0251750D03*
X0144100Y0238000D03*
X0140350Y0226750D03*
X0145350Y0223000D03*
X0149100Y0219250D03*
X0154100Y0228000D03*
X0155350Y0219250D03*
X0162850Y0219250D03*
X0169100Y0229250D03*
X0170350Y0236750D03*
X0160350Y0236750D03*
X0171600Y0219250D03*
X0135350Y0223000D03*
X0129100Y0219250D03*
X0121600Y0219250D03*
X0120350Y0229250D03*
X0116600Y0239250D03*
X0121600Y0249250D03*
X0121600Y0263000D03*
X0131600Y0263000D03*
X0131600Y0246750D03*
X0129100Y0234250D03*
X0112850Y0219250D03*
X0109100Y0208000D03*
X0104100Y0219250D03*
X0104100Y0228000D03*
X0095350Y0234250D03*
X0094100Y0228000D03*
X0091600Y0223000D03*
X0096600Y0219250D03*
X0086600Y0219250D03*
X0082850Y0231750D03*
X0075350Y0231750D03*
X0069100Y0235500D03*
X0069100Y0244250D03*
X0069100Y0254250D03*
X0069100Y0263000D03*
X0060350Y0263000D03*
X0051600Y0263000D03*
X0049100Y0250500D03*
X0040350Y0251750D03*
X0039100Y0243000D03*
X0030350Y0243000D03*
X0031600Y0235500D03*
X0021600Y0235500D03*
X0012850Y0219250D03*
X0006600Y0223000D03*
X0006600Y0213000D03*
X0012850Y0205500D03*
X0006600Y0203000D03*
X0006600Y0193000D03*
X0012850Y0189250D03*
X0006600Y0183000D03*
X0006600Y0173000D03*
X0012850Y0169250D03*
X0006600Y0163000D03*
X0006600Y0153000D03*
X0012850Y0144250D03*
X0041600Y0211750D03*
X0054100Y0240500D03*
X0060350Y0248000D03*
X0041600Y0263000D03*
X0031600Y0263000D03*
X0006600Y0263000D03*
X0006600Y0253000D03*
X0006600Y0243000D03*
X0006600Y0233000D03*
X0089100Y0170500D03*
X0091600Y0178000D03*
X0091600Y0183000D03*
X0109100Y0170500D03*
X0124100Y0170500D03*
X0124100Y0158000D03*
X0131600Y0158000D03*
X0106600Y0249250D03*
X0110350Y0256750D03*
X0111600Y0263000D03*
D17*
X0109100Y0208000D02*
X0045350Y0208000D01*
X0041600Y0211750D01*
X0089100Y0170500D02*
X0109100Y0170500D01*
X0116600Y0178000D02*
X0116600Y0158000D01*
X0104100Y0145500D01*
X0100350Y0145500D01*
X0116600Y0178000D02*
X0121600Y0183000D01*
X0136600Y0183000D01*
X0141600Y0188000D01*
X0131600Y0168000D02*
X0126600Y0168000D01*
X0124100Y0170500D01*
X0131600Y0168000D02*
X0136600Y0163000D01*
X0136600Y0118000D01*
X0130350Y0139250D02*
X0129100Y0139250D01*
X0130350Y0139250D02*
X0131600Y0140500D01*
X0131600Y0158000D01*
X0111600Y0188000D02*
X0096600Y0188000D01*
D18*
X0124100Y0158000D02*
X0124100Y0136750D01*
X0130350Y0130500D01*
X0141600Y0130500D02*
X0144100Y0133000D01*
X0144100Y0158000D01*
X0151600Y0165500D01*
X0151600Y0178000D01*
D19*
X0111600Y0188000D03*
X0096600Y0188000D03*
M02*
