<?xml version="1.0" encoding="utf-8"?>
<!DOCTYPE eagle SYSTEM "eagle.dtd">
<eagle version="6.5.0">
<drawing>
<settings>
<setting alwaysvectorfont="no"/>
<setting verticaltext="up"/>
</settings>
<grid distance="0.1" unitdist="inch" unit="inch" style="lines" multiple="1" display="no" altdistance="0.01" altunitdist="inch" altunit="inch"/>
<layers>
<layer number="1" name="Top" color="4" fill="1" visible="no" active="no"/>
<layer number="16" name="Bottom" color="1" fill="1" visible="no" active="no"/>
<layer number="17" name="Pads" color="2" fill="1" visible="no" active="no"/>
<layer number="18" name="Vias" color="2" fill="1" visible="no" active="no"/>
<layer number="19" name="Unrouted" color="6" fill="1" visible="no" active="no"/>
<layer number="20" name="Dimension" color="15" fill="1" visible="no" active="no"/>
<layer number="21" name="tPlace" color="7" fill="1" visible="no" active="no"/>
<layer number="22" name="bPlace" color="7" fill="1" visible="no" active="no"/>
<layer number="23" name="tOrigins" color="15" fill="1" visible="no" active="no"/>
<layer number="24" name="bOrigins" color="15" fill="1" visible="no" active="no"/>
<layer number="25" name="tNames" color="7" fill="1" visible="no" active="no"/>
<layer number="26" name="bNames" color="7" fill="1" visible="no" active="no"/>
<layer number="27" name="tValues" color="7" fill="1" visible="no" active="no"/>
<layer number="28" name="bValues" color="7" fill="1" visible="no" active="no"/>
<layer number="29" name="tStop" color="7" fill="3" visible="no" active="no"/>
<layer number="30" name="bStop" color="7" fill="6" visible="no" active="no"/>
<layer number="31" name="tCream" color="7" fill="4" visible="no" active="no"/>
<layer number="32" name="bCream" color="7" fill="5" visible="no" active="no"/>
<layer number="33" name="tFinish" color="6" fill="3" visible="no" active="no"/>
<layer number="34" name="bFinish" color="6" fill="6" visible="no" active="no"/>
<layer number="35" name="tGlue" color="7" fill="4" visible="no" active="no"/>
<layer number="36" name="bGlue" color="7" fill="5" visible="no" active="no"/>
<layer number="37" name="tTest" color="7" fill="1" visible="no" active="no"/>
<layer number="38" name="bTest" color="7" fill="1" visible="no" active="no"/>
<layer number="39" name="tKeepout" color="4" fill="11" visible="no" active="no"/>
<layer number="40" name="bKeepout" color="1" fill="11" visible="no" active="no"/>
<layer number="41" name="tRestrict" color="4" fill="10" visible="no" active="no"/>
<layer number="42" name="bRestrict" color="1" fill="10" visible="no" active="no"/>
<layer number="43" name="vRestrict" color="2" fill="10" visible="no" active="no"/>
<layer number="44" name="Drills" color="7" fill="1" visible="no" active="no"/>
<layer number="45" name="Holes" color="7" fill="1" visible="no" active="no"/>
<layer number="46" name="Milling" color="3" fill="1" visible="no" active="no"/>
<layer number="47" name="Measures" color="7" fill="1" visible="no" active="no"/>
<layer number="48" name="Document" color="7" fill="1" visible="no" active="no"/>
<layer number="49" name="Reference" color="7" fill="1" visible="no" active="no"/>
<layer number="50" name="dxf" color="7" fill="1" visible="no" active="no"/>
<layer number="51" name="tDocu" color="7" fill="1" visible="no" active="no"/>
<layer number="52" name="bDocu" color="7" fill="1" visible="no" active="no"/>
<layer number="53" name="tGND_GNDA" color="7" fill="9" visible="no" active="no"/>
<layer number="54" name="bGND_GNDA" color="1" fill="9" visible="no" active="no"/>
<layer number="56" name="wert" color="7" fill="1" visible="no" active="no"/>
<layer number="57" name="tCAD" color="7" fill="1" visible="no" active="no"/>
<layer number="59" name="tCarbon" color="7" fill="1" visible="no" active="no"/>
<layer number="60" name="bCarbon" color="7" fill="1" visible="no" active="no"/>
<layer number="90" name="Modules" color="5" fill="1" visible="yes" active="yes"/>
<layer number="91" name="Nets" color="2" fill="1" visible="yes" active="yes"/>
<layer number="92" name="Busses" color="1" fill="1" visible="yes" active="yes"/>
<layer number="93" name="Pins" color="2" fill="1" visible="no" active="yes"/>
<layer number="94" name="Symbols" color="4" fill="1" visible="yes" active="yes"/>
<layer number="95" name="Names" color="7" fill="1" visible="yes" active="yes"/>
<layer number="96" name="Values" color="7" fill="1" visible="yes" active="yes"/>
<layer number="97" name="Info" color="7" fill="1" visible="yes" active="yes"/>
<layer number="98" name="Guide" color="6" fill="1" visible="yes" active="yes"/>
<layer number="99" name="SpiceOrder" color="7" fill="1" visible="yes" active="yes"/>
<layer number="100" name="Muster" color="7" fill="1" visible="no" active="no"/>
<layer number="101" name="Patch_Top" color="12" fill="4" visible="no" active="yes"/>
<layer number="102" name="Vscore" color="7" fill="1" visible="no" active="yes"/>
<layer number="103" name="tMap" color="7" fill="1" visible="no" active="yes"/>
<layer number="104" name="Name" color="16" fill="1" visible="no" active="yes"/>
<layer number="105" name="tPlate" color="7" fill="1" visible="no" active="yes"/>
<layer number="106" name="bPlate" color="7" fill="1" visible="no" active="yes"/>
<layer number="107" name="Crop" color="7" fill="1" visible="no" active="yes"/>
<layer number="108" name="tplace-old" color="10" fill="1" visible="no" active="yes"/>
<layer number="109" name="ref-old" color="11" fill="1" visible="no" active="yes"/>
<layer number="110" name="fp0" color="7" fill="1" visible="no" active="yes"/>
<layer number="111" name="LPC17xx" color="7" fill="1" visible="no" active="yes"/>
<layer number="112" name="tSilk" color="7" fill="1" visible="no" active="yes"/>
<layer number="113" name="IDFDebug" color="4" fill="1" visible="no" active="yes"/>
<layer number="116" name="Patch_BOT" color="9" fill="4" visible="no" active="yes"/>
<layer number="118" name="Rect_Pads" color="7" fill="1" visible="yes" active="yes"/>
<layer number="121" name="_tsilk" color="7" fill="1" visible="no" active="yes"/>
<layer number="122" name="_bsilk" color="7" fill="1" visible="no" active="yes"/>
<layer number="123" name="tTestmark" color="7" fill="1" visible="no" active="yes"/>
<layer number="124" name="bTestmark" color="7" fill="1" visible="no" active="yes"/>
<layer number="125" name="_tNames" color="7" fill="1" visible="no" active="yes"/>
<layer number="126" name="_bNames" color="7" fill="1" visible="no" active="yes"/>
<layer number="127" name="_tValues" color="7" fill="1" visible="no" active="yes"/>
<layer number="128" name="_bValues" color="7" fill="1" visible="no" active="yes"/>
<layer number="129" name="Mask" color="7" fill="1" visible="yes" active="yes"/>
<layer number="131" name="tAdjust" color="7" fill="1" visible="no" active="yes"/>
<layer number="132" name="bAdjust" color="7" fill="1" visible="no" active="yes"/>
<layer number="144" name="Drill_legend" color="7" fill="1" visible="no" active="yes"/>
<layer number="150" name="Notes" color="7" fill="1" visible="no" active="yes"/>
<layer number="151" name="HeatSink" color="7" fill="1" visible="no" active="yes"/>
<layer number="152" name="_bDocu" color="7" fill="1" visible="no" active="yes"/>
<layer number="153" name="FabDoc1" color="7" fill="1" visible="no" active="yes"/>
<layer number="154" name="FabDoc2" color="7" fill="1" visible="no" active="yes"/>
<layer number="155" name="FabDoc3" color="7" fill="1" visible="no" active="yes"/>
<layer number="199" name="Contour" color="7" fill="1" visible="no" active="yes"/>
<layer number="200" name="200bmp" color="1" fill="10" visible="no" active="yes"/>
<layer number="201" name="201bmp" color="2" fill="10" visible="no" active="yes"/>
<layer number="202" name="202bmp" color="3" fill="10" visible="no" active="yes"/>
<layer number="203" name="203bmp" color="4" fill="10" visible="no" active="yes"/>
<layer number="204" name="204bmp" color="5" fill="10" visible="no" active="yes"/>
<layer number="205" name="205bmp" color="6" fill="10" visible="no" active="yes"/>
<layer number="206" name="206bmp" color="7" fill="10" visible="no" active="yes"/>
<layer number="207" name="207bmp" color="8" fill="10" visible="no" active="yes"/>
<layer number="208" name="208bmp" color="9" fill="10" visible="no" active="yes"/>
<layer number="209" name="209bmp" color="7" fill="1" visible="no" active="yes"/>
<layer number="210" name="210bmp" color="7" fill="1" visible="no" active="yes"/>
<layer number="211" name="211bmp" color="7" fill="1" visible="no" active="yes"/>
<layer number="212" name="212bmp" color="7" fill="1" visible="no" active="yes"/>
<layer number="213" name="213bmp" color="7" fill="1" visible="no" active="yes"/>
<layer number="214" name="214bmp" color="7" fill="1" visible="no" active="yes"/>
<layer number="215" name="215bmp" color="7" fill="1" visible="no" active="yes"/>
<layer number="216" name="216bmp" color="7" fill="1" visible="no" active="yes"/>
<layer number="217" name="217bmp" color="18" fill="1" visible="no" active="no"/>
<layer number="218" name="218bmp" color="19" fill="1" visible="no" active="no"/>
<layer number="219" name="219bmp" color="20" fill="1" visible="no" active="no"/>
<layer number="220" name="220bmp" color="21" fill="1" visible="no" active="no"/>
<layer number="221" name="221bmp" color="22" fill="1" visible="no" active="no"/>
<layer number="222" name="222bmp" color="23" fill="1" visible="no" active="no"/>
<layer number="223" name="223bmp" color="24" fill="1" visible="no" active="no"/>
<layer number="224" name="224bmp" color="25" fill="1" visible="no" active="no"/>
<layer number="225" name="225bmp" color="7" fill="1" visible="yes" active="yes"/>
<layer number="226" name="226bmp" color="7" fill="1" visible="yes" active="yes"/>
<layer number="227" name="227bmp" color="7" fill="1" visible="yes" active="yes"/>
<layer number="228" name="228bmp" color="7" fill="1" visible="yes" active="yes"/>
<layer number="229" name="229bmp" color="7" fill="1" visible="yes" active="yes"/>
<layer number="230" name="230bmp" color="7" fill="1" visible="yes" active="yes"/>
<layer number="231" name="231bmp" color="7" fill="1" visible="yes" active="yes"/>
<layer number="248" name="Housing" color="7" fill="1" visible="no" active="yes"/>
<layer number="249" name="Edge" color="7" fill="1" visible="no" active="yes"/>
<layer number="250" name="Descript" color="3" fill="1" visible="no" active="no"/>
<layer number="251" name="SMDround" color="12" fill="11" visible="no" active="no"/>
<layer number="254" name="cooling" color="7" fill="1" visible="no" active="yes"/>
<layer number="255" name="routoute" color="7" fill="1" visible="yes" active="yes"/>
</layers>
<schematic xreflabel="%F%N/%S.%C%R" xrefpart="/%S.%C%R">
<libraries>
<library name="pinhead">
<description>&lt;b&gt;Pin Header Connectors&lt;/b&gt;&lt;p&gt;
&lt;author&gt;Created by librarian@cadsoft.de&lt;/author&gt;</description>
<packages>
<package name="2X05-0.05">
<pad name="9" x="1.27" y="2.54" drill="0.8" diameter="1.016" shape="offset" rot="R90"/>
<pad name="7" x="2.54" y="2.54" drill="0.8" diameter="1.016" shape="offset" rot="R90"/>
<pad name="5" x="3.81" y="2.54" drill="0.8" diameter="1.016" shape="offset" rot="R90"/>
<pad name="3" x="5.08" y="2.54" drill="0.8" diameter="1.016" shape="offset" rot="R90"/>
<pad name="1" x="6.35" y="2.54" drill="0.8" diameter="1.016" shape="offset" rot="R90"/>
<pad name="2" x="6.35" y="1.27" drill="0.8" diameter="1.016" shape="offset" rot="R270"/>
<pad name="4" x="5.08" y="1.27" drill="0.8" diameter="1.016" shape="offset" rot="R270"/>
<pad name="6" x="3.81" y="1.27" drill="0.8" diameter="1.016" shape="offset" rot="R270"/>
<pad name="8" x="2.54" y="1.27" drill="0.8" diameter="1.016" shape="offset" rot="R270"/>
<pad name="10" x="1.27" y="1.27" drill="0.8" diameter="1.016" shape="offset" rot="R270"/>
</package>
</packages>
<symbols>
<symbol name="SWD">
<wire x1="0" y1="2.54" x2="25.4" y2="2.54" width="0.254" layer="94"/>
<wire x1="25.4" y1="2.54" x2="25.4" y2="22.86" width="0.254" layer="94"/>
<wire x1="25.4" y1="22.86" x2="0" y2="22.86" width="0.254" layer="94"/>
<wire x1="0" y1="22.86" x2="0" y2="2.54" width="0.254" layer="94"/>
<pin name="NC@9" x="-5.08" y="7.62" length="middle"/>
<pin name="NC@7" x="-5.08" y="10.16" length="middle"/>
<pin name="GND@5" x="-5.08" y="12.7" length="middle"/>
<pin name="GND@3" x="-5.08" y="15.24" length="middle"/>
<pin name="TGT_VCC" x="-5.08" y="17.78" length="middle"/>
<pin name="SWD_DIO" x="30.48" y="17.78" length="middle" rot="R180"/>
<pin name="SWD_CLK" x="30.48" y="15.24" length="middle" rot="R180"/>
<pin name="NC@6" x="30.48" y="12.7" length="middle" rot="R180"/>
<pin name="NC@8" x="30.48" y="10.16" length="middle" rot="R180"/>
<pin name="RST_TGT" x="30.48" y="7.62" length="middle" rot="R180"/>
</symbol>
</symbols>
<devicesets>
<deviceset name="PINHD-SWD-2X5-0.05">
<description>Conector de la interfaz SWD freescale con paso 0.05" (FRDM)</description>
<gates>
<gate name="G$1" symbol="SWD" x="12.7" y="7.62"/>
</gates>
<devices>
<device name="" package="2X05-0.05">
<connects>
<connect gate="G$1" pin="GND@3" pad="3"/>
<connect gate="G$1" pin="GND@5" pad="5"/>
<connect gate="G$1" pin="NC@6" pad="6"/>
<connect gate="G$1" pin="NC@7" pad="7"/>
<connect gate="G$1" pin="NC@8" pad="8"/>
<connect gate="G$1" pin="NC@9" pad="9"/>
<connect gate="G$1" pin="RST_TGT" pad="10"/>
<connect gate="G$1" pin="SWD_CLK" pad="4"/>
<connect gate="G$1" pin="SWD_DIO" pad="2"/>
<connect gate="G$1" pin="TGT_VCC" pad="1"/>
</connects>
<technologies>
<technology name=""/>
</technologies>
</device>
</devices>
</deviceset>
</devicesets>
</library>
<library name="SparkFun-Connectors">
<description>&lt;h3&gt;SparkFun Electronics' preferred foot prints&lt;/h3&gt;
In this library you'll find connectors and sockets- basically anything that can be plugged into or onto.&lt;br&gt;&lt;br&gt;
We've spent an enormous amount of time creating and checking these footprints and parts, but it is the end user's responsibility to ensure correctness and suitablity for a given componet or application. If you enjoy using this library, please buy one of our products at www.sparkfun.com.
&lt;br&gt;&lt;br&gt;
&lt;b&gt;Licensing:&lt;/b&gt; Creative Commons ShareAlike 4.0 International - https://creativecommons.org/licenses/by-sa/4.0/ 
&lt;br&gt;&lt;br&gt;
You are welcome to use this library for commercial purposes. For attribution, we ask that when you begin to sell your device using our footprint, you email us with a link to the product being sold. We want bragging rights that we helped (in a very small part) to create your 8th world wonder. We would like the opportunity to feature your device on our homepage.</description>
<packages>
<package name="AVR_ICSP">
<description>&lt;b&gt;PIN HEADER&lt;/b&gt;</description>
<wire x1="-1.905" y1="6.35" x2="-2.54" y2="5.715" width="0.1524" layer="21"/>
<wire x1="-2.54" y1="4.445" x2="-1.905" y2="3.81" width="0.1524" layer="21"/>
<wire x1="-1.905" y1="3.81" x2="-2.54" y2="3.175" width="0.1524" layer="21"/>
<wire x1="-2.54" y1="1.905" x2="-1.905" y2="1.27" width="0.1524" layer="21"/>
<wire x1="-1.905" y1="1.27" x2="-2.54" y2="0.635" width="0.1524" layer="21"/>
<wire x1="-2.54" y1="-0.635" x2="-1.905" y2="-1.27" width="0.1524" layer="21"/>
<wire x1="-1.905" y1="-1.27" x2="-2.54" y2="-1.905" width="0.1524" layer="21"/>
<wire x1="-2.54" y1="-3.175" x2="-1.905" y2="-3.81" width="0.1524" layer="21"/>
<wire x1="-1.905" y1="6.35" x2="1.905" y2="6.35" width="0.1524" layer="21"/>
<wire x1="1.905" y1="6.35" x2="2.54" y2="5.715" width="0.1524" layer="21"/>
<wire x1="2.54" y1="5.715" x2="2.54" y2="4.445" width="0.1524" layer="21"/>
<wire x1="2.54" y1="4.445" x2="1.905" y2="3.81" width="0.1524" layer="21"/>
<wire x1="1.905" y1="3.81" x2="2.54" y2="3.175" width="0.1524" layer="21"/>
<wire x1="2.54" y1="3.175" x2="2.54" y2="1.905" width="0.1524" layer="21"/>
<wire x1="2.54" y1="1.905" x2="1.905" y2="1.27" width="0.1524" layer="21"/>
<wire x1="1.905" y1="1.27" x2="2.54" y2="0.635" width="0.1524" layer="21"/>
<wire x1="2.54" y1="0.635" x2="2.54" y2="-0.635" width="0.1524" layer="21"/>
<wire x1="2.54" y1="-0.635" x2="1.905" y2="-1.27" width="0.1524" layer="21"/>
<wire x1="1.905" y1="-1.27" x2="2.54" y2="-1.905" width="0.1524" layer="21"/>
<wire x1="2.54" y1="-1.905" x2="2.54" y2="-3.175" width="0.1524" layer="21"/>
<wire x1="2.54" y1="-3.175" x2="1.905" y2="-3.81" width="0.1524" layer="21"/>
<wire x1="1.905" y1="3.81" x2="-1.905" y2="3.81" width="0.1524" layer="21"/>
<wire x1="1.905" y1="1.27" x2="-1.905" y2="1.27" width="0.1524" layer="21"/>
<wire x1="1.905" y1="-1.27" x2="-1.905" y2="-1.27" width="0.1524" layer="21"/>
<wire x1="1.905" y1="-3.81" x2="-1.905" y2="-3.81" width="0.1524" layer="21"/>
<wire x1="-2.54" y1="-1.905" x2="-2.54" y2="-3.175" width="0.1524" layer="21"/>
<wire x1="-2.54" y1="0.635" x2="-2.54" y2="-0.635" width="0.1524" layer="21"/>
<wire x1="-2.54" y1="3.175" x2="-2.54" y2="1.905" width="0.1524" layer="21"/>
<wire x1="-2.54" y1="5.715" x2="-2.54" y2="4.445" width="0.1524" layer="21"/>
<wire x1="-1.905" y1="-3.81" x2="-2.54" y2="-4.445" width="0.1524" layer="21"/>
<wire x1="-2.54" y1="-5.715" x2="-1.905" y2="-6.35" width="0.1524" layer="21"/>
<wire x1="1.905" y1="-3.81" x2="2.54" y2="-4.445" width="0.1524" layer="21"/>
<wire x1="2.54" y1="-4.445" x2="2.54" y2="-5.715" width="0.1524" layer="21"/>
<wire x1="2.54" y1="-5.715" x2="1.905" y2="-6.35" width="0.1524" layer="21"/>
<wire x1="1.905" y1="-6.35" x2="-1.905" y2="-6.35" width="0.1524" layer="21"/>
<wire x1="-2.54" y1="-4.445" x2="-2.54" y2="-5.715" width="0.1524" layer="21"/>
<wire x1="-3.175" y1="5.715" x2="-3.175" y2="4.445" width="0.2032" layer="21"/>
<pad name="1" x="-1.27" y="5.08" drill="1.016" diameter="1.8796" shape="octagon" rot="R270"/>
<pad name="2" x="1.27" y="5.08" drill="1.016" diameter="1.8796" shape="octagon" rot="R270"/>
<pad name="3" x="-1.27" y="2.54" drill="1.016" diameter="1.8796" shape="octagon" rot="R270"/>
<pad name="4" x="1.27" y="2.54" drill="1.016" diameter="1.8796" shape="octagon" rot="R270"/>
<pad name="5" x="-1.27" y="0" drill="1.016" diameter="1.8796" shape="octagon" rot="R270"/>
<pad name="6" x="1.27" y="0" drill="1.016" diameter="1.8796" shape="octagon" rot="R270"/>
<pad name="7" x="-1.27" y="-2.54" drill="1.016" diameter="1.8796" shape="octagon" rot="R270"/>
<pad name="8" x="1.27" y="-2.54" drill="1.016" diameter="1.8796" shape="octagon" rot="R270"/>
<pad name="9" x="-1.27" y="-5.08" drill="1.016" diameter="1.8796" shape="octagon" rot="R270"/>
<pad name="10" x="1.27" y="-5.08" drill="1.016" diameter="1.8796" shape="octagon" rot="R270"/>
<text x="-2.794" y="-3.302" size="0.4064" layer="25" rot="R90">&gt;NAME</text>
<text x="-2.794" y="-0.254" size="0.4064" layer="27" font="vector" rot="R90">&gt;VALUE</text>
<rectangle x1="-1.524" y1="4.826" x2="-1.016" y2="5.334" layer="51"/>
<rectangle x1="1.016" y1="4.826" x2="1.524" y2="5.334" layer="51"/>
<rectangle x1="1.016" y1="2.286" x2="1.524" y2="2.794" layer="51"/>
<rectangle x1="-1.524" y1="2.286" x2="-1.016" y2="2.794" layer="51"/>
<rectangle x1="1.016" y1="-0.254" x2="1.524" y2="0.254" layer="51"/>
<rectangle x1="-1.524" y1="-0.254" x2="-1.016" y2="0.254" layer="21"/>
<rectangle x1="1.016" y1="-5.334" x2="1.524" y2="-4.826" layer="51"/>
<rectangle x1="-1.524" y1="-5.334" x2="-1.016" y2="-4.826" layer="51"/>
<rectangle x1="-1.524" y1="-2.794" x2="-1.016" y2="-2.286" layer="51"/>
<rectangle x1="1.016" y1="-2.794" x2="1.524" y2="-2.286" layer="51"/>
</package>
<package name="2X5-RA">
<wire x1="-3.175" y1="5.715" x2="-3.175" y2="4.445" width="0.2032" layer="21"/>
<wire x1="2.8" y1="6.3" x2="5.3" y2="6.3" width="0.2032" layer="21"/>
<wire x1="5.3" y1="6.3" x2="5.3" y2="-6.3" width="0.2032" layer="21"/>
<wire x1="5.3" y1="-6.3" x2="2.8" y2="-6.3" width="0.2032" layer="21"/>
<wire x1="2.8" y1="-6.3" x2="2.8" y2="6.3" width="0.2032" layer="21"/>
<wire x1="5.3" y1="0" x2="11.3" y2="0" width="0.127" layer="51"/>
<wire x1="5.3" y1="-2.54" x2="11.3" y2="-2.54" width="0.127" layer="51"/>
<wire x1="5.3" y1="-5.08" x2="11.3" y2="-5.08" width="0.127" layer="51"/>
<wire x1="5.3" y1="2.54" x2="11.3" y2="2.54" width="0.127" layer="51"/>
<wire x1="5.3" y1="5.08" x2="11.3" y2="5.08" width="0.127" layer="51"/>
<wire x1="8.2" y1="7" x2="8.2" y2="-6.9" width="0.127" layer="51"/>
<wire x1="13.8" y1="6.3" x2="13.8" y2="-6.3" width="0.127" layer="51"/>
<wire x1="5.3" y1="6.3" x2="13.8" y2="6.3" width="0.127" layer="51"/>
<wire x1="5.3" y1="-6.3" x2="13.8" y2="-6.3" width="0.127" layer="51"/>
<pad name="1" x="-1.27" y="5.08" drill="1.016" diameter="1.8796" shape="octagon" rot="R270"/>
<pad name="2" x="1.27" y="5.08" drill="1.016" diameter="1.8796" shape="octagon" rot="R270"/>
<pad name="3" x="-1.27" y="2.54" drill="1.016" diameter="1.8796" shape="octagon" rot="R270"/>
<pad name="4" x="1.27" y="2.54" drill="1.016" diameter="1.8796" shape="octagon" rot="R270"/>
<pad name="5" x="-1.27" y="0" drill="1.016" diameter="1.8796" shape="octagon" rot="R270"/>
<pad name="6" x="1.27" y="0" drill="1.016" diameter="1.8796" shape="octagon" rot="R270"/>
<pad name="7" x="-1.27" y="-2.54" drill="1.016" diameter="1.8796" shape="octagon" rot="R270"/>
<pad name="8" x="1.27" y="-2.54" drill="1.016" diameter="1.8796" shape="octagon" rot="R270"/>
<pad name="9" x="-1.27" y="-5.08" drill="1.016" diameter="1.8796" shape="octagon" rot="R270"/>
<pad name="10" x="1.27" y="-5.08" drill="1.016" diameter="1.8796" shape="octagon" rot="R270"/>
<text x="-2" y="-8.2" size="1.27" layer="25" ratio="10">&gt;NAME</text>
<text x="-1.9" y="7" size="1.27" layer="27" font="vector">&gt;VALUE</text>
<rectangle x1="-1.524" y1="4.826" x2="-1.016" y2="5.334" layer="51" rot="R270"/>
<rectangle x1="1.016" y1="4.826" x2="1.524" y2="5.334" layer="51" rot="R270"/>
<rectangle x1="1.016" y1="2.286" x2="1.524" y2="2.794" layer="51" rot="R270"/>
<rectangle x1="-1.524" y1="2.286" x2="-1.016" y2="2.794" layer="51" rot="R270"/>
<rectangle x1="1.016" y1="-0.254" x2="1.524" y2="0.254" layer="51" rot="R270"/>
<rectangle x1="-1.524" y1="-0.254" x2="-1.016" y2="0.254" layer="51" rot="R270"/>
<rectangle x1="1.016" y1="-2.794" x2="1.524" y2="-2.286" layer="51" rot="R270"/>
<rectangle x1="-1.524" y1="-2.794" x2="-1.016" y2="-2.286" layer="51" rot="R270"/>
<rectangle x1="1.016" y1="-5.334" x2="1.524" y2="-4.826" layer="51" rot="R270"/>
<rectangle x1="-1.524" y1="-5.334" x2="-1.016" y2="-4.826" layer="51" rot="R270"/>
<rectangle x1="-1.524" y1="-2.794" x2="-1.016" y2="-2.286" layer="51" rot="R270"/>
<rectangle x1="1.016" y1="-2.794" x2="1.524" y2="-2.286" layer="51" rot="R270"/>
</package>
<package name="2X5-RAF">
<wire x1="-3.175" y1="5.715" x2="-3.175" y2="4.445" width="0.2032" layer="21"/>
<wire x1="2.7" y1="6.3" x2="11.2" y2="6.3" width="0.2032" layer="21"/>
<wire x1="11.2" y1="6.3" x2="11.2" y2="-6.3" width="0.2032" layer="21"/>
<wire x1="11.2" y1="-6.3" x2="2.7" y2="-6.3" width="0.2032" layer="21"/>
<wire x1="2.7" y1="-6.3" x2="2.7" y2="6.3" width="0.2032" layer="21"/>
<wire x1="8.2" y1="7" x2="8.2" y2="-6.9" width="0.127" layer="51"/>
<pad name="1" x="-1.27" y="5.08" drill="1.016" diameter="1.8796" shape="octagon" rot="R270"/>
<pad name="2" x="1.27" y="5.08" drill="1.016" diameter="1.8796" shape="octagon" rot="R270"/>
<pad name="3" x="-1.27" y="2.54" drill="1.016" diameter="1.8796" shape="octagon" rot="R270"/>
<pad name="4" x="1.27" y="2.54" drill="1.016" diameter="1.8796" shape="octagon" rot="R270"/>
<pad name="5" x="-1.27" y="0" drill="1.016" diameter="1.8796" shape="octagon" rot="R270"/>
<pad name="6" x="1.27" y="0" drill="1.016" diameter="1.8796" shape="octagon" rot="R270"/>
<pad name="7" x="-1.27" y="-2.54" drill="1.016" diameter="1.8796" shape="octagon" rot="R270"/>
<pad name="8" x="1.27" y="-2.54" drill="1.016" diameter="1.8796" shape="octagon" rot="R270"/>
<pad name="9" x="-1.27" y="-5.08" drill="1.016" diameter="1.8796" shape="octagon" rot="R270"/>
<pad name="10" x="1.27" y="-5.08" drill="1.016" diameter="1.8796" shape="octagon" rot="R270"/>
<text x="-2" y="-8.2" size="1.27" layer="25" ratio="10">&gt;NAME</text>
<text x="-1.9" y="7" size="1.27" layer="27" font="vector">&gt;VALUE</text>
<rectangle x1="-1.524" y1="4.826" x2="-1.016" y2="5.334" layer="51" rot="R270"/>
<rectangle x1="1.016" y1="4.826" x2="1.524" y2="5.334" layer="51" rot="R270"/>
<rectangle x1="1.016" y1="2.286" x2="1.524" y2="2.794" layer="51" rot="R270"/>
<rectangle x1="-1.524" y1="2.286" x2="-1.016" y2="2.794" layer="51" rot="R270"/>
<rectangle x1="1.016" y1="-0.254" x2="1.524" y2="0.254" layer="51" rot="R270"/>
<rectangle x1="-1.524" y1="-0.254" x2="-1.016" y2="0.254" layer="51" rot="R270"/>
<rectangle x1="1.016" y1="-2.794" x2="1.524" y2="-2.286" layer="51" rot="R270"/>
<rectangle x1="-1.524" y1="-2.794" x2="-1.016" y2="-2.286" layer="51" rot="R270"/>
<rectangle x1="1.016" y1="-5.334" x2="1.524" y2="-4.826" layer="51" rot="R270"/>
<rectangle x1="-1.524" y1="-5.334" x2="-1.016" y2="-4.826" layer="51" rot="R270"/>
<rectangle x1="-1.524" y1="-2.794" x2="-1.016" y2="-2.286" layer="51" rot="R270"/>
<rectangle x1="1.016" y1="-2.794" x2="1.524" y2="-2.286" layer="51" rot="R270"/>
</package>
<package name="2X5-SHROUDED">
<wire x1="-2.775" y1="5.715" x2="-2.775" y2="4.445" width="0.2032" layer="21"/>
<wire x1="4.5" y1="10.1" x2="4.5" y2="-10.1" width="0.2032" layer="21"/>
<wire x1="-4.5" y1="-10.1" x2="-4.5" y2="-2.2" width="0.2032" layer="21"/>
<wire x1="-4.5" y1="-2.2" x2="-4.5" y2="2.2" width="0.2032" layer="21"/>
<wire x1="-4.5" y1="2.2" x2="-4.5" y2="10.1" width="0.2032" layer="21"/>
<wire x1="-4.5" y1="10.1" x2="4.4" y2="10.1" width="0.2032" layer="21"/>
<wire x1="4.5" y1="-10.1" x2="-4.5" y2="-10.1" width="0.2032" layer="21"/>
<wire x1="-3.4" y1="9" x2="3.4" y2="9" width="0.2032" layer="51"/>
<wire x1="3.4" y1="9" x2="3.4" y2="-9" width="0.2032" layer="51"/>
<wire x1="-3.4" y1="-9" x2="3.4" y2="-9" width="0.2032" layer="51"/>
<wire x1="-4.5" y1="2.2" x2="-3" y2="2.2" width="0.2032" layer="21"/>
<wire x1="-3" y1="2.2" x2="-3" y2="-2.2" width="0.2032" layer="21"/>
<wire x1="-3" y1="-2.2" x2="-4.5" y2="-2.2" width="0.2032" layer="21"/>
<wire x1="-3.4" y1="9" x2="-3.4" y2="2.2" width="0.2032" layer="51"/>
<wire x1="-3.4" y1="-9" x2="-3.4" y2="-2.2" width="0.2032" layer="51"/>
<pad name="1" x="-1.27" y="5.08" drill="1.016" diameter="1.8796" shape="octagon" rot="R270"/>
<pad name="2" x="1.27" y="5.08" drill="1.016" diameter="1.8796" shape="octagon" rot="R270"/>
<pad name="3" x="-1.27" y="2.54" drill="1.016" diameter="1.8796" shape="octagon" rot="R270"/>
<pad name="4" x="1.27" y="2.54" drill="1.016" diameter="1.8796" shape="octagon" rot="R270"/>
<pad name="5" x="-1.27" y="0" drill="1.016" diameter="1.8796" shape="octagon" rot="R270"/>
<pad name="6" x="1.27" y="0" drill="1.016" diameter="1.8796" shape="octagon" rot="R270"/>
<pad name="7" x="-1.27" y="-2.54" drill="1.016" diameter="1.8796" shape="octagon" rot="R270"/>
<pad name="8" x="1.27" y="-2.54" drill="1.016" diameter="1.8796" shape="octagon" rot="R270"/>
<pad name="9" x="-1.27" y="-5.08" drill="1.016" diameter="1.8796" shape="octagon" rot="R270"/>
<pad name="10" x="1.27" y="-5.08" drill="1.016" diameter="1.8796" shape="octagon" rot="R270"/>
<text x="-2.921" y="10.414" size="0.4064" layer="27" font="vector">&gt;VALUE</text>
<text x="-2.921" y="-10.922" size="0.4064" layer="25">&gt;NAME</text>
<rectangle x1="-1.524" y1="4.826" x2="-1.016" y2="5.334" layer="51"/>
<rectangle x1="1.016" y1="4.826" x2="1.524" y2="5.334" layer="51"/>
<rectangle x1="1.016" y1="2.286" x2="1.524" y2="2.794" layer="51"/>
<rectangle x1="-1.524" y1="2.286" x2="-1.016" y2="2.794" layer="51"/>
<rectangle x1="1.016" y1="-0.254" x2="1.524" y2="0.254" layer="51"/>
<rectangle x1="-1.524" y1="-0.254" x2="-1.016" y2="0.254" layer="51"/>
<rectangle x1="1.016" y1="-2.794" x2="1.524" y2="-2.286" layer="51"/>
<rectangle x1="-1.524" y1="-2.794" x2="-1.016" y2="-2.286" layer="51"/>
<rectangle x1="1.016" y1="-5.334" x2="1.524" y2="-4.826" layer="51"/>
<rectangle x1="-1.524" y1="-5.334" x2="-1.016" y2="-4.826" layer="51"/>
<rectangle x1="-1.524" y1="-2.794" x2="-1.016" y2="-2.286" layer="51"/>
<rectangle x1="1.016" y1="-2.794" x2="1.524" y2="-2.286" layer="51"/>
</package>
<package name="2X5-SHROUDED_LOCK">
<wire x1="-2.775" y1="5.715" x2="-2.775" y2="4.445" width="0.2032" layer="21"/>
<wire x1="4.5" y1="10.1" x2="4.5" y2="-10.1" width="0.2032" layer="21"/>
<wire x1="-4.5" y1="-10.1" x2="-4.5" y2="-2.2" width="0.2032" layer="21"/>
<wire x1="-4.5" y1="-2.2" x2="-4.5" y2="2.2" width="0.2032" layer="21"/>
<wire x1="-4.5" y1="2.2" x2="-4.5" y2="10.1" width="0.2032" layer="21"/>
<wire x1="-4.5" y1="10.1" x2="4.4" y2="10.1" width="0.2032" layer="21"/>
<wire x1="4.5" y1="-10.1" x2="-4.5" y2="-10.1" width="0.2032" layer="21"/>
<wire x1="-3.4" y1="9" x2="3.4" y2="9" width="0.2032" layer="51"/>
<wire x1="3.4" y1="9" x2="3.4" y2="-9" width="0.2032" layer="51"/>
<wire x1="-3.4" y1="-9" x2="3.4" y2="-9" width="0.2032" layer="51"/>
<wire x1="-4.5" y1="2.2" x2="-3" y2="2.2" width="0.2032" layer="21"/>
<wire x1="-3" y1="2.2" x2="-3" y2="-2.2" width="0.2032" layer="21"/>
<wire x1="-3" y1="-2.2" x2="-4.5" y2="-2.2" width="0.2032" layer="21"/>
<wire x1="-3.4" y1="9" x2="-3.4" y2="2.2" width="0.2032" layer="51"/>
<wire x1="-3.4" y1="-9" x2="-3.4" y2="-2.2" width="0.2032" layer="51"/>
<pad name="1" x="-1.397" y="5.08" drill="1.016" diameter="1.8796" shape="octagon" rot="R270"/>
<pad name="2" x="1.397" y="5.08" drill="1.016" diameter="1.8796" shape="octagon" rot="R270"/>
<pad name="3" x="-1.397" y="2.54" drill="1.016" diameter="1.8796" shape="octagon" rot="R270"/>
<pad name="4" x="1.397" y="2.54" drill="1.016" diameter="1.8796" shape="octagon" rot="R270"/>
<pad name="5" x="-1.397" y="0" drill="1.016" diameter="1.8796" shape="octagon" rot="R270"/>
<pad name="6" x="1.397" y="0" drill="1.016" diameter="1.8796" shape="octagon" rot="R270"/>
<pad name="7" x="-1.397" y="-2.54" drill="1.016" diameter="1.8796" shape="octagon" rot="R270"/>
<pad name="8" x="1.397" y="-2.54" drill="1.016" diameter="1.8796" shape="octagon" rot="R270"/>
<pad name="9" x="-1.397" y="-5.08" drill="1.016" diameter="1.8796" shape="octagon" rot="R270"/>
<pad name="10" x="1.397" y="-5.08" drill="1.016" diameter="1.8796" shape="octagon" rot="R270"/>
<text x="-2.921" y="10.414" size="0.4064" layer="27" font="vector">&gt;VALUE</text>
<text x="-2.921" y="-10.922" size="0.4064" layer="104">&gt;NAME</text>
<rectangle x1="-1.524" y1="4.826" x2="-1.016" y2="5.334" layer="51" rot="R270"/>
<rectangle x1="1.016" y1="4.826" x2="1.524" y2="5.334" layer="51" rot="R270"/>
<rectangle x1="1.016" y1="2.286" x2="1.524" y2="2.794" layer="51" rot="R270"/>
<rectangle x1="-1.524" y1="2.286" x2="-1.016" y2="2.794" layer="51" rot="R270"/>
<rectangle x1="1.016" y1="-0.254" x2="1.524" y2="0.254" layer="51" rot="R270"/>
<rectangle x1="-1.524" y1="-0.254" x2="-1.016" y2="0.254" layer="51" rot="R270"/>
<rectangle x1="1.016" y1="-2.794" x2="1.524" y2="-2.286" layer="51" rot="R270"/>
<rectangle x1="-1.524" y1="-2.794" x2="-1.016" y2="-2.286" layer="51" rot="R270"/>
<rectangle x1="1.016" y1="-5.334" x2="1.524" y2="-4.826" layer="51" rot="R270"/>
<rectangle x1="-1.524" y1="-5.334" x2="-1.016" y2="-4.826" layer="51" rot="R270"/>
<rectangle x1="-1.524" y1="-2.794" x2="-1.016" y2="-2.286" layer="51" rot="R270"/>
<rectangle x1="1.016" y1="-2.794" x2="1.524" y2="-2.286" layer="51" rot="R270"/>
</package>
<package name="2X5-SHROUDED_SMD">
<wire x1="-2.775" y1="5.715" x2="-2.775" y2="4.445" width="0.2032" layer="21"/>
<wire x1="4.5" y1="10.1" x2="4.5" y2="-10.1" width="0.2032" layer="21"/>
<wire x1="-4.5" y1="-10.1" x2="-4.5" y2="-2.2" width="0.2032" layer="21"/>
<wire x1="-4.5" y1="-2.2" x2="-4.5" y2="2.2" width="0.2032" layer="21"/>
<wire x1="-4.5" y1="2.2" x2="-4.5" y2="10.1" width="0.2032" layer="21"/>
<wire x1="-4.5" y1="10.1" x2="4.4" y2="10.1" width="0.2032" layer="21"/>
<wire x1="4.5" y1="-10.1" x2="-4.5" y2="-10.1" width="0.2032" layer="21"/>
<wire x1="-3.4" y1="9" x2="3.4" y2="9" width="0.2032" layer="51"/>
<wire x1="3.4" y1="9" x2="3.4" y2="-9" width="0.2032" layer="51"/>
<wire x1="-3.4" y1="-9" x2="3.4" y2="-9" width="0.2032" layer="51"/>
<wire x1="-4.5" y1="2.2" x2="-3" y2="2.2" width="0.2032" layer="21"/>
<wire x1="-3" y1="2.2" x2="-3" y2="-2.2" width="0.2032" layer="21"/>
<wire x1="-3" y1="-2.2" x2="-4.5" y2="-2.2" width="0.2032" layer="21"/>
<wire x1="-3.4" y1="9" x2="-3.4" y2="2.2" width="0.2032" layer="51"/>
<wire x1="-3.4" y1="-9" x2="-3.4" y2="-2.2" width="0.2032" layer="51"/>
<smd name="1" x="-2.794" y="5.08" dx="4.15" dy="1" layer="1" roundness="50"/>
<smd name="2" x="2.794" y="5.08" dx="4.15" dy="1" layer="1" roundness="50"/>
<smd name="3" x="-2.794" y="2.54" dx="4.15" dy="1" layer="1" roundness="50"/>
<smd name="4" x="2.794" y="2.54" dx="4.15" dy="1" layer="1" roundness="50"/>
<smd name="5" x="-2.794" y="0" dx="4.15" dy="1" layer="1" roundness="50"/>
<smd name="6" x="2.794" y="0" dx="4.15" dy="1" layer="1" roundness="50"/>
<smd name="7" x="-2.794" y="-2.54" dx="4.15" dy="1" layer="1" roundness="50"/>
<smd name="8" x="2.794" y="-2.54" dx="4.15" dy="1" layer="1" roundness="50"/>
<smd name="9" x="-2.794" y="-5.08" dx="4.15" dy="1" layer="1" roundness="50"/>
<smd name="10" x="2.794" y="-5.08" dx="4.15" dy="1" layer="1" roundness="50"/>
<text x="-2.921" y="10.414" size="0.4064" layer="27" font="vector">&gt;VALUE</text>
<text x="-2.921" y="-10.922" size="0.4064" layer="104">&gt;NAME</text>
<rectangle x1="-1.524" y1="4.826" x2="-1.016" y2="5.334" layer="51"/>
<rectangle x1="1.016" y1="4.826" x2="1.524" y2="5.334" layer="51"/>
<rectangle x1="1.016" y1="2.286" x2="1.524" y2="2.794" layer="51"/>
<rectangle x1="-1.524" y1="2.286" x2="-1.016" y2="2.794" layer="51"/>
<rectangle x1="1.016" y1="-0.254" x2="1.524" y2="0.254" layer="51"/>
<rectangle x1="-1.524" y1="-0.254" x2="-1.016" y2="0.254" layer="51"/>
<rectangle x1="1.016" y1="-2.794" x2="1.524" y2="-2.286" layer="51"/>
<rectangle x1="-1.524" y1="-2.794" x2="-1.016" y2="-2.286" layer="51"/>
<rectangle x1="1.016" y1="-5.334" x2="1.524" y2="-4.826" layer="51"/>
<rectangle x1="-1.524" y1="-5.334" x2="-1.016" y2="-4.826" layer="51"/>
<rectangle x1="-1.524" y1="-2.794" x2="-1.016" y2="-2.286" layer="51"/>
<rectangle x1="1.016" y1="-2.794" x2="1.524" y2="-2.286" layer="51"/>
</package>
<package name="2X5_NOSILK">
<pad name="1" x="-1.27" y="5.08" drill="1.016" diameter="1.8796" shape="octagon" rot="R270"/>
<pad name="2" x="1.27" y="5.08" drill="1.016" diameter="1.8796" shape="octagon" rot="R270"/>
<pad name="3" x="-1.27" y="2.54" drill="1.016" diameter="1.8796" shape="octagon" rot="R270"/>
<pad name="4" x="1.27" y="2.54" drill="1.016" diameter="1.8796" shape="octagon" rot="R270"/>
<pad name="5" x="-1.27" y="0" drill="1.016" diameter="1.8796" shape="octagon" rot="R270"/>
<pad name="6" x="1.27" y="0" drill="1.016" diameter="1.8796" shape="octagon" rot="R270"/>
<pad name="7" x="-1.27" y="-2.54" drill="1.016" diameter="1.8796" shape="octagon" rot="R270"/>
<pad name="8" x="1.27" y="-2.54" drill="1.016" diameter="1.8796" shape="octagon" rot="R270"/>
<pad name="9" x="-1.27" y="-5.08" drill="1.016" diameter="1.8796" shape="octagon" rot="R270"/>
<pad name="10" x="1.27" y="-5.08" drill="1.016" diameter="1.8796" shape="octagon" rot="R270"/>
<text x="-2.794" y="-3.302" size="0.4064" layer="25" rot="R90">&gt;NAME</text>
<text x="-2.794" y="-0.254" size="0.4064" layer="27" font="vector" rot="R90">&gt;VALUE</text>
<rectangle x1="-1.524" y1="4.826" x2="-1.016" y2="5.334" layer="51"/>
<rectangle x1="1.016" y1="4.826" x2="1.524" y2="5.334" layer="51"/>
<rectangle x1="1.016" y1="2.286" x2="1.524" y2="2.794" layer="51"/>
<rectangle x1="-1.524" y1="2.286" x2="-1.016" y2="2.794" layer="51"/>
<rectangle x1="-1.524" y1="-0.254" x2="-1.016" y2="0.254" layer="51"/>
<rectangle x1="1.016" y1="-5.334" x2="1.524" y2="-4.826" layer="51"/>
<rectangle x1="-1.524" y1="-5.334" x2="-1.016" y2="-4.826" layer="51"/>
<rectangle x1="-1.524" y1="-2.794" x2="-1.016" y2="-2.286" layer="51"/>
<rectangle x1="1.016" y1="-2.794" x2="1.524" y2="-2.286" layer="51"/>
<rectangle x1="1.016" y1="-0.254" x2="1.524" y2="0.254" layer="51"/>
</package>
<package name="2X5_PTH_SILK_.05">
<pad name="1" x="0" y="6.35" drill="0.4318" shape="square"/>
<pad name="2" x="1.27" y="6.35" drill="0.4318"/>
<pad name="3" x="0" y="5.08" drill="0.4318"/>
<pad name="4" x="1.27" y="5.08" drill="0.4318"/>
<pad name="5" x="0" y="3.81" drill="0.4318"/>
<pad name="6" x="1.27" y="3.81" drill="0.4318"/>
<pad name="7" x="0" y="2.54" drill="0.4318"/>
<pad name="8" x="1.27" y="2.54" drill="0.4318"/>
<pad name="9" x="0" y="1.27" drill="0.4318"/>
<pad name="10" x="1.27" y="1.27" drill="0.4318"/>
<wire x1="0.635" y1="6.985" x2="0.762" y2="7.112" width="0.127" layer="21"/>
<wire x1="0.762" y1="7.112" x2="1.778" y2="7.112" width="0.127" layer="21"/>
<wire x1="1.778" y1="7.112" x2="2.032" y2="6.858" width="0.127" layer="21"/>
<wire x1="2.032" y1="6.858" x2="2.032" y2="5.842" width="0.127" layer="21"/>
<wire x1="2.032" y1="5.842" x2="1.905" y2="5.715" width="0.127" layer="21"/>
<wire x1="1.905" y1="5.715" x2="2.032" y2="5.588" width="0.127" layer="21"/>
<wire x1="2.032" y1="5.588" x2="2.032" y2="4.572" width="0.127" layer="21"/>
<wire x1="2.032" y1="4.572" x2="1.905" y2="4.445" width="0.127" layer="21"/>
<wire x1="1.905" y1="4.445" x2="2.032" y2="4.318" width="0.127" layer="21"/>
<wire x1="2.032" y1="4.318" x2="2.032" y2="3.302" width="0.127" layer="21"/>
<wire x1="2.032" y1="3.302" x2="1.905" y2="3.175" width="0.127" layer="21"/>
<wire x1="1.905" y1="3.175" x2="2.032" y2="3.048" width="0.127" layer="21"/>
<wire x1="2.032" y1="3.048" x2="2.032" y2="2.032" width="0.127" layer="21"/>
<wire x1="2.032" y1="2.032" x2="1.905" y2="1.905" width="0.127" layer="21"/>
<wire x1="1.905" y1="1.905" x2="2.032" y2="1.778" width="0.127" layer="21"/>
<wire x1="2.032" y1="1.778" x2="2.032" y2="0.762" width="0.127" layer="21"/>
<wire x1="2.032" y1="0.762" x2="1.778" y2="0.508" width="0.127" layer="21"/>
<wire x1="1.778" y1="0.508" x2="0.762" y2="0.508" width="0.127" layer="21"/>
<wire x1="0.762" y1="0.508" x2="0.635" y2="0.635" width="0.127" layer="21"/>
<wire x1="0.635" y1="0.635" x2="0.508" y2="0.508" width="0.127" layer="21"/>
<wire x1="0.508" y1="0.508" x2="-0.508" y2="0.508" width="0.127" layer="21"/>
<wire x1="-0.508" y1="0.508" x2="-0.762" y2="0.762" width="0.127" layer="21"/>
<wire x1="-0.762" y1="0.762" x2="-0.762" y2="1.778" width="0.127" layer="21"/>
<wire x1="-0.762" y1="1.778" x2="-0.635" y2="1.905" width="0.127" layer="21"/>
<wire x1="-0.635" y1="1.905" x2="-0.762" y2="2.032" width="0.127" layer="21"/>
<wire x1="-0.762" y1="2.032" x2="-0.762" y2="3.048" width="0.127" layer="21"/>
<wire x1="-0.762" y1="3.048" x2="-0.635" y2="3.175" width="0.127" layer="21"/>
<wire x1="-0.635" y1="3.175" x2="-0.762" y2="3.302" width="0.127" layer="21"/>
<wire x1="-0.762" y1="3.302" x2="-0.762" y2="4.318" width="0.127" layer="21"/>
<wire x1="-0.762" y1="4.318" x2="-0.635" y2="4.445" width="0.127" layer="21"/>
<wire x1="-0.635" y1="4.445" x2="-0.762" y2="4.572" width="0.127" layer="21"/>
<wire x1="-0.762" y1="4.572" x2="-0.762" y2="5.588" width="0.127" layer="21"/>
<wire x1="-0.762" y1="5.588" x2="-0.635" y2="5.715" width="0.127" layer="21"/>
<wire x1="-0.635" y1="5.715" x2="-0.762" y2="5.842" width="0.127" layer="21"/>
<wire x1="-0.762" y1="5.842" x2="-0.762" y2="6.858" width="0.127" layer="21"/>
<wire x1="-0.762" y1="6.858" x2="-0.508" y2="7.112" width="0.127" layer="21"/>
<wire x1="-0.508" y1="7.112" x2="0.508" y2="7.112" width="0.127" layer="21"/>
<wire x1="0.508" y1="7.112" x2="0.635" y2="6.985" width="0.127" layer="21"/>
<wire x1="-0.508" y1="7.366" x2="0.508" y2="7.366" width="0.127" layer="21"/>
</package>
<package name="2X5-SHROUDED-NS">
<wire x1="-2.775" y1="5.715" x2="-2.775" y2="4.445" width="0.2032" layer="21"/>
<wire x1="4.5" y1="10.1" x2="4.5" y2="-10.1" width="0.2032" layer="51"/>
<wire x1="-4.5" y1="-10.1" x2="-4.5" y2="-2.2" width="0.2032" layer="51"/>
<wire x1="-4.5" y1="-2.2" x2="-4.5" y2="2.2" width="0.2032" layer="51"/>
<wire x1="-4.5" y1="2.2" x2="-4.5" y2="10.1" width="0.2032" layer="51"/>
<wire x1="-4.5" y1="10.1" x2="4.4" y2="10.1" width="0.2032" layer="51"/>
<wire x1="4.5" y1="-10.1" x2="-4.5" y2="-10.1" width="0.2032" layer="51"/>
<wire x1="-3.4" y1="9" x2="3.4" y2="9" width="0.2032" layer="51"/>
<wire x1="3.4" y1="9" x2="3.4" y2="-9" width="0.2032" layer="51"/>
<wire x1="-3.4" y1="-9" x2="3.4" y2="-9" width="0.2032" layer="51"/>
<wire x1="-4.5" y1="2.2" x2="-3" y2="2.2" width="0.2032" layer="51"/>
<wire x1="-3" y1="2.2" x2="-3" y2="-2.2" width="0.2032" layer="51"/>
<wire x1="-3" y1="-2.2" x2="-4.5" y2="-2.2" width="0.2032" layer="51"/>
<wire x1="-3.4" y1="9" x2="-3.4" y2="2.2" width="0.2032" layer="51"/>
<wire x1="-3.4" y1="-9" x2="-3.4" y2="-2.2" width="0.2032" layer="51"/>
<pad name="1" x="-1.27" y="5.08" drill="1.016" diameter="1.8796" shape="octagon" rot="R270"/>
<pad name="2" x="1.27" y="5.08" drill="1.016" diameter="1.8796" shape="octagon" rot="R270"/>
<pad name="3" x="-1.27" y="2.54" drill="1.016" diameter="1.8796" shape="octagon" rot="R270"/>
<pad name="4" x="1.27" y="2.54" drill="1.016" diameter="1.8796" shape="octagon" rot="R270"/>
<pad name="5" x="-1.27" y="0" drill="1.016" diameter="1.8796" shape="octagon" rot="R270"/>
<pad name="6" x="1.27" y="0" drill="1.016" diameter="1.8796" shape="octagon" rot="R270"/>
<pad name="7" x="-1.27" y="-2.54" drill="1.016" diameter="1.8796" shape="octagon" rot="R270"/>
<pad name="8" x="1.27" y="-2.54" drill="1.016" diameter="1.8796" shape="octagon" rot="R270"/>
<pad name="9" x="-1.27" y="-5.08" drill="1.016" diameter="1.8796" shape="octagon" rot="R270"/>
<pad name="10" x="1.27" y="-5.08" drill="1.016" diameter="1.8796" shape="octagon" rot="R270"/>
<text x="-2.921" y="10.414" size="0.4064" layer="27" font="vector">&gt;VALUE</text>
<text x="-2.921" y="-10.922" size="0.4064" layer="25">&gt;NAME</text>
<rectangle x1="-1.524" y1="4.826" x2="-1.016" y2="5.334" layer="51"/>
<rectangle x1="1.016" y1="4.826" x2="1.524" y2="5.334" layer="51"/>
<rectangle x1="1.016" y1="2.286" x2="1.524" y2="2.794" layer="51"/>
<rectangle x1="-1.524" y1="2.286" x2="-1.016" y2="2.794" layer="51"/>
<rectangle x1="1.016" y1="-0.254" x2="1.524" y2="0.254" layer="51"/>
<rectangle x1="-1.524" y1="-0.254" x2="-1.016" y2="0.254" layer="51"/>
<rectangle x1="1.016" y1="-2.794" x2="1.524" y2="-2.286" layer="51"/>
<rectangle x1="-1.524" y1="-2.794" x2="-1.016" y2="-2.286" layer="51"/>
<rectangle x1="1.016" y1="-5.334" x2="1.524" y2="-4.826" layer="51"/>
<rectangle x1="-1.524" y1="-5.334" x2="-1.016" y2="-4.826" layer="51"/>
<rectangle x1="-1.524" y1="-2.794" x2="-1.016" y2="-2.286" layer="51"/>
<rectangle x1="1.016" y1="-2.794" x2="1.524" y2="-2.286" layer="51"/>
</package>
</packages>
<symbols>
<symbol name="M05X2">
<wire x1="3.81" y1="-7.62" x2="-3.81" y2="-7.62" width="0.4064" layer="94"/>
<wire x1="1.27" y1="0" x2="2.54" y2="0" width="0.6096" layer="94"/>
<wire x1="1.27" y1="-2.54" x2="2.54" y2="-2.54" width="0.6096" layer="94"/>
<wire x1="1.27" y1="-5.08" x2="2.54" y2="-5.08" width="0.6096" layer="94"/>
<wire x1="-3.81" y1="7.62" x2="-3.81" y2="-7.62" width="0.4064" layer="94"/>
<wire x1="3.81" y1="-7.62" x2="3.81" y2="7.62" width="0.4064" layer="94"/>
<wire x1="-3.81" y1="7.62" x2="3.81" y2="7.62" width="0.4064" layer="94"/>
<wire x1="1.27" y1="5.08" x2="2.54" y2="5.08" width="0.6096" layer="94"/>
<wire x1="1.27" y1="2.54" x2="2.54" y2="2.54" width="0.6096" layer="94"/>
<wire x1="-1.27" y1="0" x2="-2.54" y2="0" width="0.6096" layer="94"/>
<wire x1="-1.27" y1="-2.54" x2="-2.54" y2="-2.54" width="0.6096" layer="94"/>
<wire x1="-1.27" y1="-5.08" x2="-2.54" y2="-5.08" width="0.6096" layer="94"/>
<wire x1="-1.27" y1="5.08" x2="-2.54" y2="5.08" width="0.6096" layer="94"/>
<wire x1="-1.27" y1="2.54" x2="-2.54" y2="2.54" width="0.6096" layer="94"/>
<text x="-2.54" y="-10.16" size="1.778" layer="96">&gt;VALUE</text>
<text x="-2.54" y="8.382" size="1.778" layer="95">&gt;NAME</text>
<pin name="10" x="7.62" y="-5.08" visible="pad" length="middle" direction="pas" swaplevel="1" rot="R180"/>
<pin name="8" x="7.62" y="-2.54" visible="pad" length="middle" direction="pas" swaplevel="1" rot="R180"/>
<pin name="6" x="7.62" y="0" visible="pad" length="middle" direction="pas" swaplevel="1" rot="R180"/>
<pin name="4" x="7.62" y="2.54" visible="pad" length="middle" direction="pas" swaplevel="1" rot="R180"/>
<pin name="2" x="7.62" y="5.08" visible="pad" length="middle" direction="pas" swaplevel="1" rot="R180"/>
<pin name="9" x="-7.62" y="-5.08" visible="pad" length="middle" direction="pas" swaplevel="1"/>
<pin name="7" x="-7.62" y="-2.54" visible="pad" length="middle" direction="pas" swaplevel="1"/>
<pin name="5" x="-7.62" y="0" visible="pad" length="middle" direction="pas" swaplevel="1"/>
<pin name="3" x="-7.62" y="2.54" visible="pad" length="middle" direction="pas" swaplevel="1"/>
<pin name="1" x="-7.62" y="5.08" visible="pad" length="middle" direction="pas" swaplevel="1"/>
</symbol>
</symbols>
<devicesets>
<deviceset name="M05X2" prefix="JP" uservalue="yes">
<description>&lt;b&gt;Header 5x2&lt;/b&gt;
Standard 10-pin dual row 0.1" header. Commonly used with AVR-ISP. Use with Spark Fun Electronics SKU: PRT-00778</description>
<gates>
<gate name="G$1" symbol="M05X2" x="0" y="0"/>
</gates>
<devices>
<device name="PTH" package="AVR_ICSP">
<connects>
<connect gate="G$1" pin="1" pad="1"/>
<connect gate="G$1" pin="10" pad="10"/>
<connect gate="G$1" pin="2" pad="2"/>
<connect gate="G$1" pin="3" pad="3"/>
<connect gate="G$1" pin="4" pad="4"/>
<connect gate="G$1" pin="5" pad="5"/>
<connect gate="G$1" pin="6" pad="6"/>
<connect gate="G$1" pin="7" pad="7"/>
<connect gate="G$1" pin="8" pad="8"/>
<connect gate="G$1" pin="9" pad="9"/>
</connects>
<technologies>
<technology name=""/>
</technologies>
</device>
<device name="RA" package="2X5-RA">
<connects>
<connect gate="G$1" pin="1" pad="1"/>
<connect gate="G$1" pin="10" pad="10"/>
<connect gate="G$1" pin="2" pad="2"/>
<connect gate="G$1" pin="3" pad="3"/>
<connect gate="G$1" pin="4" pad="4"/>
<connect gate="G$1" pin="5" pad="5"/>
<connect gate="G$1" pin="6" pad="6"/>
<connect gate="G$1" pin="7" pad="7"/>
<connect gate="G$1" pin="8" pad="8"/>
<connect gate="G$1" pin="9" pad="9"/>
</connects>
<technologies>
<technology name=""/>
</technologies>
</device>
<device name="RAF" package="2X5-RAF">
<connects>
<connect gate="G$1" pin="1" pad="1"/>
<connect gate="G$1" pin="10" pad="10"/>
<connect gate="G$1" pin="2" pad="2"/>
<connect gate="G$1" pin="3" pad="3"/>
<connect gate="G$1" pin="4" pad="4"/>
<connect gate="G$1" pin="5" pad="5"/>
<connect gate="G$1" pin="6" pad="6"/>
<connect gate="G$1" pin="7" pad="7"/>
<connect gate="G$1" pin="8" pad="8"/>
<connect gate="G$1" pin="9" pad="9"/>
</connects>
<technologies>
<technology name=""/>
</technologies>
</device>
<device name="SHD" package="2X5-SHROUDED">
<connects>
<connect gate="G$1" pin="1" pad="1"/>
<connect gate="G$1" pin="10" pad="10"/>
<connect gate="G$1" pin="2" pad="2"/>
<connect gate="G$1" pin="3" pad="3"/>
<connect gate="G$1" pin="4" pad="4"/>
<connect gate="G$1" pin="5" pad="5"/>
<connect gate="G$1" pin="6" pad="6"/>
<connect gate="G$1" pin="7" pad="7"/>
<connect gate="G$1" pin="8" pad="8"/>
<connect gate="G$1" pin="9" pad="9"/>
</connects>
<technologies>
<technology name=""/>
</technologies>
</device>
<device name="SHD_LOCK" package="2X5-SHROUDED_LOCK">
<connects>
<connect gate="G$1" pin="1" pad="1"/>
<connect gate="G$1" pin="10" pad="10"/>
<connect gate="G$1" pin="2" pad="2"/>
<connect gate="G$1" pin="3" pad="3"/>
<connect gate="G$1" pin="4" pad="4"/>
<connect gate="G$1" pin="5" pad="5"/>
<connect gate="G$1" pin="6" pad="6"/>
<connect gate="G$1" pin="7" pad="7"/>
<connect gate="G$1" pin="8" pad="8"/>
<connect gate="G$1" pin="9" pad="9"/>
</connects>
<technologies>
<technology name=""/>
</technologies>
</device>
<device name="SHD_SMD" package="2X5-SHROUDED_SMD">
<connects>
<connect gate="G$1" pin="1" pad="1"/>
<connect gate="G$1" pin="10" pad="10"/>
<connect gate="G$1" pin="2" pad="2"/>
<connect gate="G$1" pin="3" pad="3"/>
<connect gate="G$1" pin="4" pad="4"/>
<connect gate="G$1" pin="5" pad="5"/>
<connect gate="G$1" pin="6" pad="6"/>
<connect gate="G$1" pin="7" pad="7"/>
<connect gate="G$1" pin="8" pad="8"/>
<connect gate="G$1" pin="9" pad="9"/>
</connects>
<technologies>
<technology name=""/>
</technologies>
</device>
<device name="NO_SILK" package="2X5_NOSILK">
<connects>
<connect gate="G$1" pin="1" pad="1"/>
<connect gate="G$1" pin="10" pad="10"/>
<connect gate="G$1" pin="2" pad="2"/>
<connect gate="G$1" pin="3" pad="3"/>
<connect gate="G$1" pin="4" pad="4"/>
<connect gate="G$1" pin="5" pad="5"/>
<connect gate="G$1" pin="6" pad="6"/>
<connect gate="G$1" pin="7" pad="7"/>
<connect gate="G$1" pin="8" pad="8"/>
<connect gate="G$1" pin="9" pad="9"/>
</connects>
<technologies>
<technology name=""/>
</technologies>
</device>
<device name="0.05_IN_PTH_SILK" package="2X5_PTH_SILK_.05">
<connects>
<connect gate="G$1" pin="1" pad="1"/>
<connect gate="G$1" pin="10" pad="10"/>
<connect gate="G$1" pin="2" pad="2"/>
<connect gate="G$1" pin="3" pad="3"/>
<connect gate="G$1" pin="4" pad="4"/>
<connect gate="G$1" pin="5" pad="5"/>
<connect gate="G$1" pin="6" pad="6"/>
<connect gate="G$1" pin="7" pad="7"/>
<connect gate="G$1" pin="8" pad="8"/>
<connect gate="G$1" pin="9" pad="9"/>
</connects>
<technologies>
<technology name=""/>
</technologies>
</device>
<device name="SHD-NS" package="2X5-SHROUDED-NS">
<connects>
<connect gate="G$1" pin="1" pad="1"/>
<connect gate="G$1" pin="10" pad="10"/>
<connect gate="G$1" pin="2" pad="2"/>
<connect gate="G$1" pin="3" pad="3"/>
<connect gate="G$1" pin="4" pad="4"/>
<connect gate="G$1" pin="5" pad="5"/>
<connect gate="G$1" pin="6" pad="6"/>
<connect gate="G$1" pin="7" pad="7"/>
<connect gate="G$1" pin="8" pad="8"/>
<connect gate="G$1" pin="9" pad="9"/>
</connects>
<technologies>
<technology name=""/>
</technologies>
</device>
</devices>
</deviceset>
</devicesets>
</library>
</libraries>
<attributes>
</attributes>
<variantdefs>
</variantdefs>
<classes>
<class number="0" name="default" width="0" drill="0">
</class>
</classes>
<parts>
<part name="U$1" library="pinhead" deviceset="PINHD-SWD-2X5-0.05" device=""/>
<part name="JP1" library="SparkFun-Connectors" deviceset="M05X2" device="SHD_SMD"/>
</parts>
<sheets>
<sheet>
<plain>
</plain>
<instances>
<instance part="U$1" gate="G$1" x="45.72" y="50.8"/>
<instance part="JP1" gate="G$1" x="48.26" y="38.1"/>
</instances>
<busses>
</busses>
<nets>
<net name="N$1" class="0">
<segment>
<pinref part="U$1" gate="G$1" pin="TGT_VCC"/>
<wire x1="40.64" y1="68.58" x2="25.4" y2="68.58" width="0.1524" layer="91"/>
<wire x1="25.4" y1="68.58" x2="25.4" y2="43.18" width="0.1524" layer="91"/>
<pinref part="JP1" gate="G$1" pin="1"/>
<wire x1="25.4" y1="43.18" x2="40.64" y2="43.18" width="0.1524" layer="91"/>
</segment>
</net>
<net name="N$2" class="0">
<segment>
<pinref part="U$1" gate="G$1" pin="GND@3"/>
<wire x1="40.64" y1="66.04" x2="27.94" y2="66.04" width="0.1524" layer="91"/>
<wire x1="27.94" y1="66.04" x2="27.94" y2="40.64" width="0.1524" layer="91"/>
<pinref part="JP1" gate="G$1" pin="3"/>
<wire x1="27.94" y1="40.64" x2="40.64" y2="40.64" width="0.1524" layer="91"/>
</segment>
</net>
<net name="N$3" class="0">
<segment>
<pinref part="U$1" gate="G$1" pin="GND@5"/>
<wire x1="40.64" y1="63.5" x2="30.48" y2="63.5" width="0.1524" layer="91"/>
<wire x1="30.48" y1="63.5" x2="30.48" y2="38.1" width="0.1524" layer="91"/>
<pinref part="JP1" gate="G$1" pin="5"/>
<wire x1="30.48" y1="38.1" x2="40.64" y2="38.1" width="0.1524" layer="91"/>
</segment>
</net>
<net name="N$4" class="0">
<segment>
<pinref part="U$1" gate="G$1" pin="NC@7"/>
<wire x1="40.64" y1="60.96" x2="33.02" y2="60.96" width="0.1524" layer="91"/>
<wire x1="33.02" y1="60.96" x2="33.02" y2="35.56" width="0.1524" layer="91"/>
<pinref part="JP1" gate="G$1" pin="7"/>
<wire x1="33.02" y1="35.56" x2="40.64" y2="35.56" width="0.1524" layer="91"/>
</segment>
</net>
<net name="N$5" class="0">
<segment>
<pinref part="U$1" gate="G$1" pin="NC@9"/>
<wire x1="40.64" y1="58.42" x2="35.56" y2="58.42" width="0.1524" layer="91"/>
<wire x1="35.56" y1="58.42" x2="35.56" y2="33.02" width="0.1524" layer="91"/>
<pinref part="JP1" gate="G$1" pin="9"/>
<wire x1="35.56" y1="33.02" x2="40.64" y2="33.02" width="0.1524" layer="91"/>
</segment>
</net>
<net name="N$6" class="0">
<segment>
<pinref part="U$1" gate="G$1" pin="SWD_DIO"/>
<wire x1="76.2" y1="68.58" x2="88.9" y2="68.58" width="0.1524" layer="91"/>
<wire x1="88.9" y1="68.58" x2="88.9" y2="43.18" width="0.1524" layer="91"/>
<pinref part="JP1" gate="G$1" pin="2"/>
<wire x1="88.9" y1="43.18" x2="55.88" y2="43.18" width="0.1524" layer="91"/>
</segment>
</net>
<net name="N$7" class="0">
<segment>
<wire x1="86.36" y1="66.04" x2="86.36" y2="40.64" width="0.1524" layer="91"/>
<pinref part="JP1" gate="G$1" pin="4"/>
<wire x1="86.36" y1="40.64" x2="55.88" y2="40.64" width="0.1524" layer="91"/>
<pinref part="U$1" gate="G$1" pin="SWD_CLK"/>
<wire x1="86.36" y1="66.04" x2="76.2" y2="66.04" width="0.1524" layer="91"/>
</segment>
</net>
<net name="N$8" class="0">
<segment>
<pinref part="U$1" gate="G$1" pin="NC@6"/>
<wire x1="76.2" y1="63.5" x2="83.82" y2="63.5" width="0.1524" layer="91"/>
<wire x1="83.82" y1="63.5" x2="83.82" y2="38.1" width="0.1524" layer="91"/>
<pinref part="JP1" gate="G$1" pin="6"/>
<wire x1="83.82" y1="38.1" x2="55.88" y2="38.1" width="0.1524" layer="91"/>
</segment>
</net>
<net name="N$9" class="0">
<segment>
<pinref part="U$1" gate="G$1" pin="NC@8"/>
<wire x1="76.2" y1="60.96" x2="81.28" y2="60.96" width="0.1524" layer="91"/>
<wire x1="81.28" y1="60.96" x2="81.28" y2="35.56" width="0.1524" layer="91"/>
<pinref part="JP1" gate="G$1" pin="8"/>
<wire x1="81.28" y1="35.56" x2="55.88" y2="35.56" width="0.1524" layer="91"/>
</segment>
</net>
<net name="N$10" class="0">
<segment>
<pinref part="U$1" gate="G$1" pin="RST_TGT"/>
<wire x1="76.2" y1="58.42" x2="78.74" y2="58.42" width="0.1524" layer="91"/>
<wire x1="78.74" y1="58.42" x2="78.74" y2="33.02" width="0.1524" layer="91"/>
<pinref part="JP1" gate="G$1" pin="10"/>
<wire x1="78.74" y1="33.02" x2="55.88" y2="33.02" width="0.1524" layer="91"/>
</segment>
</net>
</nets>
</sheet>
</sheets>
</schematic>
</drawing>
</eagle>
