%!PS-Adobe-3.0 EPSF-3.0
%%Title: EAGLE Drawing /home/agustin/eagle/adaptador/adaptador.brd
%%Creator: EAGLE
%%Pages: 1
%%BoundingBox: 0 0 613 860
%%EndComments

% Coordinate transfer:

/EU { 254 div 0.072 mul } def
/inch { 72 mul } def

% Linestyle:

1 setlinecap
1 setlinejoin

% Drawing functions:

/l {  % draw a line
   /lw exch def
   /y2 exch def
   /x2 exch def
   /y1 exch def
   /x1 exch def
   newpath
   x1 EU y1 EU moveto
   x2 EU y2 EU lineto
   lw EU setlinewidth
   stroke
   } def

/h {  % draw a hole
   /d  exch def
   /y  exch def
   /x  exch def
   d 0 gt {
     newpath
     x EU y EU d 2 div EU 0 360 arc
     currentgray dup
     1 exch sub setgray
     fill
     setgray
     } if
   } def

/b {  % draw a bar
   /an exch def
   /y2 exch def
   /x2 exch def
   /y1 exch def
   /x1 exch def
   /w2 x2 x1 sub 2 div EU def
   /h2 y2 y1 sub 2 div EU def
   gsave
   x1 x2 add 2 div EU y1 y2 add 2 div EU translate
   an rotate
   newpath
   w2     h2     moveto
   w2 neg h2     lineto
   w2 neg h2 neg lineto
   w2     h2 neg lineto
   closepath
   fill
   grestore
   } def

/c {  % draw a circle
   /lw exch def
   /rd exch def
   /y  exch def
   /x  exch def
   newpath
   lw EU setlinewidth
   x EU y EU rd EU 0 360 arc
   stroke
   } def

/a {  % draw an arc
   /lc exch def
   /ae exch def
   /as exch def
   /lw exch def
   /rd exch def
   /y  exch def
   /x  exch def
   lw rd 2 mul gt {
     /rd rd lw 2 div add 2 div def
     /lw rd 2 mul def
     } if
   currentlinecap currentlinejoin
   lc setlinecap 0 setlinejoin
   newpath
   lw EU setlinewidth
   x EU y EU rd EU as ae arc
   stroke
   setlinejoin setlinecap
   } def

/p {  % draw a pie
   /d exch def
   /y exch def
   /x exch def
   newpath
   x EU y EU d 2 div EU 0 360 arc
   fill
   } def

/edge { 0.20710678119 mul } def

/o {  % draw an octagon
   /an exch def
   /dy exch def
   /dx exch def
   /y  exch def
   /x  exch def
   gsave
   x EU y EU translate
   an dx dy lt { 90 add /dx dy /dy dx def def } if rotate
   newpath
      0 dx 2 div sub EU                    0 dy edge  add EU moveto
      0 dx dy sub 2 div sub dy edge sub EU 0 dy 2 div add EU lineto
      0 dx dy sub 2 div add dy edge add EU 0 dy 2 div add EU lineto
      0 dx 2 div add EU                    0 dy edge  add EU lineto
      0 dx 2 div add EU                    0 dy edge  sub EU lineto
      0 dx dy sub 2 div add dy edge add EU 0 dy 2 div sub EU lineto
      0 dx dy sub 2 div sub dy edge sub EU 0 dy 2 div sub EU lineto
      0 dx 2 div sub EU                    0 dy edge  sub EU lineto
   closepath
   fill
   grestore
   } def

% the real drawing size:

/MinDrawX      0 EU def
/MinDrawY      0 EU def
/MaxDrawX 230380 EU def
/MaxDrawY 221396 EU def

% the usable page size:

/LeftMargin 0.25 inch def  % change these if drawing gets clipped!
/BotMargin  0.25 inch def
/PageWidth   8.2677 inch def
/PageHeight 11.6929 inch def

% are we going to rotate?:

/RotateDrawing 0 0 ne def

% Media size functions:

/AbortMessage {  % Show a message in a box and stop printing
   /h 100 def
   /Courier findfont 12 scalefont setfont
   mediawidth pagemargin sub h 1 setpage
   newpath
   0 0 moveto
   0 h rlineto
   mediawidth pagemargin sub 0 rlineto
   0 h neg rlineto
   closepath
   5 setlinewidth
   stroke
   newpath 50 60 moveto (ERROR: Jobsize exceeds physical printing area!) show
   newpath 50 40 moveto (       Job has been aborted!) show
   showpage
   stop
   } def

/SelectPage {  % Select the page identified by Row and Column
   /Column exch def
   /Row    exch def

   % the actually exposed area (if the machine knows these parameters!):

   /DrawX MaxDrawX MinDrawX sub def
   /DrawY MaxDrawY MinDrawY sub def
   statusdict /setpage known
   statusdict /mediawidth known and
   statusdict /medialength known and
   statusdict /pagemargin known and {
      % this is for machines that can tell the media size:
      statusdict begin
         /MediaW mediawidth pagemargin sub def
         DrawX DrawY ge {
            DrawX MediaW le DrawY medialength le and {
               MediaW DrawY 1 setpage
               MediaW DrawX sub 2 div 0 translate
               }{
            DrawY MediaW le DrawX medialength le and {
               MediaW DrawX 0 setpage
               0 MediaW DrawY sub 2 div translate
               }{
               AbortMessage
               } ifelse
               } ifelse
            }{
            DrawY MediaW le DrawX medialength le and {
               MediaW DrawX 0 setpage
               0 MediaW DrawY sub 2 div translate
               }{
            DrawX MediaW le DrawY medialength le and {
               MediaW DrawY 1 setpage
               MediaW DrawX sub 2 div 0 translate
               }{
               AbortMessage
               } ifelse
               } ifelse
            } ifelse
         end
      }{
      % this is for machines that can NOT tell the media size:
      % (Ghostscript doesn't like this!)
      /Product product length string def
      /i 0 def
      product { dup 97 lt { 32 add } if Product exch i exch put /i i 1 add def } forall 
      Product (ghostscript) search dup /IsGhostscript exch def
      { pop pop } if
      pop
      IsGhostscript not {
         statusdict /setpage known {
            statusdict begin
               RotateDrawing {
                  LeftMargin PageHeight add BotMargin DrawY add
                  }{
                  BotMargin DrawY add LeftMargin DrawX add 
                  } ifelse
               0 setpage
               end
            } if
         } if
      % set clipping boundary:
      newpath
      LeftMargin BotMargin moveto
      0 PageHeight rlineto
      PageWidth  0 rlineto
      0 PageHeight neg rlineto
      closepath
      clip
      % set the origin:
      LeftMargin BotMargin translate
      RotateDrawing {
         0 PageHeight translate
         -90 rotate
         PageHeight Column mul neg PageWidth Row mul neg translate
         }{
         PageWidth Column mul neg PageHeight Row mul neg translate
         } ifelse
      } ifelse
   % move the lower left corner of the drawing to the origin:
   MinDrawX neg MinDrawY neg translate
   
   % Linestyle:
   
   1 setlinecap
   1 setlinejoin
   
   % invert drawing:
   newpath
   MinDrawX MinDrawY moveto
   MaxDrawX MinDrawY lineto
   MaxDrawX MaxDrawY lineto
   MinDrawX MaxDrawY lineto
   0 setgray
   closepath fill
   1 setgray
   
   } def

% TheDrawing

gsave 0 0 SelectPage
2540 2956 227840 2956 0 l
227840 2956 227840 218756 0 l
227840 218756 2540 218756 0 l
2540 218756 2540 2956 0 l
167640 129956 157480 129956 10160 l
167640 117256 157480 117256 10160 l
167640 104556 157480 104556 10160 l
167640 91856 157480 91856 10160 l
167640 79156 157480 79156 10160 l
180340 79156 190500 79156 10160 l
180340 91856 190500 91856 10160 l
180340 104556 190500 104556 10160 l
180340 117256 190500 117256 10160 l
180340 129956 190500 129956 10160 l
101130 51256 137630 51256 5000 l
137630 51256 137630 56256 5000 l
137630 56256 101130 56256 5000 l
101130 56256 101130 51256 5000 l
100876 51002 137884 56510 180.0 b
45250 51256 81750 51256 5000 l
81750 51256 81750 56256 5000 l
81750 56256 45250 56256 5000 l
45250 56256 45250 51256 5000 l
44996 51002 82004 56510 180.0 b
101130 76656 137630 76656 5000 l
137630 76656 137630 81656 5000 l
137630 81656 101130 81656 5000 l
101130 81656 101130 76656 5000 l
100876 76402 137884 81910 180.0 b
45250 76656 81750 76656 5000 l
81750 76656 81750 81656 5000 l
81750 81656 45250 81656 5000 l
45250 81656 45250 76656 5000 l
44996 76402 82004 81910 180.0 b
101130 102056 137630 102056 5000 l
137630 102056 137630 107056 5000 l
137630 107056 101130 107056 5000 l
101130 107056 101130 102056 5000 l
100876 101802 137884 107310 180.0 b
45250 102056 81750 102056 5000 l
81750 102056 81750 107056 5000 l
81750 107056 45250 107056 5000 l
45250 107056 45250 102056 5000 l
44996 101802 82004 107310 180.0 b
101130 127456 137630 127456 5000 l
137630 127456 137630 132456 5000 l
137630 132456 101130 132456 5000 l
101130 132456 101130 127456 5000 l
100876 127202 137884 132710 180.0 b
45250 127456 81750 127456 5000 l
81750 127456 81750 132456 5000 l
81750 132456 45250 132456 5000 l
45250 132456 45250 127456 5000 l
44996 127202 82004 132710 180.0 b
101130 152856 137630 152856 5000 l
137630 152856 137630 157856 5000 l
137630 157856 101130 157856 5000 l
101130 157856 101130 152856 5000 l
100876 152602 137884 158110 180.0 b
45250 152856 81750 152856 5000 l
81750 152856 81750 157856 5000 l
81750 157856 45250 157856 5000 l
45250 157856 45250 152856 5000 l
44996 152602 82004 158110 180.0 b
167640 79156 142240 53756 3048 l
142240 53756 119380 53756 3048 l
167640 91856 142240 91856 3048 l
142240 91856 129540 79156 3048 l
129540 79156 119380 79156 3048 l
119380 104556 167640 104556 3048 l
119380 129956 129540 129956 3048 l
129540 129956 142240 117256 3048 l
142240 117256 167640 117256 3048 l
119380 155356 142240 155356 3048 l
142240 155356 167640 129956 3048 l
180340 79156 180340 66456 3048 l
180340 66456 154940 41056 3048 l
154940 41056 66040 41056 3048 l
66040 41056 66040 51216 3048 l
66040 51216 63500 53756 3048 l
180340 91856 205740 91856 3048 l
205740 91856 205740 79156 3048 l
205740 79156 154940 28356 3048 l
154940 28356 53340 28356 3048 l
53340 28356 27940 53756 3048 l
27940 53756 27940 66456 3048 l
27940 66456 40640 79156 3048 l
40640 79156 63500 79156 3048 l
180340 104556 218440 104556 3048 l
218440 104556 218440 79156 3048 l
218440 79156 154940 15656 3048 l
154940 15656 40640 15656 3048 l
40640 15656 15240 41056 3048 l
15240 41056 15240 79156 3048 l
15240 79156 40640 104556 3048 l
40640 104556 63500 104556 3048 l
180340 117256 218440 117256 3048 l
218440 117256 218440 142656 3048 l
218440 142656 180340 180756 3048 l
180340 180756 53340 180756 3048 l
53340 180756 27940 155356 3048 l
27940 155356 27940 142656 3048 l
27940 142656 40640 129956 3048 l
40640 129956 63500 129956 3048 l
180340 129956 180340 155356 3048 l
180340 155356 167640 168056 3048 l
167640 168056 66040 168056 3048 l
66040 168056 66040 157896 3048 l
66040 157896 63500 155356 3048 l
showpage grestore
