%
M48
M72
T01C0.0138
T02C0.0157
T03C0.0315
T04C0.0400
T05C0.0470
T06C0.1378
%
T01
X10400Y11900
X14400Y5050
T02
X11100Y14000
X13550Y14400
X10150Y18150
X9500Y18100
X8250Y16400
X7650Y14650
X8650Y14150
X8650Y10650
X8650Y10150
X6150Y12650
X7650Y19650
X6650Y21150
X5350Y19900
X6100Y23800
X8650Y21150
X9400Y22400
X9150Y22650
X9650Y22150
X6650Y5150
X6650Y4650
X6150Y4650
X6150Y5150
X5650Y5150
X5650Y4650
T03
X3819Y17937
X3819Y18725
X3819Y19512
X3819Y20300
X3819Y21087
X3819Y21874
X3819Y22662
X3819Y23449
X3819Y24237
X3819Y25024
X12481Y25024
X12481Y24237
X12481Y23449
X12481Y22662
X12481Y21874
X12481Y21087
X12481Y20300
X12481Y19512
X12481Y18725
X12481Y17937
T04
X12550Y13600
X12550Y12600
X12550Y11600
X12550Y9450
X12550Y8450
X12550Y7450
X5150Y11150
X5150Y12150
X5150Y13150
X4150Y13150
X4150Y12150
X4150Y11150
T05
X4866Y2150
X6834Y2150
X10166Y2150
X12134Y2150
T06
X1650Y1650
X15150Y1650
X15150Y24650
X1650Y24650
M30
