%
M48
M72
T01C0.0157
T02C0.0236
T03C0.0276
T04C0.0320
T05C0.0400
T06C0.0470
T07C0.0520
T08C0.1180
T09C0.1575
%
T01
X8660Y7160
X14660Y12660
X13910Y13010
X13410Y13010
X12910Y13160
X13160Y14660
X14660Y16160
X15160Y15660
X15160Y15160
X13660Y17160
X12260Y18610
X12260Y19260
X12860Y19260
X12860Y19910
X12260Y19910
X12160Y20660
X12160Y22160
X10660Y22660
X12160Y24160
X13660Y22660
X14160Y22160
X14010Y23660
X16460Y24510
X17160Y24160
X14660Y26660
X14660Y27160
X9160Y26660
X9160Y26160
X8660Y26160
X8660Y26660
X8160Y26660
X8160Y26160
X6160Y27660
X5660Y27660
X5160Y27660
X13710Y20260
X15010Y20210
X15010Y19710
T02
X10660Y33160
T03
X8660Y30152
X8660Y29168
X11160Y28652
X11160Y27668
T04
X11160Y8660
X12160Y8660
X13160Y8660
X14160Y8660
X15160Y8660
X16160Y8660
X17160Y8660
X18160Y8660
X18160Y5660
X17160Y5660
X16160Y5660
X15160Y5660
X14160Y5660
X13160Y5660
X12160Y5660
X11160Y5660
X10160Y5660
X10160Y8660
T05
X17160Y25160
X17160Y26160
X17160Y27160
X18160Y27160
X18160Y26160
X18160Y25160
T06
X3160Y24176
X3160Y26144
X3168Y17129
X3168Y15160
X3168Y13191
X36168Y13191
X36168Y15160
X36168Y17129
X36168Y20691
X36168Y22660
X36168Y24629
X36168Y28191
X36168Y30160
X36168Y32129
X36168Y9629
X36168Y7660
X36168Y5691
T07
X30010Y5310
X30010Y10010
X30010Y12810
X25210Y12810
X24410Y15160
X25210Y17510
X25210Y20310
X24410Y22660
X25210Y25010
X25210Y27810
X24410Y30160
X25210Y32510
X30010Y32510
X30010Y27810
X30010Y25010
X30010Y20310
X30010Y17510
X25210Y10010
X24410Y7660
X25210Y5310
T08
X5373Y29310
X6554Y31160
X4191Y31160
T09
X3160Y2160
X34660Y2160
X34660Y35660
X3160Y35660
M30
