%
M48
M72
T01C0.0118
T02C0.0157
T03C0.0197
T04C0.0394
T05C0.0400
T06C0.0470
T07C0.0500
T08C0.0700
T09C0.1260
T10C0.1378
%
T01
X6942Y16265
X6734Y16864
X6986Y17464
X7543Y17909
X8010Y17992
X8109Y19199
X7715Y19199
X7321Y19199
X7321Y19699
X7715Y19699
X8109Y19699
X8109Y20199
X7715Y20199
X7321Y20199
X7321Y20699
X7715Y20699
X8109Y20699
X8503Y20699
X8896Y20699
X8896Y20199
X8503Y20199
X8503Y19699
X8896Y19699
X8896Y19199
X8503Y19199
X6298Y19393
X4857Y20866
X4910Y21442
X5550Y22872
X6140Y23030
X6148Y22518
X7010Y21892
X6534Y21368
X7085Y23542
X7715Y23542
X8345Y23542
X8384Y24125
X8384Y24675
X7634Y24675
X7184Y25175
X7184Y25875
X7184Y26725
X7184Y27425
X6160Y27392
X5160Y27392
X4160Y27392
X3160Y27392
X3160Y25392
X3160Y24642
X2160Y24642
X8542Y22794
X8581Y22203
X9644Y21486
X9762Y22077
X9887Y22707
X10321Y22963
X9566Y23258
X9566Y23758
X9920Y24494
X10384Y24675
X10884Y25575
X10884Y26175
X10884Y26825
X10884Y27375
X12111Y22257
X12394Y20616
X12312Y19628
X10786Y20069
X10454Y16568
X10019Y16283
X9146Y16676
X2660Y17392
X18460Y16342
X22360Y11542
X24210Y12192
T02
X1660Y2892
X2660Y2892
X3660Y2892
X660Y3392
X660Y4392
X660Y5392
X660Y6392
X660Y7392
X660Y8392
X660Y9392
X660Y10392
X660Y11392
X660Y12392
X660Y13392
X660Y14392
X660Y15392
X1285Y15517
X660Y16392
X660Y17392
X1285Y18017
X660Y18392
X660Y19392
X1285Y20017
X660Y20392
X660Y21392
X1285Y21642
X660Y22392
X1285Y23017
X660Y23392
X660Y24392
X660Y25392
X660Y26392
X660Y27392
X4160Y26392
X5160Y26392
X6160Y26392
X6160Y25392
X5160Y25392
X4160Y25392
X4160Y24392
X5160Y24392
X6160Y24392
X11160Y24392
X11160Y23642
X12160Y23392
X12160Y24392
X12160Y25392
X12160Y26392
X12160Y27392
X11460Y27392
X13160Y27392
X14160Y27392
X15160Y27392
X16160Y27392
X17160Y27392
X18035Y27392
X19035Y27392
X20035Y27392
X20160Y26392
X19160Y26392
X19160Y25392
X20160Y25392
X21160Y25392
X21160Y26392
X22160Y26392
X23160Y26392
X23160Y25392
X22160Y25392
X22035Y27392
X21035Y27392
X23035Y27392
X24035Y27392
X25035Y27392
X26035Y27392
X27035Y27392
X28035Y27392
X30535Y27392
X30535Y26392
X30535Y25392
X30535Y24642
X29160Y24642
X27910Y24642
X21910Y23267
X21160Y23267
X19160Y23392
X19160Y24392
X18160Y24392
X18160Y25392
X18160Y26392
X17160Y26392
X16160Y26392
X15160Y26392
X14160Y26392
X13160Y26392
X13160Y25392
X14160Y25392
X15160Y25392
X16160Y25392
X17160Y25392
X17160Y24392
X16160Y24392
X15160Y24392
X14160Y24392
X13160Y24392
X13160Y23392
X14160Y23392
X15160Y23392
X16160Y23392
X17160Y23392
X18160Y23392
X15160Y22392
X14160Y22392
X13160Y22392
X14160Y21392
X3910Y19192
X7160Y9142
X8285Y7642
X10785Y7642
X13285Y7642
X15785Y7642
X18660Y7142
X28035Y2892
X29535Y2892
X30535Y2892
X30535Y4642
X30535Y5642
X30535Y6642
X30535Y7642
X30535Y8642
X30535Y9642
X30535Y10642
X30535Y11642
X30535Y12642
X30535Y13642
X29535Y13642
X28535Y13642
T03
X25285Y14517
X25285Y15142
X21660Y13392
X20035Y10017
X17660Y10017
X15160Y10017
X12660Y10017
X10160Y10017
X3410Y11642
X19660Y18892
X25785Y9892
T04
X25910Y7892
X24910Y7892
X23910Y7892
X22910Y7892
X22410Y6892
X23410Y6892
X24410Y6892
X25410Y6892
T05
X27160Y11392
X27160Y12392
X27160Y13392
X18160Y21392
X17160Y21392
X16160Y21392
X9160Y13892
X8160Y13892
X7160Y13892
X3660Y20392
X3660Y21392
X3660Y22392
X3660Y23392
X2660Y23392
X2660Y22392
X2660Y21392
X2660Y20392
T06
X5176Y5392
X7144Y5392
X10160Y5392
X12160Y5392
X14160Y5392
X16160Y5392
X18160Y5392
T07
X8960Y26392
T08
X7956Y27396
X9964Y27396
X9964Y25388
X7956Y25388
T09
X21910Y4392
X26410Y4392
T10
X29160Y4892
X29160Y26392
X2160Y26392
X2160Y4892
M30
