<?xml version="1.0" encoding="utf-8"?>
<!DOCTYPE eagle SYSTEM "eagle.dtd">
<eagle version="8.2.1">
<drawing>
<settings>
<setting alwaysvectorfont="no"/>
<setting verticaltext="up"/>
</settings>
<grid distance="0.1" unitdist="inch" unit="inch" style="lines" multiple="1" display="no" altdistance="0.01" altunitdist="inch" altunit="inch"/>
<layers>
<layer number="1" name="Top" color="4" fill="1" visible="no" active="no"/>
<layer number="16" name="Bottom" color="1" fill="1" visible="no" active="no"/>
<layer number="17" name="Pads" color="2" fill="1" visible="no" active="no"/>
<layer number="18" name="Vias" color="2" fill="1" visible="no" active="no"/>
<layer number="19" name="Unrouted" color="6" fill="1" visible="no" active="no"/>
<layer number="20" name="Dimension" color="15" fill="1" visible="no" active="no"/>
<layer number="21" name="tPlace" color="16" fill="1" visible="no" active="no"/>
<layer number="22" name="bPlace" color="7" fill="1" visible="no" active="no"/>
<layer number="23" name="tOrigins" color="15" fill="1" visible="no" active="no"/>
<layer number="24" name="bOrigins" color="15" fill="1" visible="no" active="no"/>
<layer number="25" name="tNames" color="7" fill="1" visible="no" active="no"/>
<layer number="26" name="bNames" color="7" fill="1" visible="no" active="no"/>
<layer number="27" name="tValues" color="7" fill="1" visible="no" active="no"/>
<layer number="28" name="bValues" color="7" fill="1" visible="no" active="no"/>
<layer number="29" name="tStop" color="7" fill="3" visible="no" active="no"/>
<layer number="30" name="bStop" color="7" fill="6" visible="no" active="no"/>
<layer number="31" name="tCream" color="7" fill="4" visible="no" active="no"/>
<layer number="32" name="bCream" color="7" fill="5" visible="no" active="no"/>
<layer number="33" name="tFinish" color="6" fill="3" visible="no" active="no"/>
<layer number="34" name="bFinish" color="6" fill="6" visible="no" active="no"/>
<layer number="35" name="tGlue" color="7" fill="4" visible="no" active="no"/>
<layer number="36" name="bGlue" color="7" fill="5" visible="no" active="no"/>
<layer number="37" name="tTest" color="7" fill="1" visible="no" active="no"/>
<layer number="38" name="bTest" color="7" fill="1" visible="no" active="no"/>
<layer number="39" name="tKeepout" color="4" fill="11" visible="no" active="no"/>
<layer number="40" name="bKeepout" color="1" fill="11" visible="no" active="no"/>
<layer number="41" name="tRestrict" color="4" fill="10" visible="no" active="no"/>
<layer number="42" name="bRestrict" color="1" fill="10" visible="no" active="no"/>
<layer number="43" name="vRestrict" color="2" fill="10" visible="no" active="no"/>
<layer number="44" name="Drills" color="7" fill="1" visible="no" active="no"/>
<layer number="45" name="Holes" color="7" fill="1" visible="no" active="no"/>
<layer number="46" name="Milling" color="3" fill="1" visible="no" active="no"/>
<layer number="47" name="Measures" color="7" fill="1" visible="no" active="no"/>
<layer number="48" name="Document" color="7" fill="1" visible="no" active="no"/>
<layer number="49" name="Reference" color="7" fill="1" visible="no" active="no"/>
<layer number="50" name="dxf" color="7" fill="1" visible="no" active="no"/>
<layer number="51" name="tDocu" color="14" fill="1" visible="no" active="no"/>
<layer number="52" name="bDocu" color="7" fill="1" visible="no" active="no"/>
<layer number="53" name="tGND_GNDA" color="7" fill="9" visible="no" active="no"/>
<layer number="54" name="bGND_GNDA" color="1" fill="9" visible="no" active="no"/>
<layer number="56" name="wert" color="7" fill="1" visible="no" active="no"/>
<layer number="57" name="tCAD" color="7" fill="1" visible="no" active="no"/>
<layer number="59" name="tCarbon" color="7" fill="1" visible="no" active="no"/>
<layer number="60" name="bCarbon" color="7" fill="1" visible="no" active="no"/>
<layer number="90" name="Modules" color="5" fill="1" visible="yes" active="yes"/>
<layer number="91" name="Nets" color="2" fill="1" visible="yes" active="yes"/>
<layer number="92" name="Busses" color="1" fill="1" visible="yes" active="yes"/>
<layer number="93" name="Pins" color="2" fill="1" visible="no" active="yes"/>
<layer number="94" name="Symbols" color="4" fill="1" visible="yes" active="yes"/>
<layer number="95" name="Names" color="7" fill="1" visible="yes" active="yes"/>
<layer number="96" name="Values" color="7" fill="1" visible="yes" active="yes"/>
<layer number="97" name="Info" color="7" fill="1" visible="yes" active="yes"/>
<layer number="98" name="Guide" color="6" fill="1" visible="yes" active="yes"/>
<layer number="99" name="SpiceOrder" color="7" fill="1" visible="yes" active="yes"/>
<layer number="100" name="Muster" color="7" fill="1" visible="no" active="no"/>
<layer number="101" name="Patch_Top" color="12" fill="4" visible="yes" active="yes"/>
<layer number="102" name="Vscore" color="7" fill="1" visible="yes" active="yes"/>
<layer number="103" name="tMap" color="7" fill="1" visible="yes" active="yes"/>
<layer number="104" name="Name" color="16" fill="1" visible="yes" active="yes"/>
<layer number="105" name="tPlate" color="7" fill="1" visible="yes" active="yes"/>
<layer number="106" name="bPlate" color="7" fill="1" visible="yes" active="yes"/>
<layer number="107" name="Crop" color="7" fill="1" visible="yes" active="yes"/>
<layer number="108" name="tplace-old" color="10" fill="1" visible="yes" active="yes"/>
<layer number="109" name="ref-old" color="11" fill="1" visible="yes" active="yes"/>
<layer number="110" name="fp0" color="7" fill="1" visible="yes" active="yes"/>
<layer number="111" name="LPC17xx" color="7" fill="1" visible="yes" active="yes"/>
<layer number="112" name="tSilk" color="7" fill="1" visible="yes" active="yes"/>
<layer number="113" name="IDFDebug" color="4" fill="1" visible="yes" active="yes"/>
<layer number="114" name="Badge_Outline" color="7" fill="1" visible="yes" active="yes"/>
<layer number="115" name="ReferenceISLANDS" color="7" fill="1" visible="yes" active="yes"/>
<layer number="116" name="Patch_BOT" color="9" fill="4" visible="yes" active="yes"/>
<layer number="118" name="Rect_Pads" color="7" fill="1" visible="yes" active="yes"/>
<layer number="121" name="_tsilk" color="7" fill="1" visible="yes" active="yes"/>
<layer number="122" name="_bsilk" color="7" fill="1" visible="yes" active="yes"/>
<layer number="123" name="tTestmark" color="7" fill="1" visible="yes" active="yes"/>
<layer number="124" name="bTestmark" color="7" fill="1" visible="yes" active="yes"/>
<layer number="125" name="_tNames" color="7" fill="1" visible="yes" active="yes"/>
<layer number="126" name="_bNames" color="7" fill="1" visible="yes" active="yes"/>
<layer number="127" name="_tValues" color="7" fill="1" visible="yes" active="yes"/>
<layer number="128" name="_bValues" color="7" fill="1" visible="yes" active="yes"/>
<layer number="129" name="Mask" color="7" fill="1" visible="yes" active="yes"/>
<layer number="131" name="tAdjust" color="7" fill="1" visible="yes" active="yes"/>
<layer number="132" name="bAdjust" color="7" fill="1" visible="yes" active="yes"/>
<layer number="144" name="Drill_legend" color="7" fill="1" visible="yes" active="yes"/>
<layer number="150" name="Notes" color="7" fill="1" visible="yes" active="yes"/>
<layer number="151" name="HeatSink" color="7" fill="1" visible="yes" active="yes"/>
<layer number="152" name="_bDocu" color="7" fill="1" visible="yes" active="yes"/>
<layer number="153" name="FabDoc1" color="7" fill="1" visible="yes" active="yes"/>
<layer number="154" name="FabDoc2" color="7" fill="1" visible="yes" active="yes"/>
<layer number="155" name="FabDoc3" color="7" fill="1" visible="yes" active="yes"/>
<layer number="199" name="Contour" color="7" fill="1" visible="yes" active="yes"/>
<layer number="200" name="200bmp" color="1" fill="10" visible="yes" active="yes"/>
<layer number="201" name="201bmp" color="2" fill="10" visible="yes" active="yes"/>
<layer number="202" name="202bmp" color="3" fill="10" visible="yes" active="yes"/>
<layer number="203" name="203bmp" color="4" fill="10" visible="yes" active="yes"/>
<layer number="204" name="204bmp" color="5" fill="10" visible="yes" active="yes"/>
<layer number="205" name="205bmp" color="6" fill="10" visible="yes" active="yes"/>
<layer number="206" name="206bmp" color="7" fill="10" visible="yes" active="yes"/>
<layer number="207" name="207bmp" color="8" fill="10" visible="yes" active="yes"/>
<layer number="208" name="208bmp" color="9" fill="10" visible="yes" active="yes"/>
<layer number="209" name="209bmp" color="7" fill="1" visible="yes" active="yes"/>
<layer number="210" name="210bmp" color="7" fill="1" visible="yes" active="yes"/>
<layer number="211" name="211bmp" color="7" fill="1" visible="yes" active="yes"/>
<layer number="212" name="212bmp" color="7" fill="1" visible="yes" active="yes"/>
<layer number="213" name="213bmp" color="7" fill="1" visible="yes" active="yes"/>
<layer number="214" name="214bmp" color="7" fill="1" visible="yes" active="yes"/>
<layer number="215" name="215bmp" color="7" fill="1" visible="yes" active="yes"/>
<layer number="216" name="216bmp" color="7" fill="1" visible="yes" active="yes"/>
<layer number="217" name="217bmp" color="18" fill="1" visible="no" active="no"/>
<layer number="218" name="218bmp" color="19" fill="1" visible="no" active="no"/>
<layer number="219" name="219bmp" color="20" fill="1" visible="no" active="no"/>
<layer number="220" name="220bmp" color="21" fill="1" visible="no" active="no"/>
<layer number="221" name="221bmp" color="22" fill="1" visible="no" active="no"/>
<layer number="222" name="222bmp" color="23" fill="1" visible="no" active="no"/>
<layer number="223" name="223bmp" color="24" fill="1" visible="no" active="no"/>
<layer number="224" name="224bmp" color="25" fill="1" visible="no" active="no"/>
<layer number="225" name="225bmp" color="7" fill="1" visible="yes" active="yes"/>
<layer number="226" name="226bmp" color="7" fill="1" visible="yes" active="yes"/>
<layer number="227" name="227bmp" color="7" fill="1" visible="yes" active="yes"/>
<layer number="228" name="228bmp" color="7" fill="1" visible="yes" active="yes"/>
<layer number="229" name="229bmp" color="7" fill="1" visible="yes" active="yes"/>
<layer number="230" name="230bmp" color="7" fill="1" visible="yes" active="yes"/>
<layer number="231" name="231bmp" color="7" fill="1" visible="yes" active="yes"/>
<layer number="248" name="Housing" color="7" fill="1" visible="yes" active="yes"/>
<layer number="249" name="Edge" color="7" fill="1" visible="yes" active="yes"/>
<layer number="250" name="Descript" color="3" fill="1" visible="no" active="no"/>
<layer number="251" name="SMDround" color="12" fill="11" visible="no" active="no"/>
<layer number="254" name="cooling" color="7" fill="1" visible="yes" active="yes"/>
<layer number="255" name="routoute" color="7" fill="1" visible="yes" active="yes"/>
</layers>
<schematic xreflabel="%F%N/%S" xrefpart="/%S.%C%R">
<libraries>
<library name="SparkFun-Connectors">
<description>&lt;h3&gt;SparkFun Connectors&lt;/h3&gt;
This library contains electrically-functional connectors. 
&lt;br&gt;
&lt;br&gt;
We've spent an enormous amount of time creating and checking these footprints and parts, but it is &lt;b&gt; the end user's responsibility&lt;/b&gt; to ensure correctness and suitablity for a given componet or application. 
&lt;br&gt;
&lt;br&gt;If you enjoy using this library, please buy one of our products at &lt;a href=" www.sparkfun.com"&gt;SparkFun.com&lt;/a&gt;.
&lt;br&gt;
&lt;br&gt;
&lt;b&gt;Licensing:&lt;/b&gt; Creative Commons ShareAlike 4.0 International - https://creativecommons.org/licenses/by-sa/4.0/ 
&lt;br&gt;
&lt;br&gt;
You are welcome to use this library for commercial purposes. For attribution, we ask that when you begin to sell your device using our footprint, you email us with a link to the product being sold. We want bragging rights that we helped (in a very small part) to create your 8th world wonder. We would like the opportunity to feature your device on our homepage.</description>
<packages>
<package name="2X5">
<description>&lt;h3&gt;Plated Through Hole - 2x5&lt;/h3&gt;
&lt;p&gt;Specifications:
&lt;ul&gt;&lt;li&gt;Pin count:10&lt;/li&gt;
&lt;li&gt;Pin pitch:0.1"&lt;/li&gt;
&lt;/ul&gt;&lt;/p&gt;
&lt;p&gt;Example device(s):
&lt;ul&gt;&lt;li&gt;CONN_05x2&lt;/li&gt;
&lt;/ul&gt;&lt;/p&gt;</description>
<wire x1="-1.27" y1="-0.635" x2="-0.635" y2="-1.27" width="0.1524" layer="21"/>
<wire x1="0.635" y1="-1.27" x2="1.27" y2="-0.635" width="0.1524" layer="21"/>
<wire x1="1.27" y1="-0.635" x2="1.905" y2="-1.27" width="0.1524" layer="21"/>
<wire x1="3.175" y1="-1.27" x2="3.81" y2="-0.635" width="0.1524" layer="21"/>
<wire x1="3.81" y1="-0.635" x2="4.445" y2="-1.27" width="0.1524" layer="21"/>
<wire x1="5.715" y1="-1.27" x2="6.35" y2="-0.635" width="0.1524" layer="21"/>
<wire x1="6.35" y1="-0.635" x2="6.985" y2="-1.27" width="0.1524" layer="21"/>
<wire x1="8.255" y1="-1.27" x2="8.89" y2="-0.635" width="0.1524" layer="21"/>
<wire x1="-1.27" y1="-0.635" x2="-1.27" y2="3.175" width="0.1524" layer="21"/>
<wire x1="-1.27" y1="3.175" x2="-0.635" y2="3.81" width="0.1524" layer="21"/>
<wire x1="-0.635" y1="3.81" x2="0.635" y2="3.81" width="0.1524" layer="21"/>
<wire x1="0.635" y1="3.81" x2="1.27" y2="3.175" width="0.1524" layer="21"/>
<wire x1="1.27" y1="3.175" x2="1.905" y2="3.81" width="0.1524" layer="21"/>
<wire x1="1.905" y1="3.81" x2="3.175" y2="3.81" width="0.1524" layer="21"/>
<wire x1="3.175" y1="3.81" x2="3.81" y2="3.175" width="0.1524" layer="21"/>
<wire x1="3.81" y1="3.175" x2="4.445" y2="3.81" width="0.1524" layer="21"/>
<wire x1="4.445" y1="3.81" x2="5.715" y2="3.81" width="0.1524" layer="21"/>
<wire x1="5.715" y1="3.81" x2="6.35" y2="3.175" width="0.1524" layer="21"/>
<wire x1="6.35" y1="3.175" x2="6.985" y2="3.81" width="0.1524" layer="21"/>
<wire x1="6.985" y1="3.81" x2="8.255" y2="3.81" width="0.1524" layer="21"/>
<wire x1="8.255" y1="3.81" x2="8.89" y2="3.175" width="0.1524" layer="21"/>
<wire x1="1.27" y1="3.175" x2="1.27" y2="-0.635" width="0.1524" layer="21"/>
<wire x1="3.81" y1="3.175" x2="3.81" y2="-0.635" width="0.1524" layer="21"/>
<wire x1="6.35" y1="3.175" x2="6.35" y2="-0.635" width="0.1524" layer="21"/>
<wire x1="8.89" y1="3.175" x2="8.89" y2="-0.635" width="0.1524" layer="21"/>
<wire x1="6.985" y1="-1.27" x2="8.255" y2="-1.27" width="0.1524" layer="21"/>
<wire x1="4.445" y1="-1.27" x2="5.715" y2="-1.27" width="0.1524" layer="21"/>
<wire x1="1.905" y1="-1.27" x2="3.175" y2="-1.27" width="0.1524" layer="21"/>
<wire x1="-0.635" y1="-1.27" x2="0.635" y2="-1.27" width="0.1524" layer="21"/>
<wire x1="8.89" y1="-0.635" x2="9.525" y2="-1.27" width="0.1524" layer="21"/>
<wire x1="10.795" y1="-1.27" x2="11.43" y2="-0.635" width="0.1524" layer="21"/>
<wire x1="8.89" y1="3.175" x2="9.525" y2="3.81" width="0.1524" layer="21"/>
<wire x1="9.525" y1="3.81" x2="10.795" y2="3.81" width="0.1524" layer="21"/>
<wire x1="10.795" y1="3.81" x2="11.43" y2="3.175" width="0.1524" layer="21"/>
<wire x1="11.43" y1="3.175" x2="11.43" y2="-0.635" width="0.1524" layer="21"/>
<wire x1="9.525" y1="-1.27" x2="10.795" y2="-1.27" width="0.1524" layer="21"/>
<wire x1="-0.635" y1="-1.651" x2="0.635" y2="-1.651" width="0.2032" layer="21"/>
<pad name="1" x="0" y="0" drill="1.016" diameter="1.8796"/>
<pad name="2" x="0" y="2.54" drill="1.016" diameter="1.8796"/>
<pad name="3" x="2.54" y="0" drill="1.016" diameter="1.8796"/>
<pad name="4" x="2.54" y="2.54" drill="1.016" diameter="1.8796"/>
<pad name="5" x="5.08" y="0" drill="1.016" diameter="1.8796"/>
<pad name="6" x="5.08" y="2.54" drill="1.016" diameter="1.8796"/>
<pad name="7" x="7.62" y="0" drill="1.016" diameter="1.8796"/>
<pad name="8" x="7.62" y="2.54" drill="1.016" diameter="1.8796"/>
<pad name="9" x="10.16" y="0" drill="1.016" diameter="1.8796"/>
<pad name="10" x="10.16" y="2.54" drill="1.016" diameter="1.8796"/>
<rectangle x1="-0.254" y1="-0.254" x2="0.254" y2="0.254" layer="51" rot="R90"/>
<rectangle x1="-0.254" y1="2.286" x2="0.254" y2="2.794" layer="51" rot="R90"/>
<rectangle x1="2.286" y1="2.286" x2="2.794" y2="2.794" layer="51" rot="R90"/>
<rectangle x1="2.286" y1="-0.254" x2="2.794" y2="0.254" layer="51" rot="R90"/>
<rectangle x1="4.826" y1="2.286" x2="5.334" y2="2.794" layer="51" rot="R90"/>
<rectangle x1="4.826" y1="-0.254" x2="5.334" y2="0.254" layer="51" rot="R90"/>
<rectangle x1="9.906" y1="2.286" x2="10.414" y2="2.794" layer="51" rot="R90"/>
<rectangle x1="9.906" y1="-0.254" x2="10.414" y2="0.254" layer="51" rot="R90"/>
<rectangle x1="7.366" y1="-0.254" x2="7.874" y2="0.254" layer="51" rot="R90"/>
<rectangle x1="7.366" y1="2.286" x2="7.874" y2="2.794" layer="51" rot="R90"/>
<text x="-1.27" y="3.937" size="0.6096" layer="25" font="vector" ratio="20">&gt;NAME</text>
<text x="-1.27" y="-2.54" size="0.6096" layer="27" font="vector" ratio="20">&gt;VALUE</text>
<wire x1="-0.635" y1="-1.651" x2="0.635" y2="-1.651" width="0.2032" layer="22"/>
</package>
<package name="2X5-RA">
<description>&lt;h3&gt;Plated Through Hole - 2x5 Right Angle Male Headers&lt;/h3&gt;
tDocu shows pin location. 
&lt;p&gt;Specifications:
&lt;ul&gt;&lt;li&gt;Pin count:10&lt;/li&gt;
&lt;li&gt;Pin pitch:0.1"&lt;/li&gt;
&lt;/ul&gt;&lt;/p&gt;
&lt;p&gt;Example device(s):
&lt;ul&gt;&lt;li&gt;CONN_05x2&lt;/li&gt;
&lt;/ul&gt;&lt;/p&gt;</description>
<wire x1="-2.54" y1="5.715" x2="-2.54" y2="4.445" width="0.2032" layer="21"/>
<wire x1="2.8" y1="6.3" x2="5.3" y2="6.3" width="0.2032" layer="21"/>
<wire x1="5.3" y1="6.3" x2="5.3" y2="-6.3" width="0.2032" layer="21"/>
<wire x1="5.3" y1="-6.3" x2="2.8" y2="-6.3" width="0.2032" layer="21"/>
<wire x1="2.8" y1="-6.3" x2="2.8" y2="6.3" width="0.2032" layer="21"/>
<wire x1="5.3" y1="0" x2="11.3" y2="0" width="0.127" layer="51"/>
<wire x1="5.3" y1="-2.54" x2="11.3" y2="-2.54" width="0.127" layer="51"/>
<wire x1="5.3" y1="-5.08" x2="11.3" y2="-5.08" width="0.127" layer="51"/>
<wire x1="5.3" y1="2.54" x2="11.3" y2="2.54" width="0.127" layer="51"/>
<wire x1="5.3" y1="5.08" x2="11.3" y2="5.08" width="0.127" layer="51"/>
<wire x1="8.2" y1="7" x2="8.2" y2="-6.9" width="0.127" layer="51"/>
<wire x1="13.8" y1="6.3" x2="13.8" y2="-6.3" width="0.127" layer="51"/>
<wire x1="5.3" y1="6.3" x2="13.8" y2="6.3" width="0.127" layer="51"/>
<wire x1="5.3" y1="-6.3" x2="13.8" y2="-6.3" width="0.127" layer="51"/>
<pad name="1" x="-1.27" y="5.08" drill="1.016" diameter="1.8796" rot="R270"/>
<pad name="2" x="1.27" y="5.08" drill="1.016" diameter="1.8796" rot="R270"/>
<pad name="3" x="-1.27" y="2.54" drill="1.016" diameter="1.8796" rot="R270"/>
<pad name="4" x="1.27" y="2.54" drill="1.016" diameter="1.8796" rot="R270"/>
<pad name="5" x="-1.27" y="0" drill="1.016" diameter="1.8796" rot="R270"/>
<pad name="6" x="1.27" y="0" drill="1.016" diameter="1.8796" rot="R270"/>
<pad name="7" x="-1.27" y="-2.54" drill="1.016" diameter="1.8796" rot="R270"/>
<pad name="8" x="1.27" y="-2.54" drill="1.016" diameter="1.8796" rot="R270"/>
<pad name="9" x="-1.27" y="-5.08" drill="1.016" diameter="1.8796" rot="R270"/>
<pad name="10" x="1.27" y="-5.08" drill="1.016" diameter="1.8796" rot="R270"/>
<rectangle x1="-1.524" y1="4.826" x2="-1.016" y2="5.334" layer="51" rot="R270"/>
<rectangle x1="1.016" y1="4.826" x2="1.524" y2="5.334" layer="51" rot="R270"/>
<rectangle x1="1.016" y1="2.286" x2="1.524" y2="2.794" layer="51" rot="R270"/>
<rectangle x1="-1.524" y1="2.286" x2="-1.016" y2="2.794" layer="51" rot="R270"/>
<rectangle x1="1.016" y1="-0.254" x2="1.524" y2="0.254" layer="51" rot="R270"/>
<rectangle x1="-1.524" y1="-0.254" x2="-1.016" y2="0.254" layer="51" rot="R270"/>
<rectangle x1="1.016" y1="-2.794" x2="1.524" y2="-2.286" layer="51" rot="R270"/>
<rectangle x1="-1.524" y1="-2.794" x2="-1.016" y2="-2.286" layer="51" rot="R270"/>
<rectangle x1="1.016" y1="-5.334" x2="1.524" y2="-4.826" layer="51" rot="R270"/>
<rectangle x1="-1.524" y1="-5.334" x2="-1.016" y2="-4.826" layer="51" rot="R270"/>
<rectangle x1="-1.524" y1="-2.794" x2="-1.016" y2="-2.286" layer="51" rot="R270"/>
<rectangle x1="1.016" y1="-2.794" x2="1.524" y2="-2.286" layer="51" rot="R270"/>
<wire x1="-2.54" y1="5.715" x2="-2.54" y2="4.445" width="0.2032" layer="22"/>
<text x="2.54" y="6.477" size="0.6096" layer="25" font="vector" ratio="20">&gt;NAME</text>
<text x="2.54" y="-7.112" size="0.6096" layer="27" font="vector" ratio="20">&gt;VALUE</text>
</package>
<package name="2X5-RAF">
<description>&lt;h3&gt;Plated Through Hole - 2x5 Right Angle Female Header&lt;/h3&gt;
Silk outline of pins
&lt;p&gt;Specifications:
&lt;ul&gt;&lt;li&gt;Pin count:10&lt;/li&gt;
&lt;li&gt;Pin pitch:0.1"&lt;/li&gt;
&lt;/ul&gt;&lt;/p&gt;
&lt;p&gt;Example device(s):
&lt;ul&gt;&lt;li&gt;CONN_05x2&lt;/li&gt;
&lt;/ul&gt;&lt;/p&gt;</description>
<wire x1="-2.54" y1="5.715" x2="-2.54" y2="4.445" width="0.2032" layer="21"/>
<wire x1="2.7" y1="6.3" x2="11.2" y2="6.3" width="0.2032" layer="21"/>
<wire x1="11.2" y1="6.3" x2="11.2" y2="-6.3" width="0.2032" layer="21"/>
<wire x1="11.2" y1="-6.3" x2="2.7" y2="-6.3" width="0.2032" layer="21"/>
<wire x1="2.7" y1="-6.3" x2="2.7" y2="6.3" width="0.2032" layer="21"/>
<wire x1="8.2" y1="7" x2="8.2" y2="-6.9" width="0.127" layer="51"/>
<pad name="1" x="-1.27" y="5.08" drill="1.016" diameter="1.8796" rot="R270"/>
<pad name="2" x="1.27" y="5.08" drill="1.016" diameter="1.8796" rot="R270"/>
<pad name="3" x="-1.27" y="2.54" drill="1.016" diameter="1.8796" rot="R270"/>
<pad name="4" x="1.27" y="2.54" drill="1.016" diameter="1.8796" rot="R270"/>
<pad name="5" x="-1.27" y="0" drill="1.016" diameter="1.8796" rot="R270"/>
<pad name="6" x="1.27" y="0" drill="1.016" diameter="1.8796" rot="R270"/>
<pad name="7" x="-1.27" y="-2.54" drill="1.016" diameter="1.8796" rot="R270"/>
<pad name="8" x="1.27" y="-2.54" drill="1.016" diameter="1.8796" rot="R270"/>
<pad name="9" x="-1.27" y="-5.08" drill="1.016" diameter="1.8796" rot="R270"/>
<pad name="10" x="1.27" y="-5.08" drill="1.016" diameter="1.8796" rot="R270"/>
<rectangle x1="-1.524" y1="4.826" x2="-1.016" y2="5.334" layer="51" rot="R270"/>
<rectangle x1="1.016" y1="4.826" x2="1.524" y2="5.334" layer="51" rot="R270"/>
<rectangle x1="1.016" y1="2.286" x2="1.524" y2="2.794" layer="51" rot="R270"/>
<rectangle x1="-1.524" y1="2.286" x2="-1.016" y2="2.794" layer="51" rot="R270"/>
<rectangle x1="1.016" y1="-0.254" x2="1.524" y2="0.254" layer="51" rot="R270"/>
<rectangle x1="-1.524" y1="-0.254" x2="-1.016" y2="0.254" layer="51" rot="R270"/>
<rectangle x1="1.016" y1="-2.794" x2="1.524" y2="-2.286" layer="51" rot="R270"/>
<rectangle x1="-1.524" y1="-2.794" x2="-1.016" y2="-2.286" layer="51" rot="R270"/>
<rectangle x1="1.016" y1="-5.334" x2="1.524" y2="-4.826" layer="51" rot="R270"/>
<rectangle x1="-1.524" y1="-5.334" x2="-1.016" y2="-4.826" layer="51" rot="R270"/>
<rectangle x1="-1.524" y1="-2.794" x2="-1.016" y2="-2.286" layer="51" rot="R270"/>
<rectangle x1="1.016" y1="-2.794" x2="1.524" y2="-2.286" layer="51" rot="R270"/>
<text x="3.175" y="6.477" size="0.6096" layer="25" font="vector" ratio="20">&gt;NAME</text>
<text x="3.175" y="-7.112" size="0.6096" layer="27" font="vector" ratio="20">&gt;VALUE</text>
<wire x1="-2.54" y1="5.715" x2="-2.54" y2="4.445" width="0.2032" layer="22"/>
</package>
<package name="2X5-SHROUDED">
<description>&lt;h3&gt;Plated Through Hole - 2x5 Shrouded Header&lt;/h3&gt;
&lt;p&gt;Specifications:
&lt;ul&gt;&lt;li&gt;Pin count:10&lt;/li&gt;
&lt;li&gt;Pin pitch:0.1"&lt;/li&gt;
&lt;/ul&gt;&lt;/p&gt;
&lt;p&gt;&lt;a href=”https://www.sparkfun.com/datasheets/Prototyping/Shrouded-10pin.pdf”&gt;Datasheet referenced for footprint&lt;/a&gt;&lt;/p&gt;
&lt;p&gt;Example device(s):
&lt;ul&gt;&lt;li&gt;CONN_05x2&lt;/li&gt;
&lt;/ul&gt;&lt;/p&gt;</description>
<wire x1="-2.775" y1="5.715" x2="-2.775" y2="4.445" width="0.2032" layer="21"/>
<wire x1="4.5" y1="10.1" x2="4.5" y2="-10.1" width="0.2032" layer="21"/>
<wire x1="-4.5" y1="-10.1" x2="-4.5" y2="-2.2" width="0.2032" layer="21"/>
<wire x1="-4.5" y1="-2.2" x2="-4.5" y2="2.2" width="0.2032" layer="21"/>
<wire x1="-4.5" y1="2.2" x2="-4.5" y2="10.1" width="0.2032" layer="21"/>
<wire x1="-4.5" y1="10.1" x2="4.4" y2="10.1" width="0.2032" layer="21"/>
<wire x1="4.5" y1="-10.1" x2="-4.5" y2="-10.1" width="0.2032" layer="21"/>
<wire x1="-3.4" y1="9" x2="3.4" y2="9" width="0.2032" layer="51"/>
<wire x1="3.4" y1="9" x2="3.4" y2="-9" width="0.2032" layer="51"/>
<wire x1="-3.4" y1="-9" x2="3.4" y2="-9" width="0.2032" layer="51"/>
<wire x1="-4.5" y1="2.2" x2="-3" y2="2.2" width="0.2032" layer="21"/>
<wire x1="-3" y1="2.2" x2="-3" y2="-2.2" width="0.2032" layer="21"/>
<wire x1="-3" y1="-2.2" x2="-4.5" y2="-2.2" width="0.2032" layer="21"/>
<wire x1="-3.4" y1="9" x2="-3.4" y2="2.2" width="0.2032" layer="51"/>
<wire x1="-3.4" y1="-9" x2="-3.4" y2="-2.2" width="0.2032" layer="51"/>
<pad name="1" x="-1.27" y="5.08" drill="1.016" diameter="1.8796" rot="R270"/>
<pad name="2" x="1.27" y="5.08" drill="1.016" diameter="1.8796" rot="R270"/>
<pad name="3" x="-1.27" y="2.54" drill="1.016" diameter="1.8796" rot="R270"/>
<pad name="4" x="1.27" y="2.54" drill="1.016" diameter="1.8796" rot="R270"/>
<pad name="5" x="-1.27" y="0" drill="1.016" diameter="1.8796" rot="R270"/>
<pad name="6" x="1.27" y="0" drill="1.016" diameter="1.8796" rot="R270"/>
<pad name="7" x="-1.27" y="-2.54" drill="1.016" diameter="1.8796" rot="R270"/>
<pad name="8" x="1.27" y="-2.54" drill="1.016" diameter="1.8796" rot="R270"/>
<pad name="9" x="-1.27" y="-5.08" drill="1.016" diameter="1.8796" rot="R270"/>
<pad name="10" x="1.27" y="-5.08" drill="1.016" diameter="1.8796" rot="R270"/>
<rectangle x1="-1.524" y1="4.826" x2="-1.016" y2="5.334" layer="51"/>
<rectangle x1="1.016" y1="4.826" x2="1.524" y2="5.334" layer="51"/>
<rectangle x1="1.016" y1="2.286" x2="1.524" y2="2.794" layer="51"/>
<rectangle x1="-1.524" y1="2.286" x2="-1.016" y2="2.794" layer="51"/>
<rectangle x1="1.016" y1="-0.254" x2="1.524" y2="0.254" layer="51"/>
<rectangle x1="-1.524" y1="-0.254" x2="-1.016" y2="0.254" layer="51"/>
<rectangle x1="1.016" y1="-2.794" x2="1.524" y2="-2.286" layer="51"/>
<rectangle x1="-1.524" y1="-2.794" x2="-1.016" y2="-2.286" layer="51"/>
<rectangle x1="1.016" y1="-5.334" x2="1.524" y2="-4.826" layer="51"/>
<rectangle x1="-1.524" y1="-5.334" x2="-1.016" y2="-4.826" layer="51"/>
<rectangle x1="-1.524" y1="-2.794" x2="-1.016" y2="-2.286" layer="51"/>
<rectangle x1="1.016" y1="-2.794" x2="1.524" y2="-2.286" layer="51"/>
<text x="-4.318" y="10.414" size="0.6096" layer="25" font="vector" ratio="20">&gt;NAME</text>
<text x="-4.318" y="-11.049" size="0.6096" layer="27" font="vector" ratio="20">&gt;VALUE</text>
<wire x1="-2.813" y1="5.715" x2="-2.813" y2="4.445" width="0.2032" layer="22"/>
</package>
<package name="2X5-SHROUDED_LOCK">
<description>&lt;h3&gt;Plated Through Hole - 2x5 Shrouded Header Locking Footprint&lt;/h3&gt;
Holes are offset 0.005" from center, to hold pins in place during soldering. 
&lt;p&gt;Specifications:
&lt;ul&gt;&lt;li&gt;Pin count:10&lt;/li&gt;
&lt;li&gt;Pin pitch:0.1"&lt;/li&gt;
&lt;/ul&gt;&lt;/p&gt;
&lt;p&gt;&lt;a href=”https://www.sparkfun.com/datasheets/Prototyping/Shrouded-10pin.pdf”&gt;Datasheet referenced for footprint&lt;/a&gt;&lt;/p&gt;
&lt;p&gt;Example device(s):
&lt;ul&gt;&lt;li&gt;CONN_05x2&lt;/li&gt;
&lt;/ul&gt;&lt;/p&gt;</description>
<wire x1="-2.775" y1="5.715" x2="-2.775" y2="4.445" width="0.2032" layer="21"/>
<wire x1="4.5" y1="10.1" x2="4.5" y2="-10.1" width="0.2032" layer="21"/>
<wire x1="-4.5" y1="-10.1" x2="-4.5" y2="-2.2" width="0.2032" layer="21"/>
<wire x1="-4.5" y1="-2.2" x2="-4.5" y2="2.2" width="0.2032" layer="21"/>
<wire x1="-4.5" y1="2.2" x2="-4.5" y2="10.1" width="0.2032" layer="21"/>
<wire x1="-4.5" y1="10.1" x2="4.4" y2="10.1" width="0.2032" layer="21"/>
<wire x1="4.5" y1="-10.1" x2="-4.5" y2="-10.1" width="0.2032" layer="21"/>
<wire x1="-3.4" y1="9" x2="3.4" y2="9" width="0.2032" layer="51"/>
<wire x1="3.4" y1="9" x2="3.4" y2="-9" width="0.2032" layer="51"/>
<wire x1="-3.4" y1="-9" x2="3.4" y2="-9" width="0.2032" layer="51"/>
<wire x1="-4.5" y1="2.2" x2="-3" y2="2.2" width="0.2032" layer="21"/>
<wire x1="-3" y1="2.2" x2="-3" y2="-2.2" width="0.2032" layer="21"/>
<wire x1="-3" y1="-2.2" x2="-4.5" y2="-2.2" width="0.2032" layer="21"/>
<wire x1="-3.4" y1="9" x2="-3.4" y2="2.2" width="0.2032" layer="51"/>
<wire x1="-3.4" y1="-9" x2="-3.4" y2="-2.2" width="0.2032" layer="51"/>
<pad name="1" x="-1.397" y="5.08" drill="1.016" diameter="1.8796" rot="R270"/>
<pad name="2" x="1.397" y="5.08" drill="1.016" diameter="1.8796" rot="R270"/>
<pad name="3" x="-1.397" y="2.54" drill="1.016" diameter="1.8796" rot="R270"/>
<pad name="4" x="1.397" y="2.54" drill="1.016" diameter="1.8796" rot="R270"/>
<pad name="5" x="-1.397" y="0" drill="1.016" diameter="1.8796" rot="R270"/>
<pad name="6" x="1.397" y="0" drill="1.016" diameter="1.8796" rot="R270"/>
<pad name="7" x="-1.397" y="-2.54" drill="1.016" diameter="1.8796" rot="R270"/>
<pad name="8" x="1.397" y="-2.54" drill="1.016" diameter="1.8796" rot="R270"/>
<pad name="9" x="-1.397" y="-5.08" drill="1.016" diameter="1.8796" rot="R270"/>
<pad name="10" x="1.397" y="-5.08" drill="1.016" diameter="1.8796" rot="R270"/>
<rectangle x1="-1.524" y1="4.826" x2="-1.016" y2="5.334" layer="51" rot="R270"/>
<rectangle x1="1.016" y1="4.826" x2="1.524" y2="5.334" layer="51" rot="R270"/>
<rectangle x1="1.016" y1="2.286" x2="1.524" y2="2.794" layer="51" rot="R270"/>
<rectangle x1="-1.524" y1="2.286" x2="-1.016" y2="2.794" layer="51" rot="R270"/>
<rectangle x1="1.016" y1="-0.254" x2="1.524" y2="0.254" layer="51" rot="R270"/>
<rectangle x1="-1.524" y1="-0.254" x2="-1.016" y2="0.254" layer="51" rot="R270"/>
<rectangle x1="1.016" y1="-2.794" x2="1.524" y2="-2.286" layer="51" rot="R270"/>
<rectangle x1="-1.524" y1="-2.794" x2="-1.016" y2="-2.286" layer="51" rot="R270"/>
<rectangle x1="1.016" y1="-5.334" x2="1.524" y2="-4.826" layer="51" rot="R270"/>
<rectangle x1="-1.524" y1="-5.334" x2="-1.016" y2="-4.826" layer="51" rot="R270"/>
<rectangle x1="-1.524" y1="-2.794" x2="-1.016" y2="-2.286" layer="51" rot="R270"/>
<rectangle x1="1.016" y1="-2.794" x2="1.524" y2="-2.286" layer="51" rot="R270"/>
<text x="-4.191" y="10.541" size="0.6096" layer="25" font="vector" ratio="20">&gt;NAME</text>
<text x="-4.318" y="-11.049" size="0.6096" layer="27" font="vector" ratio="20">&gt;VALUE</text>
<wire x1="-2.813" y1="5.715" x2="-2.813" y2="4.445" width="0.2032" layer="22"/>
</package>
<package name="2X5-SHROUDED_SMD">
<description>&lt;h3&gt;Surface Mount - 2x5 Shrouded Header&lt;/h3&gt;
&lt;p&gt;Specifications:
&lt;ul&gt;&lt;li&gt;Pin count:10&lt;/li&gt;
&lt;li&gt;Pin pitch:0.1"&lt;/li&gt;
&lt;/ul&gt;&lt;/p&gt;
&lt;p&gt;&lt;a href=”https://www.sparkfun.com/datasheets/Prototyping/Shrouded-10pin.pdf”&gt;Datasheet referenced for footprint&lt;/a&gt;&lt;/p&gt;
&lt;p&gt;Example device(s):
&lt;ul&gt;&lt;li&gt;CONN_05x2&lt;/li&gt;
&lt;/ul&gt;&lt;/p&gt;</description>
<wire x1="-5.315" y1="5.715" x2="-5.315" y2="4.445" width="0.2032" layer="21"/>
<wire x1="4.5" y1="10.1" x2="4.5" y2="-10.1" width="0.2032" layer="21"/>
<wire x1="-4.5" y1="-10.1" x2="-4.5" y2="-2.2" width="0.2032" layer="21"/>
<wire x1="-4.5" y1="-2.2" x2="-4.5" y2="2.2" width="0.2032" layer="21"/>
<wire x1="-4.5" y1="2.2" x2="-4.5" y2="10.1" width="0.2032" layer="21"/>
<wire x1="-4.5" y1="10.1" x2="4.4" y2="10.1" width="0.2032" layer="21"/>
<wire x1="4.5" y1="-10.1" x2="-4.5" y2="-10.1" width="0.2032" layer="21"/>
<wire x1="-3.4" y1="9" x2="3.4" y2="9" width="0.2032" layer="51"/>
<wire x1="3.4" y1="9" x2="3.4" y2="-9" width="0.2032" layer="51"/>
<wire x1="-3.4" y1="-9" x2="3.4" y2="-9" width="0.2032" layer="51"/>
<wire x1="-4.5" y1="2.2" x2="-3" y2="2.2" width="0.2032" layer="21"/>
<wire x1="-3" y1="2.2" x2="-3" y2="-2.2" width="0.2032" layer="21"/>
<wire x1="-3" y1="-2.2" x2="-4.5" y2="-2.2" width="0.2032" layer="21"/>
<wire x1="-3.4" y1="9" x2="-3.4" y2="2.2" width="0.2032" layer="51"/>
<wire x1="-3.4" y1="-9" x2="-3.4" y2="-2.2" width="0.2032" layer="51"/>
<smd name="1" x="-2.794" y="5.08" dx="4.15" dy="1" layer="1" roundness="50"/>
<smd name="2" x="2.794" y="5.08" dx="4.15" dy="1" layer="1" roundness="50"/>
<smd name="3" x="-2.794" y="2.54" dx="4.15" dy="1" layer="1" roundness="50"/>
<smd name="4" x="2.794" y="2.54" dx="4.15" dy="1" layer="1" roundness="50"/>
<smd name="5" x="-2.794" y="0" dx="4.15" dy="1" layer="1" roundness="50"/>
<smd name="6" x="2.794" y="0" dx="4.15" dy="1" layer="1" roundness="50"/>
<smd name="7" x="-2.794" y="-2.54" dx="4.15" dy="1" layer="1" roundness="50"/>
<smd name="8" x="2.794" y="-2.54" dx="4.15" dy="1" layer="1" roundness="50"/>
<smd name="9" x="-2.794" y="-5.08" dx="4.15" dy="1" layer="1" roundness="50"/>
<smd name="10" x="2.794" y="-5.08" dx="4.15" dy="1" layer="1" roundness="50"/>
<rectangle x1="-1.524" y1="4.826" x2="-1.016" y2="5.334" layer="51"/>
<rectangle x1="1.016" y1="4.826" x2="1.524" y2="5.334" layer="51"/>
<rectangle x1="1.016" y1="2.286" x2="1.524" y2="2.794" layer="51"/>
<rectangle x1="-1.524" y1="2.286" x2="-1.016" y2="2.794" layer="51"/>
<rectangle x1="1.016" y1="-0.254" x2="1.524" y2="0.254" layer="51"/>
<rectangle x1="-1.524" y1="-0.254" x2="-1.016" y2="0.254" layer="51"/>
<rectangle x1="1.016" y1="-2.794" x2="1.524" y2="-2.286" layer="51"/>
<rectangle x1="-1.524" y1="-2.794" x2="-1.016" y2="-2.286" layer="51"/>
<rectangle x1="1.016" y1="-5.334" x2="1.524" y2="-4.826" layer="51"/>
<rectangle x1="-1.524" y1="-5.334" x2="-1.016" y2="-4.826" layer="51"/>
<rectangle x1="-1.524" y1="-2.794" x2="-1.016" y2="-2.286" layer="51"/>
<rectangle x1="1.016" y1="-2.794" x2="1.524" y2="-2.286" layer="51"/>
<text x="-4.445" y="10.287" size="0.6096" layer="25" font="vector" ratio="20">&gt;NAME</text>
<text x="-4.445" y="-10.922" size="0.6096" layer="27" font="vector" ratio="20">&gt;VALUE</text>
<wire x1="-5.353" y1="5.715" x2="-5.353" y2="4.445" width="0.2032" layer="22"/>
</package>
<package name="2X5_NOSILK">
<description>&lt;h3&gt;Plated Through Hole - 2x5 No Silk Outline&lt;/h3&gt;
&lt;p&gt;Specifications:
&lt;ul&gt;&lt;li&gt;Pin count:10&lt;/li&gt;
&lt;li&gt;Pin pitch:0.1"&lt;/li&gt;
&lt;/ul&gt;&lt;/p&gt;
&lt;p&gt;Example device(s):
&lt;ul&gt;&lt;li&gt;CONN_05x2&lt;/li&gt;
&lt;/ul&gt;&lt;/p&gt;</description>
<pad name="1" x="0" y="0" drill="1.016" diameter="1.8796"/>
<pad name="2" x="0" y="2.54" drill="1.016" diameter="1.8796"/>
<pad name="3" x="2.54" y="0" drill="1.016" diameter="1.8796"/>
<pad name="4" x="2.54" y="2.54" drill="1.016" diameter="1.8796"/>
<pad name="5" x="5.08" y="0" drill="1.016" diameter="1.8796"/>
<pad name="6" x="5.08" y="2.54" drill="1.016" diameter="1.8796"/>
<pad name="7" x="7.62" y="0" drill="1.016" diameter="1.8796"/>
<pad name="8" x="7.62" y="2.54" drill="1.016" diameter="1.8796"/>
<pad name="9" x="10.16" y="0" drill="1.016" diameter="1.8796"/>
<pad name="10" x="10.16" y="2.54" drill="1.016" diameter="1.8796"/>
<rectangle x1="-0.254" y1="-0.254" x2="0.254" y2="0.254" layer="51" rot="R90"/>
<rectangle x1="-0.254" y1="2.286" x2="0.254" y2="2.794" layer="51" rot="R90"/>
<rectangle x1="2.286" y1="2.286" x2="2.794" y2="2.794" layer="51" rot="R90"/>
<rectangle x1="2.286" y1="-0.254" x2="2.794" y2="0.254" layer="51" rot="R90"/>
<rectangle x1="4.826" y1="-0.254" x2="5.334" y2="0.254" layer="51" rot="R90"/>
<rectangle x1="9.906" y1="2.286" x2="10.414" y2="2.794" layer="51" rot="R90"/>
<rectangle x1="9.906" y1="-0.254" x2="10.414" y2="0.254" layer="51" rot="R90"/>
<rectangle x1="7.366" y1="-0.254" x2="7.874" y2="0.254" layer="51" rot="R90"/>
<rectangle x1="7.366" y1="2.286" x2="7.874" y2="2.794" layer="51" rot="R90"/>
<rectangle x1="4.826" y1="2.286" x2="5.334" y2="2.794" layer="51" rot="R90"/>
<wire x1="0.635" y1="-1.27" x2="-0.635" y2="-1.27" width="0.2032" layer="51"/>
<text x="-0.889" y="3.81" size="0.6096" layer="25" font="vector" ratio="20">&gt;NAME</text>
<text x="-0.762" y="-2.159" size="0.6096" layer="27" font="vector" ratio="20">&gt;VALUE</text>
</package>
<package name="2X5_PTH_SILK_.05">
<description>&lt;h3&gt;Plated Through Hole - 2x5&lt;/h3&gt;
Holes are 0.05". 
&lt;p&gt;Specifications:
&lt;ul&gt;&lt;li&gt;Pin count:10&lt;/li&gt;
&lt;li&gt;Pin pitch:0.1"&lt;/li&gt;
&lt;/ul&gt;&lt;/p&gt;
&lt;p&gt;Example device(s):
&lt;ul&gt;&lt;li&gt;CONN_05x2&lt;/li&gt;
&lt;/ul&gt;&lt;/p&gt;</description>
<pad name="1" x="0" y="0" drill="0.4318" rot="R90"/>
<pad name="2" x="0" y="1.27" drill="0.4318" rot="R90"/>
<pad name="3" x="1.27" y="0" drill="0.4318" rot="R90"/>
<pad name="4" x="1.27" y="1.27" drill="0.4318" rot="R90"/>
<pad name="5" x="2.54" y="0" drill="0.4318" rot="R90"/>
<pad name="6" x="2.54" y="1.27" drill="0.4318" rot="R90"/>
<pad name="7" x="3.81" y="0" drill="0.4318" rot="R90"/>
<pad name="8" x="3.81" y="1.27" drill="0.4318" rot="R90"/>
<pad name="9" x="5.08" y="0" drill="0.4318" rot="R90"/>
<pad name="10" x="5.08" y="1.27" drill="0.4318" rot="R90"/>
<wire x1="-0.635" y1="0.635" x2="-0.762" y2="0.762" width="0.127" layer="21"/>
<wire x1="-0.762" y1="0.762" x2="-0.762" y2="1.778" width="0.127" layer="21"/>
<wire x1="-0.762" y1="1.778" x2="-0.508" y2="2.032" width="0.127" layer="21"/>
<wire x1="-0.508" y1="2.032" x2="0.508" y2="2.032" width="0.127" layer="21"/>
<wire x1="0.508" y1="2.032" x2="0.635" y2="1.905" width="0.127" layer="21"/>
<wire x1="0.635" y1="1.905" x2="0.762" y2="2.032" width="0.127" layer="21"/>
<wire x1="0.762" y1="2.032" x2="1.778" y2="2.032" width="0.127" layer="21"/>
<wire x1="1.778" y1="2.032" x2="1.905" y2="1.905" width="0.127" layer="21"/>
<wire x1="1.905" y1="1.905" x2="2.032" y2="2.032" width="0.127" layer="21"/>
<wire x1="2.032" y1="2.032" x2="3.048" y2="2.032" width="0.127" layer="21"/>
<wire x1="3.048" y1="2.032" x2="3.175" y2="1.905" width="0.127" layer="21"/>
<wire x1="3.175" y1="1.905" x2="3.302" y2="2.032" width="0.127" layer="21"/>
<wire x1="3.302" y1="2.032" x2="4.318" y2="2.032" width="0.127" layer="21"/>
<wire x1="4.318" y1="2.032" x2="4.445" y2="1.905" width="0.127" layer="21"/>
<wire x1="4.445" y1="1.905" x2="4.572" y2="2.032" width="0.127" layer="21"/>
<wire x1="4.572" y1="2.032" x2="5.588" y2="2.032" width="0.127" layer="21"/>
<wire x1="5.588" y1="2.032" x2="5.842" y2="1.778" width="0.127" layer="21"/>
<wire x1="5.842" y1="1.778" x2="5.842" y2="0.762" width="0.127" layer="21"/>
<wire x1="5.842" y1="0.762" x2="5.715" y2="0.635" width="0.127" layer="21"/>
<wire x1="5.715" y1="0.635" x2="5.842" y2="0.508" width="0.127" layer="21"/>
<wire x1="5.842" y1="0.508" x2="5.842" y2="-0.508" width="0.127" layer="21"/>
<wire x1="5.842" y1="-0.508" x2="5.588" y2="-0.762" width="0.127" layer="21"/>
<wire x1="5.588" y1="-0.762" x2="4.572" y2="-0.762" width="0.127" layer="21"/>
<wire x1="4.572" y1="-0.762" x2="4.445" y2="-0.635" width="0.127" layer="21"/>
<wire x1="4.445" y1="-0.635" x2="4.318" y2="-0.762" width="0.127" layer="21"/>
<wire x1="4.318" y1="-0.762" x2="3.302" y2="-0.762" width="0.127" layer="21"/>
<wire x1="3.302" y1="-0.762" x2="3.175" y2="-0.635" width="0.127" layer="21"/>
<wire x1="3.175" y1="-0.635" x2="3.048" y2="-0.762" width="0.127" layer="21"/>
<wire x1="3.048" y1="-0.762" x2="2.032" y2="-0.762" width="0.127" layer="21"/>
<wire x1="2.032" y1="-0.762" x2="1.905" y2="-0.635" width="0.127" layer="21"/>
<wire x1="1.905" y1="-0.635" x2="1.778" y2="-0.762" width="0.127" layer="21"/>
<wire x1="1.778" y1="-0.762" x2="0.762" y2="-0.762" width="0.127" layer="21"/>
<wire x1="0.762" y1="-0.762" x2="0.635" y2="-0.635" width="0.127" layer="21"/>
<wire x1="0.635" y1="-0.635" x2="0.508" y2="-0.762" width="0.127" layer="21"/>
<wire x1="0.508" y1="-0.762" x2="-0.508" y2="-0.762" width="0.127" layer="21"/>
<wire x1="-0.508" y1="-0.762" x2="-0.762" y2="-0.508" width="0.127" layer="21"/>
<wire x1="-0.762" y1="-0.508" x2="-0.762" y2="0.508" width="0.127" layer="21"/>
<wire x1="-0.762" y1="0.508" x2="-0.635" y2="0.635" width="0.127" layer="21"/>
<wire x1="0.508" y1="-1.016" x2="-0.508" y2="-1.016" width="0.127" layer="21"/>
<wire x1="-0.508" y1="-1.016" x2="0.508" y2="-1.016" width="0.127" layer="22"/>
<text x="-0.762" y="2.286" size="0.6096" layer="25" font="vector" ratio="20">&gt;NAME</text>
<text x="-0.762" y="-1.778" size="0.6096" layer="27" font="vector" ratio="20">&gt;VALUE</text>
</package>
<package name="2X5-SHROUDED-NS">
<description>&lt;h3&gt;Plated Through Hole - 2x5 Shrouded Header No Silk&lt;/h3&gt;
&lt;p&gt;Specifications:
&lt;ul&gt;&lt;li&gt;Pin count:10&lt;/li&gt;
&lt;li&gt;Pin pitch:0.1"&lt;/li&gt;
&lt;/ul&gt;&lt;/p&gt;
&lt;p&gt;&lt;a href=”https://www.sparkfun.com/datasheets/Prototyping/Shrouded-10pin.pdf”&gt;Datasheet referenced for footprint&lt;/a&gt;&lt;/p&gt;
&lt;p&gt;Example device(s):
&lt;ul&gt;&lt;li&gt;CONN_05x2&lt;/li&gt;
&lt;/ul&gt;&lt;/p&gt;</description>
<wire x1="-2.775" y1="5.715" x2="-2.775" y2="4.445" width="0.2032" layer="21"/>
<wire x1="4.5" y1="10.1" x2="4.5" y2="-10.1" width="0.2032" layer="51"/>
<wire x1="-4.5" y1="-10.1" x2="-4.5" y2="-2.2" width="0.2032" layer="51"/>
<wire x1="-4.5" y1="-2.2" x2="-4.5" y2="2.2" width="0.2032" layer="51"/>
<wire x1="-4.5" y1="2.2" x2="-4.5" y2="10.1" width="0.2032" layer="51"/>
<wire x1="-4.5" y1="10.1" x2="4.4" y2="10.1" width="0.2032" layer="51"/>
<wire x1="4.5" y1="-10.1" x2="-4.5" y2="-10.1" width="0.2032" layer="51"/>
<wire x1="-3.4" y1="9" x2="3.4" y2="9" width="0.2032" layer="51"/>
<wire x1="3.4" y1="9" x2="3.4" y2="-9" width="0.2032" layer="51"/>
<wire x1="-3.4" y1="-9" x2="3.4" y2="-9" width="0.2032" layer="51"/>
<wire x1="-4.5" y1="2.2" x2="-3" y2="2.2" width="0.2032" layer="51"/>
<wire x1="-3" y1="2.2" x2="-3" y2="-2.2" width="0.2032" layer="51"/>
<wire x1="-3" y1="-2.2" x2="-4.5" y2="-2.2" width="0.2032" layer="51"/>
<wire x1="-3.4" y1="9" x2="-3.4" y2="2.2" width="0.2032" layer="51"/>
<wire x1="-3.4" y1="-9" x2="-3.4" y2="-2.2" width="0.2032" layer="51"/>
<pad name="1" x="-1.27" y="5.08" drill="1.016" diameter="1.8796" shape="octagon" rot="R270"/>
<pad name="2" x="1.27" y="5.08" drill="1.016" diameter="1.8796" shape="octagon" rot="R270"/>
<pad name="3" x="-1.27" y="2.54" drill="1.016" diameter="1.8796" shape="octagon" rot="R270"/>
<pad name="4" x="1.27" y="2.54" drill="1.016" diameter="1.8796" shape="octagon" rot="R270"/>
<pad name="5" x="-1.27" y="0" drill="1.016" diameter="1.8796" shape="octagon" rot="R270"/>
<pad name="6" x="1.27" y="0" drill="1.016" diameter="1.8796" shape="octagon" rot="R270"/>
<pad name="7" x="-1.27" y="-2.54" drill="1.016" diameter="1.8796" shape="octagon" rot="R270"/>
<pad name="8" x="1.27" y="-2.54" drill="1.016" diameter="1.8796" shape="octagon" rot="R270"/>
<pad name="9" x="-1.27" y="-5.08" drill="1.016" diameter="1.8796" shape="octagon" rot="R270"/>
<pad name="10" x="1.27" y="-5.08" drill="1.016" diameter="1.8796" shape="octagon" rot="R270"/>
<rectangle x1="-1.524" y1="4.826" x2="-1.016" y2="5.334" layer="51"/>
<rectangle x1="1.016" y1="4.826" x2="1.524" y2="5.334" layer="51"/>
<rectangle x1="1.016" y1="2.286" x2="1.524" y2="2.794" layer="51"/>
<rectangle x1="-1.524" y1="2.286" x2="-1.016" y2="2.794" layer="51"/>
<rectangle x1="1.016" y1="-0.254" x2="1.524" y2="0.254" layer="51"/>
<rectangle x1="-1.524" y1="-0.254" x2="-1.016" y2="0.254" layer="51"/>
<rectangle x1="1.016" y1="-2.794" x2="1.524" y2="-2.286" layer="51"/>
<rectangle x1="-1.524" y1="-2.794" x2="-1.016" y2="-2.286" layer="51"/>
<rectangle x1="1.016" y1="-5.334" x2="1.524" y2="-4.826" layer="51"/>
<rectangle x1="-1.524" y1="-5.334" x2="-1.016" y2="-4.826" layer="51"/>
<rectangle x1="-1.524" y1="-2.794" x2="-1.016" y2="-2.286" layer="51"/>
<rectangle x1="1.016" y1="-2.794" x2="1.524" y2="-2.286" layer="51"/>
<text x="-4.445" y="10.287" size="0.6096" layer="25" font="vector" ratio="20">&gt;NAME</text>
<text x="-4.445" y="-10.922" size="0.6096" layer="27" font="vector" ratio="20">&gt;VALUE</text>
<wire x1="-2.813" y1="5.715" x2="-2.813" y2="4.445" width="0.2032" layer="22"/>
</package>
</packages>
<symbols>
<symbol name="CONN_05X2">
<description>&lt;h3&gt;10 Pin Connection&lt;/h3&gt;
5x2 pin layout</description>
<wire x1="3.81" y1="-7.62" x2="-3.81" y2="-7.62" width="0.4064" layer="94"/>
<wire x1="1.27" y1="0" x2="2.54" y2="0" width="0.6096" layer="94"/>
<wire x1="1.27" y1="-2.54" x2="2.54" y2="-2.54" width="0.6096" layer="94"/>
<wire x1="1.27" y1="-5.08" x2="2.54" y2="-5.08" width="0.6096" layer="94"/>
<wire x1="-3.81" y1="7.62" x2="-3.81" y2="-7.62" width="0.4064" layer="94"/>
<wire x1="3.81" y1="-7.62" x2="3.81" y2="7.62" width="0.4064" layer="94"/>
<wire x1="-3.81" y1="7.62" x2="3.81" y2="7.62" width="0.4064" layer="94"/>
<wire x1="1.27" y1="5.08" x2="2.54" y2="5.08" width="0.6096" layer="94"/>
<wire x1="1.27" y1="2.54" x2="2.54" y2="2.54" width="0.6096" layer="94"/>
<wire x1="-1.27" y1="0" x2="-2.54" y2="0" width="0.6096" layer="94"/>
<wire x1="-1.27" y1="-2.54" x2="-2.54" y2="-2.54" width="0.6096" layer="94"/>
<wire x1="-1.27" y1="-5.08" x2="-2.54" y2="-5.08" width="0.6096" layer="94"/>
<wire x1="-1.27" y1="5.08" x2="-2.54" y2="5.08" width="0.6096" layer="94"/>
<wire x1="-1.27" y1="2.54" x2="-2.54" y2="2.54" width="0.6096" layer="94"/>
<text x="-3.81" y="-9.906" size="1.778" layer="96" font="vector">&gt;VALUE</text>
<text x="-3.81" y="8.128" size="1.778" layer="95" font="vector">&gt;NAME</text>
<pin name="10" x="7.62" y="-5.08" visible="pad" length="middle" direction="pas" swaplevel="1" rot="R180"/>
<pin name="8" x="7.62" y="-2.54" visible="pad" length="middle" direction="pas" swaplevel="1" rot="R180"/>
<pin name="6" x="7.62" y="0" visible="pad" length="middle" direction="pas" swaplevel="1" rot="R180"/>
<pin name="4" x="7.62" y="2.54" visible="pad" length="middle" direction="pas" swaplevel="1" rot="R180"/>
<pin name="2" x="7.62" y="5.08" visible="pad" length="middle" direction="pas" swaplevel="1" rot="R180"/>
<pin name="9" x="-7.62" y="-5.08" visible="pad" length="middle" direction="pas" swaplevel="1"/>
<pin name="7" x="-7.62" y="-2.54" visible="pad" length="middle" direction="pas" swaplevel="1"/>
<pin name="5" x="-7.62" y="0" visible="pad" length="middle" direction="pas" swaplevel="1"/>
<pin name="3" x="-7.62" y="2.54" visible="pad" length="middle" direction="pas" swaplevel="1"/>
<pin name="1" x="-7.62" y="5.08" visible="pad" length="middle" direction="pas" swaplevel="1"/>
</symbol>
</symbols>
<devicesets>
<deviceset name="CONN_05X2" prefix="J" uservalue="yes">
<description>&lt;h3&gt;Multi connection point. Often used as Generic Header-pin footprint for 0.1 inch spaced/style header connections&lt;/h3&gt;

&lt;p&gt;&lt;/p&gt;
&lt;h3&gt;For AVR SPI programming port, see special device with nice symbol: "AVR_SPI_PROG_5x2.dev"&lt;/h3&gt;

&lt;p&gt;&lt;/p&gt;
&lt;b&gt;You can populate with any combo of single row headers, but if you'd like an exact match, check these:&lt;/b&gt;
&lt;ul&gt;
&lt;li&gt;&lt;a href="https://www.sparkfun.com/products/778"&gt; 2x5 AVR ICSP Male Header&lt;/a&gt; (PRT-00778)&lt;/li&gt;
&lt;li&gt;&lt;a href="https://www.sparkfun.com/products/8506"&gt; 2x5 Pin Shrouded Header&lt;/a&gt; (PRT-08506)&lt;/li&gt;
&lt;/ul&gt;

&lt;p&gt;&lt;/p&gt;
&lt;b&gt;On any of the 0.1 inch spaced packages, you can populate with these:&lt;/b&gt;
&lt;ul&gt;
&lt;li&gt;&lt;a href="https://www.sparkfun.com/products/116"&gt; Break Away Headers - Straight&lt;/a&gt; (PRT-00116)&lt;/li&gt;
&lt;li&gt;&lt;a href="https://www.sparkfun.com/products/553"&gt; Break Away Male Headers - Right Angle&lt;/a&gt; (PRT-00553)&lt;/li&gt;
&lt;li&gt;&lt;a href="https://www.sparkfun.com/products/115"&gt; Female Headers&lt;/a&gt; (PRT-00115)&lt;/li&gt;
&lt;li&gt;&lt;a href="https://www.sparkfun.com/products/117"&gt; Break Away Headers - Machine Pin&lt;/a&gt; (PRT-00117)&lt;/li&gt;
&lt;li&gt;&lt;a href="https://www.sparkfun.com/products/743"&gt; Break Away Female Headers - Swiss Machine Pin&lt;/a&gt; (PRT-00743)&lt;/li&gt;
&lt;/ul&gt;

&lt;p&gt;&lt;/p&gt;
&lt;b&gt;Special note: the shrouded connector mates well with our 5x2 ribbon cables:&lt;/b&gt;
&lt;ul&gt;
&lt;li&gt;&lt;a href="https://www.sparkfun.com/products/8535"&gt; 2x5 Pin IDC Ribbon Cable&lt;/a&gt; (PRT-08535)&lt;/li&gt;
&lt;/ul&gt;</description>
<gates>
<gate name="G$1" symbol="CONN_05X2" x="0" y="0"/>
</gates>
<devices>
<device name="PTH" package="2X5">
<connects>
<connect gate="G$1" pin="1" pad="1"/>
<connect gate="G$1" pin="10" pad="10"/>
<connect gate="G$1" pin="2" pad="2"/>
<connect gate="G$1" pin="3" pad="3"/>
<connect gate="G$1" pin="4" pad="4"/>
<connect gate="G$1" pin="5" pad="5"/>
<connect gate="G$1" pin="6" pad="6"/>
<connect gate="G$1" pin="7" pad="7"/>
<connect gate="G$1" pin="8" pad="8"/>
<connect gate="G$1" pin="9" pad="9"/>
</connects>
<technologies>
<technology name="">
<attribute name="PROD_ID" value="CONN-08499" constant="no"/>
<attribute name="SF_ID" value="PRT-0778" constant="no"/>
</technology>
</technologies>
</device>
<device name="RA" package="2X5-RA">
<connects>
<connect gate="G$1" pin="1" pad="1"/>
<connect gate="G$1" pin="10" pad="10"/>
<connect gate="G$1" pin="2" pad="2"/>
<connect gate="G$1" pin="3" pad="3"/>
<connect gate="G$1" pin="4" pad="4"/>
<connect gate="G$1" pin="5" pad="5"/>
<connect gate="G$1" pin="6" pad="6"/>
<connect gate="G$1" pin="7" pad="7"/>
<connect gate="G$1" pin="8" pad="8"/>
<connect gate="G$1" pin="9" pad="9"/>
</connects>
<technologies>
<technology name=""/>
</technologies>
</device>
<device name="RAF" package="2X5-RAF">
<connects>
<connect gate="G$1" pin="1" pad="1"/>
<connect gate="G$1" pin="10" pad="10"/>
<connect gate="G$1" pin="2" pad="2"/>
<connect gate="G$1" pin="3" pad="3"/>
<connect gate="G$1" pin="4" pad="4"/>
<connect gate="G$1" pin="5" pad="5"/>
<connect gate="G$1" pin="6" pad="6"/>
<connect gate="G$1" pin="7" pad="7"/>
<connect gate="G$1" pin="8" pad="8"/>
<connect gate="G$1" pin="9" pad="9"/>
</connects>
<technologies>
<technology name=""/>
</technologies>
</device>
<device name="SHD" package="2X5-SHROUDED">
<connects>
<connect gate="G$1" pin="1" pad="1"/>
<connect gate="G$1" pin="10" pad="10"/>
<connect gate="G$1" pin="2" pad="2"/>
<connect gate="G$1" pin="3" pad="3"/>
<connect gate="G$1" pin="4" pad="4"/>
<connect gate="G$1" pin="5" pad="5"/>
<connect gate="G$1" pin="6" pad="6"/>
<connect gate="G$1" pin="7" pad="7"/>
<connect gate="G$1" pin="8" pad="8"/>
<connect gate="G$1" pin="9" pad="9"/>
</connects>
<technologies>
<technology name="">
<attribute name="PROD_ID" value="CONN-08671" constant="no"/>
<attribute name="SF_ID" value="PRT-08506" constant="no"/>
</technology>
</technologies>
</device>
<device name="SHD_LOCK" package="2X5-SHROUDED_LOCK">
<connects>
<connect gate="G$1" pin="1" pad="1"/>
<connect gate="G$1" pin="10" pad="10"/>
<connect gate="G$1" pin="2" pad="2"/>
<connect gate="G$1" pin="3" pad="3"/>
<connect gate="G$1" pin="4" pad="4"/>
<connect gate="G$1" pin="5" pad="5"/>
<connect gate="G$1" pin="6" pad="6"/>
<connect gate="G$1" pin="7" pad="7"/>
<connect gate="G$1" pin="8" pad="8"/>
<connect gate="G$1" pin="9" pad="9"/>
</connects>
<technologies>
<technology name="">
<attribute name="PROD_ID" value="CONN-08671" constant="no"/>
<attribute name="SF_ID" value="PRT-08506" constant="no"/>
</technology>
</technologies>
</device>
<device name="SHD_SMD" package="2X5-SHROUDED_SMD">
<connects>
<connect gate="G$1" pin="1" pad="1"/>
<connect gate="G$1" pin="10" pad="10"/>
<connect gate="G$1" pin="2" pad="2"/>
<connect gate="G$1" pin="3" pad="3"/>
<connect gate="G$1" pin="4" pad="4"/>
<connect gate="G$1" pin="5" pad="5"/>
<connect gate="G$1" pin="6" pad="6"/>
<connect gate="G$1" pin="7" pad="7"/>
<connect gate="G$1" pin="8" pad="8"/>
<connect gate="G$1" pin="9" pad="9"/>
</connects>
<technologies>
<technology name="">
<attribute name="PROD_ID" value="CONN-09508" constant="no"/>
</technology>
</technologies>
</device>
<device name="NO_SILK" package="2X5_NOSILK">
<connects>
<connect gate="G$1" pin="1" pad="1"/>
<connect gate="G$1" pin="10" pad="10"/>
<connect gate="G$1" pin="2" pad="2"/>
<connect gate="G$1" pin="3" pad="3"/>
<connect gate="G$1" pin="4" pad="4"/>
<connect gate="G$1" pin="5" pad="5"/>
<connect gate="G$1" pin="6" pad="6"/>
<connect gate="G$1" pin="7" pad="7"/>
<connect gate="G$1" pin="8" pad="8"/>
<connect gate="G$1" pin="9" pad="9"/>
</connects>
<technologies>
<technology name=""/>
</technologies>
</device>
<device name="0.05_IN_PTH_SILK" package="2X5_PTH_SILK_.05">
<connects>
<connect gate="G$1" pin="1" pad="1"/>
<connect gate="G$1" pin="10" pad="10"/>
<connect gate="G$1" pin="2" pad="2"/>
<connect gate="G$1" pin="3" pad="3"/>
<connect gate="G$1" pin="4" pad="4"/>
<connect gate="G$1" pin="5" pad="5"/>
<connect gate="G$1" pin="6" pad="6"/>
<connect gate="G$1" pin="7" pad="7"/>
<connect gate="G$1" pin="8" pad="8"/>
<connect gate="G$1" pin="9" pad="9"/>
</connects>
<technologies>
<technology name=""/>
</technologies>
</device>
<device name="SHD-NS" package="2X5-SHROUDED-NS">
<connects>
<connect gate="G$1" pin="1" pad="1"/>
<connect gate="G$1" pin="10" pad="10"/>
<connect gate="G$1" pin="2" pad="2"/>
<connect gate="G$1" pin="3" pad="3"/>
<connect gate="G$1" pin="4" pad="4"/>
<connect gate="G$1" pin="5" pad="5"/>
<connect gate="G$1" pin="6" pad="6"/>
<connect gate="G$1" pin="7" pad="7"/>
<connect gate="G$1" pin="8" pad="8"/>
<connect gate="G$1" pin="9" pad="9"/>
</connects>
<technologies>
<technology name="">
<attribute name="PROD_ID" value="CONN-08671" constant="no"/>
<attribute name="SF_ID" value="PRT-08506" constant="no"/>
</technology>
</technologies>
</device>
</devices>
</deviceset>
</devicesets>
</library>
</libraries>
<attributes>
</attributes>
<variantdefs>
</variantdefs>
<classes>
<class number="0" name="default" width="0" drill="0">
</class>
</classes>
<parts>
<part name="J1" library="SparkFun-Connectors" deviceset="CONN_05X2" device="SHD"/>
<part name="J2" library="SparkFun-Connectors" deviceset="CONN_05X2" device="SHD"/>
</parts>
<sheets>
<sheet>
<plain>
</plain>
<instances>
<instance part="J1" gate="G$1" x="27.94" y="43.18"/>
<instance part="J2" gate="G$1" x="81.28" y="43.18" rot="MR0"/>
</instances>
<busses>
</busses>
<nets>
<net name="N$1" class="0">
<segment>
<pinref part="J1" gate="G$1" pin="1"/>
<wire x1="20.32" y1="48.26" x2="15.24" y2="48.26" width="0.1524" layer="91"/>
<wire x1="15.24" y1="48.26" x2="15.24" y2="55.88" width="0.1524" layer="91"/>
<wire x1="15.24" y1="55.88" x2="68.58" y2="55.88" width="0.1524" layer="91"/>
<wire x1="68.58" y1="55.88" x2="68.58" y2="48.26" width="0.1524" layer="91"/>
<pinref part="J2" gate="G$1" pin="2"/>
<wire x1="68.58" y1="48.26" x2="73.66" y2="48.26" width="0.1524" layer="91"/>
</segment>
</net>
<net name="N$2" class="0">
<segment>
<pinref part="J1" gate="G$1" pin="3"/>
<wire x1="20.32" y1="45.72" x2="12.7" y2="45.72" width="0.1524" layer="91"/>
<wire x1="12.7" y1="45.72" x2="12.7" y2="58.42" width="0.1524" layer="91"/>
<wire x1="12.7" y1="58.42" x2="66.04" y2="58.42" width="0.1524" layer="91"/>
<wire x1="66.04" y1="58.42" x2="66.04" y2="45.72" width="0.1524" layer="91"/>
<pinref part="J2" gate="G$1" pin="4"/>
<wire x1="66.04" y1="45.72" x2="73.66" y2="45.72" width="0.1524" layer="91"/>
</segment>
</net>
<net name="N$3" class="0">
<segment>
<pinref part="J1" gate="G$1" pin="5"/>
<wire x1="20.32" y1="43.18" x2="10.16" y2="43.18" width="0.1524" layer="91"/>
<wire x1="10.16" y1="43.18" x2="10.16" y2="60.96" width="0.1524" layer="91"/>
<wire x1="10.16" y1="60.96" x2="63.5" y2="60.96" width="0.1524" layer="91"/>
<wire x1="63.5" y1="60.96" x2="63.5" y2="43.18" width="0.1524" layer="91"/>
<pinref part="J2" gate="G$1" pin="6"/>
<wire x1="63.5" y1="43.18" x2="73.66" y2="43.18" width="0.1524" layer="91"/>
</segment>
</net>
<net name="N$4" class="0">
<segment>
<pinref part="J1" gate="G$1" pin="7"/>
<wire x1="20.32" y1="40.64" x2="7.62" y2="40.64" width="0.1524" layer="91"/>
<wire x1="7.62" y1="40.64" x2="7.62" y2="63.5" width="0.1524" layer="91"/>
<wire x1="7.62" y1="63.5" x2="60.96" y2="63.5" width="0.1524" layer="91"/>
<wire x1="60.96" y1="63.5" x2="60.96" y2="40.64" width="0.1524" layer="91"/>
<pinref part="J2" gate="G$1" pin="8"/>
<wire x1="60.96" y1="40.64" x2="73.66" y2="40.64" width="0.1524" layer="91"/>
</segment>
</net>
<net name="N$5" class="0">
<segment>
<pinref part="J1" gate="G$1" pin="9"/>
<wire x1="20.32" y1="38.1" x2="5.08" y2="38.1" width="0.1524" layer="91"/>
<wire x1="5.08" y1="38.1" x2="5.08" y2="66.04" width="0.1524" layer="91"/>
<wire x1="5.08" y1="66.04" x2="58.42" y2="66.04" width="0.1524" layer="91"/>
<wire x1="58.42" y1="66.04" x2="58.42" y2="38.1" width="0.1524" layer="91"/>
<pinref part="J2" gate="G$1" pin="10"/>
<wire x1="58.42" y1="38.1" x2="73.66" y2="38.1" width="0.1524" layer="91"/>
</segment>
</net>
<net name="N$6" class="0">
<segment>
<pinref part="J1" gate="G$1" pin="2"/>
<wire x1="35.56" y1="48.26" x2="55.88" y2="48.26" width="0.1524" layer="91"/>
<wire x1="55.88" y1="48.26" x2="55.88" y2="27.94" width="0.1524" layer="91"/>
<wire x1="55.88" y1="27.94" x2="91.44" y2="27.94" width="0.1524" layer="91"/>
<wire x1="91.44" y1="27.94" x2="91.44" y2="48.26" width="0.1524" layer="91"/>
<pinref part="J2" gate="G$1" pin="1"/>
<wire x1="91.44" y1="48.26" x2="88.9" y2="48.26" width="0.1524" layer="91"/>
</segment>
</net>
<net name="N$7" class="0">
<segment>
<pinref part="J1" gate="G$1" pin="4"/>
<wire x1="35.56" y1="45.72" x2="53.34" y2="45.72" width="0.1524" layer="91"/>
<wire x1="53.34" y1="45.72" x2="53.34" y2="25.4" width="0.1524" layer="91"/>
<wire x1="53.34" y1="25.4" x2="93.98" y2="25.4" width="0.1524" layer="91"/>
<wire x1="93.98" y1="25.4" x2="93.98" y2="45.72" width="0.1524" layer="91"/>
<pinref part="J2" gate="G$1" pin="3"/>
<wire x1="93.98" y1="45.72" x2="88.9" y2="45.72" width="0.1524" layer="91"/>
</segment>
</net>
<net name="N$8" class="0">
<segment>
<pinref part="J1" gate="G$1" pin="6"/>
<wire x1="35.56" y1="43.18" x2="50.8" y2="43.18" width="0.1524" layer="91"/>
<wire x1="50.8" y1="43.18" x2="50.8" y2="22.86" width="0.1524" layer="91"/>
<wire x1="50.8" y1="22.86" x2="96.52" y2="22.86" width="0.1524" layer="91"/>
<wire x1="96.52" y1="22.86" x2="96.52" y2="43.18" width="0.1524" layer="91"/>
<pinref part="J2" gate="G$1" pin="5"/>
<wire x1="96.52" y1="43.18" x2="88.9" y2="43.18" width="0.1524" layer="91"/>
</segment>
</net>
<net name="N$9" class="0">
<segment>
<pinref part="J1" gate="G$1" pin="8"/>
<wire x1="35.56" y1="40.64" x2="48.26" y2="40.64" width="0.1524" layer="91"/>
<wire x1="48.26" y1="40.64" x2="48.26" y2="20.32" width="0.1524" layer="91"/>
<wire x1="48.26" y1="20.32" x2="99.06" y2="20.32" width="0.1524" layer="91"/>
<wire x1="99.06" y1="20.32" x2="99.06" y2="40.64" width="0.1524" layer="91"/>
<pinref part="J2" gate="G$1" pin="7"/>
<wire x1="99.06" y1="40.64" x2="88.9" y2="40.64" width="0.1524" layer="91"/>
</segment>
</net>
<net name="N$10" class="0">
<segment>
<pinref part="J1" gate="G$1" pin="10"/>
<wire x1="35.56" y1="38.1" x2="45.72" y2="38.1" width="0.1524" layer="91"/>
<wire x1="45.72" y1="38.1" x2="45.72" y2="17.78" width="0.1524" layer="91"/>
<wire x1="45.72" y1="17.78" x2="101.6" y2="17.78" width="0.1524" layer="91"/>
<wire x1="101.6" y1="17.78" x2="101.6" y2="38.1" width="0.1524" layer="91"/>
<pinref part="J2" gate="G$1" pin="9"/>
<wire x1="101.6" y1="38.1" x2="88.9" y2="38.1" width="0.1524" layer="91"/>
</segment>
</net>
</nets>
</sheet>
</sheets>
</schematic>
</drawing>
</eagle>
