%!PS-Adobe-1.0
%%BoundingBox: 0 0 595 841 
%%Creator: EAGLE Version 6.5.0 Copyright (c) 1988-2013 CadSoft
%%Title: RX.brd
%%CreationDate: lun sep 5 11:34:04 2016
%%Orientation: Landscape
%%Pages: (atend)
%%DocumentFonts: (atend)
%%EndComments
%%BeginProlog
% Prolog copyright (C) 2012 Digia Plc and/or its subsidiary(-ies).
% You may copy this prolog in any way that is directly related to this document.
% For other use of this prolog, see your licensing agreement for Qt.
/BD{bind def}bind def/d2{dup dup}BD/ED{exch def}BD/D0{0 ED}BD/F{setfont}BD
/RL{rlineto}BD/CM{currentmatrix}BD/SM{setmatrix}BD/TR{translate}BD/SD
{setdash}BD/SC{aload pop setrgbcolor}BD/CR{currentfile read pop}BD/i{index}
BD/scs{setcolorspace}BD/DB{dict dup begin}BD/DE{end def}BD/ie{ifelse}BD/gs
{gsave}BD/gr{grestore}BD/w{setlinewidth}BD/d{setdash}BD/J{setlinecap}BD/j
{setlinejoin}BD/scn{3 array astore/BCol exch def}BD/SCN{3 array astore/PCol
exch def}BD/cm{6 array astore concat}BD/m{moveto}BD/l{lineto}BD/c{curveto}BD
/h{closepath}BD/W{clip}BD/W*{eoclip}BD/n{newpath}BD/q{gsave 10 dict begin}BD
/Q{end grestore}BD/re{4 2 roll m dup 0 exch RL exch 0 RL 0 exch neg RL h}BD
/S{gs PCol SC stroke gr n}BD/BT{gsave 10 dict begin/_m matrix CM def BCol
SC}BD/ET{end grestore}BD/Tf{/_fs ED findfont[_fs 0 0 _fs 0 0]makefont F}BD
/Tm{6 array astore concat}BD/Td{translate}BD/Tj{0 0 m show}BD/BDC{pop pop}BD
/EMC{}BD/BSt 0 def/WFi false def/BCol[1 1 1]def/PCol[0 0 0]def/BDArr[0.94
0.88 0.63 0.50 0.37 0.12 0.06]def/level3{/languagelevel where{pop
languagelevel 3 ge}{false}ie}BD/QCIgray D0/QCIcolor D0/QCIindex D0/QCI{
/colorimage where{pop false 3 colorimage}{exec/QCIcolor ED/QCIgray QCIcolor
length 3 idiv string def 0 1 QCIcolor length 3 idiv 1 sub{/QCIindex ED/_x
QCIindex 3 mul def QCIgray QCIindex QCIcolor _x get 0.30 mul QCIcolor _x 1
add get 0.59 mul QCIcolor _x 2 add get 0.11 mul add add cvi put}for QCIgray
image}ie}BD/di{gs TR 1 i 1 eq{pop pop false 3 1 roll BCol SC imagemask}{dup
false ne{level3}{false}ie{/_ma ED 8 eq{/_dc[0 1]def/DeviceGray}{/_dc[0 1 0 1
0 1]def/DeviceRGB}ie scs/_im ED/_mt ED/_h ED/_w ED <</ImageType 3/DataDict
<</ImageType 1/Width _w/Height _h/ImageMatrix _mt/DataSource _im
/BitsPerComponent 8/Decode _dc >>/MaskDict <</ImageType 1/Width _w/Height _h
/ImageMatrix _mt/DataSource _ma/BitsPerComponent 1/Decode[0 1]>>
/InterleaveType 3 >> image}{pop 8 4 1 roll 8 eq{image}{QCI}ie}ie}ie gr}BD/BF
{gs BSt 1 eq{BCol SC WFi{fill}{eofill}ie}if BSt 2 ge BSt 8 le and{BDArr BSt
2 sub get/_sc ED BCol{1. exch sub _sc mul 1. exch sub}forall 3 array astore
SC WFi{fill}{eofill}ie}if BSt 9 ge BSt 14 le and{WFi{W}{W*}ie pathbbox 3 i 3
i TR 4 2 roll 3 2 roll exch sub/_h ED sub/_w ED BCol SC 0.3 w n BSt 9 eq BSt
11 eq or{0 4 _h{dup 0 exch m _w exch l}for}if BSt 10 eq BSt 11 eq or{0 4 _w{
dup 0 m _h l}for}if BSt 12 eq BSt 14 eq or{_w _h gt{0 6 _w _h add{dup 0 m _h
sub _h l}for}{0 6 _w _h add{dup 0 exch m _w sub _w exch l}for}ie}if BSt 13
eq BSt 14 eq or{_w _h gt{0 6 _w _h add{dup _h m _h sub 0 l}for}{0 6 _w _h
add{dup _w exch m _w sub 0 exch l}for}ie}if stroke}if BSt 15 eq{}if BSt 24
eq{}if gr}BD/f{/WFi true def BF n}BD/f*{/WFi false def BF n}BD/B{/WFi true
def BF S n}BD/B*{/WFi false def BF S n}BD/QI{/C save def pageinit q n}BD/QP{
Q C restore showpage}BD/SPD{/setpagedevice where{<< 3 1 roll >>
setpagedevice}{pop pop}ie}BD/T1AddMapping{10 dict begin/glyphs ED/fnt ED
/current fnt/NumGlyphs get def/CMap fnt/CMap get def 0 1 glyphs length 1 sub
{glyphs exch get/gn ED current dup 256 mod/min ED 256 idiv/maj ED CMap dup
maj get dup null eq{pop 256 array 0 1 255{1 i exch/.notdef put}for}if dup
min gn put maj exch put/current current 1 add def}for fnt/CMap CMap put fnt
/NumGlyphs current put end}def/T1AddGlyphs{10 dict begin/glyphs ED/fnt ED
/current fnt/NumGlyphs get def/CMap fnt/CMap get def/CharStrings fnt
/CharStrings get def 0 1 glyphs length 2 idiv 1 sub{2 mul dup glyphs exch
get/gn ED 1 add glyphs exch get/cs ED current dup 256 mod/min ED 256 idiv
/maj ED CMap dup maj get dup null eq{pop 256 array 0 1 255{1 i exch/.notdef
put}for}if dup min gn put maj exch put CharStrings gn cs put/current current
1 add def}for fnt/CharStrings CharStrings put fnt/CMap CMap put fnt
/NumGlyphs current put end}def/StringAdd{1 i length 1 i length add string 3
1 roll 2 i 0 3 i putinterval 2 i 2 i length 2 i putinterval pop pop}def
/T1Setup{10 dict begin dup/FontName ED (-Base) StringAdd cvx cvn/Font ED
/MaxPage Font/NumGlyphs get 1 sub 256 idiv def/FDepVector MaxPage 1 add
array def/Encoding MaxPage 1 add array def 0 1 MaxPage{dup Encoding exch dup
put dup/Page ED FontName (-) StringAdd exch 20 string cvs StringAdd cvn Font
0 dict copy d2/CMap get Page get/Encoding exch put definefont FDepVector
exch Page exch put}for FontName cvn <</FontType 0/FMapType 2/FontMatrix[1 0
0 1 0 0]/Encoding Encoding/FDepVector FDepVector >> definefont pop end}def

/pageinit {
% 210 *297  mm (landscape)
 90 rotate 0.059999999 -0.059999999 scale } def
%%EndProlog
%%Page: 1 1 
%%BeginPageSetup
QI
%%EndPageSetup
q
Q
Q q
q
0 0 0 scn
/BSt 0 def
Q
q
0 0 0 scn
/BSt 1 def
0 0 0 SCN
0 w 1 J 1 j [] 0 d
Q
q
0 0 0 scn
/BSt 0 def
0 0 0 SCN
0 w 2 J 2 j [] 0 d
Q
q
0.080000000 0 0 0.080000000 0 0 cm
0 0 0 scn
/BSt 0 def
0 0 0 SCN
0 w 2 J 2 j [] 0 d
Q
Q q
402 402 m
13631 402 l
13631 9515 l
402 9515 l
402 402 l
h
W* n
q
0 0 0 scn
/BSt 0 def
0 0 0 SCN
0 w 2 J 2 j [] 0 d
Q
Q q
402 402 m
13631 402 l
13631 9515 l
402 9515 l
402 402 l
h
W* n
5246 3608 m
8786 3608 l
8786 6308 l
5246 6308 l
5246 3608 l
h
W* n
q
0 0 0 scn
/BSt 0 def
0 0 0 SCN
0 w 2 J 2 j [] 0 d
0 0 0 scn
/BSt 1 def
0 0 0 SCN
0 w 1 J 1 j [] 0 d
8784 6307 m
6086 6307 l
B*
8784 3609 m
8784 6307 l
B*
6145 3609 m
5786 3969 l
B*
5786 3969 m
5366 3969 l
B*
5366 3969 m
5246 4089 l
B*
5246 4089 m
5246 5887 l
B*
5246 5887 m
5366 6007 l
B*
5366 6007 m
5786 6007 l
B*
5786 6007 m
6086 6307 l
B*
6145 3609 m
8784 3609 l
B*
0 0 0 scn
/BSt 1 def
0 0 0 SCN
92 w 1 J 1 j [] 0 d
5546 4385 m
5546 4688 l
B*
5546 4688 m
5666 4808 l
B*
0 0 0 SCN
39 w 1 J 1 j [] 0 d
6265 3969 m
6503 3969 l
B*
0 0 0 SCN
20 w 1 J 1 j [] 0 d
6503 3969 m
6505 3971 l
B*
0 0 0 SCN
39 w 1 J 1 j [] 0 d
7645 3819 m
7645 4029 l
B*
6985 4388 m
7225 4388 l
B*
6985 4269 m
7225 4269 l
B*
0 0 0 SCN
92 w 1 J 1 j [] 0 d
6325 5707 m
5906 5707 l
B*
5906 5707 m
5786 5827 l
B*
5786 5827 m
5546 5827 l
B*
0 0 0 SCN
20 w 1 J 1 j [] 0 d
5546 5827 m
5546 5824 l
B*
0 0 0 SCN
92 w 1 J 1 j [] 0 d
6325 5108 m
5966 5108 l
B*
5966 5108 m
5906 5168 l
B*
5906 5168 m
5906 5528 l
B*
5906 5528 m
5846 5588 l
B*
5846 5588 m
5546 5588 l
B*
6325 4508 m
5966 4508 l
B*
5966 4508 m
5846 4628 l
B*
5846 4628 m
5846 4988 l
B*
5846 4988 m
5606 5228 l
B*
5606 5228 m
5550 5228 l
B*
0 0 0 SCN
20 w 1 J 1 j [] 0 d
5550 5228 m
5546 5224 l
B*
0 0 0 SCN
39 w 1 J 1 j [] 0 d
7285 5228 m
6985 5228 l
B*
6985 5228 m
6625 5588 l
B*
6625 5588 m
6325 5588 l
B*
7285 4988 m
6325 4988 l
B*
7285 4748 m
6985 4748 l
B*
6985 4748 m
6625 4388 l
B*
6625 4388 m
6325 4388 l
B*
0 0 0 SCN
92 w 1 J 1 j [] 0 d
5546 4988 m
5546 4928 l
B*
5546 4928 m
5366 4748 l
B*
5366 4748 m
5366 4269 l
B*
5366 4269 m
5486 4149 l
B*
5486 4149 m
5546 4149 l
B*
0 0 0 SCN
39 w 1 J 1 j [] 0 d
8544 5647 m
8544 4209 l
B*
8544 4209 m
8064 3729 l
B*
8064 3729 m
6325 3729 l
B*
6325 3729 m
6145 3909 l
B*
6145 3909 m
6145 4209 l
B*
6145 4209 m
6086 4269 l
B*
6086 4269 m
5666 4269 l
B*
5666 4269 m
5546 4149 l
B*
0 0 0 scn
/BSt 1 def
0 0 0 SCN
0 w 1 J 1 j [] 0 d
7507 5785 m
7423 5785 l
7423 5869 l
7507 5869 l
7507 5785 l
h
B*
1 1 1 scn
/BSt 1 def
0 0 0 SCN
1 w 2 J 2 j [] 0 d
7485 5827 m
7485 5837.49341 7476.49341 5846 7466 5846 c
7455.50658 5846 7447 5837.49341 7447 5827 c
7447 5816.50658 7455.50658 5808 7466 5808 c
7476.49341 5808 7485 5816.50658 7485 5827 c
h
B*
0 0 0 scn
/BSt 1 def
0 0 0 SCN
0 w 1 J 1 j [] 0 d
7508 5707 m
7508 5730.19595 7489.19595 5749 7466 5749 c
7442.80404 5749 7424 5730.19595 7424 5707 c
7424 5683.80404 7442.80404 5665 7466 5665 c
7489.19595 5665 7508 5683.80404 7508 5707 c
h
B*
1 1 1 scn
/BSt 1 def
0 0 0 SCN
1 w 2 J 2 j [] 0 d
7485 5707 m
7485 5717.49341 7476.49341 5726 7466 5726 c
7455.50658 5726 7447 5717.49341 7447 5707 c
7447 5696.50658 7455.50658 5688 7466 5688 c
7476.49341 5688 7485 5696.50658 7485 5707 c
h
B*
0 0 0 scn
/BSt 1 def
0 0 0 SCN
0 w 1 J 1 j [] 0 d
7508 5588 m
7508 5611.19595 7489.19595 5630 7466 5630 c
7442.80404 5630 7424 5611.19595 7424 5588 c
7424 5564.80404 7442.80404 5546 7466 5546 c
7489.19595 5546 7508 5564.80404 7508 5588 c
h
B*
1 1 1 scn
/BSt 1 def
0 0 0 SCN
1 w 2 J 2 j [] 0 d
7485 5588 m
7485 5598.49341 7476.49341 5607 7466 5607 c
7455.50658 5607 7447 5598.49341 7447 5588 c
7447 5577.50658 7455.50658 5569 7466 5569 c
7476.49341 5569 7485 5577.50658 7485 5588 c
h
B*
0 0 0 scn
/BSt 1 def
0 0 0 SCN
0 w 1 J 1 j [] 0 d
7508 5468 m
7508 5491.19595 7489.19595 5510 7466 5510 c
7442.80404 5510 7424 5491.19595 7424 5468 c
7424 5444.80404 7442.80404 5426 7466 5426 c
7489.19595 5426 7508 5444.80404 7508 5468 c
h
B*
1 1 1 scn
/BSt 1 def
0 0 0 SCN
1 w 2 J 2 j [] 0 d
7485 5468 m
7485 5478.49341 7476.49341 5487 7466 5487 c
7455.50658 5487 7447 5478.49341 7447 5468 c
7447 5457.50658 7455.50658 5449 7466 5449 c
7476.49341 5449 7485 5457.50658 7485 5468 c
h
B*
0 0 0 scn
/BSt 1 def
0 0 0 SCN
0 w 1 J 1 j [] 0 d
7508 5348 m
7508 5371.19595 7489.19595 5390 7466 5390 c
7442.80404 5390 7424 5371.19595 7424 5348 c
7424 5324.80404 7442.80404 5306 7466 5306 c
7489.19595 5306 7508 5324.80404 7508 5348 c
h
B*
1 1 1 scn
/BSt 1 def
0 0 0 SCN
1 w 2 J 2 j [] 0 d
7485 5348 m
7485 5358.49341 7476.49341 5367 7466 5367 c
7455.50658 5367 7447 5358.49341 7447 5348 c
7447 5337.50658 7455.50658 5329 7466 5329 c
7476.49341 5329 7485 5337.50658 7485 5348 c
h
B*
0 0 0 scn
/BSt 1 def
0 0 0 SCN
0 w 1 J 1 j [] 0 d
7508 5228 m
7508 5251.19595 7489.19595 5270 7466 5270 c
7442.80404 5270 7424 5251.19595 7424 5228 c
7424 5204.80404 7442.80404 5186 7466 5186 c
7489.19595 5186 7508 5204.80404 7508 5228 c
h
B*
1 1 1 scn
/BSt 1 def
0 0 0 SCN
1 w 2 J 2 j [] 0 d
7485 5228 m
7485 5238.49341 7476.49341 5247 7466 5247 c
7455.50658 5247 7447 5238.49341 7447 5228 c
7447 5217.50658 7455.50658 5209 7466 5209 c
7476.49341 5209 7485 5217.50658 7485 5228 c
h
B*
0 0 0 scn
/BSt 1 def
0 0 0 SCN
0 w 1 J 1 j [] 0 d
7508 5108 m
7508 5131.19595 7489.19595 5150 7466 5150 c
7442.80404 5150 7424 5131.19595 7424 5108 c
7424 5084.80404 7442.80404 5066 7466 5066 c
7489.19595 5066 7508 5084.80404 7508 5108 c
h
B*
1 1 1 scn
/BSt 1 def
0 0 0 SCN
1 w 2 J 2 j [] 0 d
7485 5108 m
7485 5118.49341 7476.49341 5127 7466 5127 c
7455.50658 5127 7447 5118.49341 7447 5108 c
7447 5097.50658 7455.50658 5089 7466 5089 c
7476.49341 5089 7485 5097.50658 7485 5108 c
h
B*
0 0 0 scn
/BSt 1 def
0 0 0 SCN
0 w 1 J 1 j [] 0 d
7508 4988 m
7508 5011.19595 7489.19595 5030 7466 5030 c
7442.80404 5030 7424 5011.19595 7424 4988 c
7424 4964.80404 7442.80404 4946 7466 4946 c
7489.19595 4946 7508 4964.80404 7508 4988 c
h
B*
1 1 1 scn
/BSt 1 def
0 0 0 SCN
1 w 2 J 2 j [] 0 d
7485 4988 m
7485 4998.49341 7476.49341 5007 7466 5007 c
7455.50658 5007 7447 4998.49341 7447 4988 c
7447 4977.50658 7455.50658 4969 7466 4969 c
7476.49341 4969 7485 4977.50658 7485 4988 c
h
B*
0 0 0 scn
/BSt 1 def
0 0 0 SCN
0 w 1 J 1 j [] 0 d
7508 4868 m
7508 4891.19595 7489.19595 4910 7466 4910 c
7442.80404 4910 7424 4891.19595 7424 4868 c
7424 4844.80404 7442.80404 4826 7466 4826 c
7489.19595 4826 7508 4844.80404 7508 4868 c
h
B*
1 1 1 scn
/BSt 1 def
0 0 0 SCN
1 w 2 J 2 j [] 0 d
7485 4868 m
7485 4878.49341 7476.49341 4887 7466 4887 c
7455.50658 4887 7447 4878.49341 7447 4868 c
7447 4857.50658 7455.50658 4849 7466 4849 c
7476.49341 4849 7485 4857.50658 7485 4868 c
h
B*
0 0 0 scn
/BSt 1 def
0 0 0 SCN
0 w 1 J 1 j [] 0 d
7508 4748 m
7508 4771.19595 7489.19595 4790 7466 4790 c
7442.80404 4790 7424 4771.19595 7424 4748 c
7424 4724.80404 7442.80404 4706 7466 4706 c
7489.19595 4706 7508 4724.80404 7508 4748 c
h
B*
1 1 1 scn
/BSt 1 def
0 0 0 SCN
1 w 2 J 2 j [] 0 d
7485 4748 m
7485 4758.49341 7476.49341 4767 7466 4767 c
7455.50658 4767 7447 4758.49341 7447 4748 c
7447 4737.50658 7455.50658 4729 7466 4729 c
7476.49341 4729 7485 4737.50658 7485 4748 c
h
B*
0 0 0 scn
/BSt 1 def
0 0 0 SCN
0 w 1 J 1 j [] 0 d
7508 4628 m
7508 4651.19595 7489.19595 4670 7466 4670 c
7442.80404 4670 7424 4651.19595 7424 4628 c
7424 4604.80404 7442.80404 4586 7466 4586 c
7489.19595 4586 7508 4604.80404 7508 4628 c
h
B*
1 1 1 scn
/BSt 1 def
0 0 0 SCN
1 w 2 J 2 j [] 0 d
7485 4628 m
7485 4638.49341 7476.49341 4647 7466 4647 c
7455.50658 4647 7447 4638.49341 7447 4628 c
7447 4617.50658 7455.50658 4609 7466 4609 c
7476.49341 4609 7485 4617.50658 7485 4628 c
h
B*
0 0 0 scn
/BSt 1 def
0 0 0 SCN
0 w 1 J 1 j [] 0 d
7508 4508 m
7508 4531.19595 7489.19595 4550 7466 4550 c
7442.80404 4550 7424 4531.19595 7424 4508 c
7424 4484.80404 7442.80404 4466 7466 4466 c
7489.19595 4466 7508 4484.80404 7508 4508 c
h
B*
1 1 1 scn
/BSt 1 def
0 0 0 SCN
1 w 2 J 2 j [] 0 d
7485 4508 m
7485 4518.49341 7476.49341 4527 7466 4527 c
7455.50658 4527 7447 4518.49341 7447 4508 c
7447 4497.50658 7455.50658 4489 7466 4489 c
7476.49341 4489 7485 4497.50658 7485 4508 c
h
B*
0 0 0 scn
/BSt 1 def
0 0 0 SCN
0 w 1 J 1 j [] 0 d
7508 4388 m
7508 4411.19595 7489.19595 4430 7466 4430 c
7442.80404 4430 7424 4411.19595 7424 4388 c
7424 4364.80404 7442.80404 4346 7466 4346 c
7489.19595 4346 7508 4364.80404 7508 4388 c
h
B*
1 1 1 scn
/BSt 1 def
0 0 0 SCN
1 w 2 J 2 j [] 0 d
7485 4388 m
7485 4398.49341 7476.49341 4407 7466 4407 c
7455.50658 4407 7447 4398.49341 7447 4388 c
7447 4377.50658 7455.50658 4369 7466 4369 c
7476.49341 4369 7485 4377.50658 7485 4388 c
h
B*
0 0 0 scn
/BSt 1 def
0 0 0 SCN
0 w 1 J 1 j [] 0 d
7508 4269 m
7508 4292.19595 7489.19595 4311 7466 4311 c
7442.80404 4311 7424 4292.19595 7424 4269 c
7424 4245.80404 7442.80404 4227 7466 4227 c
7489.19595 4227 7508 4245.80404 7508 4269 c
h
B*
1 1 1 scn
/BSt 1 def
0 0 0 SCN
1 w 2 J 2 j [] 0 d
7485 4269 m
7485 4279.49341 7476.49341 4288 7466 4288 c
7455.50658 4288 7447 4279.49341 7447 4269 c
7447 4258.50658 7455.50658 4250 7466 4250 c
7476.49341 4250 7485 4258.50658 7485 4269 c
h
B*
0 0 0 scn
/BSt 1 def
0 0 0 SCN
0 w 1 J 1 j [] 0 d
7508 4149 m
7508 4172.19595 7489.19595 4191 7466 4191 c
7442.80404 4191 7424 4172.19595 7424 4149 c
7424 4125.80404 7442.80404 4107 7466 4107 c
7489.19595 4107 7508 4125.80404 7508 4149 c
h
B*
1 1 1 scn
/BSt 1 def
0 0 0 SCN
1 w 2 J 2 j [] 0 d
7485 4149 m
7485 4159.49341 7476.49341 4168 7466 4168 c
7455.50658 4168 7447 4159.49341 7447 4149 c
7447 4138.50658 7455.50658 4130 7466 4130 c
7476.49341 4130 7485 4138.50658 7485 4149 c
h
B*
0 0 0 scn
/BSt 1 def
0 0 0 SCN
0 w 1 J 1 j [] 0 d
8227 5827 m
8227 5850.19595 8208.19595 5869 8185 5869 c
8161.80404 5869 8143 5850.19595 8143 5827 c
8143 5803.80404 8161.80404 5785 8185 5785 c
8208.19595 5785 8227 5803.80404 8227 5827 c
h
B*
1 1 1 scn
/BSt 1 def
0 0 0 SCN
1 w 2 J 2 j [] 0 d
8204 5827 m
8204 5837.49341 8195.49341 5846 8185 5846 c
8174.50658 5846 8166 5837.49341 8166 5827 c
8166 5816.50658 8174.50658 5808 8185 5808 c
8195.49341 5808 8204 5816.50658 8204 5827 c
h
B*
0 0 0 scn
/BSt 1 def
0 0 0 SCN
0 w 1 J 1 j [] 0 d
8227 5707 m
8227 5730.19595 8208.19595 5749 8185 5749 c
8161.80404 5749 8143 5730.19595 8143 5707 c
8143 5683.80404 8161.80404 5665 8185 5665 c
8208.19595 5665 8227 5683.80404 8227 5707 c
h
B*
1 1 1 scn
/BSt 1 def
0 0 0 SCN
1 w 2 J 2 j [] 0 d
8204 5707 m
8204 5717.49341 8195.49341 5726 8185 5726 c
8174.50658 5726 8166 5717.49341 8166 5707 c
8166 5696.50658 8174.50658 5688 8185 5688 c
8195.49341 5688 8204 5696.50658 8204 5707 c
h
B*
0 0 0 scn
/BSt 1 def
0 0 0 SCN
0 w 1 J 1 j [] 0 d
8227 5588 m
8227 5611.19595 8208.19595 5630 8185 5630 c
8161.80404 5630 8143 5611.19595 8143 5588 c
8143 5564.80404 8161.80404 5546 8185 5546 c
8208.19595 5546 8227 5564.80404 8227 5588 c
h
B*
1 1 1 scn
/BSt 1 def
0 0 0 SCN
1 w 2 J 2 j [] 0 d
8204 5588 m
8204 5598.49341 8195.49341 5607 8185 5607 c
8174.50658 5607 8166 5598.49341 8166 5588 c
8166 5577.50658 8174.50658 5569 8185 5569 c
8195.49341 5569 8204 5577.50658 8204 5588 c
h
B*
0 0 0 scn
/BSt 1 def
0 0 0 SCN
0 w 1 J 1 j [] 0 d
8227 5468 m
8227 5491.19595 8208.19595 5510 8185 5510 c
8161.80404 5510 8143 5491.19595 8143 5468 c
8143 5444.80404 8161.80404 5426 8185 5426 c
8208.19595 5426 8227 5444.80404 8227 5468 c
h
B*
1 1 1 scn
/BSt 1 def
0 0 0 SCN
1 w 2 J 2 j [] 0 d
8204 5468 m
8204 5478.49341 8195.49341 5487 8185 5487 c
8174.50658 5487 8166 5478.49341 8166 5468 c
8166 5457.50658 8174.50658 5449 8185 5449 c
8195.49341 5449 8204 5457.50658 8204 5468 c
h
B*
0 0 0 scn
/BSt 1 def
0 0 0 SCN
0 w 1 J 1 j [] 0 d
8227 5348 m
8227 5371.19595 8208.19595 5390 8185 5390 c
8161.80404 5390 8143 5371.19595 8143 5348 c
8143 5324.80404 8161.80404 5306 8185 5306 c
8208.19595 5306 8227 5324.80404 8227 5348 c
h
B*
1 1 1 scn
/BSt 1 def
0 0 0 SCN
1 w 2 J 2 j [] 0 d
8204 5348 m
8204 5358.49341 8195.49341 5367 8185 5367 c
8174.50658 5367 8166 5358.49341 8166 5348 c
8166 5337.50658 8174.50658 5329 8185 5329 c
8195.49341 5329 8204 5337.50658 8204 5348 c
h
B*
0 0 0 scn
/BSt 1 def
0 0 0 SCN
0 w 1 J 1 j [] 0 d
8227 5228 m
8227 5251.19595 8208.19595 5270 8185 5270 c
8161.80404 5270 8143 5251.19595 8143 5228 c
8143 5204.80404 8161.80404 5186 8185 5186 c
8208.19595 5186 8227 5204.80404 8227 5228 c
h
B*
1 1 1 scn
/BSt 1 def
0 0 0 SCN
1 w 2 J 2 j [] 0 d
8204 5228 m
8204 5238.49341 8195.49341 5247 8185 5247 c
8174.50658 5247 8166 5238.49341 8166 5228 c
8166 5217.50658 8174.50658 5209 8185 5209 c
8195.49341 5209 8204 5217.50658 8204 5228 c
h
B*
0 0 0 scn
/BSt 1 def
0 0 0 SCN
0 w 1 J 1 j [] 0 d
8227 5108 m
8227 5131.19595 8208.19595 5150 8185 5150 c
8161.80404 5150 8143 5131.19595 8143 5108 c
8143 5084.80404 8161.80404 5066 8185 5066 c
8208.19595 5066 8227 5084.80404 8227 5108 c
h
B*
1 1 1 scn
/BSt 1 def
0 0 0 SCN
1 w 2 J 2 j [] 0 d
8204 5108 m
8204 5118.49341 8195.49341 5127 8185 5127 c
8174.50658 5127 8166 5118.49341 8166 5108 c
8166 5097.50658 8174.50658 5089 8185 5089 c
8195.49341 5089 8204 5097.50658 8204 5108 c
h
B*
0 0 0 scn
/BSt 1 def
0 0 0 SCN
0 w 1 J 1 j [] 0 d
8227 4988 m
8227 5011.19595 8208.19595 5030 8185 5030 c
8161.80404 5030 8143 5011.19595 8143 4988 c
8143 4964.80404 8161.80404 4946 8185 4946 c
8208.19595 4946 8227 4964.80404 8227 4988 c
h
B*
1 1 1 scn
/BSt 1 def
0 0 0 SCN
1 w 2 J 2 j [] 0 d
8204 4988 m
8204 4998.49341 8195.49341 5007 8185 5007 c
8174.50658 5007 8166 4998.49341 8166 4988 c
8166 4977.50658 8174.50658 4969 8185 4969 c
8195.49341 4969 8204 4977.50658 8204 4988 c
h
B*
0 0 0 scn
/BSt 1 def
0 0 0 SCN
0 w 1 J 1 j [] 0 d
8227 4868 m
8227 4891.19595 8208.19595 4910 8185 4910 c
8161.80404 4910 8143 4891.19595 8143 4868 c
8143 4844.80404 8161.80404 4826 8185 4826 c
8208.19595 4826 8227 4844.80404 8227 4868 c
h
B*
1 1 1 scn
/BSt 1 def
0 0 0 SCN
1 w 2 J 2 j [] 0 d
8204 4868 m
8204 4878.49341 8195.49341 4887 8185 4887 c
8174.50658 4887 8166 4878.49341 8166 4868 c
8166 4857.50658 8174.50658 4849 8185 4849 c
8195.49341 4849 8204 4857.50658 8204 4868 c
h
B*
0 0 0 scn
/BSt 1 def
0 0 0 SCN
0 w 1 J 1 j [] 0 d
8227 4748 m
8227 4771.19595 8208.19595 4790 8185 4790 c
8161.80404 4790 8143 4771.19595 8143 4748 c
8143 4724.80404 8161.80404 4706 8185 4706 c
8208.19595 4706 8227 4724.80404 8227 4748 c
h
B*
1 1 1 scn
/BSt 1 def
0 0 0 SCN
1 w 2 J 2 j [] 0 d
8204 4748 m
8204 4758.49341 8195.49341 4767 8185 4767 c
8174.50658 4767 8166 4758.49341 8166 4748 c
8166 4737.50658 8174.50658 4729 8185 4729 c
8195.49341 4729 8204 4737.50658 8204 4748 c
h
B*
0 0 0 scn
/BSt 1 def
0 0 0 SCN
0 w 1 J 1 j [] 0 d
8227 4628 m
8227 4651.19595 8208.19595 4670 8185 4670 c
8161.80404 4670 8143 4651.19595 8143 4628 c
8143 4604.80404 8161.80404 4586 8185 4586 c
8208.19595 4586 8227 4604.80404 8227 4628 c
h
B*
1 1 1 scn
/BSt 1 def
0 0 0 SCN
1 w 2 J 2 j [] 0 d
8204 4628 m
8204 4638.49341 8195.49341 4647 8185 4647 c
8174.50658 4647 8166 4638.49341 8166 4628 c
8166 4617.50658 8174.50658 4609 8185 4609 c
8195.49341 4609 8204 4617.50658 8204 4628 c
h
B*
0 0 0 scn
/BSt 1 def
0 0 0 SCN
0 w 1 J 1 j [] 0 d
8227 4508 m
8227 4531.19595 8208.19595 4550 8185 4550 c
8161.80404 4550 8143 4531.19595 8143 4508 c
8143 4484.80404 8161.80404 4466 8185 4466 c
8208.19595 4466 8227 4484.80404 8227 4508 c
h
B*
1 1 1 scn
/BSt 1 def
0 0 0 SCN
1 w 2 J 2 j [] 0 d
8204 4508 m
8204 4518.49341 8195.49341 4527 8185 4527 c
8174.50658 4527 8166 4518.49341 8166 4508 c
8166 4497.50658 8174.50658 4489 8185 4489 c
8195.49341 4489 8204 4497.50658 8204 4508 c
h
B*
0 0 0 scn
/BSt 1 def
0 0 0 SCN
0 w 1 J 1 j [] 0 d
8227 4388 m
8227 4411.19595 8208.19595 4430 8185 4430 c
8161.80404 4430 8143 4411.19595 8143 4388 c
8143 4364.80404 8161.80404 4346 8185 4346 c
8208.19595 4346 8227 4364.80404 8227 4388 c
h
B*
1 1 1 scn
/BSt 1 def
0 0 0 SCN
1 w 2 J 2 j [] 0 d
8204 4388 m
8204 4398.49341 8195.49341 4407 8185 4407 c
8174.50658 4407 8166 4398.49341 8166 4388 c
8166 4377.50658 8174.50658 4369 8185 4369 c
8195.49341 4369 8204 4377.50658 8204 4388 c
h
B*
0 0 0 scn
/BSt 1 def
0 0 0 SCN
0 w 1 J 1 j [] 0 d
8227 4269 m
8227 4292.19595 8208.19595 4311 8185 4311 c
8161.80404 4311 8143 4292.19595 8143 4269 c
8143 4245.80404 8161.80404 4227 8185 4227 c
8208.19595 4227 8227 4245.80404 8227 4269 c
h
B*
1 1 1 scn
/BSt 1 def
0 0 0 SCN
1 w 2 J 2 j [] 0 d
8204 4269 m
8204 4279.49341 8195.49341 4288 8185 4288 c
8174.50658 4288 8166 4279.49341 8166 4269 c
8166 4258.50658 8174.50658 4250 8185 4250 c
8195.49341 4250 8204 4258.50658 8204 4269 c
h
B*
0 0 0 scn
/BSt 1 def
0 0 0 SCN
0 w 1 J 1 j [] 0 d
8227 4149 m
8227 4172.19595 8208.19595 4191 8185 4191 c
8161.80404 4191 8143 4172.19595 8143 4149 c
8143 4125.80404 8161.80404 4107 8185 4107 c
8208.19595 4107 8227 4125.80404 8227 4149 c
h
B*
1 1 1 scn
/BSt 1 def
0 0 0 SCN
1 w 2 J 2 j [] 0 d
8204 4149 m
8204 4159.49341 8195.49341 4168 8185 4168 c
8174.50658 4168 8166 4159.49341 8166 4149 c
8166 4138.50658 8174.50658 4130 8185 4130 c
8195.49341 4130 8204 4138.50658 8204 4149 c
h
B*
0 0 0 scn
/BSt 1 def
0 0 0 SCN
0 w 1 J 1 j [] 0 d
6709 4164 m
6730 4185 l
6760 4185 l
6781 4164 l
6781 4134 l
6760 4113 l
6730 4113 l
6709 4134 l
6709 4164 l
h
B
1 1 1 scn
/BSt 1 def
0 0 0 SCN
1 w 2 J 2 j [] 0 d
6770 4149 m
6770 4162.25483 6759.25483 4173 6746 4173 c
6732.74516 4173 6722 4162.25483 6722 4149 c
6722 4135.74516 6732.74516 4125 6746 4125 c
6759.25483 4125 6770 4135.74516 6770 4149 c
h
B*
0 0 0 scn
/BSt 1 def
0 0 0 SCN
0 w 1 J 1 j [] 0 d
6829 4164 m
6850 4185 l
6880 4185 l
6901 4164 l
6901 4134 l
6880 4113 l
6850 4113 l
6829 4134 l
6829 4164 l
h
B
1 1 1 scn
/BSt 1 def
0 0 0 SCN
1 w 2 J 2 j [] 0 d
6890 4149 m
6890 4162.25483 6879.25483 4173 6866 4173 c
6852.74516 4173 6842 4162.25483 6842 4149 c
6842 4135.74516 6852.74516 4125 6866 4125 c
6879.25483 4125 6890 4135.74516 6890 4149 c
h
B*
0 0 0 scn
/BSt 1 def
0 0 0 SCN
0 w 1 J 1 j [] 0 d
6949 4164 m
6970 4185 l
7000 4185 l
7021 4164 l
7021 4134 l
7000 4113 l
6970 4113 l
6949 4134 l
6949 4164 l
h
B
1 1 1 scn
/BSt 1 def
0 0 0 SCN
1 w 2 J 2 j [] 0 d
7010 4149 m
7010 4162.25483 6999.25483 4173 6986 4173 c
6972.74516 4173 6962 4162.25483 6962 4149 c
6962 4135.74516 6972.74516 4125 6986 4125 c
6999.25483 4125 7010 4135.74516 7010 4149 c
h
B*
0 0 0 scn
/BSt 1 def
0 0 0 SCN
0 w 1 J 1 j [] 0 d
7069 4164 m
7090 4185 l
7120 4185 l
7141 4164 l
7141 4134 l
7120 4113 l
7090 4113 l
7069 4134 l
7069 4164 l
h
B
1 1 1 scn
/BSt 1 def
0 0 0 SCN
1 w 2 J 2 j [] 0 d
7130 4149 m
7130 4162.25483 7119.25483 4173 7106 4173 c
7092.74516 4173 7082 4162.25483 7082 4149 c
7082 4135.74516 7092.74516 4125 7106 4125 c
7119.25483 4125 7130 4135.74516 7130 4149 c
h
B*
0 0 0 scn
/BSt 1 def
0 0 0 SCN
0 w 1 J 1 j [] 0 d
6829 4044 m
6850 4065 l
6880 4065 l
6901 4044 l
6901 4014 l
6880 3993 l
6850 3993 l
6829 4014 l
6829 4044 l
h
B
1 1 1 scn
/BSt 1 def
0 0 0 SCN
1 w 2 J 2 j [] 0 d
6890 4029 m
6890 4042.25483 6879.25483 4053 6866 4053 c
6852.74516 4053 6842 4042.25483 6842 4029 c
6842 4015.74516 6852.74516 4005 6866 4005 c
6879.25483 4005 6890 4015.74516 6890 4029 c
h
B*
0 0 0 scn
/BSt 1 def
0 0 0 SCN
0 w 1 J 1 j [] 0 d
6949 4044 m
6970 4065 l
7000 4065 l
7021 4044 l
7021 4014 l
7000 3993 l
6970 3993 l
6949 4014 l
6949 4044 l
h
B
1 1 1 scn
/BSt 1 def
0 0 0 SCN
1 w 2 J 2 j [] 0 d
7010 4029 m
7010 4042.25483 6999.25483 4053 6986 4053 c
6972.74516 4053 6962 4042.25483 6962 4029 c
6962 4015.74516 6972.74516 4005 6986 4005 c
6999.25483 4005 7010 4015.74516 7010 4029 c
h
B*
0 0 0 scn
/BSt 1 def
0 0 0 SCN
0 w 1 J 1 j [] 0 d
7069 4044 m
7090 4065 l
7120 4065 l
7141 4044 l
7141 4014 l
7120 3993 l
7090 3993 l
7069 4014 l
7069 4044 l
h
B
1 1 1 scn
/BSt 1 def
0 0 0 SCN
1 w 2 J 2 j [] 0 d
7130 4029 m
7130 4042.25483 7119.25483 4053 7106 4053 c
7092.74516 4053 7082 4042.25483 7082 4029 c
7082 4015.74516 7092.74516 4005 7106 4005 c
7119.25483 4005 7130 4015.74516 7130 4029 c
h
B*
0 0 0 scn
/BSt 1 def
0 0 0 SCN
0 w 1 J 1 j [] 0 d
6776 3998 m
6714 3998 l
6714 4060 l
6776 4060 l
6776 3998 l
h
B*
1 1 1 scn
/BSt 1 def
0 0 0 SCN
1 w 2 J 2 j [] 0 d
6765 4029 m
6765 4039.49341 6756.49341 4048 6746 4048 c
6735.50658 4048 6727 4039.49341 6727 4029 c
6727 4018.50658 6735.50658 4010 6746 4010 c
6756.49341 4010 6765 4018.50658 6765 4029 c
h
B*
0 0 0 scn
/BSt 1 def
0 0 0 SCN
80 w 1 J 1 j [] 0 d
6365 4388 m
6286 4388 l
B*
1 1 1 scn
/BSt 1 def
0 0 0 SCN
1 w 2 J 2 j [] 0 d
6352 4388 m
6352 4402.35940 6340.35940 4414 6326 4414 c
6311.64059 4414 6300 4402.35940 6300 4388 c
6300 4373.64059 6311.64059 4362 6326 4362 c
6340.35940 4362 6352 4373.64059 6352 4388 c
h
B*
0 0 0 scn
/BSt 1 def
0 0 0 SCN
80 w 1 J 1 j [] 0 d
6365 4508 m
6286 4508 l
B*
1 1 1 scn
/BSt 1 def
0 0 0 SCN
1 w 2 J 2 j [] 0 d
6352 4508 m
6352 4522.35940 6340.35940 4534 6326 4534 c
6311.64059 4534 6300 4522.35940 6300 4508 c
6300 4493.64059 6311.64059 4482 6326 4482 c
6340.35940 4482 6352 4493.64059 6352 4508 c
h
B*
0 0 0 scn
/BSt 1 def
0 0 0 SCN
80 w 1 J 1 j [] 0 d
6365 4628 m
6286 4628 l
B*
1 1 1 scn
/BSt 1 def
0 0 0 SCN
1 w 2 J 2 j [] 0 d
6352 4628 m
6352 4642.35940 6340.35940 4654 6326 4654 c
6311.64059 4654 6300 4642.35940 6300 4628 c
6300 4613.64059 6311.64059 4602 6326 4602 c
6340.35940 4602 6352 4613.64059 6352 4628 c
h
B*
0 0 0 scn
/BSt 1 def
0 0 0 SCN
80 w 1 J 1 j [] 0 d
6365 4988 m
6286 4988 l
B*
1 1 1 scn
/BSt 1 def
0 0 0 SCN
1 w 2 J 2 j [] 0 d
6352 4988 m
6352 5002.35940 6340.35940 5014 6326 5014 c
6311.64059 5014 6300 5002.35940 6300 4988 c
6300 4973.64059 6311.64059 4962 6326 4962 c
6340.35940 4962 6352 4973.64059 6352 4988 c
h
B*
0 0 0 scn
/BSt 1 def
0 0 0 SCN
80 w 1 J 1 j [] 0 d
6365 5108 m
6286 5108 l
B*
1 1 1 scn
/BSt 1 def
0 0 0 SCN
1 w 2 J 2 j [] 0 d
6352 5108 m
6352 5122.35940 6340.35940 5134 6326 5134 c
6311.64059 5134 6300 5122.35940 6300 5108 c
6300 5093.64059 6311.64059 5082 6326 5082 c
6340.35940 5082 6352 5093.64059 6352 5108 c
h
B*
0 0 0 scn
/BSt 1 def
0 0 0 SCN
80 w 1 J 1 j [] 0 d
6365 5228 m
6286 5228 l
B*
1 1 1 scn
/BSt 1 def
0 0 0 SCN
1 w 2 J 2 j [] 0 d
6352 5228 m
6352 5242.35940 6340.35940 5254 6326 5254 c
6311.64059 5254 6300 5242.35940 6300 5228 c
6300 5213.64059 6311.64059 5202 6326 5202 c
6340.35940 5202 6352 5213.64059 6352 5228 c
h
B*
0 0 0 scn
/BSt 1 def
0 0 0 SCN
80 w 1 J 1 j [] 0 d
6365 5588 m
6286 5588 l
B*
1 1 1 scn
/BSt 1 def
0 0 0 SCN
1 w 2 J 2 j [] 0 d
6352 5588 m
6352 5602.35940 6340.35940 5614 6326 5614 c
6311.64059 5614 6300 5602.35940 6300 5588 c
6300 5573.64059 6311.64059 5562 6326 5562 c
6340.35940 5562 6352 5573.64059 6352 5588 c
h
B*
0 0 0 scn
/BSt 1 def
0 0 0 SCN
80 w 1 J 1 j [] 0 d
6365 5707 m
6286 5707 l
B*
1 1 1 scn
/BSt 1 def
0 0 0 SCN
1 w 2 J 2 j [] 0 d
6352 5707 m
6352 5721.35940 6340.35940 5733 6326 5733 c
6311.64059 5733 6300 5721.35940 6300 5707 c
6300 5692.64059 6311.64059 5681 6326 5681 c
6340.35940 5681 6352 5692.64059 6352 5707 c
h
B*
0 0 0 scn
/BSt 1 def
0 0 0 SCN
80 w 1 J 1 j [] 0 d
6365 5827 m
6286 5827 l
B*
1 1 1 scn
/BSt 1 def
0 0 0 SCN
1 w 2 J 2 j [] 0 d
6352 5827 m
6352 5841.35940 6340.35940 5853 6326 5853 c
6311.64059 5853 6300 5841.35940 6300 5827 c
6300 5812.64059 6311.64059 5801 6326 5801 c
6340.35940 5801 6352 5812.64059 6352 5827 c
h
B*
0 0 0 scn
/BSt 1 def
0 0 0 SCN
0 w 1 J 1 j [] 0 d
6545 4207 m
6545 4228.53910 6527.53910 4246 6506 4246 c
6484.46089 4246 6467 4228.53910 6467 4207 c
6467 4185.46089 6484.46089 4168 6506 4168 c
6527.53910 4168 6545 4185.46089 6545 4207 c
h
B*
1 1 1 scn
/BSt 1 def
0 0 0 SCN
1 w 2 J 2 j [] 0 d
6523 4207 m
6523 4216.38884 6515.38884 4224 6506 4224 c
6496.61115 4224 6489 4216.38884 6489 4207 c
6489 4197.61115 6496.61115 4190 6506 4190 c
6515.38884 4190 6523 4197.61115 6523 4207 c
h
B*
0 0 0 scn
/BSt 1 def
0 0 0 SCN
0 w 1 J 1 j [] 0 d
6545 3971 m
6545 3992.53910 6527.53910 4010 6506 4010 c
6484.46089 4010 6467 3992.53910 6467 3971 c
6467 3949.46089 6484.46089 3932 6506 3932 c
6527.53910 3932 6545 3949.46089 6545 3971 c
h
B*
1 1 1 scn
/BSt 1 def
0 0 0 SCN
1 w 2 J 2 j [] 0 d
6523 3971 m
6523 3980.38884 6515.38884 3988 6506 3988 c
6496.61115 3988 6489 3980.38884 6489 3971 c
6489 3961.61115 6496.61115 3954 6506 3954 c
6515.38884 3954 6523 3961.61115 6523 3971 c
h
B*
0 0 0 scn
/BSt 1 def
0 0 0 SCN
0 w 1 J 1 j [] 0 d
5594 4101 m
5498 4101 l
5498 4197 l
5594 4197 l
5594 4101 l
h
B*
1 1 1 scn
/BSt 1 def
0 0 0 SCN
1 w 2 J 2 j [] 0 d
5578 4149 m
5578 4166.12082 5564.12082 4180 5547 4180 c
5529.87917 4180 5516 4166.12082 5516 4149 c
5516 4131.87917 5529.87917 4118 5547 4118 c
5564.12082 4118 5578 4131.87917 5578 4149 c
h
B*
0 0 0 scn
/BSt 1 def
0 0 0 SCN
0 w 1 J 1 j [] 0 d
5595 4385 m
5595 4411.50966 5573.50966 4433 5547 4433 c
5520.49033 4433 5499 4411.50966 5499 4385 c
5499 4358.49033 5520.49033 4337 5547 4337 c
5573.50966 4337 5595 4358.49033 5595 4385 c
h
B*
1 1 1 scn
/BSt 1 def
0 0 0 SCN
1 w 2 J 2 j [] 0 d
5578 4385 m
5578 4402.12082 5564.12082 4416 5547 4416 c
5529.87917 4416 5516 4402.12082 5516 4385 c
5516 4367.87917 5529.87917 4354 5547 4354 c
5564.12082 4354 5578 4367.87917 5578 4385 c
h
B*
0 0 0 scn
/BSt 1 def
0 0 0 SCN
0 w 1 J 1 j [] 0 d
5594 4940 m
5498 4940 l
5498 5036 l
5594 5036 l
5594 4940 l
h
B*
1 1 1 scn
/BSt 1 def
0 0 0 SCN
1 w 2 J 2 j [] 0 d
5578 4988 m
5578 5005.12082 5564.12082 5019 5547 5019 c
5529.87917 5019 5516 5005.12082 5516 4988 c
5516 4970.87917 5529.87917 4957 5547 4957 c
5564.12082 4957 5578 4970.87917 5578 4988 c
h
B*
0 0 0 scn
/BSt 1 def
0 0 0 SCN
0 w 1 J 1 j [] 0 d
5595 5224 m
5595 5250.50966 5573.50966 5272 5547 5272 c
5520.49033 5272 5499 5250.50966 5499 5224 c
5499 5197.49033 5520.49033 5176 5547 5176 c
5573.50966 5176 5595 5197.49033 5595 5224 c
h
B*
1 1 1 scn
/BSt 1 def
0 0 0 SCN
1 w 2 J 2 j [] 0 d
5578 5224 m
5578 5241.12082 5564.12082 5255 5547 5255 c
5529.87917 5255 5516 5241.12082 5516 5224 c
5516 5206.87917 5529.87917 5193 5547 5193 c
5564.12082 5193 5578 5206.87917 5578 5224 c
h
B*
0 0 0 scn
/BSt 1 def
0 0 0 SCN
0 w 1 J 1 j [] 0 d
5594 5540 m
5498 5540 l
5498 5636 l
5594 5636 l
5594 5540 l
h
B*
1 1 1 scn
/BSt 1 def
0 0 0 SCN
1 w 2 J 2 j [] 0 d
5578 5588 m
5578 5605.12082 5564.12082 5619 5547 5619 c
5529.87917 5619 5516 5605.12082 5516 5588 c
5516 5570.87917 5529.87917 5557 5547 5557 c
5564.12082 5557 5578 5570.87917 5578 5588 c
h
B*
0 0 0 scn
/BSt 1 def
0 0 0 SCN
0 w 1 J 1 j [] 0 d
5595 5824 m
5595 5850.50966 5573.50966 5872 5547 5872 c
5520.49033 5872 5499 5850.50966 5499 5824 c
5499 5797.49033 5520.49033 5776 5547 5776 c
5573.50966 5776 5595 5797.49033 5595 5824 c
h
B*
1 1 1 scn
/BSt 1 def
0 0 0 SCN
1 w 2 J 2 j [] 0 d
5578 5824 m
5578 5841.12082 5564.12082 5855 5547 5855 c
5529.87917 5855 5516 5841.12082 5516 5824 c
5516 5806.87917 5529.87917 5793 5547 5793 c
5564.12082 5793 5578 5806.87917 5578 5824 c
h
B*
0 0 0 scn
/BSt 1 def
0 0 0 SCN
0 w 1 J 1 j [] 0 d
5707 4808 m
5707 4830.09138 5689.09138 4848 5667 4848 c
5644.90861 4848 5627 4830.09138 5627 4808 c
5627 4785.90861 5644.90861 4768 5667 4768 c
5689.09138 4768 5707 4785.90861 5707 4808 c
h
B*
1 1 1 scn
/BSt 1 def
0 0 0 SCN
1 w 2 J 2 j [] 0 d
5681 4808 m
5681 4815.73198 5674.73198 4822 5667 4822 c
5659.26801 4822 5653 4815.73198 5653 4808 c
5653 4800.26801 5659.26801 4794 5667 4794 c
5674.73198 4794 5681 4800.26801 5681 4808 c
h
B*
0 0 0 scn
/BSt 1 def
0 0 0 SCN
0 w 1 J 1 j [] 0 d
6306 3969 m
6306 3991.09138 6288.09138 4009 6266 4009 c
6243.90861 4009 6226 3991.09138 6226 3969 c
6226 3946.90861 6243.90861 3929 6266 3929 c
6288.09138 3929 6306 3946.90861 6306 3969 c
h
B*
1 1 1 scn
/BSt 1 def
0 0 0 SCN
1 w 2 J 2 j [] 0 d
6287 3969 m
6287 3980.59797 6277.59797 3990 6266 3990 c
6254.40202 3990 6245 3980.59797 6245 3969 c
6245 3957.40202 6254.40202 3948 6266 3948 c
6277.59797 3948 6287 3957.40202 6287 3969 c
h
B*
0 0 0 scn
/BSt 1 def
0 0 0 SCN
0 w 1 J 1 j [] 0 d
7686 3819 m
7686 3841.09138 7668.09138 3859 7646 3859 c
7623.90861 3859 7606 3841.09138 7606 3819 c
7606 3796.90861 7623.90861 3779 7646 3779 c
7668.09138 3779 7686 3796.90861 7686 3819 c
h
B*
1 1 1 scn
/BSt 1 def
0 0 0 SCN
1 w 2 J 2 j [] 0 d
7667 3819 m
7667 3830.59797 7657.59797 3840 7646 3840 c
7634.40202 3840 7625 3830.59797 7625 3819 c
7625 3807.40202 7634.40202 3798 7646 3798 c
7657.59797 3798 7667 3807.40202 7667 3819 c
h
B*
0 0 0 scn
/BSt 1 def
0 0 0 SCN
0 w 1 J 1 j [] 0 d
7686 4029 m
7686 4051.09138 7668.09138 4069 7646 4069 c
7623.90861 4069 7606 4051.09138 7606 4029 c
7606 4006.90861 7623.90861 3989 7646 3989 c
7668.09138 3989 7686 4006.90861 7686 4029 c
h
B*
1 1 1 scn
/BSt 1 def
0 0 0 SCN
1 w 2 J 2 j [] 0 d
7667 4029 m
7667 4040.59797 7657.59797 4050 7646 4050 c
7634.40202 4050 7625 4040.59797 7625 4029 c
7625 4017.40202 7634.40202 4008 7646 4008 c
7657.59797 4008 7667 4017.40202 7667 4029 c
h
B*
0 0 0 scn
/BSt 1 def
0 0 0 SCN
0 w 1 J 1 j [] 0 d
7026 4388 m
7026 4410.09138 7008.09138 4428 6986 4428 c
6963.90861 4428 6946 4410.09138 6946 4388 c
6946 4365.90861 6963.90861 4348 6986 4348 c
7008.09138 4348 7026 4365.90861 7026 4388 c
h
B*
1 1 1 scn
/BSt 1 def
0 0 0 SCN
1 w 2 J 2 j [] 0 d
7007 4388 m
7007 4399.59797 6997.59797 4409 6986 4409 c
6974.40202 4409 6965 4399.59797 6965 4388 c
6965 4376.40202 6974.40202 4367 6986 4367 c
6997.59797 4367 7007 4376.40202 7007 4388 c
h
B*
0 0 0 scn
/BSt 1 def
0 0 0 SCN
0 w 1 J 1 j [] 0 d
7266 4388 m
7266 4410.09138 7248.09138 4428 7226 4428 c
7203.90861 4428 7186 4410.09138 7186 4388 c
7186 4365.90861 7203.90861 4348 7226 4348 c
7248.09138 4348 7266 4365.90861 7266 4388 c
h
B*
1 1 1 scn
/BSt 1 def
0 0 0 SCN
1 w 2 J 2 j [] 0 d
7247 4388 m
7247 4399.59797 7237.59797 4409 7226 4409 c
7214.40202 4409 7205 4399.59797 7205 4388 c
7205 4376.40202 7214.40202 4367 7226 4367 c
7237.59797 4367 7247 4376.40202 7247 4388 c
h
B*
0 0 0 scn
/BSt 1 def
0 0 0 SCN
0 w 1 J 1 j [] 0 d
7026 4269 m
7026 4291.09138 7008.09138 4309 6986 4309 c
6963.90861 4309 6946 4291.09138 6946 4269 c
6946 4246.90861 6963.90861 4229 6986 4229 c
7008.09138 4229 7026 4246.90861 7026 4269 c
h
B*
1 1 1 scn
/BSt 1 def
0 0 0 SCN
1 w 2 J 2 j [] 0 d
7007 4269 m
7007 4280.59797 6997.59797 4290 6986 4290 c
6974.40202 4290 6965 4280.59797 6965 4269 c
6965 4257.40202 6974.40202 4248 6986 4248 c
6997.59797 4248 7007 4257.40202 7007 4269 c
h
B*
0 0 0 scn
/BSt 1 def
0 0 0 SCN
0 w 1 J 1 j [] 0 d
7266 4269 m
7266 4291.09138 7248.09138 4309 7226 4309 c
7203.90861 4309 7186 4291.09138 7186 4269 c
7186 4246.90861 7203.90861 4229 7226 4229 c
7248.09138 4229 7266 4246.90861 7266 4269 c
h
B*
1 1 1 scn
/BSt 1 def
0 0 0 SCN
1 w 2 J 2 j [] 0 d
7247 4269 m
7247 4280.59797 7237.59797 4290 7226 4290 c
7214.40202 4290 7205 4280.59797 7205 4269 c
7205 4257.40202 7214.40202 4248 7226 4248 c
7237.59797 4248 7247 4257.40202 7247 4269 c
h
B*
0 0 0 scn
/BSt 1 def
0 0 0 SCN
0 w 1 J 1 j [] 0 d
7326 5228 m
7326 5250.09138 7308.09138 5268 7286 5268 c
7263.90861 5268 7246 5250.09138 7246 5228 c
7246 5205.90861 7263.90861 5188 7286 5188 c
7308.09138 5188 7326 5205.90861 7326 5228 c
h
B*
1 1 1 scn
/BSt 1 def
0 0 0 SCN
1 w 2 J 2 j [] 0 d
7307 5228 m
7307 5239.59797 7297.59797 5249 7286 5249 c
7274.40202 5249 7265 5239.59797 7265 5228 c
7265 5216.40202 7274.40202 5207 7286 5207 c
7297.59797 5207 7307 5216.40202 7307 5228 c
h
B*
0 0 0 scn
/BSt 1 def
0 0 0 SCN
0 w 1 J 1 j [] 0 d
7326 4988 m
7326 5010.09138 7308.09138 5028 7286 5028 c
7263.90861 5028 7246 5010.09138 7246 4988 c
7246 4965.90861 7263.90861 4948 7286 4948 c
7308.09138 4948 7326 4965.90861 7326 4988 c
h
B*
1 1 1 scn
/BSt 1 def
0 0 0 SCN
1 w 2 J 2 j [] 0 d
7307 4988 m
7307 4999.59797 7297.59797 5009 7286 5009 c
7274.40202 5009 7265 4999.59797 7265 4988 c
7265 4976.40202 7274.40202 4967 7286 4967 c
7297.59797 4967 7307 4976.40202 7307 4988 c
h
B*
0 0 0 scn
/BSt 1 def
0 0 0 SCN
0 w 1 J 1 j [] 0 d
7326 4748 m
7326 4770.09138 7308.09138 4788 7286 4788 c
7263.90861 4788 7246 4770.09138 7246 4748 c
7246 4725.90861 7263.90861 4708 7286 4708 c
7308.09138 4708 7326 4725.90861 7326 4748 c
h
B*
1 1 1 scn
/BSt 1 def
0 0 0 SCN
1 w 2 J 2 j [] 0 d
7307 4748 m
7307 4759.59797 7297.59797 4769 7286 4769 c
7274.40202 4769 7265 4759.59797 7265 4748 c
7265 4736.40202 7274.40202 4727 7286 4727 c
7297.59797 4727 7307 4736.40202 7307 4748 c
h
B*
0 0 0 scn
/BSt 1 def
0 0 0 SCN
0 w 1 J 1 j [] 0 d
8585 5647 m
8585 5669.09138 8567.09138 5687 8545 5687 c
8522.90861 5687 8505 5669.09138 8505 5647 c
8505 5624.90861 8522.90861 5607 8545 5607 c
8567.09138 5607 8585 5624.90861 8585 5647 c
h
B*
1 1 1 scn
/BSt 1 def
0 0 0 SCN
1 w 2 J 2 j [] 0 d
8566 5647 m
8566 5658.59797 8556.59797 5668 8545 5668 c
8533.40202 5668 8524 5658.59797 8524 5647 c
8524 5635.40202 8533.40202 5626 8545 5626 c
8556.59797 5626 8566 5635.40202 8566 5647 c
h
B*
0 0 0 scn
/BSt 1 def
0 0 0 SCN
0 w 1 J 1 j [] 0 d
8645 3909 m
8645 3964.22847 8600.22847 4009 8545 4009 c
8489.77152 4009 8445 3964.22847 8445 3909 c
8445 3853.77152 8489.77152 3809 8545 3809 c
8600.22847 3809 8645 3853.77152 8645 3909 c
h
B*
1 1 1 scn
/BSt 1 def
0 0 0 SCN
1 w 2 J 2 j [] 0 d
8621 3909 m
8621 3950.97364 8586.97364 3985 8545 3985 c
8503.02635 3985 8469 3950.97364 8469 3909 c
8469 3867.02635 8503.02635 3833 8545 3833 c
8586.97364 3833 8621 3867.02635 8621 3909 c
h
B*
0 0 0 scn
/BSt 1 def
0 0 0 SCN
0 w 1 J 1 j [] 0 d
8645 6067 m
8645 6122.22847 8600.22847 6167 8545 6167 c
8489.77152 6167 8445 6122.22847 8445 6067 c
8445 6011.77152 8489.77152 5967 8545 5967 c
8600.22847 5967 8645 6011.77152 8645 6067 c
h
B*
1 1 1 scn
/BSt 1 def
0 0 0 SCN
1 w 2 J 2 j [] 0 d
8621 6067 m
8621 6108.97364 8586.97364 6143 8545 6143 c
8503.02635 6143 8469 6108.97364 8469 6067 c
8469 6025.02635 8503.02635 5991 8545 5991 c
8586.97364 5991 8621 6025.02635 8621 6067 c
h
B*
0 0 0 scn
/BSt 1 def
0 0 0 SCN
0 w 1 J 1 j [] 0 d
6426 6067 m
6426 6122.22847 6381.22847 6167 6326 6167 c
6270.77152 6167 6226 6122.22847 6226 6067 c
6226 6011.77152 6270.77152 5967 6326 5967 c
6381.22847 5967 6426 6011.77152 6426 6067 c
h
B*
1 1 1 scn
/BSt 1 def
0 0 0 SCN
1 w 2 J 2 j [] 0 d
6402 6067 m
6402 6108.97364 6367.97364 6143 6326 6143 c
6284.02635 6143 6250 6108.97364 6250 6067 c
6250 6025.02635 6284.02635 5991 6326 5991 c
6367.97364 5991 6402 6025.02635 6402 6067 c
h
B*
0 0 0 scn
/BSt 1 def
0 0 0 SCN
0 w 1 J 1 j [] 0 d
6007 4089 m
6007 4144.22847 5962.22847 4189 5907 4189 c
5851.77152 4189 5807 4144.22847 5807 4089 c
5807 4033.77152 5851.77152 3989 5907 3989 c
5962.22847 3989 6007 4033.77152 6007 4089 c
h
B*
1 1 1 scn
/BSt 1 def
0 0 0 SCN
1 w 2 J 2 j [] 0 d
5983 4089 m
5983 4130.97364 5948.97364 4165 5907 4165 c
5865.02635 4165 5831 4130.97364 5831 4089 c
5831 4047.02635 5865.02635 4013 5907 4013 c
5948.97364 4013 5983 4047.02635 5983 4089 c
h
B*
Q
Q q
q
1 1 1 scn
/BSt 1 def
0 0 0 SCN
1 w 2 J 2 j [] 0 d
Q
q
1 1 1 scn
/BSt 1 def
0 0 0 SCN
1 w 2 J 2 j [] 0 d
Q
Q q
q
0.080000000 0 0 0.080000000 0 0 cm
0 0 0 scn
/BSt 0 def
0 0 0 SCN
0 w 2 J 2 j [] 0 d
Q
Q q
q
0 0 0 scn
/BSt 0 def
0 0 0 SCN
0 w 2 J 2 j [] 0 d
Q
Q q
402 402 m
13631 402 l
13631 9515 l
402 9515 l
402 402 l
h
W* n
q
0 0 0 scn
/BSt 0 def
0 0 0 SCN
0 w 2 J 2 j [] 0 d
Q
Q q
402 402 m
13631 402 l
13631 9515 l
402 9515 l
402 402 l
h
W* n
5246 3608 m
8786 3608 l
8786 6308 l
5246 6308 l
5246 3608 l
h
W* n
q
0 0 0 scn
/BSt 0 def
0 0 0 SCN
0 w 2 J 2 j [] 0 d
Q
q
0 0 0 scn
/BSt 1 def
0 0 0 SCN
0 w 1 J 1 j [] 0 d

Q QP
%%Trailer
%%Pages: 1 
%%DocumentFonts:
%%EOF
