<?xml version="1.0" encoding="utf-8"?>
<!DOCTYPE eagle SYSTEM "eagle.dtd">
<eagle version="6.5.0">
<drawing>
<settings>
<setting alwaysvectorfont="no"/>
<setting verticaltext="up"/>
</settings>
<grid distance="0.1" unitdist="inch" unit="inch" style="lines" multiple="1" display="no" altdistance="0.01" altunitdist="inch" altunit="inch"/>
<layers>
<layer number="1" name="Top" color="4" fill="1" visible="no" active="no"/>
<layer number="16" name="Bottom" color="1" fill="1" visible="no" active="no"/>
<layer number="17" name="Pads" color="2" fill="1" visible="no" active="no"/>
<layer number="18" name="Vias" color="2" fill="1" visible="no" active="no"/>
<layer number="19" name="Unrouted" color="6" fill="1" visible="no" active="no"/>
<layer number="20" name="Dimension" color="15" fill="1" visible="no" active="no"/>
<layer number="21" name="tPlace" color="7" fill="1" visible="no" active="no"/>
<layer number="22" name="bPlace" color="7" fill="1" visible="no" active="no"/>
<layer number="23" name="tOrigins" color="15" fill="1" visible="no" active="no"/>
<layer number="24" name="bOrigins" color="15" fill="1" visible="no" active="no"/>
<layer number="25" name="tNames" color="7" fill="1" visible="no" active="no"/>
<layer number="26" name="bNames" color="7" fill="1" visible="no" active="no"/>
<layer number="27" name="tValues" color="7" fill="1" visible="no" active="no"/>
<layer number="28" name="bValues" color="7" fill="1" visible="no" active="no"/>
<layer number="29" name="tStop" color="7" fill="3" visible="no" active="no"/>
<layer number="30" name="bStop" color="7" fill="6" visible="no" active="no"/>
<layer number="31" name="tCream" color="7" fill="4" visible="no" active="no"/>
<layer number="32" name="bCream" color="7" fill="5" visible="no" active="no"/>
<layer number="33" name="tFinish" color="6" fill="3" visible="no" active="no"/>
<layer number="34" name="bFinish" color="6" fill="6" visible="no" active="no"/>
<layer number="35" name="tGlue" color="7" fill="4" visible="no" active="no"/>
<layer number="36" name="bGlue" color="7" fill="5" visible="no" active="no"/>
<layer number="37" name="tTest" color="7" fill="1" visible="no" active="no"/>
<layer number="38" name="bTest" color="7" fill="1" visible="no" active="no"/>
<layer number="39" name="tKeepout" color="4" fill="11" visible="no" active="no"/>
<layer number="40" name="bKeepout" color="1" fill="11" visible="no" active="no"/>
<layer number="41" name="tRestrict" color="4" fill="10" visible="no" active="no"/>
<layer number="42" name="bRestrict" color="1" fill="10" visible="no" active="no"/>
<layer number="43" name="vRestrict" color="2" fill="10" visible="no" active="no"/>
<layer number="44" name="Drills" color="7" fill="1" visible="no" active="no"/>
<layer number="45" name="Holes" color="7" fill="1" visible="no" active="no"/>
<layer number="46" name="Milling" color="3" fill="1" visible="no" active="no"/>
<layer number="47" name="Measures" color="7" fill="1" visible="no" active="no"/>
<layer number="48" name="Document" color="7" fill="1" visible="no" active="no"/>
<layer number="49" name="Reference" color="7" fill="1" visible="no" active="no"/>
<layer number="50" name="dxf" color="7" fill="1" visible="no" active="no"/>
<layer number="51" name="tDocu" color="7" fill="1" visible="no" active="no"/>
<layer number="52" name="bDocu" color="7" fill="1" visible="no" active="no"/>
<layer number="53" name="tGND_GNDA" color="7" fill="9" visible="no" active="no"/>
<layer number="54" name="bGND_GNDA" color="1" fill="9" visible="no" active="no"/>
<layer number="56" name="wert" color="7" fill="1" visible="no" active="no"/>
<layer number="57" name="tCAD" color="7" fill="1" visible="no" active="no"/>
<layer number="59" name="tCarbon" color="7" fill="1" visible="no" active="no"/>
<layer number="60" name="bCarbon" color="7" fill="1" visible="no" active="no"/>
<layer number="90" name="Modules" color="5" fill="1" visible="yes" active="yes"/>
<layer number="91" name="Nets" color="2" fill="1" visible="yes" active="yes"/>
<layer number="92" name="Busses" color="1" fill="1" visible="yes" active="yes"/>
<layer number="93" name="Pins" color="2" fill="1" visible="no" active="yes"/>
<layer number="94" name="Symbols" color="4" fill="1" visible="yes" active="yes"/>
<layer number="95" name="Names" color="7" fill="1" visible="yes" active="yes"/>
<layer number="96" name="Values" color="7" fill="1" visible="yes" active="yes"/>
<layer number="97" name="Info" color="7" fill="1" visible="yes" active="yes"/>
<layer number="98" name="Guide" color="6" fill="1" visible="yes" active="yes"/>
<layer number="99" name="SpiceOrder" color="7" fill="1" visible="no" active="no"/>
<layer number="100" name="Muster" color="7" fill="1" visible="no" active="no"/>
<layer number="101" name="Patch_Top" color="12" fill="4" visible="no" active="yes"/>
<layer number="102" name="Vscore" color="7" fill="1" visible="no" active="yes"/>
<layer number="103" name="tMap" color="7" fill="1" visible="no" active="yes"/>
<layer number="104" name="Name" color="16" fill="1" visible="no" active="yes"/>
<layer number="105" name="tPlate" color="7" fill="1" visible="no" active="yes"/>
<layer number="106" name="bPlate" color="7" fill="1" visible="no" active="yes"/>
<layer number="107" name="Crop" color="7" fill="1" visible="no" active="yes"/>
<layer number="108" name="tplace-old" color="10" fill="1" visible="yes" active="yes"/>
<layer number="109" name="ref-old" color="11" fill="1" visible="yes" active="yes"/>
<layer number="110" name="fp0" color="7" fill="1" visible="yes" active="yes"/>
<layer number="111" name="LPC17xx" color="7" fill="1" visible="yes" active="yes"/>
<layer number="112" name="tSilk" color="7" fill="1" visible="yes" active="yes"/>
<layer number="113" name="IDFDebug" color="4" fill="1" visible="yes" active="yes"/>
<layer number="116" name="Patch_BOT" color="9" fill="4" visible="no" active="yes"/>
<layer number="118" name="Rect_Pads" color="7" fill="1" visible="yes" active="yes"/>
<layer number="121" name="_tsilk" color="7" fill="1" visible="no" active="yes"/>
<layer number="122" name="_bsilk" color="7" fill="1" visible="no" active="yes"/>
<layer number="123" name="tTestmark" color="7" fill="1" visible="yes" active="yes"/>
<layer number="124" name="bTestmark" color="7" fill="1" visible="yes" active="yes"/>
<layer number="125" name="_tNames" color="7" fill="1" visible="no" active="yes"/>
<layer number="126" name="_bNames" color="7" fill="1" visible="yes" active="yes"/>
<layer number="127" name="_tValues" color="7" fill="1" visible="yes" active="yes"/>
<layer number="128" name="_bValues" color="7" fill="1" visible="yes" active="yes"/>
<layer number="129" name="Mask" color="7" fill="1" visible="yes" active="yes"/>
<layer number="131" name="tAdjust" color="7" fill="1" visible="yes" active="yes"/>
<layer number="132" name="bAdjust" color="7" fill="1" visible="yes" active="yes"/>
<layer number="144" name="Drill_legend" color="7" fill="1" visible="no" active="yes"/>
<layer number="150" name="Notes" color="7" fill="1" visible="yes" active="yes"/>
<layer number="151" name="HeatSink" color="7" fill="1" visible="no" active="yes"/>
<layer number="152" name="_bDocu" color="7" fill="1" visible="yes" active="yes"/>
<layer number="153" name="FabDoc1" color="7" fill="1" visible="yes" active="yes"/>
<layer number="154" name="FabDoc2" color="7" fill="1" visible="yes" active="yes"/>
<layer number="155" name="FabDoc3" color="7" fill="1" visible="yes" active="yes"/>
<layer number="199" name="Contour" color="7" fill="1" visible="yes" active="yes"/>
<layer number="200" name="200bmp" color="1" fill="10" visible="no" active="yes"/>
<layer number="201" name="201bmp" color="2" fill="10" visible="no" active="yes"/>
<layer number="202" name="202bmp" color="3" fill="10" visible="no" active="yes"/>
<layer number="203" name="203bmp" color="4" fill="10" visible="no" active="yes"/>
<layer number="204" name="204bmp" color="5" fill="10" visible="no" active="yes"/>
<layer number="205" name="205bmp" color="6" fill="10" visible="no" active="yes"/>
<layer number="206" name="206bmp" color="7" fill="10" visible="no" active="yes"/>
<layer number="207" name="207bmp" color="8" fill="10" visible="no" active="yes"/>
<layer number="208" name="208bmp" color="9" fill="10" visible="no" active="yes"/>
<layer number="209" name="209bmp" color="7" fill="1" visible="no" active="yes"/>
<layer number="210" name="210bmp" color="7" fill="1" visible="no" active="yes"/>
<layer number="211" name="211bmp" color="7" fill="1" visible="no" active="yes"/>
<layer number="212" name="212bmp" color="7" fill="1" visible="no" active="yes"/>
<layer number="213" name="213bmp" color="7" fill="1" visible="no" active="yes"/>
<layer number="214" name="214bmp" color="7" fill="1" visible="no" active="yes"/>
<layer number="215" name="215bmp" color="7" fill="1" visible="no" active="yes"/>
<layer number="216" name="216bmp" color="7" fill="1" visible="no" active="yes"/>
<layer number="217" name="217bmp" color="18" fill="1" visible="no" active="no"/>
<layer number="218" name="218bmp" color="19" fill="1" visible="no" active="no"/>
<layer number="219" name="219bmp" color="20" fill="1" visible="no" active="no"/>
<layer number="220" name="220bmp" color="21" fill="1" visible="no" active="no"/>
<layer number="221" name="221bmp" color="22" fill="1" visible="no" active="no"/>
<layer number="222" name="222bmp" color="23" fill="1" visible="no" active="no"/>
<layer number="223" name="223bmp" color="24" fill="1" visible="no" active="no"/>
<layer number="224" name="224bmp" color="25" fill="1" visible="no" active="no"/>
<layer number="225" name="225bmp" color="7" fill="1" visible="yes" active="yes"/>
<layer number="226" name="226bmp" color="7" fill="1" visible="yes" active="yes"/>
<layer number="227" name="227bmp" color="7" fill="1" visible="yes" active="yes"/>
<layer number="228" name="228bmp" color="7" fill="1" visible="yes" active="yes"/>
<layer number="229" name="229bmp" color="7" fill="1" visible="yes" active="yes"/>
<layer number="230" name="230bmp" color="7" fill="1" visible="yes" active="yes"/>
<layer number="231" name="231bmp" color="7" fill="1" visible="yes" active="yes"/>
<layer number="248" name="Housing" color="7" fill="1" visible="yes" active="yes"/>
<layer number="249" name="Edge" color="7" fill="1" visible="yes" active="yes"/>
<layer number="250" name="Descript" color="3" fill="1" visible="no" active="no"/>
<layer number="251" name="SMDround" color="12" fill="11" visible="no" active="no"/>
<layer number="254" name="cooling" color="7" fill="1" visible="no" active="yes"/>
<layer number="255" name="routoute" color="7" fill="1" visible="yes" active="yes"/>
</layers>
<schematic xreflabel="%F%N/%S.%C%R" xrefpart="/%S.%C%R">
<libraries>
<library name="jet-lib">
<packages>
<package name="PDIP-32">
<wire x1="-1.524" y1="1.524" x2="16.764" y2="1.524" width="0.127" layer="21"/>
<wire x1="16.764" y1="1.524" x2="16.764" y2="-42.164" width="0.127" layer="21"/>
<wire x1="16.764" y1="-42.164" x2="-1.524" y2="-42.164" width="0.127" layer="21"/>
<wire x1="-1.524" y1="-42.164" x2="-1.524" y2="1.524" width="0.127" layer="21"/>
<pad name="D1/TX" x="0" y="-2.54" drill="0.8" diameter="1.778" shape="square"/>
<pad name="D0/RX" x="0" y="-5.08" drill="0.8" diameter="1.778"/>
<pad name="RESET" x="0" y="-7.62" drill="0.8" diameter="1.778"/>
<pad name="GND" x="0" y="-10.16" drill="0.8" diameter="1.778"/>
<pad name="D2" x="0" y="-12.7" drill="0.8" diameter="1.778"/>
<pad name="D3" x="0" y="-15.24" drill="0.8" diameter="1.778"/>
<pad name="D4" x="0" y="-17.78" drill="0.8" diameter="1.778"/>
<pad name="D5" x="0" y="-20.32" drill="0.8" diameter="1.778"/>
<pad name="D6" x="0" y="-22.86" drill="0.8" diameter="1.778"/>
<pad name="D7" x="0" y="-25.4" drill="0.8" diameter="1.778"/>
<pad name="D8" x="0" y="-27.94" drill="0.8" diameter="1.778"/>
<pad name="D9" x="0" y="-30.48" drill="0.8" diameter="1.778"/>
<pad name="D10" x="0" y="-33.02" drill="0.8" diameter="1.778"/>
<pad name="D11" x="0" y="-35.56" drill="0.8" diameter="1.778"/>
<pad name="D12" x="0" y="-38.1" drill="0.8" diameter="1.778"/>
<pad name="VIN" x="15.24" y="-2.54" drill="0.8" diameter="1.778"/>
<pad name="GND1" x="15.24" y="-5.08" drill="0.8" diameter="1.778"/>
<pad name="RESET1" x="15.24" y="-7.62" drill="0.8" diameter="1.778"/>
<pad name="+5V" x="15.24" y="-10.16" drill="0.8" diameter="1.778"/>
<pad name="A0" x="15.24" y="-12.7" drill="0.8" diameter="1.778"/>
<pad name="A1" x="15.24" y="-15.24" drill="0.8" diameter="1.778"/>
<pad name="A2" x="15.24" y="-17.78" drill="0.8" diameter="1.778"/>
<pad name="A3" x="15.24" y="-20.32" drill="0.8" diameter="1.778"/>
<pad name="A4" x="15.24" y="-22.86" drill="0.8" diameter="1.778"/>
<pad name="A5" x="15.24" y="-25.4" drill="0.8" diameter="1.778"/>
<pad name="A6" x="15.24" y="-27.94" drill="0.8" diameter="1.778"/>
<pad name="A7" x="15.24" y="-30.48" drill="0.8" diameter="1.778"/>
<pad name="AREF" x="15.24" y="-33.02" drill="0.8" diameter="1.778"/>
<pad name="3V3" x="15.24" y="-35.56" drill="0.8" diameter="1.778"/>
<pad name="D13" x="15.24" y="-38.1" drill="0.8" diameter="1.778"/>
<text x="-0.762" y="2.286" size="1.27" layer="25">Name</text>
<text x="-1.27" y="-44.704" size="1.27" layer="25">Value</text>
<hole x="0" y="0" drill="1.778"/>
<hole x="0" y="-40.64" drill="1.778"/>
<hole x="15.24" y="-40.64" drill="1.778"/>
<hole x="15.24" y="0" drill="1.778"/>
</package>
</packages>
<symbols>
<symbol name="ARDUINONANO">
<wire x1="0" y1="-76.2" x2="0" y2="0" width="0.254" layer="94"/>
<wire x1="0" y1="0" x2="20.32" y2="0" width="0.254" layer="94"/>
<wire x1="20.32" y1="0" x2="20.32" y2="-76.2" width="0.254" layer="94"/>
<wire x1="20.32" y1="-76.2" x2="0" y2="-76.2" width="0.254" layer="94"/>
<pin name="D1/TX" x="-5.08" y="-2.54" visible="pin" length="middle"/>
<pin name="D0/RX" x="-5.08" y="-7.62" visible="pin" length="middle"/>
<pin name="RESET" x="-5.08" y="-12.7" visible="pin" length="middle"/>
<pin name="GND" x="-5.08" y="-17.78" visible="pin" length="middle"/>
<pin name="D2" x="-5.08" y="-22.86" visible="pin" length="middle"/>
<pin name="D3" x="-5.08" y="-27.94" visible="pin" length="middle"/>
<pin name="D4" x="-5.08" y="-33.02" visible="pin" length="middle"/>
<pin name="D5" x="-5.08" y="-38.1" visible="pin" length="middle"/>
<pin name="D6" x="-5.08" y="-43.18" visible="pin" length="middle"/>
<pin name="D7" x="-5.08" y="-48.26" visible="pin" length="middle"/>
<pin name="D8" x="-5.08" y="-53.34" visible="pin" length="middle"/>
<pin name="D9" x="-5.08" y="-58.42" visible="pin" length="middle"/>
<pin name="D10" x="-5.08" y="-63.5" visible="pin" length="middle"/>
<pin name="D11" x="-5.08" y="-68.58" visible="pin" length="middle"/>
<pin name="D12" x="-5.08" y="-73.66" visible="pin" length="middle"/>
<pin name="VIN" x="25.4" y="-2.54" visible="pin" length="middle" rot="R180"/>
<pin name="GND1" x="25.4" y="-7.62" visible="pin" length="middle" rot="R180"/>
<pin name="RESET1" x="25.4" y="-12.7" visible="pin" length="middle" rot="R180"/>
<pin name="+5V" x="25.4" y="-17.78" visible="pin" length="middle" rot="R180"/>
<pin name="A0" x="25.4" y="-22.86" visible="pin" length="middle" rot="R180"/>
<pin name="A1" x="25.4" y="-27.94" visible="pin" length="middle" rot="R180"/>
<pin name="A2" x="25.4" y="-33.02" visible="pin" length="middle" rot="R180"/>
<pin name="A3" x="25.4" y="-38.1" visible="pin" length="middle" rot="R180"/>
<pin name="A4" x="25.4" y="-43.18" visible="pin" length="middle" rot="R180"/>
<pin name="A5" x="25.4" y="-48.26" visible="pin" length="middle" rot="R180"/>
<pin name="A6" x="25.4" y="-53.34" visible="pin" length="middle" rot="R180"/>
<pin name="A7" x="25.4" y="-58.42" visible="pin" length="middle" rot="R180"/>
<pin name="AREF" x="25.4" y="-63.5" visible="pin" length="middle" rot="R180"/>
<pin name="3V3" x="25.4" y="-68.58" visible="pin" length="middle" rot="R180"/>
<pin name="D13" x="25.4" y="-73.66" visible="pin" length="middle" rot="R180"/>
</symbol>
</symbols>
<devicesets>
<deviceset name="ARDUINONANO">
<gates>
<gate name="G$1" symbol="ARDUINONANO" x="-10.16" y="38.1"/>
</gates>
<devices>
<device name="" package="PDIP-32">
<connects>
<connect gate="G$1" pin="+5V" pad="+5V"/>
<connect gate="G$1" pin="3V3" pad="3V3"/>
<connect gate="G$1" pin="A0" pad="A0"/>
<connect gate="G$1" pin="A1" pad="A1"/>
<connect gate="G$1" pin="A2" pad="A2"/>
<connect gate="G$1" pin="A3" pad="A3"/>
<connect gate="G$1" pin="A4" pad="A4"/>
<connect gate="G$1" pin="A5" pad="A5"/>
<connect gate="G$1" pin="A6" pad="A6"/>
<connect gate="G$1" pin="A7" pad="A7"/>
<connect gate="G$1" pin="AREF" pad="AREF"/>
<connect gate="G$1" pin="D0/RX" pad="D0/RX"/>
<connect gate="G$1" pin="D1/TX" pad="D1/TX"/>
<connect gate="G$1" pin="D10" pad="D10"/>
<connect gate="G$1" pin="D11" pad="D11"/>
<connect gate="G$1" pin="D12" pad="D12"/>
<connect gate="G$1" pin="D13" pad="D13"/>
<connect gate="G$1" pin="D2" pad="D2"/>
<connect gate="G$1" pin="D3" pad="D3"/>
<connect gate="G$1" pin="D4" pad="D4"/>
<connect gate="G$1" pin="D5" pad="D5"/>
<connect gate="G$1" pin="D6" pad="D6"/>
<connect gate="G$1" pin="D7" pad="D7"/>
<connect gate="G$1" pin="D8" pad="D8"/>
<connect gate="G$1" pin="D9" pad="D9"/>
<connect gate="G$1" pin="GND" pad="GND"/>
<connect gate="G$1" pin="GND1" pad="GND1"/>
<connect gate="G$1" pin="RESET" pad="RESET"/>
<connect gate="G$1" pin="RESET1" pad="RESET1"/>
<connect gate="G$1" pin="VIN" pad="VIN"/>
</connects>
<technologies>
<technology name=""/>
</technologies>
</device>
</devices>
</deviceset>
</devicesets>
</library>
<library name="nrf2401">
<packages>
<package name="NRF">
<wire x1="-4.445" y1="2.54" x2="-3.175" y2="2.54" width="0.1524" layer="21"/>
<wire x1="-3.175" y1="2.54" x2="-2.54" y2="1.905" width="0.1524" layer="21"/>
<wire x1="-2.54" y1="1.905" x2="-1.905" y2="2.54" width="0.1524" layer="21"/>
<wire x1="-1.905" y1="2.54" x2="-0.635" y2="2.54" width="0.1524" layer="21"/>
<wire x1="-0.635" y1="2.54" x2="0" y2="1.905" width="0.1524" layer="21"/>
<wire x1="-4.445" y1="2.54" x2="-5.08" y2="1.905" width="0.1524" layer="21"/>
<wire x1="0" y1="1.905" x2="0.635" y2="2.54" width="0.1524" layer="21"/>
<wire x1="0.635" y1="2.54" x2="1.905" y2="2.54" width="0.1524" layer="21"/>
<wire x1="1.905" y1="2.54" x2="2.54" y2="1.905" width="0.1524" layer="21"/>
<wire x1="3.175" y1="2.54" x2="4.445" y2="2.54" width="0.1524" layer="21"/>
<wire x1="3.175" y1="2.54" x2="2.54" y2="1.905" width="0.1524" layer="21"/>
<wire x1="4.445" y1="2.54" x2="5.08" y2="1.905" width="0.1524" layer="21"/>
<wire x1="5.08" y1="1.905" x2="5.08" y2="-1.905" width="0.1524" layer="21"/>
<wire x1="-2.54" y1="-1.905" x2="-3.175" y2="-2.54" width="0.1524" layer="21"/>
<wire x1="0" y1="-1.905" x2="-0.635" y2="-2.54" width="0.1524" layer="21"/>
<wire x1="-0.635" y1="-2.54" x2="-1.905" y2="-2.54" width="0.1524" layer="21"/>
<wire x1="-1.905" y1="-2.54" x2="-2.54" y2="-1.905" width="0.1524" layer="21"/>
<wire x1="-5.08" y1="1.905" x2="-5.08" y2="-1.905" width="0.1524" layer="21"/>
<wire x1="-5.08" y1="-1.905" x2="-4.445" y2="-2.54" width="0.1524" layer="21"/>
<wire x1="-3.175" y1="-2.54" x2="-4.445" y2="-2.54" width="0.1524" layer="21"/>
<wire x1="2.54" y1="-1.905" x2="1.905" y2="-2.54" width="0.1524" layer="21"/>
<wire x1="1.905" y1="-2.54" x2="0.635" y2="-2.54" width="0.1524" layer="21"/>
<wire x1="0.635" y1="-2.54" x2="0" y2="-1.905" width="0.1524" layer="21"/>
<wire x1="2.54" y1="-1.905" x2="3.175" y2="-2.54" width="0.1524" layer="21"/>
<wire x1="4.445" y1="-2.54" x2="3.175" y2="-2.54" width="0.1524" layer="21"/>
<wire x1="5.08" y1="-1.905" x2="4.445" y2="-2.54" width="0.1524" layer="21"/>
<pad name="2" x="-3.81" y="-1.27" drill="1.016" shape="octagon"/>
<pad name="4" x="-1.27" y="-1.27" drill="1.016" shape="octagon"/>
<pad name="6" x="1.27" y="-1.27" drill="1.016" shape="octagon"/>
<pad name="8" x="3.81" y="-1.27" drill="1.016" shape="octagon"/>
<pad name="3" x="-1.27" y="1.27" drill="1.016" shape="octagon"/>
<pad name="5" x="1.27" y="1.27" drill="1.016" shape="octagon"/>
<pad name="7" x="3.81" y="1.27" drill="1.016" shape="octagon"/>
<text x="-6.858" y="0.889" size="1.27" layer="21" ratio="10">1</text>
<text x="-5.08" y="2.921" size="1.27" layer="25" ratio="10">&gt;NAME</text>
<text x="0" y="-4.191" size="1.27" layer="27" ratio="10">&gt;VALUE</text>
<text x="5.08" y="-2.159" size="1.27" layer="21" ratio="10">8</text>
<pad name="P$1" x="-3.81" y="1.27" drill="0.8" shape="square"/>
</package>
</packages>
<symbols>
<symbol name="NRF">
<wire x1="-1.27" y1="-7.62" x2="-26.67" y2="-7.62" width="0.4064" layer="94"/>
<wire x1="-1.27" y1="0" x2="0" y2="0" width="0.6096" layer="94"/>
<wire x1="-1.27" y1="-2.54" x2="0" y2="-2.54" width="0.6096" layer="94"/>
<wire x1="-1.27" y1="-5.08" x2="0" y2="-5.08" width="0.6096" layer="94"/>
<wire x1="-27.94" y1="0" x2="-26.67" y2="0" width="0.6096" layer="94"/>
<wire x1="-27.94" y1="-2.54" x2="-26.67" y2="-2.54" width="0.6096" layer="94"/>
<wire x1="-27.94" y1="-5.08" x2="-26.67" y2="-5.08" width="0.6096" layer="94"/>
<wire x1="-26.67" y1="5.08" x2="-26.67" y2="2.54" width="0.4064" layer="94"/>
<wire x1="-26.67" y1="2.54" x2="-26.67" y2="0" width="0.4064" layer="94"/>
<wire x1="-26.67" y1="0" x2="-26.67" y2="-2.54" width="0.4064" layer="94"/>
<wire x1="-26.67" y1="-2.54" x2="-26.67" y2="-5.08" width="0.4064" layer="94"/>
<wire x1="-26.67" y1="-5.08" x2="-26.67" y2="-7.62" width="0.4064" layer="94"/>
<wire x1="-1.27" y1="-7.62" x2="-1.27" y2="5.08" width="0.4064" layer="94"/>
<wire x1="-26.67" y1="5.08" x2="-1.27" y2="5.08" width="0.4064" layer="94"/>
<wire x1="-1.27" y1="2.54" x2="0" y2="2.54" width="0.6096" layer="94"/>
<wire x1="-27.94" y1="2.54" x2="-26.67" y2="2.54" width="0.6096" layer="94"/>
<text x="-6.35" y="-10.16" size="1.778" layer="96">&gt;VALUE</text>
<text x="-6.35" y="5.842" size="1.778" layer="95">&gt;NAME</text>
<pin name="SCK" x="5.08" y="-5.08" visible="pin" length="middle" rot="R180"/>
<pin name="MOSI" x="5.08" y="-2.54" visible="pin" length="middle" rot="R180"/>
<pin name="MISO" x="5.08" y="0" visible="pin" length="middle" rot="R180"/>
<pin name="CSN" x="-33.02" y="-5.08" visible="pin" length="middle"/>
<pin name="CE" x="-33.02" y="-2.54" visible="pin" length="middle"/>
<pin name="VCC" x="-33.02" y="0" visible="pin" length="middle" direction="pwr"/>
<pin name="IRQ" x="5.08" y="2.54" visible="pin" length="middle" rot="R180"/>
<pin name="GND" x="-33.02" y="2.54" visible="pin" length="middle" direction="pwr"/>
</symbol>
</symbols>
<devicesets>
<deviceset name="NRF" prefix="NRF24L01" uservalue="yes">
<gates>
<gate name="G$1" symbol="NRF" x="-50.8" y="33.02"/>
</gates>
<devices>
<device name="" package="NRF">
<connects>
<connect gate="G$1" pin="CE" pad="3"/>
<connect gate="G$1" pin="CSN" pad="4"/>
<connect gate="G$1" pin="GND" pad="P$1"/>
<connect gate="G$1" pin="IRQ" pad="8"/>
<connect gate="G$1" pin="MISO" pad="7"/>
<connect gate="G$1" pin="MOSI" pad="6"/>
<connect gate="G$1" pin="SCK" pad="5"/>
<connect gate="G$1" pin="VCC" pad="2"/>
</connects>
<technologies>
<technology name=""/>
</technologies>
</device>
</devices>
</deviceset>
</devicesets>
</library>
<library name="transistor-power">
<description>&lt;b&gt;Power Transistors&lt;/b&gt;&lt;p&gt;
&lt;author&gt;Created by librarian@cadsoft.de&lt;/author&gt;</description>
<packages>
<package name="TO220BH">
<description>&lt;b&gt;Molded Package&lt;/b&gt;&lt;p&gt;
grid 2.54 mm</description>
<wire x1="-5.207" y1="-1.27" x2="5.207" y2="-1.27" width="0.1524" layer="21"/>
<wire x1="5.207" y1="14.605" x2="-5.207" y2="14.605" width="0.1524" layer="21"/>
<wire x1="5.207" y1="-1.27" x2="5.207" y2="11.176" width="0.1524" layer="21"/>
<wire x1="5.207" y1="11.176" x2="4.318" y2="11.176" width="0.1524" layer="21"/>
<wire x1="4.318" y1="11.176" x2="4.318" y2="12.7" width="0.1524" layer="21"/>
<wire x1="4.318" y1="12.7" x2="5.207" y2="12.7" width="0.1524" layer="21"/>
<wire x1="5.207" y1="12.7" x2="5.207" y2="14.605" width="0.1524" layer="21"/>
<wire x1="-5.207" y1="-1.27" x2="-5.207" y2="11.176" width="0.1524" layer="21"/>
<wire x1="-5.207" y1="11.176" x2="-4.318" y2="11.176" width="0.1524" layer="21"/>
<wire x1="-4.318" y1="11.176" x2="-4.318" y2="12.7" width="0.1524" layer="21"/>
<wire x1="-4.318" y1="12.7" x2="-5.207" y2="12.7" width="0.1524" layer="21"/>
<wire x1="-5.207" y1="12.7" x2="-5.207" y2="14.605" width="0.1524" layer="21"/>
<wire x1="-4.572" y1="-0.635" x2="4.572" y2="-0.635" width="0.0508" layer="21"/>
<wire x1="4.572" y1="7.62" x2="4.572" y2="-0.635" width="0.0508" layer="21"/>
<wire x1="4.572" y1="7.62" x2="-4.572" y2="7.62" width="0.0508" layer="21"/>
<wire x1="-4.572" y1="-0.635" x2="-4.572" y2="7.62" width="0.0508" layer="21"/>
<circle x="0" y="11.176" radius="1.8034" width="0.1524" layer="21"/>
<circle x="0" y="11.176" radius="4.191" width="0" layer="42"/>
<circle x="0" y="11.176" radius="4.191" width="0" layer="43"/>
<pad name="G" x="-2.54" y="-6.35" drill="1.1176" shape="long" rot="R90"/>
<pad name="D" x="0" y="-6.35" drill="1.1176" shape="long" rot="R90"/>
<pad name="S" x="2.54" y="-6.35" drill="1.1176" shape="long" rot="R90"/>
<text x="-3.81" y="5.207" size="1.778" layer="25" ratio="10">&gt;NAME</text>
<text x="-3.937" y="2.54" size="1.778" layer="27" ratio="10">&gt;VALUE</text>
<text x="-4.445" y="7.874" size="1.016" layer="21" ratio="10">A17,5mm</text>
<rectangle x1="2.159" y1="-4.699" x2="2.921" y2="-4.064" layer="21"/>
<rectangle x1="-0.381" y1="-4.699" x2="0.381" y2="-4.064" layer="21"/>
<rectangle x1="-2.921" y1="-4.699" x2="-2.159" y2="-4.064" layer="21"/>
<rectangle x1="-3.175" y1="-4.064" x2="-1.905" y2="-1.27" layer="21"/>
<rectangle x1="-0.635" y1="-4.064" x2="0.635" y2="-1.27" layer="21"/>
<rectangle x1="1.905" y1="-4.064" x2="3.175" y2="-1.27" layer="21"/>
<rectangle x1="-2.921" y1="-6.604" x2="-2.159" y2="-4.699" layer="51"/>
<rectangle x1="-0.381" y1="-6.604" x2="0.381" y2="-4.699" layer="51"/>
<rectangle x1="2.159" y1="-6.604" x2="2.921" y2="-4.699" layer="51"/>
<hole x="0" y="11.176" drill="3.302"/>
</package>
</packages>
<symbols>
<symbol name="MFNS">
<wire x1="-1.1176" y1="2.413" x2="-1.1176" y2="-2.54" width="0.254" layer="94"/>
<wire x1="-1.1176" y1="-2.54" x2="-2.54" y2="-2.54" width="0.1524" layer="94"/>
<wire x1="2.54" y1="1.905" x2="0.5334" y2="1.905" width="0.1524" layer="94"/>
<wire x1="2.54" y1="0" x2="2.54" y2="-1.905" width="0.1524" layer="94"/>
<wire x1="0.508" y1="-1.905" x2="2.54" y2="-1.905" width="0.1524" layer="94"/>
<wire x1="2.54" y1="2.54" x2="2.54" y2="1.905" width="0.1524" layer="94"/>
<wire x1="2.54" y1="1.905" x2="5.08" y2="1.905" width="0.1524" layer="94"/>
<wire x1="5.08" y1="1.905" x2="5.08" y2="0.762" width="0.1524" layer="94"/>
<wire x1="5.08" y1="0.762" x2="5.08" y2="-1.905" width="0.1524" layer="94"/>
<wire x1="5.08" y1="-1.905" x2="2.54" y2="-1.905" width="0.1524" layer="94"/>
<wire x1="2.54" y1="-1.905" x2="2.54" y2="-2.54" width="0.1524" layer="94"/>
<wire x1="5.08" y1="0.762" x2="4.445" y2="-0.635" width="0.1524" layer="94"/>
<wire x1="4.445" y1="-0.635" x2="5.715" y2="-0.635" width="0.1524" layer="94"/>
<wire x1="5.715" y1="-0.635" x2="5.08" y2="0.762" width="0.1524" layer="94"/>
<wire x1="4.445" y1="0.762" x2="5.08" y2="0.762" width="0.1524" layer="94"/>
<wire x1="5.08" y1="0.762" x2="5.715" y2="0.762" width="0.1524" layer="94"/>
<wire x1="5.715" y1="0.762" x2="5.969" y2="1.016" width="0.1524" layer="94"/>
<wire x1="4.445" y1="0.762" x2="4.191" y2="0.508" width="0.1524" layer="94"/>
<wire x1="0.508" y1="0" x2="1.778" y2="-0.508" width="0.1524" layer="94"/>
<wire x1="1.778" y1="-0.508" x2="1.778" y2="0.508" width="0.1524" layer="94"/>
<wire x1="1.778" y1="0.508" x2="0.508" y2="0" width="0.1524" layer="94"/>
<wire x1="1.651" y1="0" x2="2.54" y2="0" width="0.1524" layer="94"/>
<wire x1="1.651" y1="0.254" x2="0.762" y2="0" width="0.3048" layer="94"/>
<wire x1="0.762" y1="0" x2="1.651" y2="-0.254" width="0.3048" layer="94"/>
<wire x1="1.651" y1="-0.254" x2="1.651" y2="0" width="0.3048" layer="94"/>
<wire x1="1.651" y1="0" x2="1.397" y2="0" width="0.3048" layer="94"/>
<circle x="2.54" y="-1.905" radius="0.127" width="0.4064" layer="94"/>
<circle x="2.54" y="1.905" radius="0.127" width="0.4064" layer="94"/>
<text x="7.62" y="2.54" size="1.778" layer="95">&gt;NAME</text>
<text x="7.62" y="0" size="1.778" layer="96">&gt;VALUE</text>
<text x="1.27" y="2.54" size="0.8128" layer="93">D</text>
<text x="1.27" y="-3.175" size="0.8128" layer="93">S</text>
<text x="-2.54" y="-1.27" size="0.8128" layer="93">G</text>
<rectangle x1="-0.254" y1="-2.54" x2="0.508" y2="-1.27" layer="94"/>
<rectangle x1="-0.254" y1="1.27" x2="0.508" y2="2.54" layer="94"/>
<rectangle x1="-0.254" y1="-0.889" x2="0.508" y2="0.889" layer="94"/>
<pin name="G" x="-2.54" y="-2.54" visible="off" length="point" direction="pas"/>
<pin name="D" x="2.54" y="5.08" visible="off" length="short" direction="pas" rot="R270"/>
<pin name="S" x="2.54" y="-5.08" visible="off" length="short" direction="pas" rot="R90"/>
</symbol>
</symbols>
<devicesets>
<deviceset name="IRLZ44Z" prefix="Q">
<description>&lt;b&gt;N-Channel HEXFET® Power MOSFET&lt;/b&gt; Logic Level&lt;p&gt;
 AUTOMOTIVE MOSFET&lt;br&gt;
Source: http://www.irf.com/product-info/datasheets/data/irlz44zpbf.pdf</description>
<gates>
<gate name="G$1" symbol="MFNS" x="0" y="0"/>
</gates>
<devices>
<device name="" package="TO220BH">
<connects>
<connect gate="G$1" pin="D" pad="D"/>
<connect gate="G$1" pin="G" pad="G"/>
<connect gate="G$1" pin="S" pad="S"/>
</connects>
<technologies>
<technology name=""/>
</technologies>
</device>
</devices>
</deviceset>
</devicesets>
</library>
<library name="SparkFun-Capacitors">
<description>&lt;h3&gt;SparkFun Electronics' preferred foot prints&lt;/h3&gt;
In this library you'll find resistors, capacitors, inductors, test points, jumper pads, etc.&lt;br&gt;&lt;br&gt;
We've spent an enormous amount of time creating and checking these footprints and parts, but it is the end user's responsibility to ensure correctness and suitablity for a given componet or application. If you enjoy using this library, please buy one of our products at www.sparkfun.com.
&lt;br&gt;&lt;br&gt;
&lt;b&gt;Licensing:&lt;/b&gt; Creative Commons ShareAlike 4.0 International - https://creativecommons.org/licenses/by-sa/4.0/ 
&lt;br&gt;&lt;br&gt;
You are welcome to use this library for commercial purposes. For attribution, we ask that when you begin to sell your device using our footprint, you email us with a link to the product being sold. We want bragging rights that we helped (in a very small part) to create your 8th world wonder. We would like the opportunity to feature your device on our homepage.</description>
<packages>
<package name="CAP-PTH-SMALL">
<wire x1="1.27" y1="0.635" x2="1.27" y2="-0.635" width="0.2032" layer="21"/>
<pad name="1" x="0" y="0" drill="0.7" diameter="1.651"/>
<pad name="2" x="2.54" y="0" drill="0.7" diameter="1.651"/>
<text x="0.508" y="1.27" size="0.4064" layer="25">&gt;Name</text>
<text x="0.254" y="-1.524" size="0.4064" layer="27">&gt;Value</text>
</package>
<package name="CAP-PTH-SMALL2">
<wire x1="1.27" y1="0.635" x2="1.27" y2="-0.635" width="0.2032" layer="21"/>
<wire x1="-1.27" y1="1.27" x2="3.81" y2="1.27" width="0.2032" layer="21"/>
<wire x1="3.81" y1="1.27" x2="3.81" y2="-1.27" width="0.2032" layer="21"/>
<wire x1="3.81" y1="-1.27" x2="-1.27" y2="-1.27" width="0.2032" layer="21"/>
<wire x1="-1.27" y1="-1.27" x2="-1.27" y2="1.27" width="0.2032" layer="21"/>
<pad name="1" x="0" y="0" drill="0.7" diameter="1.651"/>
<pad name="2" x="2.54" y="0" drill="0.7" diameter="1.651"/>
<text x="-1.27" y="1.905" size="0.6096" layer="25">&gt;Name</text>
<text x="-1.27" y="-2.54" size="0.6096" layer="27">&gt;Value</text>
</package>
<package name="0805">
<wire x1="-0.3" y1="0.6" x2="0.3" y2="0.6" width="0.1524" layer="21"/>
<wire x1="-0.3" y1="-0.6" x2="0.3" y2="-0.6" width="0.1524" layer="21"/>
<smd name="1" x="-0.9" y="0" dx="0.8" dy="1.2" layer="1"/>
<smd name="2" x="0.9" y="0" dx="0.8" dy="1.2" layer="1"/>
<text x="-0.762" y="0.8255" size="0.4064" layer="25">&gt;NAME</text>
<text x="-1.016" y="-1.397" size="0.4064" layer="27">&gt;VALUE</text>
</package>
<package name="CAP-PTH-LARGE">
<wire x1="0" y1="0.635" x2="0" y2="0" width="0.2032" layer="21"/>
<wire x1="0" y1="0" x2="0" y2="-0.635" width="0.2032" layer="21"/>
<wire x1="0" y1="0" x2="-2.54" y2="0" width="0.2032" layer="21"/>
<wire x1="0" y1="0" x2="2.54" y2="0" width="0.2032" layer="21"/>
<pad name="1" x="-4.826" y="0" drill="0.9" diameter="1.905"/>
<pad name="2" x="4.572" y="0" drill="0.9" diameter="1.905"/>
<text x="-0.762" y="1.27" size="0.4064" layer="25">&gt;Name</text>
<text x="-1.016" y="-1.524" size="0.4064" layer="27">&gt;Value</text>
</package>
<package name="GRM43D">
<wire x1="2.25" y1="1.6" x2="1.1" y2="1.6" width="0.127" layer="51"/>
<wire x1="1.1" y1="1.6" x2="-1.1" y2="1.6" width="0.127" layer="51"/>
<wire x1="-1.1" y1="1.6" x2="-2.25" y2="1.6" width="0.127" layer="51"/>
<wire x1="-2.25" y1="1.6" x2="-2.25" y2="-1.6" width="0.127" layer="51"/>
<wire x1="-2.25" y1="-1.6" x2="-1.1" y2="-1.6" width="0.127" layer="51"/>
<wire x1="-1.1" y1="-1.6" x2="1.1" y2="-1.6" width="0.127" layer="51"/>
<wire x1="1.1" y1="-1.6" x2="2.25" y2="-1.6" width="0.127" layer="51"/>
<wire x1="2.25" y1="-1.6" x2="2.25" y2="1.6" width="0.127" layer="51"/>
<wire x1="1.1" y1="1.6" x2="1.1" y2="-1.6" width="0.127" layer="51"/>
<wire x1="-1.1" y1="1.6" x2="-1.1" y2="-1.6" width="0.127" layer="51"/>
<wire x1="-2.3" y1="1.8" x2="2.3" y2="1.8" width="0.127" layer="21"/>
<wire x1="-2.3" y1="-1.8" x2="2.3" y2="-1.8" width="0.127" layer="21"/>
<smd name="A" x="1.927" y="0" dx="3.2" dy="1.65" layer="1" rot="R90"/>
<smd name="C" x="-1.927" y="0" dx="3.2" dy="1.65" layer="1" rot="R90"/>
<text x="-2" y="2" size="0.4064" layer="25">&gt;NAME</text>
<text x="0" y="-2" size="0.4064" layer="27" rot="R180">&gt;VALUE</text>
<rectangle x1="-2.2" y1="-1.6" x2="-1.1" y2="1.6" layer="51"/>
<rectangle x1="1.1" y1="-1.6" x2="2.2" y2="1.6" layer="51"/>
</package>
<package name="0603-CAP">
<wire x1="-1.473" y1="0.983" x2="1.473" y2="0.983" width="0.0508" layer="39"/>
<wire x1="1.473" y1="0.983" x2="1.473" y2="-0.983" width="0.0508" layer="39"/>
<wire x1="1.473" y1="-0.983" x2="-1.473" y2="-0.983" width="0.0508" layer="39"/>
<wire x1="-1.473" y1="-0.983" x2="-1.473" y2="0.983" width="0.0508" layer="39"/>
<wire x1="-0.356" y1="0.432" x2="0.356" y2="0.432" width="0.1016" layer="51"/>
<wire x1="-0.356" y1="-0.419" x2="0.356" y2="-0.419" width="0.1016" layer="51"/>
<wire x1="0" y1="0.0305" x2="0" y2="-0.0305" width="0.5588" layer="21"/>
<smd name="1" x="-0.85" y="0" dx="1.1" dy="1" layer="1"/>
<smd name="2" x="0.85" y="0" dx="1.1" dy="1" layer="1"/>
<text x="-0.889" y="0.762" size="0.4064" layer="25" font="vector">&gt;NAME</text>
<text x="-1.016" y="-1.143" size="0.4064" layer="27" font="vector">&gt;VALUE</text>
<rectangle x1="-0.8382" y1="-0.4699" x2="-0.3381" y2="0.4801" layer="51"/>
<rectangle x1="0.3302" y1="-0.4699" x2="0.8303" y2="0.4801" layer="51"/>
<rectangle x1="-0.1999" y1="-0.3" x2="0.1999" y2="0.3" layer="35"/>
</package>
<package name="0402-CAP">
<description>&lt;b&gt;CAPACITOR&lt;/b&gt;&lt;p&gt;
chip</description>
<wire x1="-0.245" y1="0.224" x2="0.245" y2="0.224" width="0.1524" layer="51"/>
<wire x1="0.245" y1="-0.224" x2="-0.245" y2="-0.224" width="0.1524" layer="51"/>
<wire x1="-1.473" y1="0.483" x2="1.473" y2="0.483" width="0.0508" layer="39"/>
<wire x1="1.473" y1="0.483" x2="1.473" y2="-0.483" width="0.0508" layer="39"/>
<wire x1="1.473" y1="-0.483" x2="-1.473" y2="-0.483" width="0.0508" layer="39"/>
<wire x1="-1.473" y1="-0.483" x2="-1.473" y2="0.483" width="0.0508" layer="39"/>
<wire x1="0" y1="0.0305" x2="0" y2="-0.0305" width="0.4064" layer="21"/>
<smd name="1" x="-0.58" y="0" dx="0.85" dy="0.9" layer="1"/>
<smd name="2" x="0.58" y="0" dx="0.85" dy="0.9" layer="1"/>
<text x="-0.889" y="0.6985" size="0.4064" layer="25">&gt;NAME</text>
<text x="-1.0795" y="-1.143" size="0.4064" layer="27">&gt;VALUE</text>
<rectangle x1="-0.554" y1="-0.3048" x2="-0.254" y2="0.2951" layer="51"/>
<rectangle x1="0.2588" y1="-0.3048" x2="0.5588" y2="0.2951" layer="51"/>
<rectangle x1="-0.1999" y1="-0.3" x2="0.1999" y2="0.3" layer="35"/>
</package>
<package name="CAP-PTH-5MM">
<wire x1="0" y1="0.635" x2="0" y2="-0.635" width="0.2032" layer="21"/>
<pad name="1" x="-2.5" y="0" drill="0.7" diameter="1.651"/>
<pad name="2" x="2.5" y="0" drill="0.7" diameter="1.651"/>
<text x="-0.762" y="1.27" size="0.4064" layer="25">&gt;Name</text>
<text x="-1.016" y="-1.524" size="0.4064" layer="27">&gt;Value</text>
</package>
<package name="AXIAL-5MM">
<wire x1="-1.14" y1="0.762" x2="1.14" y2="0.762" width="0.2032" layer="21"/>
<wire x1="1.14" y1="0.762" x2="1.14" y2="0" width="0.2032" layer="21"/>
<wire x1="1.14" y1="0" x2="1.14" y2="-0.762" width="0.2032" layer="21"/>
<wire x1="1.14" y1="-0.762" x2="-1.14" y2="-0.762" width="0.2032" layer="21"/>
<wire x1="-1.14" y1="-0.762" x2="-1.14" y2="0" width="0.2032" layer="21"/>
<wire x1="-1.14" y1="0" x2="-1.14" y2="0.762" width="0.2032" layer="21"/>
<wire x1="1.14" y1="0" x2="1.394" y2="0" width="0.2032" layer="21"/>
<wire x1="-1.14" y1="0" x2="-1.394" y2="0" width="0.2032" layer="21"/>
<pad name="P$1" x="-2.5" y="0" drill="0.9" diameter="1.8796"/>
<pad name="P$2" x="2.5" y="0" drill="0.9" diameter="1.8796"/>
<text x="-2.54" y="1.17" size="0.4" layer="25">&gt;Name</text>
<text x="-1.032" y="-0.208" size="0.4" layer="21" ratio="15">&gt;Value</text>
</package>
<package name="1210">
<wire x1="-1.6" y1="1.3" x2="1.6" y2="1.3" width="0.127" layer="51"/>
<wire x1="1.6" y1="1.3" x2="1.6" y2="-1.3" width="0.127" layer="51"/>
<wire x1="1.6" y1="-1.3" x2="-1.6" y2="-1.3" width="0.127" layer="51"/>
<wire x1="-1.6" y1="-1.3" x2="-1.6" y2="1.3" width="0.127" layer="51"/>
<wire x1="-1.6" y1="1.3" x2="1.6" y2="1.3" width="0.2032" layer="21"/>
<wire x1="-1.6" y1="-1.3" x2="1.6" y2="-1.3" width="0.2032" layer="21"/>
<smd name="1" x="-1.6" y="0" dx="1.2" dy="2" layer="1"/>
<smd name="2" x="1.6" y="0" dx="1.2" dy="2" layer="1"/>
<text x="-0.8" y="0.5" size="0.4064" layer="25">&gt;NAME</text>
<text x="-0.9" y="-0.7" size="0.4064" layer="27">&gt;VALUE</text>
</package>
<package name="1206">
<wire x1="-2.473" y1="0.983" x2="2.473" y2="0.983" width="0.0508" layer="39"/>
<wire x1="2.473" y1="-0.983" x2="-2.473" y2="-0.983" width="0.0508" layer="39"/>
<wire x1="-2.473" y1="-0.983" x2="-2.473" y2="0.983" width="0.0508" layer="39"/>
<wire x1="2.473" y1="0.983" x2="2.473" y2="-0.983" width="0.0508" layer="39"/>
<wire x1="-0.965" y1="0.787" x2="0.965" y2="0.787" width="0.1016" layer="51"/>
<wire x1="-0.965" y1="-0.787" x2="0.965" y2="-0.787" width="0.1016" layer="51"/>
<smd name="1" x="-1.4" y="0" dx="1.6" dy="1.8" layer="1"/>
<smd name="2" x="1.4" y="0" dx="1.6" dy="1.8" layer="1"/>
<text x="-1.27" y="1.143" size="0.4064" layer="25">&gt;NAME</text>
<text x="-1.397" y="-1.524" size="0.4064" layer="27">&gt;VALUE</text>
<rectangle x1="-1.7018" y1="-0.8509" x2="-0.9517" y2="0.8491" layer="51"/>
<rectangle x1="0.9517" y1="-0.8491" x2="1.7018" y2="0.8509" layer="51"/>
<rectangle x1="-0.1999" y1="-0.4001" x2="0.1999" y2="0.4001" layer="35"/>
</package>
<package name="CTZ3">
<description>CTZ3 Series land pattern for variable capacitor - CTZ3E-50C-W1-PF</description>
<wire x1="-1.6" y1="1.4" x2="-1.6" y2="-2.25" width="0.127" layer="51"/>
<wire x1="-1.6" y1="-2.25" x2="1.6" y2="-2.25" width="0.127" layer="51"/>
<wire x1="1.6" y1="1.4" x2="1.6" y2="-2.25" width="0.127" layer="51"/>
<wire x1="-0.5" y1="0" x2="0.5" y2="0" width="0.127" layer="51"/>
<wire x1="-1.6" y1="1.4" x2="-1" y2="2.2" width="0.127" layer="51"/>
<wire x1="1.6" y1="1.4" x2="1" y2="2.2" width="0.127" layer="51"/>
<wire x1="-1" y1="2.2" x2="1" y2="2.2" width="0.127" layer="51"/>
<wire x1="0" y1="0.8" x2="0" y2="-0.8" width="0.127" layer="51"/>
<wire x1="-0.8" y1="0" x2="0.8" y2="0" width="0.127" layer="51"/>
<wire x1="-1.05" y1="2.25" x2="-1.7" y2="1.45" width="0.127" layer="21"/>
<wire x1="-1.7" y1="1.45" x2="-1.7" y2="-2.35" width="0.127" layer="21"/>
<wire x1="-1.7" y1="-2.35" x2="-1.05" y2="-2.35" width="0.127" layer="21"/>
<wire x1="1.05" y1="2.25" x2="1.7" y2="1.4" width="0.127" layer="21"/>
<wire x1="1.7" y1="1.4" x2="1.7" y2="-2.35" width="0.127" layer="21"/>
<wire x1="1.7" y1="-2.35" x2="1.05" y2="-2.35" width="0.127" layer="21"/>
<smd name="+" x="0" y="2.05" dx="1.5" dy="1.2" layer="1"/>
<smd name="-" x="0" y="-2.05" dx="1.5" dy="1.2" layer="1"/>
<text x="-2" y="3" size="0.4064" layer="25">&gt;NAME</text>
<text x="-2" y="-3.4" size="0.4064" layer="27">&gt;VALUE</text>
</package>
<package name="CAP-PTH-SMALL-KIT">
<description>&lt;h3&gt;CAP-PTH-SMALL-KIT&lt;/h3&gt;
Commonly used for small ceramic capacitors. Like our 0.1uF (http://www.sparkfun.com/products/8375) or 22pF caps (http://www.sparkfun.com/products/8571).&lt;br&gt;
&lt;br&gt;
&lt;b&gt;Warning:&lt;/b&gt; This is the KIT version of this package. This package has a smaller diameter top stop mask, which doesn't cover the diameter of the pad. This means only the bottom side of the pads' copper will be exposed. You'll only be able to solder to the bottom side.</description>
<wire x1="0" y1="0.635" x2="0" y2="-0.635" width="0.254" layer="21"/>
<wire x1="-2.667" y1="1.27" x2="2.667" y2="1.27" width="0.254" layer="21"/>
<wire x1="2.667" y1="1.27" x2="2.667" y2="-1.27" width="0.254" layer="21"/>
<wire x1="2.667" y1="-1.27" x2="-2.667" y2="-1.27" width="0.254" layer="21"/>
<wire x1="-2.667" y1="-1.27" x2="-2.667" y2="1.27" width="0.254" layer="21"/>
<pad name="1" x="-1.397" y="0" drill="1.016" diameter="2.032" stop="no"/>
<pad name="2" x="1.397" y="0" drill="1.016" diameter="2.032" stop="no"/>
<polygon width="0.127" layer="30">
<vertex x="-1.4021" y="-0.9475" curve="-90"/>
<vertex x="-2.357" y="-0.0178" curve="-90.011749"/>
<vertex x="-1.4046" y="0.9576" curve="-90"/>
<vertex x="-0.4546" y="-0.0204" curve="-90.024193"/>
</polygon>
<polygon width="0.127" layer="29">
<vertex x="-1.4046" y="-0.4395" curve="-90.012891"/>
<vertex x="-1.8491" y="-0.0153" curve="-90"/>
<vertex x="-1.4046" y="0.452" curve="-90"/>
<vertex x="-0.9627" y="-0.0051" curve="-90.012967"/>
</polygon>
<polygon width="0.127" layer="30">
<vertex x="1.397" y="-0.9475" curve="-90"/>
<vertex x="0.4421" y="-0.0178" curve="-90.011749"/>
<vertex x="1.3945" y="0.9576" curve="-90"/>
<vertex x="2.3445" y="-0.0204" curve="-90.024193"/>
</polygon>
<polygon width="0.127" layer="29">
<vertex x="1.3945" y="-0.4395" curve="-90.012891"/>
<vertex x="0.95" y="-0.0153" curve="-90"/>
<vertex x="1.3945" y="0.452" curve="-90"/>
<vertex x="1.8364" y="-0.0051" curve="-90.012967"/>
</polygon>
</package>
<package name="CAP-PTH-SMALLEZ">
<description>This is the "EZ" version of the .1" spaced ceramic thru-hole cap.&lt;br&gt;
It has reduced top mask to make it harder to put the component on the wrong side of the board.</description>
<wire x1="1.27" y1="0.635" x2="1.27" y2="-0.635" width="0.2032" layer="21"/>
<wire x1="-1.27" y1="1.27" x2="3.81" y2="1.27" width="0.2032" layer="21"/>
<wire x1="3.81" y1="1.27" x2="3.81" y2="-1.27" width="0.2032" layer="21"/>
<wire x1="3.81" y1="-1.27" x2="-1.27" y2="-1.27" width="0.2032" layer="21"/>
<wire x1="-1.27" y1="-1.27" x2="-1.27" y2="1.27" width="0.2032" layer="21"/>
<pad name="1" x="0" y="0" drill="0.7" diameter="1.651" stop="no"/>
<pad name="2" x="2.54" y="0" drill="0.7" diameter="1.651" stop="no"/>
<text x="-1.27" y="1.905" size="0.6096" layer="25">&gt;Name</text>
<text x="-1.27" y="-2.54" size="0.6096" layer="27">&gt;Value</text>
<circle x="0" y="0" radius="0.898025" width="0" layer="30"/>
<circle x="2.54" y="0" radius="0.915809375" width="0" layer="30"/>
<circle x="0" y="0" radius="0.40160625" width="0" layer="29"/>
<circle x="2.54" y="0" radius="0.40160625" width="0" layer="29"/>
</package>
</packages>
<symbols>
<symbol name="CAP">
<wire x1="0" y1="2.54" x2="0" y2="2.032" width="0.1524" layer="94"/>
<wire x1="0" y1="0" x2="0" y2="0.508" width="0.1524" layer="94"/>
<text x="1.524" y="2.921" size="1.778" layer="95">&gt;NAME</text>
<text x="1.524" y="-2.159" size="1.778" layer="96">&gt;VALUE</text>
<rectangle x1="-2.032" y1="0.508" x2="2.032" y2="1.016" layer="94"/>
<rectangle x1="-2.032" y1="1.524" x2="2.032" y2="2.032" layer="94"/>
<pin name="1" x="0" y="5.08" visible="off" length="short" direction="pas" swaplevel="1" rot="R270"/>
<pin name="2" x="0" y="-2.54" visible="off" length="short" direction="pas" swaplevel="1" rot="R90"/>
</symbol>
</symbols>
<devicesets>
<deviceset name="CAP" prefix="C" uservalue="yes">
<description>&lt;b&gt;Capacitor&lt;/b&gt;
Standard 0603 ceramic capacitor, and 0.1" leaded capacitor.</description>
<gates>
<gate name="G$1" symbol="CAP" x="0" y="0"/>
</gates>
<devices>
<device name="PTH" package="CAP-PTH-SMALL">
<connects>
<connect gate="G$1" pin="1" pad="1"/>
<connect gate="G$1" pin="2" pad="2"/>
</connects>
<technologies>
<technology name=""/>
</technologies>
</device>
<device name="PTH2" package="CAP-PTH-SMALL2">
<connects>
<connect gate="G$1" pin="1" pad="1"/>
<connect gate="G$1" pin="2" pad="2"/>
</connects>
<technologies>
<technology name=""/>
</technologies>
</device>
<device name="0805" package="0805">
<connects>
<connect gate="G$1" pin="1" pad="1"/>
<connect gate="G$1" pin="2" pad="2"/>
</connects>
<technologies>
<technology name=""/>
</technologies>
</device>
<device name="PTH3" package="CAP-PTH-LARGE">
<connects>
<connect gate="G$1" pin="1" pad="1"/>
<connect gate="G$1" pin="2" pad="2"/>
</connects>
<technologies>
<technology name=""/>
</technologies>
</device>
<device name="SMD" package="GRM43D">
<connects>
<connect gate="G$1" pin="1" pad="A"/>
<connect gate="G$1" pin="2" pad="C"/>
</connects>
<technologies>
<technology name=""/>
</technologies>
</device>
<device name="0603-CAP" package="0603-CAP">
<connects>
<connect gate="G$1" pin="1" pad="1"/>
<connect gate="G$1" pin="2" pad="2"/>
</connects>
<technologies>
<technology name=""/>
</technologies>
</device>
<device name="0402-CAP" package="0402-CAP">
<connects>
<connect gate="G$1" pin="1" pad="1"/>
<connect gate="G$1" pin="2" pad="2"/>
</connects>
<technologies>
<technology name=""/>
</technologies>
</device>
<device name="PTH1" package="CAP-PTH-5MM">
<connects>
<connect gate="G$1" pin="1" pad="1"/>
<connect gate="G$1" pin="2" pad="2"/>
</connects>
<technologies>
<technology name=""/>
</technologies>
</device>
<device name="_" package="AXIAL-5MM">
<connects>
<connect gate="G$1" pin="1" pad="P$1"/>
<connect gate="G$1" pin="2" pad="P$2"/>
</connects>
<technologies>
<technology name=""/>
</technologies>
</device>
<device name="1210" package="1210">
<connects>
<connect gate="G$1" pin="1" pad="1"/>
<connect gate="G$1" pin="2" pad="2"/>
</connects>
<technologies>
<technology name=""/>
</technologies>
</device>
<device name="1206" package="1206">
<connects>
<connect gate="G$1" pin="1" pad="1"/>
<connect gate="G$1" pin="2" pad="2"/>
</connects>
<technologies>
<technology name=""/>
</technologies>
</device>
<device name="ASMD" package="CTZ3">
<connects>
<connect gate="G$1" pin="1" pad="+"/>
<connect gate="G$1" pin="2" pad="-"/>
</connects>
<technologies>
<technology name=""/>
</technologies>
</device>
<device name="KIT" package="CAP-PTH-SMALL-KIT">
<connects>
<connect gate="G$1" pin="1" pad="1"/>
<connect gate="G$1" pin="2" pad="2"/>
</connects>
<technologies>
<technology name=""/>
</technologies>
</device>
<device name="EZ" package="CAP-PTH-SMALLEZ">
<connects>
<connect gate="G$1" pin="1" pad="1"/>
<connect gate="G$1" pin="2" pad="2"/>
</connects>
<technologies>
<technology name=""/>
</technologies>
</device>
</devices>
</deviceset>
</devicesets>
</library>
<library name="SparkFun-Connectors">
<description>&lt;h3&gt;SparkFun Electronics' preferred foot prints&lt;/h3&gt;
In this library you'll find connectors and sockets- basically anything that can be plugged into or onto.&lt;br&gt;&lt;br&gt;
We've spent an enormous amount of time creating and checking these footprints and parts, but it is the end user's responsibility to ensure correctness and suitablity for a given componet or application. If you enjoy using this library, please buy one of our products at www.sparkfun.com.
&lt;br&gt;&lt;br&gt;
&lt;b&gt;Licensing:&lt;/b&gt; Creative Commons ShareAlike 4.0 International - https://creativecommons.org/licenses/by-sa/4.0/ 
&lt;br&gt;&lt;br&gt;
You are welcome to use this library for commercial purposes. For attribution, we ask that when you begin to sell your device using our footprint, you email us with a link to the product being sold. We want bragging rights that we helped (in a very small part) to create your 8th world wonder. We would like the opportunity to feature your device on our homepage.</description>
<packages>
<package name="1X02">
<wire x1="-0.635" y1="1.27" x2="0.635" y2="1.27" width="0.2032" layer="21"/>
<wire x1="0.635" y1="1.27" x2="1.27" y2="0.635" width="0.2032" layer="21"/>
<wire x1="1.27" y1="-0.635" x2="0.635" y2="-1.27" width="0.2032" layer="21"/>
<wire x1="1.27" y1="0.635" x2="1.905" y2="1.27" width="0.2032" layer="21"/>
<wire x1="1.905" y1="1.27" x2="3.175" y2="1.27" width="0.2032" layer="21"/>
<wire x1="3.175" y1="1.27" x2="3.81" y2="0.635" width="0.2032" layer="21"/>
<wire x1="3.81" y1="-0.635" x2="3.175" y2="-1.27" width="0.2032" layer="21"/>
<wire x1="3.175" y1="-1.27" x2="1.905" y2="-1.27" width="0.2032" layer="21"/>
<wire x1="1.905" y1="-1.27" x2="1.27" y2="-0.635" width="0.2032" layer="21"/>
<wire x1="-1.27" y1="0.635" x2="-1.27" y2="-0.635" width="0.2032" layer="21"/>
<wire x1="-0.635" y1="1.27" x2="-1.27" y2="0.635" width="0.2032" layer="21"/>
<wire x1="-1.27" y1="-0.635" x2="-0.635" y2="-1.27" width="0.2032" layer="21"/>
<wire x1="0.635" y1="-1.27" x2="-0.635" y2="-1.27" width="0.2032" layer="21"/>
<wire x1="3.81" y1="0.635" x2="3.81" y2="-0.635" width="0.2032" layer="21"/>
<pad name="1" x="0" y="0" drill="1.016" diameter="1.8796" rot="R90"/>
<pad name="2" x="2.54" y="0" drill="1.016" diameter="1.8796" rot="R90"/>
<text x="-1.3462" y="1.8288" size="1.27" layer="25" ratio="10">&gt;NAME</text>
<text x="-1.27" y="-3.175" size="1.27" layer="27">&gt;VALUE</text>
<rectangle x1="2.286" y1="-0.254" x2="2.794" y2="0.254" layer="51"/>
<rectangle x1="-0.254" y1="-0.254" x2="0.254" y2="0.254" layer="51"/>
</package>
<package name="MOLEX-1X2">
<wire x1="-1.27" y1="3.048" x2="-1.27" y2="-2.54" width="0.127" layer="21"/>
<wire x1="3.81" y1="3.048" x2="3.81" y2="-2.54" width="0.127" layer="21"/>
<wire x1="3.81" y1="3.048" x2="-1.27" y2="3.048" width="0.127" layer="21"/>
<wire x1="3.81" y1="-2.54" x2="2.54" y2="-2.54" width="0.127" layer="21"/>
<wire x1="2.54" y1="-2.54" x2="0" y2="-2.54" width="0.127" layer="21"/>
<wire x1="0" y1="-2.54" x2="-1.27" y2="-2.54" width="0.127" layer="21"/>
<wire x1="0" y1="-2.54" x2="0" y2="-1.27" width="0.127" layer="21"/>
<wire x1="0" y1="-1.27" x2="2.54" y2="-1.27" width="0.127" layer="21"/>
<wire x1="2.54" y1="-1.27" x2="2.54" y2="-2.54" width="0.127" layer="21"/>
<pad name="1" x="0" y="0" drill="1.016" diameter="1.8796" shape="square"/>
<pad name="2" x="2.54" y="0" drill="1.016" diameter="1.8796"/>
</package>
<package name="SCREWTERMINAL-3.5MM-2">
<circle x="2" y="3" radius="0.2828" width="0.127" layer="51"/>
<wire x1="-1.75" y1="3.4" x2="5.25" y2="3.4" width="0.2032" layer="21"/>
<wire x1="5.25" y1="3.4" x2="5.25" y2="-2.8" width="0.2032" layer="21"/>
<wire x1="5.25" y1="-2.8" x2="5.25" y2="-3.6" width="0.2032" layer="21"/>
<wire x1="5.25" y1="-3.6" x2="-1.75" y2="-3.6" width="0.2032" layer="21"/>
<wire x1="-1.75" y1="-3.6" x2="-1.75" y2="-2.8" width="0.2032" layer="21"/>
<wire x1="-1.75" y1="-2.8" x2="-1.75" y2="3.4" width="0.2032" layer="21"/>
<wire x1="5.25" y1="-2.8" x2="-1.75" y2="-2.8" width="0.2032" layer="21"/>
<wire x1="-1.75" y1="-1.35" x2="-2.25" y2="-1.35" width="0.2032" layer="51"/>
<wire x1="-2.25" y1="-1.35" x2="-2.25" y2="-2.35" width="0.2032" layer="51"/>
<wire x1="-2.25" y1="-2.35" x2="-1.75" y2="-2.35" width="0.2032" layer="51"/>
<wire x1="5.25" y1="3.15" x2="5.75" y2="3.15" width="0.2032" layer="51"/>
<wire x1="5.75" y1="3.15" x2="5.75" y2="2.15" width="0.2032" layer="51"/>
<wire x1="5.75" y1="2.15" x2="5.25" y2="2.15" width="0.2032" layer="51"/>
<pad name="1" x="0" y="0" drill="1.2" diameter="2.032" shape="square"/>
<pad name="2" x="3.5" y="0" drill="1.2" diameter="2.032"/>
<text x="-1.27" y="2.54" size="0.4064" layer="25">&gt;NAME</text>
<text x="-1.27" y="1.27" size="0.4064" layer="27">&gt;VALUE</text>
</package>
<package name="JST-2-SMD">
<description>2mm SMD side-entry connector. tDocu layer indicates the actual physical plastic housing. +/- indicate SparkFun standard batteries and wiring.</description>
<wire x1="-4" y1="-1" x2="-4" y2="-4.5" width="0.2032" layer="21"/>
<wire x1="-4" y1="-4.5" x2="-3.2" y2="-4.5" width="0.2032" layer="21"/>
<wire x1="-3.2" y1="-4.5" x2="-3.2" y2="-2" width="0.2032" layer="21"/>
<wire x1="-3.2" y1="-2" x2="-2" y2="-2" width="0.2032" layer="21"/>
<wire x1="2" y1="-2" x2="3.2" y2="-2" width="0.2032" layer="21"/>
<wire x1="3.2" y1="-2" x2="3.2" y2="-4.5" width="0.2032" layer="21"/>
<wire x1="3.2" y1="-4.5" x2="4" y2="-4.5" width="0.2032" layer="21"/>
<wire x1="4" y1="-4.5" x2="4" y2="-1" width="0.2032" layer="21"/>
<wire x1="2" y1="3" x2="-2" y2="3" width="0.2032" layer="21"/>
<smd name="1" x="-1" y="-3.7" dx="1" dy="4.6" layer="1"/>
<smd name="2" x="1" y="-3.7" dx="1" dy="4.6" layer="1"/>
<smd name="NC1" x="-3.4" y="1.5" dx="3.4" dy="1.6" layer="1" rot="R90"/>
<smd name="NC2" x="3.4" y="1.5" dx="3.4" dy="1.6" layer="1" rot="R90"/>
<text x="-1.27" y="1.27" size="0.4064" layer="25">&gt;Name</text>
<text x="-1.27" y="0" size="0.4064" layer="27">&gt;Value</text>
</package>
<package name="1X02_BIG">
<wire x1="-1.27" y1="1.27" x2="-1.27" y2="-1.27" width="0.127" layer="21"/>
<wire x1="-1.27" y1="-1.27" x2="5.08" y2="-1.27" width="0.127" layer="21"/>
<wire x1="5.08" y1="-1.27" x2="5.08" y2="1.27" width="0.127" layer="21"/>
<wire x1="5.08" y1="1.27" x2="-1.27" y2="1.27" width="0.127" layer="21"/>
<pad name="P$1" x="0" y="0" drill="1.0668"/>
<pad name="P$2" x="3.81" y="0" drill="1.0668"/>
</package>
<package name="JST-2-SMD-VERT">
<wire x1="-4.1" y1="2.97" x2="4.2" y2="2.97" width="0.2032" layer="51"/>
<wire x1="4.2" y1="2.97" x2="4.2" y2="-2.13" width="0.2032" layer="51"/>
<wire x1="4.2" y1="-2.13" x2="-4.1" y2="-2.13" width="0.2032" layer="51"/>
<wire x1="-4.1" y1="-2.13" x2="-4.1" y2="2.97" width="0.2032" layer="51"/>
<wire x1="-4.1" y1="3" x2="4.2" y2="3" width="0.2032" layer="21"/>
<wire x1="4.2" y1="3" x2="4.2" y2="2.3" width="0.2032" layer="21"/>
<wire x1="-4.1" y1="3" x2="-4.1" y2="2.3" width="0.2032" layer="21"/>
<wire x1="2" y1="-2.1" x2="4.2" y2="-2.1" width="0.2032" layer="21"/>
<wire x1="4.2" y1="-2.1" x2="4.2" y2="-1.7" width="0.2032" layer="21"/>
<wire x1="-2" y1="-2.1" x2="-4.1" y2="-2.1" width="0.2032" layer="21"/>
<wire x1="-4.1" y1="-2.1" x2="-4.1" y2="-1.8" width="0.2032" layer="21"/>
<smd name="P$1" x="-3.4" y="0.27" dx="3" dy="1.6" layer="1" rot="R90"/>
<smd name="P$2" x="3.4" y="0.27" dx="3" dy="1.6" layer="1" rot="R90"/>
<smd name="VCC" x="-1" y="-2" dx="1" dy="5.5" layer="1"/>
<smd name="GND" x="1" y="-2" dx="1" dy="5.5" layer="1"/>
<text x="2.54" y="-5.08" size="1.27" layer="25">&gt;Name</text>
<text x="2.24" y="3.48" size="1.27" layer="27">&gt;Value</text>
</package>
<package name="R_SW_TH">
<wire x1="-1.651" y1="19.2532" x2="-1.651" y2="-1.3716" width="0.2032" layer="21"/>
<wire x1="-1.651" y1="-1.3716" x2="-1.651" y2="-2.2352" width="0.2032" layer="21"/>
<wire x1="-1.651" y1="19.2532" x2="13.589" y2="19.2532" width="0.2032" layer="21"/>
<wire x1="13.589" y1="19.2532" x2="13.589" y2="-2.2352" width="0.2032" layer="21"/>
<wire x1="13.589" y1="-2.2352" x2="-1.651" y2="-2.2352" width="0.2032" layer="21"/>
<pad name="P$1" x="0" y="0" drill="1.6002"/>
<pad name="P$2" x="0" y="16.9926" drill="1.6002"/>
<pad name="P$3" x="12.0904" y="15.494" drill="1.6002"/>
<pad name="P$4" x="12.0904" y="8.4582" drill="1.6002"/>
</package>
<package name="SCREWTERMINAL-5MM-2">
<wire x1="-3.1" y1="4.2" x2="8.1" y2="4.2" width="0.2032" layer="21"/>
<wire x1="8.1" y1="4.2" x2="8.1" y2="-2.3" width="0.2032" layer="21"/>
<wire x1="8.1" y1="-2.3" x2="8.1" y2="-3.3" width="0.2032" layer="21"/>
<wire x1="8.1" y1="-3.3" x2="-3.1" y2="-3.3" width="0.2032" layer="21"/>
<wire x1="-3.1" y1="-3.3" x2="-3.1" y2="-2.3" width="0.2032" layer="21"/>
<wire x1="-3.1" y1="-2.3" x2="-3.1" y2="4.2" width="0.2032" layer="21"/>
<wire x1="8.1" y1="-2.3" x2="-3.1" y2="-2.3" width="0.2032" layer="21"/>
<wire x1="-3.1" y1="-1.35" x2="-3.7" y2="-1.35" width="0.2032" layer="51"/>
<wire x1="-3.7" y1="-1.35" x2="-3.7" y2="-2.35" width="0.2032" layer="51"/>
<wire x1="-3.7" y1="-2.35" x2="-3.1" y2="-2.35" width="0.2032" layer="51"/>
<wire x1="8.1" y1="4" x2="8.7" y2="4" width="0.2032" layer="51"/>
<wire x1="8.7" y1="4" x2="8.7" y2="3" width="0.2032" layer="51"/>
<wire x1="8.7" y1="3" x2="8.1" y2="3" width="0.2032" layer="51"/>
<circle x="2.5" y="3.7" radius="0.2828" width="0.127" layer="51"/>
<pad name="1" x="0" y="0" drill="1.3" diameter="2.032" shape="square"/>
<pad name="2" x="5" y="0" drill="1.3" diameter="2.032"/>
<text x="-1.27" y="2.54" size="0.4064" layer="25">&gt;NAME</text>
<text x="-1.27" y="1.27" size="0.4064" layer="27">&gt;VALUE</text>
</package>
<package name="1X02_LOCK">
<wire x1="-0.635" y1="1.27" x2="0.635" y2="1.27" width="0.2032" layer="21"/>
<wire x1="0.635" y1="1.27" x2="1.27" y2="0.635" width="0.2032" layer="21"/>
<wire x1="1.27" y1="-0.635" x2="0.635" y2="-1.27" width="0.2032" layer="21"/>
<wire x1="1.27" y1="0.635" x2="1.905" y2="1.27" width="0.2032" layer="21"/>
<wire x1="1.905" y1="1.27" x2="3.175" y2="1.27" width="0.2032" layer="21"/>
<wire x1="3.175" y1="1.27" x2="3.81" y2="0.635" width="0.2032" layer="21"/>
<wire x1="3.81" y1="-0.635" x2="3.175" y2="-1.27" width="0.2032" layer="21"/>
<wire x1="3.175" y1="-1.27" x2="1.905" y2="-1.27" width="0.2032" layer="21"/>
<wire x1="1.905" y1="-1.27" x2="1.27" y2="-0.635" width="0.2032" layer="21"/>
<wire x1="-1.27" y1="0.635" x2="-1.27" y2="-0.635" width="0.2032" layer="21"/>
<wire x1="-0.635" y1="1.27" x2="-1.27" y2="0.635" width="0.2032" layer="21"/>
<wire x1="-1.27" y1="-0.635" x2="-0.635" y2="-1.27" width="0.2032" layer="21"/>
<wire x1="0.635" y1="-1.27" x2="-0.635" y2="-1.27" width="0.2032" layer="21"/>
<wire x1="3.81" y1="0.635" x2="3.81" y2="-0.635" width="0.2032" layer="21"/>
<pad name="1" x="-0.1778" y="0" drill="1.016" diameter="1.8796" rot="R90"/>
<pad name="2" x="2.7178" y="0" drill="1.016" diameter="1.8796" rot="R90"/>
<text x="-1.3462" y="1.8288" size="1.27" layer="25" ratio="10">&gt;NAME</text>
<text x="-1.27" y="-3.175" size="1.27" layer="27">&gt;VALUE</text>
<rectangle x1="-0.2921" y1="-0.2921" x2="0.2921" y2="0.2921" layer="51"/>
<rectangle x1="2.2479" y1="-0.2921" x2="2.8321" y2="0.2921" layer="51"/>
</package>
<package name="MOLEX-1X2_LOCK">
<wire x1="-1.27" y1="3.048" x2="-1.27" y2="-2.54" width="0.127" layer="21"/>
<wire x1="3.81" y1="3.048" x2="3.81" y2="-2.54" width="0.127" layer="21"/>
<wire x1="3.81" y1="3.048" x2="-1.27" y2="3.048" width="0.127" layer="21"/>
<wire x1="3.81" y1="-2.54" x2="2.54" y2="-2.54" width="0.127" layer="21"/>
<wire x1="2.54" y1="-2.54" x2="0" y2="-2.54" width="0.127" layer="21"/>
<wire x1="0" y1="-2.54" x2="-1.27" y2="-2.54" width="0.127" layer="21"/>
<wire x1="0" y1="-2.54" x2="0" y2="-1.27" width="0.127" layer="21"/>
<wire x1="0" y1="-1.27" x2="2.54" y2="-1.27" width="0.127" layer="21"/>
<wire x1="2.54" y1="-1.27" x2="2.54" y2="-2.54" width="0.127" layer="21"/>
<pad name="1" x="-0.127" y="0" drill="1.016" diameter="1.8796" shape="square"/>
<pad name="2" x="2.667" y="0" drill="1.016" diameter="1.8796"/>
<rectangle x1="-0.2921" y1="-0.2921" x2="0.2921" y2="0.2921" layer="51"/>
<rectangle x1="2.2479" y1="-0.2921" x2="2.8321" y2="0.2921" layer="51"/>
</package>
<package name="1X02_LOCK_LONGPADS">
<description>This footprint was designed to help hold the alignment of a through-hole component (i.e.  6-pin header) while soldering it into place.  
You may notice that each hole has been shifted either up or down by 0.005 of an inch from it's more standard position (which is a perfectly straight line).  
This slight alteration caused the pins (the squares in the middle) to touch the edges of the holes.  Because they are alternating, it causes a "brace" 
to hold the component in place.  0.005 has proven to be the perfect amount of "off-center" position when using our standard breakaway headers.
Although looks a little odd when you look at the bare footprint, once you have a header in there, the alteration is very hard to notice.  Also,
if you push a header all the way into place, it is covered up entirely on the bottom side.  This idea of altering the position of holes to aid alignment 
will be further integrated into the Sparkfun Library for other footprints.  It can help hold any component with 3 or more connection pins.</description>
<wire x1="1.651" y1="0" x2="0.889" y2="0" width="0.2032" layer="21"/>
<wire x1="-1.27" y1="0" x2="-1.016" y2="0" width="0.2032" layer="21"/>
<wire x1="-1.27" y1="0" x2="-1.27" y2="0.9906" width="0.2032" layer="21"/>
<wire x1="-1.27" y1="0.9906" x2="-0.9906" y2="1.27" width="0.2032" layer="21"/>
<wire x1="-1.27" y1="0" x2="-1.27" y2="-0.9906" width="0.2032" layer="21"/>
<wire x1="-1.27" y1="-0.9906" x2="-0.9906" y2="-1.27" width="0.2032" layer="21"/>
<wire x1="3.81" y1="0" x2="3.556" y2="0" width="0.2032" layer="21"/>
<wire x1="3.81" y1="0" x2="3.81" y2="-0.9906" width="0.2032" layer="21"/>
<wire x1="3.81" y1="-0.9906" x2="3.5306" y2="-1.27" width="0.2032" layer="21"/>
<wire x1="3.81" y1="0" x2="3.81" y2="0.9906" width="0.2032" layer="21"/>
<wire x1="3.81" y1="0.9906" x2="3.5306" y2="1.27" width="0.2032" layer="21"/>
<pad name="1" x="-0.127" y="0" drill="1.016" shape="long" rot="R90"/>
<pad name="2" x="2.667" y="0" drill="1.016" shape="long" rot="R90"/>
<text x="-1.27" y="1.778" size="1.27" layer="25" font="vector">&gt;NAME</text>
<text x="-1.27" y="-3.302" size="1.27" layer="27" font="vector">&gt;VALUE</text>
<rectangle x1="-0.2921" y1="-0.2921" x2="0.2921" y2="0.2921" layer="51"/>
<rectangle x1="2.2479" y1="-0.2921" x2="2.8321" y2="0.2921" layer="51"/>
</package>
<package name="SCREWTERMINAL-3.5MM-2_LOCK">
<wire x1="-1.75" y1="3.4" x2="5.25" y2="3.4" width="0.2032" layer="21"/>
<wire x1="5.25" y1="3.4" x2="5.25" y2="-2.8" width="0.2032" layer="21"/>
<wire x1="5.25" y1="-2.8" x2="5.25" y2="-3.6" width="0.2032" layer="21"/>
<wire x1="5.25" y1="-3.6" x2="-1.75" y2="-3.6" width="0.2032" layer="21"/>
<wire x1="-1.75" y1="-3.6" x2="-1.75" y2="-2.8" width="0.2032" layer="21"/>
<wire x1="-1.75" y1="-2.8" x2="-1.75" y2="3.4" width="0.2032" layer="21"/>
<wire x1="5.25" y1="-2.8" x2="-1.75" y2="-2.8" width="0.2032" layer="21"/>
<wire x1="-1.75" y1="-1.35" x2="-2.15" y2="-1.35" width="0.2032" layer="51"/>
<wire x1="-2.15" y1="-1.35" x2="-2.15" y2="-2.35" width="0.2032" layer="51"/>
<wire x1="-2.15" y1="-2.35" x2="-1.75" y2="-2.35" width="0.2032" layer="51"/>
<wire x1="5.25" y1="3.15" x2="5.65" y2="3.15" width="0.2032" layer="51"/>
<wire x1="5.65" y1="3.15" x2="5.65" y2="2.15" width="0.2032" layer="51"/>
<wire x1="5.65" y1="2.15" x2="5.25" y2="2.15" width="0.2032" layer="51"/>
<circle x="2" y="3" radius="0.2828" width="0.127" layer="51"/>
<circle x="0" y="0" radius="0.4318" width="0.0254" layer="51"/>
<circle x="3.5" y="0" radius="0.4318" width="0.0254" layer="51"/>
<pad name="1" x="-0.1778" y="0" drill="1.2" diameter="2.032" shape="square"/>
<pad name="2" x="3.6778" y="0" drill="1.2" diameter="2.032"/>
<text x="-1.27" y="2.54" size="0.4064" layer="25">&gt;NAME</text>
<text x="-1.27" y="1.27" size="0.4064" layer="27">&gt;VALUE</text>
</package>
<package name="1X02_LONGPADS">
<pad name="1" x="0" y="0" drill="1.1176" diameter="1.8796" shape="long" rot="R90"/>
<pad name="2" x="2.54" y="0" drill="1.1176" diameter="1.8796" shape="long" rot="R90"/>
</package>
<package name="1X02_NO_SILK">
<pad name="1" x="0" y="0" drill="1.016" diameter="1.8796" rot="R90"/>
<pad name="2" x="2.54" y="0" drill="1.016" diameter="1.8796" rot="R90"/>
<text x="-1.3462" y="1.8288" size="1.27" layer="25" ratio="10">&gt;NAME</text>
<text x="-1.27" y="-3.175" size="1.27" layer="27">&gt;VALUE</text>
<rectangle x1="2.286" y1="-0.254" x2="2.794" y2="0.254" layer="51"/>
<rectangle x1="-0.254" y1="-0.254" x2="0.254" y2="0.254" layer="51"/>
</package>
<package name="JST-2-PTH">
<pad name="1" x="-1" y="0" drill="0.7" diameter="1.6"/>
<pad name="2" x="1" y="0" drill="0.7" diameter="1.6"/>
<text x="-1.27" y="5.27" size="0.4064" layer="25">&gt;Name</text>
<text x="-1.27" y="4" size="0.4064" layer="27">&gt;Value</text>
<text x="0.6" y="0.7" size="1.27" layer="51">+</text>
<text x="-1.4" y="0.7" size="1.27" layer="51">-</text>
<wire x1="-2.95" y1="-1.6" x2="-2.95" y2="6" width="0.2032" layer="21"/>
<wire x1="-2.95" y1="6" x2="2.95" y2="6" width="0.2032" layer="21"/>
<wire x1="2.95" y1="6" x2="2.95" y2="-1.6" width="0.2032" layer="21"/>
<wire x1="-2.95" y1="-1.6" x2="-2.3" y2="-1.6" width="0.2032" layer="21"/>
<wire x1="2.95" y1="-1.6" x2="2.3" y2="-1.6" width="0.2032" layer="21"/>
<wire x1="-2.3" y1="-1.6" x2="-2.3" y2="0" width="0.2032" layer="21"/>
<wire x1="2.3" y1="-1.6" x2="2.3" y2="0" width="0.2032" layer="21"/>
</package>
<package name="1X02_XTRA_BIG">
<wire x1="-5.08" y1="2.54" x2="-5.08" y2="-2.54" width="0.127" layer="21"/>
<wire x1="-5.08" y1="-2.54" x2="5.08" y2="-2.54" width="0.127" layer="21"/>
<wire x1="5.08" y1="-2.54" x2="5.08" y2="2.54" width="0.127" layer="21"/>
<wire x1="5.08" y1="2.54" x2="-5.08" y2="2.54" width="0.127" layer="21"/>
<pad name="1" x="-2.54" y="0" drill="2.0574" diameter="3.556"/>
<pad name="2" x="2.54" y="0" drill="2.0574" diameter="3.556"/>
</package>
<package name="1X02_PP_HOLES_ONLY">
<circle x="0" y="0" radius="0.635" width="0.127" layer="51"/>
<circle x="2.54" y="0" radius="0.635" width="0.127" layer="51"/>
<pad name="1" x="0" y="0" drill="0.889" diameter="0.8128" rot="R90"/>
<pad name="2" x="2.54" y="0" drill="0.889" diameter="0.8128" rot="R90"/>
<hole x="0" y="0" drill="1.4732"/>
<hole x="2.54" y="0" drill="1.4732"/>
</package>
<package name="SCREWTERMINAL-3.5MM-2-NS">
<wire x1="-1.75" y1="3.4" x2="5.25" y2="3.4" width="0.2032" layer="51"/>
<wire x1="5.25" y1="3.4" x2="5.25" y2="-2.8" width="0.2032" layer="51"/>
<wire x1="5.25" y1="-2.8" x2="5.25" y2="-3.6" width="0.2032" layer="51"/>
<wire x1="5.25" y1="-3.6" x2="-1.75" y2="-3.6" width="0.2032" layer="51"/>
<wire x1="-1.75" y1="-3.6" x2="-1.75" y2="-2.8" width="0.2032" layer="51"/>
<wire x1="-1.75" y1="-2.8" x2="-1.75" y2="3.4" width="0.2032" layer="51"/>
<wire x1="5.25" y1="-2.8" x2="-1.75" y2="-2.8" width="0.2032" layer="51"/>
<wire x1="-1.75" y1="-1.35" x2="-2.15" y2="-1.35" width="0.2032" layer="51"/>
<wire x1="-2.15" y1="-1.35" x2="-2.15" y2="-2.35" width="0.2032" layer="51"/>
<wire x1="-2.15" y1="-2.35" x2="-1.75" y2="-2.35" width="0.2032" layer="51"/>
<wire x1="5.25" y1="3.15" x2="5.65" y2="3.15" width="0.2032" layer="51"/>
<wire x1="5.65" y1="3.15" x2="5.65" y2="2.15" width="0.2032" layer="51"/>
<wire x1="5.65" y1="2.15" x2="5.25" y2="2.15" width="0.2032" layer="51"/>
<circle x="2" y="3" radius="0.2828" width="0.127" layer="51"/>
<pad name="1" x="0" y="0" drill="1.2" diameter="2.032" shape="square"/>
<pad name="2" x="3.5" y="0" drill="1.2" diameter="2.032"/>
<text x="-1.27" y="2.54" size="0.4064" layer="25">&gt;NAME</text>
<text x="-1.27" y="1.27" size="0.4064" layer="27">&gt;VALUE</text>
</package>
<package name="JST-2-PTH-NS">
<wire x1="-2" y1="0" x2="-2" y2="-1.8" width="0.2032" layer="51"/>
<wire x1="-2" y1="-1.8" x2="-3" y2="-1.8" width="0.2032" layer="51"/>
<wire x1="-3" y1="-1.8" x2="-3" y2="6" width="0.2032" layer="51"/>
<wire x1="-3" y1="6" x2="3" y2="6" width="0.2032" layer="51"/>
<wire x1="3" y1="6" x2="3" y2="-1.8" width="0.2032" layer="51"/>
<wire x1="3" y1="-1.8" x2="2" y2="-1.8" width="0.2032" layer="51"/>
<wire x1="2" y1="-1.8" x2="2" y2="0" width="0.2032" layer="51"/>
<pad name="1" x="-1" y="0" drill="0.7" diameter="1.6"/>
<pad name="2" x="1" y="0" drill="0.7" diameter="1.6"/>
<text x="-1.27" y="5.27" size="0.4064" layer="25">&gt;Name</text>
<text x="-1.27" y="4" size="0.4064" layer="27">&gt;Value</text>
<text x="0.6" y="0.7" size="1.27" layer="51">+</text>
<text x="-1.4" y="0.7" size="1.27" layer="51">-</text>
</package>
<package name="JST-2-PTH-KIT">
<description>&lt;H3&gt;JST-2-PTH-KIT&lt;/h3&gt;
2-Pin JST, through-hole connector&lt;br&gt;
&lt;br&gt;
&lt;b&gt;Warning:&lt;/b&gt; This is the KIT version of this package. This package has a smaller diameter top stop mask, which doesn't cover the diameter of the pad. This means only the bottom side of the pads' copper will be exposed. You'll only be able to solder to the bottom side.</description>
<wire x1="-2" y1="0" x2="-2" y2="-1.8" width="0.2032" layer="51"/>
<wire x1="-2" y1="-1.8" x2="-3" y2="-1.8" width="0.2032" layer="51"/>
<wire x1="-3" y1="-1.8" x2="-3" y2="6" width="0.2032" layer="51"/>
<wire x1="-3" y1="6" x2="3" y2="6" width="0.2032" layer="51"/>
<wire x1="3" y1="6" x2="3" y2="-1.8" width="0.2032" layer="51"/>
<wire x1="3" y1="-1.8" x2="2" y2="-1.8" width="0.2032" layer="51"/>
<wire x1="2" y1="-1.8" x2="2" y2="0" width="0.2032" layer="51"/>
<pad name="1" x="-1" y="0" drill="0.7" diameter="1.4478" stop="no"/>
<pad name="2" x="1" y="0" drill="0.7" diameter="1.4478" stop="no"/>
<text x="-1.27" y="5.27" size="0.4064" layer="25">&gt;Name</text>
<text x="-1.27" y="4" size="0.4064" layer="27">&gt;Value</text>
<text x="0.6" y="0.7" size="1.27" layer="51">+</text>
<text x="-1.4" y="0.7" size="1.27" layer="51">-</text>
<polygon width="0.127" layer="30">
<vertex x="-0.9975" y="-0.6604" curve="-90.025935"/>
<vertex x="-1.6604" y="0" curve="-90.017354"/>
<vertex x="-1" y="0.6604" curve="-90"/>
<vertex x="-0.3396" y="0" curve="-90.078137"/>
</polygon>
<polygon width="0.127" layer="29">
<vertex x="-1" y="-0.2865" curve="-90.08005"/>
<vertex x="-1.2865" y="0" curve="-90.040011"/>
<vertex x="-1" y="0.2865" curve="-90"/>
<vertex x="-0.7135" y="0" curve="-90"/>
</polygon>
<polygon width="0.127" layer="30">
<vertex x="1.0025" y="-0.6604" curve="-90.025935"/>
<vertex x="0.3396" y="0" curve="-90.017354"/>
<vertex x="1" y="0.6604" curve="-90"/>
<vertex x="1.6604" y="0" curve="-90.078137"/>
</polygon>
<polygon width="0.127" layer="29">
<vertex x="1" y="-0.2865" curve="-90.08005"/>
<vertex x="0.7135" y="0" curve="-90.040011"/>
<vertex x="1" y="0.2865" curve="-90"/>
<vertex x="1.2865" y="0" curve="-90"/>
</polygon>
</package>
<package name="SPRINGTERMINAL-2.54MM-2">
<wire x1="-4.2" y1="7.88" x2="-4.2" y2="-2.8" width="0.254" layer="21"/>
<wire x1="-4.2" y1="-2.8" x2="-4.2" y2="-4.72" width="0.254" layer="51"/>
<wire x1="-4.2" y1="-4.72" x2="3.44" y2="-4.72" width="0.254" layer="51"/>
<wire x1="3.44" y1="-4.72" x2="3.44" y2="-2.8" width="0.254" layer="51"/>
<wire x1="3.44" y1="7.88" x2="-4.2" y2="7.88" width="0.254" layer="21"/>
<wire x1="0" y1="0" x2="0" y2="5.08" width="0.254" layer="1"/>
<wire x1="0" y1="0" x2="0" y2="5.08" width="0.254" layer="16"/>
<wire x1="2.54" y1="0" x2="2.54" y2="5.08" width="0.254" layer="16"/>
<wire x1="2.54" y1="0" x2="2.54" y2="5.08" width="0.254" layer="1"/>
<wire x1="-4.2" y1="-2.8" x2="3.44" y2="-2.8" width="0.254" layer="21"/>
<wire x1="3.44" y1="4" x2="3.44" y2="1" width="0.254" layer="21"/>
<wire x1="3.44" y1="7.88" x2="3.44" y2="6" width="0.254" layer="21"/>
<wire x1="3.44" y1="-0.9" x2="3.44" y2="-2.8" width="0.254" layer="21"/>
<pad name="1" x="0" y="0" drill="1.1" diameter="1.9"/>
<pad name="P$2" x="0" y="5.08" drill="1.1" diameter="1.9"/>
<pad name="P$3" x="2.54" y="5.08" drill="1.1" diameter="1.9"/>
<pad name="2" x="2.54" y="0" drill="1.1" diameter="1.9"/>
</package>
<package name="1X02_2.54_SCREWTERM">
<pad name="P2" x="0" y="0" drill="1.016" shape="square"/>
<pad name="P1" x="2.54" y="0" drill="1.016" shape="square"/>
<wire x1="-1.5" y1="3.25" x2="4" y2="3.25" width="0.127" layer="21"/>
<wire x1="4" y1="3.25" x2="4" y2="2.5" width="0.127" layer="21"/>
<wire x1="4" y1="2.5" x2="4" y2="-3.25" width="0.127" layer="21"/>
<wire x1="4" y1="-3.25" x2="-1.5" y2="-3.25" width="0.127" layer="21"/>
<wire x1="-1.5" y1="-3.25" x2="-1.5" y2="2.5" width="0.127" layer="21"/>
<wire x1="-1.5" y1="2.5" x2="-1.5" y2="3.25" width="0.127" layer="21"/>
<wire x1="-1.5" y1="2.5" x2="4" y2="2.5" width="0.127" layer="21"/>
</package>
<package name="JST-2-PTH-VERT">
<wire x1="-2.95" y1="-2.25" x2="-2.95" y2="2.25" width="0.2032" layer="21"/>
<wire x1="-2.95" y1="2.25" x2="2.95" y2="2.25" width="0.2032" layer="21"/>
<wire x1="2.95" y1="2.25" x2="2.95" y2="-2.25" width="0.2032" layer="21"/>
<wire x1="2.95" y1="-2.25" x2="1" y2="-2.25" width="0.2032" layer="21"/>
<wire x1="-1" y1="-2.25" x2="-2.95" y2="-2.25" width="0.2032" layer="21"/>
<wire x1="-1" y1="-1.75" x2="1" y2="-1.75" width="0.2032" layer="21"/>
<wire x1="1" y1="-1.75" x2="1" y2="-2.25" width="0.2032" layer="21"/>
<wire x1="-1" y1="-1.75" x2="-1" y2="-2.25" width="0.2032" layer="21"/>
<pad name="1" x="-1" y="-0.55" drill="0.7" diameter="1.6"/>
<pad name="2" x="1" y="-0.55" drill="0.7" diameter="1.6"/>
<text x="-1.984" y="3" size="0.4064" layer="25">&gt;Name</text>
<text x="2.016" y="3" size="0.4064" layer="27">&gt;Value</text>
<text x="0.616" y="0.75" size="1.27" layer="51">+</text>
<text x="-1.384" y="0.75" size="1.27" layer="51">-</text>
</package>
</packages>
<symbols>
<symbol name="M02">
<wire x1="3.81" y1="-2.54" x2="-2.54" y2="-2.54" width="0.4064" layer="94"/>
<wire x1="1.27" y1="2.54" x2="2.54" y2="2.54" width="0.6096" layer="94"/>
<wire x1="1.27" y1="0" x2="2.54" y2="0" width="0.6096" layer="94"/>
<wire x1="-2.54" y1="5.08" x2="-2.54" y2="-2.54" width="0.4064" layer="94"/>
<wire x1="3.81" y1="-2.54" x2="3.81" y2="5.08" width="0.4064" layer="94"/>
<wire x1="-2.54" y1="5.08" x2="3.81" y2="5.08" width="0.4064" layer="94"/>
<text x="-2.54" y="-5.08" size="1.778" layer="96">&gt;VALUE</text>
<text x="-2.54" y="5.842" size="1.778" layer="95">&gt;NAME</text>
<pin name="1" x="7.62" y="0" visible="pad" length="middle" direction="pas" swaplevel="1" rot="R180"/>
<pin name="2" x="7.62" y="2.54" visible="pad" length="middle" direction="pas" swaplevel="1" rot="R180"/>
</symbol>
</symbols>
<devicesets>
<deviceset name="M02" prefix="JP" uservalue="yes">
<description>Standard 2-pin 0.1" header. Use with &lt;br&gt;
- straight break away headers ( PRT-00116)&lt;br&gt;
- right angle break away headers (PRT-00553)&lt;br&gt;
- swiss pins (PRT-00743)&lt;br&gt;
- machine pins (PRT-00117)&lt;br&gt;
- female headers (PRT-00115)&lt;br&gt;&lt;br&gt;

 Molex polarized connector foot print use with: PRT-08233 with associated crimp pins and housings.&lt;br&gt;&lt;br&gt;

2.54_SCREWTERM for use with  PRT-10571.&lt;br&gt;&lt;br&gt;

3.5mm Screw Terminal footprints for  PRT-08084&lt;br&gt;&lt;br&gt;

5mm Screw Terminal footprints for use with PRT-08432</description>
<gates>
<gate name="G$1" symbol="M02" x="-2.54" y="0"/>
</gates>
<devices>
<device name="PTH" package="1X02">
<connects>
<connect gate="G$1" pin="1" pad="1"/>
<connect gate="G$1" pin="2" pad="2"/>
</connects>
<technologies>
<technology name=""/>
</technologies>
</device>
<device name="POLAR" package="MOLEX-1X2">
<connects>
<connect gate="G$1" pin="1" pad="1"/>
<connect gate="G$1" pin="2" pad="2"/>
</connects>
<technologies>
<technology name=""/>
</technologies>
</device>
<device name="3.5MM" package="SCREWTERMINAL-3.5MM-2">
<connects>
<connect gate="G$1" pin="1" pad="1"/>
<connect gate="G$1" pin="2" pad="2"/>
</connects>
<technologies>
<technology name="">
<attribute name="PROD_ID" value="CONN-08399" constant="no"/>
</technology>
</technologies>
</device>
<device name="-JST-2MM-SMT" package="JST-2-SMD">
<connects>
<connect gate="G$1" pin="1" pad="2"/>
<connect gate="G$1" pin="2" pad="1"/>
</connects>
<technologies>
<technology name="">
<attribute name="PROD_ID" value="CONN-11443"/>
</technology>
</technologies>
</device>
<device name="PTH2" package="1X02_BIG">
<connects>
<connect gate="G$1" pin="1" pad="P$1"/>
<connect gate="G$1" pin="2" pad="P$2"/>
</connects>
<technologies>
<technology name=""/>
</technologies>
</device>
<device name="4UCON-15767" package="JST-2-SMD-VERT">
<connects>
<connect gate="G$1" pin="1" pad="GND"/>
<connect gate="G$1" pin="2" pad="VCC"/>
</connects>
<technologies>
<technology name=""/>
</technologies>
</device>
<device name="ROCKER" package="R_SW_TH">
<connects>
<connect gate="G$1" pin="1" pad="P$3"/>
<connect gate="G$1" pin="2" pad="P$4"/>
</connects>
<technologies>
<technology name=""/>
</technologies>
</device>
<device name="5MM" package="SCREWTERMINAL-5MM-2">
<connects>
<connect gate="G$1" pin="1" pad="1"/>
<connect gate="G$1" pin="2" pad="2"/>
</connects>
<technologies>
<technology name="">
<attribute name="STOREFRONT_ID" value="PRT-08432" constant="no"/>
</technology>
</technologies>
</device>
<device name="LOCK" package="1X02_LOCK">
<connects>
<connect gate="G$1" pin="1" pad="1"/>
<connect gate="G$1" pin="2" pad="2"/>
</connects>
<technologies>
<technology name=""/>
</technologies>
</device>
<device name="POLAR_LOCK" package="MOLEX-1X2_LOCK">
<connects>
<connect gate="G$1" pin="1" pad="1"/>
<connect gate="G$1" pin="2" pad="2"/>
</connects>
<technologies>
<technology name=""/>
</technologies>
</device>
<device name="LOCK_LONGPADS" package="1X02_LOCK_LONGPADS">
<connects>
<connect gate="G$1" pin="1" pad="1"/>
<connect gate="G$1" pin="2" pad="2"/>
</connects>
<technologies>
<technology name=""/>
</technologies>
</device>
<device name="3.5MM_LOCK" package="SCREWTERMINAL-3.5MM-2_LOCK">
<connects>
<connect gate="G$1" pin="1" pad="1"/>
<connect gate="G$1" pin="2" pad="2"/>
</connects>
<technologies>
<technology name="">
<attribute name="PROD_ID" value="CONN-08399" constant="no"/>
</technology>
</technologies>
</device>
<device name="PTH3" package="1X02_LONGPADS">
<connects>
<connect gate="G$1" pin="1" pad="1"/>
<connect gate="G$1" pin="2" pad="2"/>
</connects>
<technologies>
<technology name=""/>
</technologies>
</device>
<device name="1X02_NO_SILK" package="1X02_NO_SILK">
<connects>
<connect gate="G$1" pin="1" pad="1"/>
<connect gate="G$1" pin="2" pad="2"/>
</connects>
<technologies>
<technology name=""/>
</technologies>
</device>
<device name="JST-PTH-2" package="JST-2-PTH">
<connects>
<connect gate="G$1" pin="1" pad="1"/>
<connect gate="G$1" pin="2" pad="2"/>
</connects>
<technologies>
<technology name="">
<attribute name="PROD_ID" value="CONN-09863" constant="no"/>
<attribute name="SKU" value="PRT-09914" constant="no"/>
</technology>
</technologies>
</device>
<device name="PTH4" package="1X02_XTRA_BIG">
<connects>
<connect gate="G$1" pin="1" pad="1"/>
<connect gate="G$1" pin="2" pad="2"/>
</connects>
<technologies>
<technology name=""/>
</technologies>
</device>
<device name="POGO_PIN_HOLES_ONLY" package="1X02_PP_HOLES_ONLY">
<connects>
<connect gate="G$1" pin="1" pad="1"/>
<connect gate="G$1" pin="2" pad="2"/>
</connects>
<technologies>
<technology name=""/>
</technologies>
</device>
<device name="3.5MM-NO_SILK" package="SCREWTERMINAL-3.5MM-2-NS">
<connects>
<connect gate="G$1" pin="1" pad="1"/>
<connect gate="G$1" pin="2" pad="2"/>
</connects>
<technologies>
<technology name="">
<attribute name="PROD_ID" value="CONN-08399" constant="no"/>
</technology>
</technologies>
</device>
<device name="-JST-2-PTH-NO_SILK" package="JST-2-PTH-NS">
<connects>
<connect gate="G$1" pin="1" pad="1"/>
<connect gate="G$1" pin="2" pad="2"/>
</connects>
<technologies>
<technology name=""/>
</technologies>
</device>
<device name="JST-PTH-2-KIT" package="JST-2-PTH-KIT">
<connects>
<connect gate="G$1" pin="1" pad="1"/>
<connect gate="G$1" pin="2" pad="2"/>
</connects>
<technologies>
<technology name=""/>
</technologies>
</device>
<device name="SPRING-2.54-RA" package="SPRINGTERMINAL-2.54MM-2">
<connects>
<connect gate="G$1" pin="1" pad="1"/>
<connect gate="G$1" pin="2" pad="2"/>
</connects>
<technologies>
<technology name=""/>
</technologies>
</device>
<device name="2.54MM_SCREWTERM" package="1X02_2.54_SCREWTERM">
<connects>
<connect gate="G$1" pin="1" pad="P1"/>
<connect gate="G$1" pin="2" pad="P2"/>
</connects>
<technologies>
<technology name=""/>
</technologies>
</device>
<device name="JST-PTH-VERT" package="JST-2-PTH-VERT">
<connects>
<connect gate="G$1" pin="1" pad="1"/>
<connect gate="G$1" pin="2" pad="2"/>
</connects>
<technologies>
<technology name=""/>
</technologies>
</device>
</devices>
</deviceset>
</devicesets>
</library>
<library name="supply1">
<description>&lt;b&gt;Supply Symbols&lt;/b&gt;&lt;p&gt;
 GND, VCC, 0V, +5V, -5V, etc.&lt;p&gt;
 Please keep in mind, that these devices are necessary for the
 automatic wiring of the supply signals.&lt;p&gt;
 The pin name defined in the symbol is identical to the net which is to be wired automatically.&lt;p&gt;
 In this library the device names are the same as the pin names of the symbols, therefore the correct signal names appear next to the supply symbols in the schematic.&lt;p&gt;
 &lt;author&gt;Created by librarian@cadsoft.de&lt;/author&gt;</description>
<packages>
</packages>
<symbols>
<symbol name="+3V3">
<wire x1="1.27" y1="-1.905" x2="0" y2="0" width="0.254" layer="94"/>
<wire x1="0" y1="0" x2="-1.27" y2="-1.905" width="0.254" layer="94"/>
<text x="-2.54" y="-5.08" size="1.778" layer="96" rot="R90">&gt;VALUE</text>
<pin name="+3V3" x="0" y="-2.54" visible="off" length="short" direction="sup" rot="R90"/>
</symbol>
<symbol name="GND">
<wire x1="-1.905" y1="0" x2="1.905" y2="0" width="0.254" layer="94"/>
<text x="-2.54" y="-2.54" size="1.778" layer="96">&gt;VALUE</text>
<pin name="GND" x="0" y="2.54" visible="off" length="short" direction="sup" rot="R270"/>
</symbol>
<symbol name="+12V">
<wire x1="1.27" y1="-1.905" x2="0" y2="0" width="0.254" layer="94"/>
<wire x1="0" y1="0" x2="-1.27" y2="-1.905" width="0.254" layer="94"/>
<wire x1="1.27" y1="-0.635" x2="0" y2="1.27" width="0.254" layer="94"/>
<wire x1="0" y1="1.27" x2="-1.27" y2="-0.635" width="0.254" layer="94"/>
<text x="-2.54" y="-5.08" size="1.778" layer="96" rot="R90">&gt;VALUE</text>
<pin name="+12V" x="0" y="-2.54" visible="off" length="short" direction="sup" rot="R90"/>
</symbol>
</symbols>
<devicesets>
<deviceset name="+3V3" prefix="+3V3">
<description>&lt;b&gt;SUPPLY SYMBOL&lt;/b&gt;</description>
<gates>
<gate name="G$1" symbol="+3V3" x="0" y="0"/>
</gates>
<devices>
<device name="">
<technologies>
<technology name=""/>
</technologies>
</device>
</devices>
</deviceset>
<deviceset name="GND" prefix="GND">
<description>&lt;b&gt;SUPPLY SYMBOL&lt;/b&gt;</description>
<gates>
<gate name="1" symbol="GND" x="0" y="0"/>
</gates>
<devices>
<device name="">
<technologies>
<technology name=""/>
</technologies>
</device>
</devices>
</deviceset>
<deviceset name="+12V" prefix="P+">
<description>&lt;b&gt;SUPPLY SYMBOL&lt;/b&gt;</description>
<gates>
<gate name="1" symbol="+12V" x="0" y="0"/>
</gates>
<devices>
<device name="">
<technologies>
<technology name=""/>
</technologies>
</device>
</devices>
</deviceset>
</devicesets>
</library>
</libraries>
<attributes>
</attributes>
<variantdefs>
</variantdefs>
<classes>
<class number="0" name="default" width="0" drill="0">
</class>
</classes>
<parts>
<part name="U$1" library="jet-lib" deviceset="ARDUINONANO" device=""/>
<part name="NRF24L1" library="nrf2401" deviceset="NRF" device=""/>
<part name="Q1" library="transistor-power" deviceset="IRLZ44Z" device=""/>
<part name="Q2" library="transistor-power" deviceset="IRLZ44Z" device=""/>
<part name="Q3" library="transistor-power" deviceset="IRLZ44Z" device=""/>
<part name="C1" library="SparkFun-Capacitors" deviceset="CAP" device="PTH1"/>
<part name="JP1" library="SparkFun-Connectors" deviceset="M02" device="5MM"/>
<part name="+3V1" library="supply1" deviceset="+3V3" device=""/>
<part name="GND1" library="supply1" deviceset="GND" device=""/>
<part name="GND2" library="supply1" deviceset="GND" device=""/>
<part name="+3V2" library="supply1" deviceset="+3V3" device=""/>
<part name="GND3" library="supply1" deviceset="GND" device=""/>
<part name="GND4" library="supply1" deviceset="GND" device=""/>
<part name="GND5" library="supply1" deviceset="GND" device=""/>
<part name="P+2" library="supply1" deviceset="+12V" device=""/>
<part name="P+3" library="supply1" deviceset="+12V" device=""/>
<part name="GND6" library="supply1" deviceset="GND" device=""/>
<part name="JP2" library="SparkFun-Connectors" deviceset="M02" device="5MM"/>
<part name="JP3" library="SparkFun-Connectors" deviceset="M02" device="5MM"/>
<part name="P+1" library="supply1" deviceset="+12V" device=""/>
</parts>
<sheets>
<sheet>
<plain>
</plain>
<instances>
<instance part="U$1" gate="G$1" x="58.42" y="83.82"/>
<instance part="NRF24L1" gate="G$1" x="27.94" y="50.8"/>
<instance part="Q1" gate="G$1" x="109.22" y="71.12"/>
<instance part="Q2" gate="G$1" x="109.22" y="45.72"/>
<instance part="Q3" gate="G$1" x="109.22" y="20.32"/>
<instance part="C1" gate="G$1" x="-10.16" y="58.42" rot="R90"/>
<instance part="JP1" gate="G$1" x="149.86" y="22.86" rot="R180"/>
<instance part="+3V1" gate="G$1" x="-20.32" y="71.12"/>
<instance part="GND1" gate="1" x="40.64" y="55.88"/>
<instance part="GND2" gate="1" x="-17.78" y="43.18"/>
<instance part="+3V2" gate="G$1" x="91.44" y="25.4"/>
<instance part="GND3" gate="1" x="111.76" y="35.56"/>
<instance part="GND4" gate="1" x="111.76" y="10.16"/>
<instance part="GND5" gate="1" x="111.76" y="60.96"/>
<instance part="P+2" gate="1" x="139.7" y="33.02"/>
<instance part="P+3" gate="1" x="165.1" y="68.58"/>
<instance part="GND6" gate="1" x="139.7" y="10.16"/>
<instance part="JP2" gate="G$1" x="185.42" y="55.88" rot="R180"/>
<instance part="JP3" gate="G$1" x="185.42" y="40.64" rot="R180"/>
<instance part="P+1" gate="1" x="88.9" y="88.9"/>
</instances>
<busses>
</busses>
<nets>
<net name="N$1" class="0">
<segment>
<pinref part="NRF24L1" gate="G$1" pin="IRQ"/>
<wire x1="33.02" y1="53.34" x2="38.1" y2="53.34" width="0.1524" layer="91"/>
<wire x1="38.1" y1="53.34" x2="38.1" y2="60.96" width="0.1524" layer="91"/>
<pinref part="U$1" gate="G$1" pin="D2"/>
<wire x1="38.1" y1="60.96" x2="53.34" y2="60.96" width="0.1524" layer="91"/>
</segment>
</net>
<net name="N$2" class="0">
<segment>
<pinref part="NRF24L1" gate="G$1" pin="CE"/>
<wire x1="-5.08" y1="48.26" x2="-10.16" y2="48.26" width="0.1524" layer="91"/>
<wire x1="-10.16" y1="48.26" x2="-10.16" y2="25.4" width="0.1524" layer="91"/>
<pinref part="U$1" gate="G$1" pin="D9"/>
<wire x1="-10.16" y1="25.4" x2="53.34" y2="25.4" width="0.1524" layer="91"/>
</segment>
</net>
<net name="N$3" class="0">
<segment>
<pinref part="NRF24L1" gate="G$1" pin="CSN"/>
<wire x1="-5.08" y1="45.72" x2="-5.08" y2="20.32" width="0.1524" layer="91"/>
<pinref part="U$1" gate="G$1" pin="D10"/>
<wire x1="-5.08" y1="20.32" x2="53.34" y2="20.32" width="0.1524" layer="91"/>
</segment>
</net>
<net name="N$4" class="0">
<segment>
<pinref part="NRF24L1" gate="G$1" pin="MISO"/>
<wire x1="33.02" y1="50.8" x2="40.64" y2="50.8" width="0.1524" layer="91"/>
<wire x1="40.64" y1="50.8" x2="40.64" y2="10.16" width="0.1524" layer="91"/>
<pinref part="U$1" gate="G$1" pin="D12"/>
<wire x1="40.64" y1="10.16" x2="53.34" y2="10.16" width="0.1524" layer="91"/>
</segment>
</net>
<net name="N$5" class="0">
<segment>
<pinref part="NRF24L1" gate="G$1" pin="MOSI"/>
<wire x1="33.02" y1="48.26" x2="43.18" y2="48.26" width="0.1524" layer="91"/>
<wire x1="43.18" y1="48.26" x2="43.18" y2="15.24" width="0.1524" layer="91"/>
<pinref part="U$1" gate="G$1" pin="D11"/>
<wire x1="43.18" y1="15.24" x2="53.34" y2="15.24" width="0.1524" layer="91"/>
</segment>
</net>
<net name="N$6" class="0">
<segment>
<pinref part="NRF24L1" gate="G$1" pin="SCK"/>
<wire x1="33.02" y1="45.72" x2="38.1" y2="45.72" width="0.1524" layer="91"/>
<wire x1="38.1" y1="45.72" x2="38.1" y2="5.08" width="0.1524" layer="91"/>
<wire x1="38.1" y1="5.08" x2="91.44" y2="5.08" width="0.1524" layer="91"/>
<wire x1="91.44" y1="5.08" x2="91.44" y2="10.16" width="0.1524" layer="91"/>
<pinref part="U$1" gate="G$1" pin="D13"/>
<wire x1="91.44" y1="10.16" x2="83.82" y2="10.16" width="0.1524" layer="91"/>
</segment>
</net>
<net name="GND" class="0">
<segment>
<pinref part="U$1" gate="G$1" pin="GND"/>
<pinref part="GND1" gate="1" pin="GND"/>
<wire x1="53.34" y1="66.04" x2="40.64" y2="66.04" width="0.1524" layer="91"/>
<wire x1="40.64" y1="66.04" x2="40.64" y2="58.42" width="0.1524" layer="91"/>
</segment>
<segment>
<pinref part="GND2" gate="1" pin="GND"/>
<wire x1="-17.78" y1="45.72" x2="-17.78" y2="53.34" width="0.1524" layer="91"/>
<pinref part="NRF24L1" gate="G$1" pin="GND"/>
<pinref part="C1" gate="G$1" pin="2"/>
<wire x1="-5.08" y1="53.34" x2="-7.62" y2="53.34" width="0.1524" layer="91"/>
<wire x1="-7.62" y1="53.34" x2="-7.62" y2="58.42" width="0.1524" layer="91"/>
<wire x1="-17.78" y1="53.34" x2="-7.62" y2="53.34" width="0.1524" layer="91"/>
<junction x="-7.62" y="53.34"/>
</segment>
<segment>
<pinref part="Q1" gate="G$1" pin="S"/>
<pinref part="GND5" gate="1" pin="GND"/>
<wire x1="111.76" y1="66.04" x2="111.76" y2="63.5" width="0.1524" layer="91"/>
</segment>
<segment>
<pinref part="Q2" gate="G$1" pin="S"/>
<pinref part="GND3" gate="1" pin="GND"/>
<wire x1="111.76" y1="40.64" x2="111.76" y2="38.1" width="0.1524" layer="91"/>
</segment>
<segment>
<pinref part="Q3" gate="G$1" pin="S"/>
<pinref part="GND4" gate="1" pin="GND"/>
<wire x1="111.76" y1="15.24" x2="111.76" y2="12.7" width="0.1524" layer="91"/>
</segment>
<segment>
<pinref part="JP1" gate="G$1" pin="2"/>
<pinref part="GND6" gate="1" pin="GND"/>
<wire x1="142.24" y1="20.32" x2="139.7" y2="20.32" width="0.1524" layer="91"/>
<wire x1="139.7" y1="20.32" x2="139.7" y2="12.7" width="0.1524" layer="91"/>
</segment>
</net>
<net name="+3V3" class="0">
<segment>
<pinref part="NRF24L1" gate="G$1" pin="VCC"/>
<pinref part="C1" gate="G$1" pin="1"/>
<wire x1="-5.08" y1="50.8" x2="-15.24" y2="50.8" width="0.1524" layer="91"/>
<wire x1="-15.24" y1="50.8" x2="-15.24" y2="58.42" width="0.1524" layer="91"/>
<pinref part="+3V1" gate="G$1" pin="+3V3"/>
<wire x1="-15.24" y1="58.42" x2="-20.32" y2="58.42" width="0.1524" layer="91"/>
<wire x1="-20.32" y1="58.42" x2="-20.32" y2="68.58" width="0.1524" layer="91"/>
<junction x="-15.24" y="58.42"/>
</segment>
<segment>
<pinref part="U$1" gate="G$1" pin="3V3"/>
<pinref part="+3V2" gate="G$1" pin="+3V3"/>
<wire x1="83.82" y1="15.24" x2="91.44" y2="15.24" width="0.1524" layer="91"/>
<wire x1="91.44" y1="15.24" x2="91.44" y2="22.86" width="0.1524" layer="91"/>
</segment>
</net>
<net name="N$9" class="0">
<segment>
<pinref part="Q3" gate="G$1" pin="D"/>
<wire x1="111.76" y1="25.4" x2="134.62" y2="25.4" width="0.1524" layer="91"/>
<wire x1="134.62" y1="25.4" x2="134.62" y2="40.64" width="0.1524" layer="91"/>
<wire x1="170.18" y1="40.64" x2="134.62" y2="40.64" width="0.1524" layer="91"/>
<wire x1="170.18" y1="40.64" x2="170.18" y2="38.1" width="0.1524" layer="91"/>
<pinref part="JP3" gate="G$1" pin="2"/>
<wire x1="170.18" y1="38.1" x2="177.8" y2="38.1" width="0.1524" layer="91"/>
</segment>
</net>
<net name="N$10" class="0">
<segment>
<pinref part="Q2" gate="G$1" pin="D"/>
<wire x1="111.76" y1="50.8" x2="111.76" y2="55.88" width="0.1524" layer="91"/>
<wire x1="111.76" y1="55.88" x2="139.7" y2="55.88" width="0.1524" layer="91"/>
<wire x1="175.26" y1="45.72" x2="139.7" y2="45.72" width="0.1524" layer="91"/>
<wire x1="139.7" y1="45.72" x2="139.7" y2="55.88" width="0.1524" layer="91"/>
<wire x1="175.26" y1="45.72" x2="175.26" y2="40.64" width="0.1524" layer="91"/>
<pinref part="JP3" gate="G$1" pin="1"/>
<wire x1="175.26" y1="40.64" x2="177.8" y2="40.64" width="0.1524" layer="91"/>
</segment>
</net>
<net name="N$11" class="0">
<segment>
<pinref part="Q1" gate="G$1" pin="D"/>
<wire x1="111.76" y1="76.2" x2="111.76" y2="81.28" width="0.1524" layer="91"/>
<wire x1="111.76" y1="81.28" x2="160.02" y2="81.28" width="0.1524" layer="91"/>
<wire x1="160.02" y1="81.28" x2="160.02" y2="53.34" width="0.1524" layer="91"/>
<pinref part="JP2" gate="G$1" pin="2"/>
<wire x1="160.02" y1="53.34" x2="177.8" y2="53.34" width="0.1524" layer="91"/>
</segment>
</net>
<net name="N$12" class="0">
<segment>
<pinref part="U$1" gate="G$1" pin="D3"/>
<wire x1="53.34" y1="55.88" x2="50.8" y2="55.88" width="0.1524" layer="91"/>
<wire x1="50.8" y1="55.88" x2="50.8" y2="93.98" width="0.1524" layer="91"/>
<wire x1="50.8" y1="93.98" x2="99.06" y2="93.98" width="0.1524" layer="91"/>
<wire x1="99.06" y1="93.98" x2="99.06" y2="17.78" width="0.1524" layer="91"/>
<pinref part="Q3" gate="G$1" pin="G"/>
<wire x1="99.06" y1="17.78" x2="106.68" y2="17.78" width="0.1524" layer="91"/>
</segment>
</net>
<net name="N$13" class="0">
<segment>
<pinref part="U$1" gate="G$1" pin="D5"/>
<wire x1="53.34" y1="45.72" x2="48.26" y2="45.72" width="0.1524" layer="91"/>
<wire x1="48.26" y1="45.72" x2="48.26" y2="99.06" width="0.1524" layer="91"/>
<wire x1="48.26" y1="99.06" x2="104.14" y2="99.06" width="0.1524" layer="91"/>
<wire x1="104.14" y1="99.06" x2="104.14" y2="43.18" width="0.1524" layer="91"/>
<pinref part="Q2" gate="G$1" pin="G"/>
<wire x1="104.14" y1="43.18" x2="106.68" y2="43.18" width="0.1524" layer="91"/>
</segment>
</net>
<net name="N$14" class="0">
<segment>
<pinref part="U$1" gate="G$1" pin="D6"/>
<wire x1="53.34" y1="40.64" x2="45.72" y2="40.64" width="0.1524" layer="91"/>
<wire x1="45.72" y1="40.64" x2="45.72" y2="109.22" width="0.1524" layer="91"/>
<pinref part="Q1" gate="G$1" pin="G"/>
<wire x1="45.72" y1="109.22" x2="106.68" y2="109.22" width="0.1524" layer="91"/>
<wire x1="106.68" y1="109.22" x2="106.68" y2="68.58" width="0.1524" layer="91"/>
</segment>
</net>
<net name="+12V" class="0">
<segment>
<pinref part="P+3" gate="1" pin="+12V"/>
<wire x1="165.1" y1="66.04" x2="165.1" y2="55.88" width="0.1524" layer="91"/>
<pinref part="JP2" gate="G$1" pin="1"/>
<wire x1="165.1" y1="55.88" x2="177.8" y2="55.88" width="0.1524" layer="91"/>
</segment>
<segment>
<pinref part="P+2" gate="1" pin="+12V"/>
<wire x1="139.7" y1="30.48" x2="139.7" y2="22.86" width="0.1524" layer="91"/>
<pinref part="JP1" gate="G$1" pin="1"/>
<wire x1="139.7" y1="22.86" x2="142.24" y2="22.86" width="0.1524" layer="91"/>
</segment>
<segment>
<pinref part="U$1" gate="G$1" pin="VIN"/>
<pinref part="P+1" gate="1" pin="+12V"/>
<wire x1="83.82" y1="81.28" x2="88.9" y2="81.28" width="0.1524" layer="91"/>
<wire x1="88.9" y1="81.28" x2="88.9" y2="86.36" width="0.1524" layer="91"/>
</segment>
</net>
</nets>
</sheet>
</sheets>
</schematic>
</drawing>
</eagle>
