%!PS-Adobe-1.0
%%BoundingBox: 0 0 595 841 
%%Creator: EAGLE Version 6.5.0 Copyright (c) 1988-2013 CadSoft
%%Title: RX.brd
%%CreationDate: lun sep 5 11:34:32 2016
%%Orientation: Landscape
%%Pages: (atend)
%%DocumentFonts: (atend)
%%EndComments
%%BeginProlog
% Prolog copyright (C) 2012 Digia Plc and/or its subsidiary(-ies).
% You may copy this prolog in any way that is directly related to this document.
% For other use of this prolog, see your licensing agreement for Qt.
/BD{bind def}bind def/d2{dup dup}BD/ED{exch def}BD/D0{0 ED}BD/F{setfont}BD
/RL{rlineto}BD/CM{currentmatrix}BD/SM{setmatrix}BD/TR{translate}BD/SD
{setdash}BD/SC{aload pop setrgbcolor}BD/CR{currentfile read pop}BD/i{index}
BD/scs{setcolorspace}BD/DB{dict dup begin}BD/DE{end def}BD/ie{ifelse}BD/gs
{gsave}BD/gr{grestore}BD/w{setlinewidth}BD/d{setdash}BD/J{setlinecap}BD/j
{setlinejoin}BD/scn{3 array astore/BCol exch def}BD/SCN{3 array astore/PCol
exch def}BD/cm{6 array astore concat}BD/m{moveto}BD/l{lineto}BD/c{curveto}BD
/h{closepath}BD/W{clip}BD/W*{eoclip}BD/n{newpath}BD/q{gsave 10 dict begin}BD
/Q{end grestore}BD/re{4 2 roll m dup 0 exch RL exch 0 RL 0 exch neg RL h}BD
/S{gs PCol SC stroke gr n}BD/BT{gsave 10 dict begin/_m matrix CM def BCol
SC}BD/ET{end grestore}BD/Tf{/_fs ED findfont[_fs 0 0 _fs 0 0]makefont F}BD
/Tm{6 array astore concat}BD/Td{translate}BD/Tj{0 0 m show}BD/BDC{pop pop}BD
/EMC{}BD/BSt 0 def/WFi false def/BCol[1 1 1]def/PCol[0 0 0]def/BDArr[0.94
0.88 0.63 0.50 0.37 0.12 0.06]def/level3{/languagelevel where{pop
languagelevel 3 ge}{false}ie}BD/QCIgray D0/QCIcolor D0/QCIindex D0/QCI{
/colorimage where{pop false 3 colorimage}{exec/QCIcolor ED/QCIgray QCIcolor
length 3 idiv string def 0 1 QCIcolor length 3 idiv 1 sub{/QCIindex ED/_x
QCIindex 3 mul def QCIgray QCIindex QCIcolor _x get 0.30 mul QCIcolor _x 1
add get 0.59 mul QCIcolor _x 2 add get 0.11 mul add add cvi put}for QCIgray
image}ie}BD/di{gs TR 1 i 1 eq{pop pop false 3 1 roll BCol SC imagemask}{dup
false ne{level3}{false}ie{/_ma ED 8 eq{/_dc[0 1]def/DeviceGray}{/_dc[0 1 0 1
0 1]def/DeviceRGB}ie scs/_im ED/_mt ED/_h ED/_w ED <</ImageType 3/DataDict
<</ImageType 1/Width _w/Height _h/ImageMatrix _mt/DataSource _im
/BitsPerComponent 8/Decode _dc >>/MaskDict <</ImageType 1/Width _w/Height _h
/ImageMatrix _mt/DataSource _ma/BitsPerComponent 1/Decode[0 1]>>
/InterleaveType 3 >> image}{pop 8 4 1 roll 8 eq{image}{QCI}ie}ie}ie gr}BD/BF
{gs BSt 1 eq{BCol SC WFi{fill}{eofill}ie}if BSt 2 ge BSt 8 le and{BDArr BSt
2 sub get/_sc ED BCol{1. exch sub _sc mul 1. exch sub}forall 3 array astore
SC WFi{fill}{eofill}ie}if BSt 9 ge BSt 14 le and{WFi{W}{W*}ie pathbbox 3 i 3
i TR 4 2 roll 3 2 roll exch sub/_h ED sub/_w ED BCol SC 0.3 w n BSt 9 eq BSt
11 eq or{0 4 _h{dup 0 exch m _w exch l}for}if BSt 10 eq BSt 11 eq or{0 4 _w{
dup 0 m _h l}for}if BSt 12 eq BSt 14 eq or{_w _h gt{0 6 _w _h add{dup 0 m _h
sub _h l}for}{0 6 _w _h add{dup 0 exch m _w sub _w exch l}for}ie}if BSt 13
eq BSt 14 eq or{_w _h gt{0 6 _w _h add{dup _h m _h sub 0 l}for}{0 6 _w _h
add{dup _w exch m _w sub 0 exch l}for}ie}if stroke}if BSt 15 eq{}if BSt 24
eq{}if gr}BD/f{/WFi true def BF n}BD/f*{/WFi false def BF n}BD/B{/WFi true
def BF S n}BD/B*{/WFi false def BF S n}BD/QI{/C save def pageinit q n}BD/QP{
Q C restore showpage}BD/SPD{/setpagedevice where{<< 3 1 roll >>
setpagedevice}{pop pop}ie}BD/T1AddMapping{10 dict begin/glyphs ED/fnt ED
/current fnt/NumGlyphs get def/CMap fnt/CMap get def 0 1 glyphs length 1 sub
{glyphs exch get/gn ED current dup 256 mod/min ED 256 idiv/maj ED CMap dup
maj get dup null eq{pop 256 array 0 1 255{1 i exch/.notdef put}for}if dup
min gn put maj exch put/current current 1 add def}for fnt/CMap CMap put fnt
/NumGlyphs current put end}def/T1AddGlyphs{10 dict begin/glyphs ED/fnt ED
/current fnt/NumGlyphs get def/CMap fnt/CMap get def/CharStrings fnt
/CharStrings get def 0 1 glyphs length 2 idiv 1 sub{2 mul dup glyphs exch
get/gn ED 1 add glyphs exch get/cs ED current dup 256 mod/min ED 256 idiv
/maj ED CMap dup maj get dup null eq{pop 256 array 0 1 255{1 i exch/.notdef
put}for}if dup min gn put maj exch put CharStrings gn cs put/current current
1 add def}for fnt/CharStrings CharStrings put fnt/CMap CMap put fnt
/NumGlyphs current put end}def/StringAdd{1 i length 1 i length add string 3
1 roll 2 i 0 3 i putinterval 2 i 2 i length 2 i putinterval pop pop}def
/T1Setup{10 dict begin dup/FontName ED (-Base) StringAdd cvx cvn/Font ED
/MaxPage Font/NumGlyphs get 1 sub 256 idiv def/FDepVector MaxPage 1 add
array def/Encoding MaxPage 1 add array def 0 1 MaxPage{dup Encoding exch dup
put dup/Page ED FontName (-) StringAdd exch 20 string cvs StringAdd cvn Font
0 dict copy d2/CMap get Page get/Encoding exch put definefont FDepVector
exch Page exch put}for FontName cvn <</FontType 0/FMapType 2/FontMatrix[1 0
0 1 0 0]/Encoding Encoding/FDepVector FDepVector >> definefont pop end}def

/pageinit {
% 210 *297  mm (landscape)
 90 rotate 0.059999999 -0.059999999 scale } def
%%EndProlog
%%Page: 1 1 
%%BeginPageSetup
QI
%%EndPageSetup
q
Q
Q q
q
0 0 0 scn
/BSt 0 def
Q
q
0 0 0 scn
/BSt 0 def
0 0 0 SCN
0 w 2 J 2 j [] 0 d
Q
q
0.080000000 0 0 0.080000000 0 0 cm
0 0 0 scn
/BSt 0 def
0 0 0 SCN
0 w 2 J 2 j [] 0 d
Q
Q q
402 402 m
13631 402 l
13631 9515 l
402 9515 l
402 402 l
h
W* n
q
0 0 0 scn
/BSt 0 def
0 0 0 SCN
0 w 2 J 2 j [] 0 d
Q
Q q
402 402 m
13631 402 l
13631 9515 l
402 9515 l
402 402 l
h
W* n
5246 3608 m
8786 3608 l
8786 6308 l
5246 6308 l
5246 3608 l
h
W* n
q
0 0 0 scn
/BSt 0 def
0 0 0 SCN
0 w 2 J 2 j [] 0 d
0 0 0 scn
/BSt 1 def
0 0 0 SCN
39 w 1 J 1 j [] 0 d
7526 3971 m
7344 3971 l
B*
7344 3971 m
7286 4029 l
B*
0 0 0 SCN
92 w 1 J 1 j [] 0 d
7706 5228 m
7886 5408 l
B*
7886 5408 m
7886 5707 l
B*
7886 5707 m
7766 5827 l
B*
0 0 0 SCN
20 w 1 J 1 j [] 0 d
7766 5827 m
7706 5827 l
B*
7646 5827 m
7706 5827 l
B*
0 0 0 SCN
84 w 1 J 1 j [] 0 d
7706 5228 m
7766 5228 l
B*
0 0 0 SCN
92 w 1 J 1 j [] 0 d
7766 5228 m
7886 5108 l
B*
7886 5108 m
7886 4808 l
B*
7886 4808 m
7706 4628 l
B*
8365 4808 m
7886 4808 l
B*
0 0 0 SCN
39 w 1 J 1 j [] 0 d
7706 4628 m
7826 4628 l
B*
7826 4628 m
7886 4568 l
B*
7886 4568 m
7886 4089 l
B*
7886 4089 m
7766 3969 l
B*
6566 5468 m
6926 5468 l
B*
6926 5468 m
7286 5827 l
B*
7286 5827 m
7706 5827 l
B*
6926 4149 m
6926 5288 l
B*
6566 5348 m
6866 5348 l
B*
6866 5348 m
6926 5288 l
B*
7166 4029 m
7166 3909 l
B*
7166 3909 m
7076 3819 l
B*
7076 3819 m
6386 3819 l
B*
6386 4029 m
6386 4448 l
B*
6386 4448 m
6446 4508 l
B*
6446 4508 m
6566 4508 l
B*
7166 4149 m
7166 4269 l
B*
7166 4269 m
7046 4388 l
B*
6806 4388 m
6566 4388 l
B*
6926 4029 m
6686 4029 l
B*
6686 4029 m
6566 4149 l
B*
7046 4149 m
7046 4269 l
B*
6806 4269 m
6566 4269 l
B*
7046 4029 m
7046 3969 l
B*
7046 3969 m
6986 3909 l
B*
6986 3909 m
6027 3909 l
B*
6027 3909 m
5847 4089 l
B*
5847 4089 m
5847 4149 l
B*
7286 4149 m
7468 4149 l
B*
7468 4149 m
7526 4207 l
B*
5847 4269 m
5787 4269 l
B*
5787 4269 m
5727 4209 l
B*
5727 4209 m
5727 4089 l
B*
5727 4089 m
6027 3789 l
B*
6027 3789 m
6206 3789 l
B*
6206 3789 m
6266 3729 l
B*
6266 3729 m
7586 3729 l
B*
7586 3729 m
7646 3789 l
B*
7646 3789 m
7646 4087 l
B*
7646 4087 m
7526 4207 l
B*
6566 5228 m
6746 5228 l
B*
6566 4988 m
6746 4988 l
B*
6566 4868 m
6626 4868 l
B*
6626 4868 m
6746 4748 l
B*
5847 5827 m
5667 5827 l
B*
5667 5827 m
5487 5647 l
B*
0 0 0 scn
/BSt 1 def
0 0 0 SCN
0 w 1 J 1 j [] 0 d
6524 5785 m
6608 5785 l
6608 5869 l
6524 5869 l
6524 5785 l
h
B*
1 1 1 scn
/BSt 1 def
0 0 0 SCN
1 w 2 J 2 j [] 0 d
6585 5827 m
6585 5837.49341 6576.49341 5846 6566 5846 c
6555.50658 5846 6547 5837.49341 6547 5827 c
6547 5816.50658 6555.50658 5808 6566 5808 c
6576.49341 5808 6585 5816.50658 6585 5827 c
h
B*
0 0 0 scn
/BSt 1 def
0 0 0 SCN
0 w 1 J 1 j [] 0 d
6608 5707 m
6608 5730.19595 6589.19595 5749 6566 5749 c
6542.80404 5749 6524 5730.19595 6524 5707 c
6524 5683.80404 6542.80404 5665 6566 5665 c
6589.19595 5665 6608 5683.80404 6608 5707 c
h
B*
1 1 1 scn
/BSt 1 def
0 0 0 SCN
1 w 2 J 2 j [] 0 d
6585 5707 m
6585 5717.49341 6576.49341 5726 6566 5726 c
6555.50658 5726 6547 5717.49341 6547 5707 c
6547 5696.50658 6555.50658 5688 6566 5688 c
6576.49341 5688 6585 5696.50658 6585 5707 c
h
B*
0 0 0 scn
/BSt 1 def
0 0 0 SCN
0 w 1 J 1 j [] 0 d
6608 5588 m
6608 5611.19595 6589.19595 5630 6566 5630 c
6542.80404 5630 6524 5611.19595 6524 5588 c
6524 5564.80404 6542.80404 5546 6566 5546 c
6589.19595 5546 6608 5564.80404 6608 5588 c
h
B*
1 1 1 scn
/BSt 1 def
0 0 0 SCN
1 w 2 J 2 j [] 0 d
6585 5588 m
6585 5598.49341 6576.49341 5607 6566 5607 c
6555.50658 5607 6547 5598.49341 6547 5588 c
6547 5577.50658 6555.50658 5569 6566 5569 c
6576.49341 5569 6585 5577.50658 6585 5588 c
h
B*
0 0 0 scn
/BSt 1 def
0 0 0 SCN
0 w 1 J 1 j [] 0 d
6608 5468 m
6608 5491.19595 6589.19595 5510 6566 5510 c
6542.80404 5510 6524 5491.19595 6524 5468 c
6524 5444.80404 6542.80404 5426 6566 5426 c
6589.19595 5426 6608 5444.80404 6608 5468 c
h
B*
1 1 1 scn
/BSt 1 def
0 0 0 SCN
1 w 2 J 2 j [] 0 d
6585 5468 m
6585 5478.49341 6576.49341 5487 6566 5487 c
6555.50658 5487 6547 5478.49341 6547 5468 c
6547 5457.50658 6555.50658 5449 6566 5449 c
6576.49341 5449 6585 5457.50658 6585 5468 c
h
B*
0 0 0 scn
/BSt 1 def
0 0 0 SCN
0 w 1 J 1 j [] 0 d
6608 5348 m
6608 5371.19595 6589.19595 5390 6566 5390 c
6542.80404 5390 6524 5371.19595 6524 5348 c
6524 5324.80404 6542.80404 5306 6566 5306 c
6589.19595 5306 6608 5324.80404 6608 5348 c
h
B*
1 1 1 scn
/BSt 1 def
0 0 0 SCN
1 w 2 J 2 j [] 0 d
6585 5348 m
6585 5358.49341 6576.49341 5367 6566 5367 c
6555.50658 5367 6547 5358.49341 6547 5348 c
6547 5337.50658 6555.50658 5329 6566 5329 c
6576.49341 5329 6585 5337.50658 6585 5348 c
h
B*
0 0 0 scn
/BSt 1 def
0 0 0 SCN
0 w 1 J 1 j [] 0 d
6608 5228 m
6608 5251.19595 6589.19595 5270 6566 5270 c
6542.80404 5270 6524 5251.19595 6524 5228 c
6524 5204.80404 6542.80404 5186 6566 5186 c
6589.19595 5186 6608 5204.80404 6608 5228 c
h
B*
1 1 1 scn
/BSt 1 def
0 0 0 SCN
1 w 2 J 2 j [] 0 d
6585 5228 m
6585 5238.49341 6576.49341 5247 6566 5247 c
6555.50658 5247 6547 5238.49341 6547 5228 c
6547 5217.50658 6555.50658 5209 6566 5209 c
6576.49341 5209 6585 5217.50658 6585 5228 c
h
B*
0 0 0 scn
/BSt 1 def
0 0 0 SCN
0 w 1 J 1 j [] 0 d
6608 5108 m
6608 5131.19595 6589.19595 5150 6566 5150 c
6542.80404 5150 6524 5131.19595 6524 5108 c
6524 5084.80404 6542.80404 5066 6566 5066 c
6589.19595 5066 6608 5084.80404 6608 5108 c
h
B*
1 1 1 scn
/BSt 1 def
0 0 0 SCN
1 w 2 J 2 j [] 0 d
6585 5108 m
6585 5118.49341 6576.49341 5127 6566 5127 c
6555.50658 5127 6547 5118.49341 6547 5108 c
6547 5097.50658 6555.50658 5089 6566 5089 c
6576.49341 5089 6585 5097.50658 6585 5108 c
h
B*
0 0 0 scn
/BSt 1 def
0 0 0 SCN
0 w 1 J 1 j [] 0 d
6608 4988 m
6608 5011.19595 6589.19595 5030 6566 5030 c
6542.80404 5030 6524 5011.19595 6524 4988 c
6524 4964.80404 6542.80404 4946 6566 4946 c
6589.19595 4946 6608 4964.80404 6608 4988 c
h
B*
1 1 1 scn
/BSt 1 def
0 0 0 SCN
1 w 2 J 2 j [] 0 d
6585 4988 m
6585 4998.49341 6576.49341 5007 6566 5007 c
6555.50658 5007 6547 4998.49341 6547 4988 c
6547 4977.50658 6555.50658 4969 6566 4969 c
6576.49341 4969 6585 4977.50658 6585 4988 c
h
B*
0 0 0 scn
/BSt 1 def
0 0 0 SCN
0 w 1 J 1 j [] 0 d
6608 4868 m
6608 4891.19595 6589.19595 4910 6566 4910 c
6542.80404 4910 6524 4891.19595 6524 4868 c
6524 4844.80404 6542.80404 4826 6566 4826 c
6589.19595 4826 6608 4844.80404 6608 4868 c
h
B*
1 1 1 scn
/BSt 1 def
0 0 0 SCN
1 w 2 J 2 j [] 0 d
6585 4868 m
6585 4878.49341 6576.49341 4887 6566 4887 c
6555.50658 4887 6547 4878.49341 6547 4868 c
6547 4857.50658 6555.50658 4849 6566 4849 c
6576.49341 4849 6585 4857.50658 6585 4868 c
h
B*
0 0 0 scn
/BSt 1 def
0 0 0 SCN
0 w 1 J 1 j [] 0 d
6608 4748 m
6608 4771.19595 6589.19595 4790 6566 4790 c
6542.80404 4790 6524 4771.19595 6524 4748 c
6524 4724.80404 6542.80404 4706 6566 4706 c
6589.19595 4706 6608 4724.80404 6608 4748 c
h
B*
1 1 1 scn
/BSt 1 def
0 0 0 SCN
1 w 2 J 2 j [] 0 d
6585 4748 m
6585 4758.49341 6576.49341 4767 6566 4767 c
6555.50658 4767 6547 4758.49341 6547 4748 c
6547 4737.50658 6555.50658 4729 6566 4729 c
6576.49341 4729 6585 4737.50658 6585 4748 c
h
B*
0 0 0 scn
/BSt 1 def
0 0 0 SCN
0 w 1 J 1 j [] 0 d
6608 4628 m
6608 4651.19595 6589.19595 4670 6566 4670 c
6542.80404 4670 6524 4651.19595 6524 4628 c
6524 4604.80404 6542.80404 4586 6566 4586 c
6589.19595 4586 6608 4604.80404 6608 4628 c
h
B*
1 1 1 scn
/BSt 1 def
0 0 0 SCN
1 w 2 J 2 j [] 0 d
6585 4628 m
6585 4638.49341 6576.49341 4647 6566 4647 c
6555.50658 4647 6547 4638.49341 6547 4628 c
6547 4617.50658 6555.50658 4609 6566 4609 c
6576.49341 4609 6585 4617.50658 6585 4628 c
h
B*
0 0 0 scn
/BSt 1 def
0 0 0 SCN
0 w 1 J 1 j [] 0 d
6608 4508 m
6608 4531.19595 6589.19595 4550 6566 4550 c
6542.80404 4550 6524 4531.19595 6524 4508 c
6524 4484.80404 6542.80404 4466 6566 4466 c
6589.19595 4466 6608 4484.80404 6608 4508 c
h
B*
1 1 1 scn
/BSt 1 def
0 0 0 SCN
1 w 2 J 2 j [] 0 d
6585 4508 m
6585 4518.49341 6576.49341 4527 6566 4527 c
6555.50658 4527 6547 4518.49341 6547 4508 c
6547 4497.50658 6555.50658 4489 6566 4489 c
6576.49341 4489 6585 4497.50658 6585 4508 c
h
B*
0 0 0 scn
/BSt 1 def
0 0 0 SCN
0 w 1 J 1 j [] 0 d
6608 4388 m
6608 4411.19595 6589.19595 4430 6566 4430 c
6542.80404 4430 6524 4411.19595 6524 4388 c
6524 4364.80404 6542.80404 4346 6566 4346 c
6589.19595 4346 6608 4364.80404 6608 4388 c
h
B*
1 1 1 scn
/BSt 1 def
0 0 0 SCN
1 w 2 J 2 j [] 0 d
6585 4388 m
6585 4398.49341 6576.49341 4407 6566 4407 c
6555.50658 4407 6547 4398.49341 6547 4388 c
6547 4377.50658 6555.50658 4369 6566 4369 c
6576.49341 4369 6585 4377.50658 6585 4388 c
h
B*
0 0 0 scn
/BSt 1 def
0 0 0 SCN
0 w 1 J 1 j [] 0 d
6608 4269 m
6608 4292.19595 6589.19595 4311 6566 4311 c
6542.80404 4311 6524 4292.19595 6524 4269 c
6524 4245.80404 6542.80404 4227 6566 4227 c
6589.19595 4227 6608 4245.80404 6608 4269 c
h
B*
1 1 1 scn
/BSt 1 def
0 0 0 SCN
1 w 2 J 2 j [] 0 d
6585 4269 m
6585 4279.49341 6576.49341 4288 6566 4288 c
6555.50658 4288 6547 4279.49341 6547 4269 c
6547 4258.50658 6555.50658 4250 6566 4250 c
6576.49341 4250 6585 4258.50658 6585 4269 c
h
B*
0 0 0 scn
/BSt 1 def
0 0 0 SCN
0 w 1 J 1 j [] 0 d
6608 4149 m
6608 4172.19595 6589.19595 4191 6566 4191 c
6542.80404 4191 6524 4172.19595 6524 4149 c
6524 4125.80404 6542.80404 4107 6566 4107 c
6589.19595 4107 6608 4125.80404 6608 4149 c
h
B*
1 1 1 scn
/BSt 1 def
0 0 0 SCN
1 w 2 J 2 j [] 0 d
6585 4149 m
6585 4159.49341 6576.49341 4168 6566 4168 c
6555.50658 4168 6547 4159.49341 6547 4149 c
6547 4138.50658 6555.50658 4130 6566 4130 c
6576.49341 4130 6585 4138.50658 6585 4149 c
h
B*
0 0 0 scn
/BSt 1 def
0 0 0 SCN
0 w 1 J 1 j [] 0 d
5889 5827 m
5889 5850.19595 5870.19595 5869 5847 5869 c
5823.80404 5869 5805 5850.19595 5805 5827 c
5805 5803.80404 5823.80404 5785 5847 5785 c
5870.19595 5785 5889 5803.80404 5889 5827 c
h
B*
1 1 1 scn
/BSt 1 def
0 0 0 SCN
1 w 2 J 2 j [] 0 d
5866 5827 m
5866 5837.49341 5857.49341 5846 5847 5846 c
5836.50658 5846 5828 5837.49341 5828 5827 c
5828 5816.50658 5836.50658 5808 5847 5808 c
5857.49341 5808 5866 5816.50658 5866 5827 c
h
B*
0 0 0 scn
/BSt 1 def
0 0 0 SCN
0 w 1 J 1 j [] 0 d
5889 5707 m
5889 5730.19595 5870.19595 5749 5847 5749 c
5823.80404 5749 5805 5730.19595 5805 5707 c
5805 5683.80404 5823.80404 5665 5847 5665 c
5870.19595 5665 5889 5683.80404 5889 5707 c
h
B*
1 1 1 scn
/BSt 1 def
0 0 0 SCN
1 w 2 J 2 j [] 0 d
5866 5707 m
5866 5717.49341 5857.49341 5726 5847 5726 c
5836.50658 5726 5828 5717.49341 5828 5707 c
5828 5696.50658 5836.50658 5688 5847 5688 c
5857.49341 5688 5866 5696.50658 5866 5707 c
h
B*
0 0 0 scn
/BSt 1 def
0 0 0 SCN
0 w 1 J 1 j [] 0 d
5889 5588 m
5889 5611.19595 5870.19595 5630 5847 5630 c
5823.80404 5630 5805 5611.19595 5805 5588 c
5805 5564.80404 5823.80404 5546 5847 5546 c
5870.19595 5546 5889 5564.80404 5889 5588 c
h
B*
1 1 1 scn
/BSt 1 def
0 0 0 SCN
1 w 2 J 2 j [] 0 d
5866 5588 m
5866 5598.49341 5857.49341 5607 5847 5607 c
5836.50658 5607 5828 5598.49341 5828 5588 c
5828 5577.50658 5836.50658 5569 5847 5569 c
5857.49341 5569 5866 5577.50658 5866 5588 c
h
B*
0 0 0 scn
/BSt 1 def
0 0 0 SCN
0 w 1 J 1 j [] 0 d
5889 5468 m
5889 5491.19595 5870.19595 5510 5847 5510 c
5823.80404 5510 5805 5491.19595 5805 5468 c
5805 5444.80404 5823.80404 5426 5847 5426 c
5870.19595 5426 5889 5444.80404 5889 5468 c
h
B*
1 1 1 scn
/BSt 1 def
0 0 0 SCN
1 w 2 J 2 j [] 0 d
5866 5468 m
5866 5478.49341 5857.49341 5487 5847 5487 c
5836.50658 5487 5828 5478.49341 5828 5468 c
5828 5457.50658 5836.50658 5449 5847 5449 c
5857.49341 5449 5866 5457.50658 5866 5468 c
h
B*
0 0 0 scn
/BSt 1 def
0 0 0 SCN
0 w 1 J 1 j [] 0 d
5889 5348 m
5889 5371.19595 5870.19595 5390 5847 5390 c
5823.80404 5390 5805 5371.19595 5805 5348 c
5805 5324.80404 5823.80404 5306 5847 5306 c
5870.19595 5306 5889 5324.80404 5889 5348 c
h
B*
1 1 1 scn
/BSt 1 def
0 0 0 SCN
1 w 2 J 2 j [] 0 d
5866 5348 m
5866 5358.49341 5857.49341 5367 5847 5367 c
5836.50658 5367 5828 5358.49341 5828 5348 c
5828 5337.50658 5836.50658 5329 5847 5329 c
5857.49341 5329 5866 5337.50658 5866 5348 c
h
B*
0 0 0 scn
/BSt 1 def
0 0 0 SCN
0 w 1 J 1 j [] 0 d
5889 5228 m
5889 5251.19595 5870.19595 5270 5847 5270 c
5823.80404 5270 5805 5251.19595 5805 5228 c
5805 5204.80404 5823.80404 5186 5847 5186 c
5870.19595 5186 5889 5204.80404 5889 5228 c
h
B*
1 1 1 scn
/BSt 1 def
0 0 0 SCN
1 w 2 J 2 j [] 0 d
5866 5228 m
5866 5238.49341 5857.49341 5247 5847 5247 c
5836.50658 5247 5828 5238.49341 5828 5228 c
5828 5217.50658 5836.50658 5209 5847 5209 c
5857.49341 5209 5866 5217.50658 5866 5228 c
h
B*
0 0 0 scn
/BSt 1 def
0 0 0 SCN
0 w 1 J 1 j [] 0 d
5889 5108 m
5889 5131.19595 5870.19595 5150 5847 5150 c
5823.80404 5150 5805 5131.19595 5805 5108 c
5805 5084.80404 5823.80404 5066 5847 5066 c
5870.19595 5066 5889 5084.80404 5889 5108 c
h
B*
1 1 1 scn
/BSt 1 def
0 0 0 SCN
1 w 2 J 2 j [] 0 d
5866 5108 m
5866 5118.49341 5857.49341 5127 5847 5127 c
5836.50658 5127 5828 5118.49341 5828 5108 c
5828 5097.50658 5836.50658 5089 5847 5089 c
5857.49341 5089 5866 5097.50658 5866 5108 c
h
B*
0 0 0 scn
/BSt 1 def
0 0 0 SCN
0 w 1 J 1 j [] 0 d
5889 4988 m
5889 5011.19595 5870.19595 5030 5847 5030 c
5823.80404 5030 5805 5011.19595 5805 4988 c
5805 4964.80404 5823.80404 4946 5847 4946 c
5870.19595 4946 5889 4964.80404 5889 4988 c
h
B*
1 1 1 scn
/BSt 1 def
0 0 0 SCN
1 w 2 J 2 j [] 0 d
5866 4988 m
5866 4998.49341 5857.49341 5007 5847 5007 c
5836.50658 5007 5828 4998.49341 5828 4988 c
5828 4977.50658 5836.50658 4969 5847 4969 c
5857.49341 4969 5866 4977.50658 5866 4988 c
h
B*
0 0 0 scn
/BSt 1 def
0 0 0 SCN
0 w 1 J 1 j [] 0 d
5889 4868 m
5889 4891.19595 5870.19595 4910 5847 4910 c
5823.80404 4910 5805 4891.19595 5805 4868 c
5805 4844.80404 5823.80404 4826 5847 4826 c
5870.19595 4826 5889 4844.80404 5889 4868 c
h
B*
1 1 1 scn
/BSt 1 def
0 0 0 SCN
1 w 2 J 2 j [] 0 d
5866 4868 m
5866 4878.49341 5857.49341 4887 5847 4887 c
5836.50658 4887 5828 4878.49341 5828 4868 c
5828 4857.50658 5836.50658 4849 5847 4849 c
5857.49341 4849 5866 4857.50658 5866 4868 c
h
B*
0 0 0 scn
/BSt 1 def
0 0 0 SCN
0 w 1 J 1 j [] 0 d
5889 4748 m
5889 4771.19595 5870.19595 4790 5847 4790 c
5823.80404 4790 5805 4771.19595 5805 4748 c
5805 4724.80404 5823.80404 4706 5847 4706 c
5870.19595 4706 5889 4724.80404 5889 4748 c
h
B*
1 1 1 scn
/BSt 1 def
0 0 0 SCN
1 w 2 J 2 j [] 0 d
5866 4748 m
5866 4758.49341 5857.49341 4767 5847 4767 c
5836.50658 4767 5828 4758.49341 5828 4748 c
5828 4737.50658 5836.50658 4729 5847 4729 c
5857.49341 4729 5866 4737.50658 5866 4748 c
h
B*
0 0 0 scn
/BSt 1 def
0 0 0 SCN
0 w 1 J 1 j [] 0 d
5889 4628 m
5889 4651.19595 5870.19595 4670 5847 4670 c
5823.80404 4670 5805 4651.19595 5805 4628 c
5805 4604.80404 5823.80404 4586 5847 4586 c
5870.19595 4586 5889 4604.80404 5889 4628 c
h
B*
1 1 1 scn
/BSt 1 def
0 0 0 SCN
1 w 2 J 2 j [] 0 d
5866 4628 m
5866 4638.49341 5857.49341 4647 5847 4647 c
5836.50658 4647 5828 4638.49341 5828 4628 c
5828 4617.50658 5836.50658 4609 5847 4609 c
5857.49341 4609 5866 4617.50658 5866 4628 c
h
B*
0 0 0 scn
/BSt 1 def
0 0 0 SCN
0 w 1 J 1 j [] 0 d
5889 4508 m
5889 4531.19595 5870.19595 4550 5847 4550 c
5823.80404 4550 5805 4531.19595 5805 4508 c
5805 4484.80404 5823.80404 4466 5847 4466 c
5870.19595 4466 5889 4484.80404 5889 4508 c
h
B*
1 1 1 scn
/BSt 1 def
0 0 0 SCN
1 w 2 J 2 j [] 0 d
5866 4508 m
5866 4518.49341 5857.49341 4527 5847 4527 c
5836.50658 4527 5828 4518.49341 5828 4508 c
5828 4497.50658 5836.50658 4489 5847 4489 c
5857.49341 4489 5866 4497.50658 5866 4508 c
h
B*
0 0 0 scn
/BSt 1 def
0 0 0 SCN
0 w 1 J 1 j [] 0 d
5889 4388 m
5889 4411.19595 5870.19595 4430 5847 4430 c
5823.80404 4430 5805 4411.19595 5805 4388 c
5805 4364.80404 5823.80404 4346 5847 4346 c
5870.19595 4346 5889 4364.80404 5889 4388 c
h
B*
1 1 1 scn
/BSt 1 def
0 0 0 SCN
1 w 2 J 2 j [] 0 d
5866 4388 m
5866 4398.49341 5857.49341 4407 5847 4407 c
5836.50658 4407 5828 4398.49341 5828 4388 c
5828 4377.50658 5836.50658 4369 5847 4369 c
5857.49341 4369 5866 4377.50658 5866 4388 c
h
B*
0 0 0 scn
/BSt 1 def
0 0 0 SCN
0 w 1 J 1 j [] 0 d
5889 4269 m
5889 4292.19595 5870.19595 4311 5847 4311 c
5823.80404 4311 5805 4292.19595 5805 4269 c
5805 4245.80404 5823.80404 4227 5847 4227 c
5870.19595 4227 5889 4245.80404 5889 4269 c
h
B*
1 1 1 scn
/BSt 1 def
0 0 0 SCN
1 w 2 J 2 j [] 0 d
5866 4269 m
5866 4279.49341 5857.49341 4288 5847 4288 c
5836.50658 4288 5828 4279.49341 5828 4269 c
5828 4258.50658 5836.50658 4250 5847 4250 c
5857.49341 4250 5866 4258.50658 5866 4269 c
h
B*
0 0 0 scn
/BSt 1 def
0 0 0 SCN
0 w 1 J 1 j [] 0 d
5889 4149 m
5889 4172.19595 5870.19595 4191 5847 4191 c
5823.80404 4191 5805 4172.19595 5805 4149 c
5805 4125.80404 5823.80404 4107 5847 4107 c
5870.19595 4107 5889 4125.80404 5889 4149 c
h
B*
1 1 1 scn
/BSt 1 def
0 0 0 SCN
1 w 2 J 2 j [] 0 d
5866 4149 m
5866 4159.49341 5857.49341 4168 5847 4168 c
5836.50658 4168 5828 4159.49341 5828 4149 c
5828 4138.50658 5836.50658 4130 5847 4130 c
5857.49341 4130 5866 4138.50658 5866 4149 c
h
B*
0 0 0 scn
/BSt 1 def
0 0 0 SCN
0 w 1 J 1 j [] 0 d
7322 4164 m
7301 4185 l
7271 4185 l
7250 4164 l
7250 4134 l
7271 4113 l
7301 4113 l
7322 4134 l
7322 4164 l
h
B
1 1 1 scn
/BSt 1 def
0 0 0 SCN
1 w 2 J 2 j [] 0 d
7310 4149 m
7310 4162.25483 7299.25483 4173 7286 4173 c
7272.74516 4173 7262 4162.25483 7262 4149 c
7262 4135.74516 7272.74516 4125 7286 4125 c
7299.25483 4125 7310 4135.74516 7310 4149 c
h
B*
0 0 0 scn
/BSt 1 def
0 0 0 SCN
0 w 1 J 1 j [] 0 d
7202 4164 m
7181 4185 l
7151 4185 l
7130 4164 l
7130 4134 l
7151 4113 l
7181 4113 l
7202 4134 l
7202 4164 l
h
B
1 1 1 scn
/BSt 1 def
0 0 0 SCN
1 w 2 J 2 j [] 0 d
7190 4149 m
7190 4162.25483 7179.25483 4173 7166 4173 c
7152.74516 4173 7142 4162.25483 7142 4149 c
7142 4135.74516 7152.74516 4125 7166 4125 c
7179.25483 4125 7190 4135.74516 7190 4149 c
h
B*
0 0 0 scn
/BSt 1 def
0 0 0 SCN
0 w 1 J 1 j [] 0 d
7082 4164 m
7061 4185 l
7031 4185 l
7010 4164 l
7010 4134 l
7031 4113 l
7061 4113 l
7082 4134 l
7082 4164 l
h
B
1 1 1 scn
/BSt 1 def
0 0 0 SCN
1 w 2 J 2 j [] 0 d
7070 4149 m
7070 4162.25483 7059.25483 4173 7046 4173 c
7032.74516 4173 7022 4162.25483 7022 4149 c
7022 4135.74516 7032.74516 4125 7046 4125 c
7059.25483 4125 7070 4135.74516 7070 4149 c
h
B*
0 0 0 scn
/BSt 1 def
0 0 0 SCN
0 w 1 J 1 j [] 0 d
6962 4164 m
6941 4185 l
6911 4185 l
6890 4164 l
6890 4134 l
6911 4113 l
6941 4113 l
6962 4134 l
6962 4164 l
h
B
1 1 1 scn
/BSt 1 def
0 0 0 SCN
1 w 2 J 2 j [] 0 d
6950 4149 m
6950 4162.25483 6939.25483 4173 6926 4173 c
6912.74516 4173 6902 4162.25483 6902 4149 c
6902 4135.74516 6912.74516 4125 6926 4125 c
6939.25483 4125 6950 4135.74516 6950 4149 c
h
B*
0 0 0 scn
/BSt 1 def
0 0 0 SCN
0 w 1 J 1 j [] 0 d
7202 4044 m
7181 4065 l
7151 4065 l
7130 4044 l
7130 4014 l
7151 3993 l
7181 3993 l
7202 4014 l
7202 4044 l
h
B
1 1 1 scn
/BSt 1 def
0 0 0 SCN
1 w 2 J 2 j [] 0 d
7190 4029 m
7190 4042.25483 7179.25483 4053 7166 4053 c
7152.74516 4053 7142 4042.25483 7142 4029 c
7142 4015.74516 7152.74516 4005 7166 4005 c
7179.25483 4005 7190 4015.74516 7190 4029 c
h
B*
0 0 0 scn
/BSt 1 def
0 0 0 SCN
0 w 1 J 1 j [] 0 d
7082 4044 m
7061 4065 l
7031 4065 l
7010 4044 l
7010 4014 l
7031 3993 l
7061 3993 l
7082 4014 l
7082 4044 l
h
B
1 1 1 scn
/BSt 1 def
0 0 0 SCN
1 w 2 J 2 j [] 0 d
7070 4029 m
7070 4042.25483 7059.25483 4053 7046 4053 c
7032.74516 4053 7022 4042.25483 7022 4029 c
7022 4015.74516 7032.74516 4005 7046 4005 c
7059.25483 4005 7070 4015.74516 7070 4029 c
h
B*
0 0 0 scn
/BSt 1 def
0 0 0 SCN
0 w 1 J 1 j [] 0 d
6962 4044 m
6941 4065 l
6911 4065 l
6890 4044 l
6890 4014 l
6911 3993 l
6941 3993 l
6962 4014 l
6962 4044 l
h
B
1 1 1 scn
/BSt 1 def
0 0 0 SCN
1 w 2 J 2 j [] 0 d
6950 4029 m
6950 4042.25483 6939.25483 4053 6926 4053 c
6912.74516 4053 6902 4042.25483 6902 4029 c
6902 4015.74516 6912.74516 4005 6926 4005 c
6939.25483 4005 6950 4015.74516 6950 4029 c
h
B*
0 0 0 scn
/BSt 1 def
0 0 0 SCN
0 w 1 J 1 j [] 0 d
7255 3998 m
7317 3998 l
7317 4060 l
7255 4060 l
7255 3998 l
h
B*
1 1 1 scn
/BSt 1 def
0 0 0 SCN
1 w 2 J 2 j [] 0 d
7305 4029 m
7305 4039.49341 7296.49341 4048 7286 4048 c
7275.50658 4048 7267 4039.49341 7267 4029 c
7267 4018.50658 7275.50658 4010 7286 4010 c
7296.49341 4010 7305 4018.50658 7305 4029 c
h
B*
0 0 0 scn
/BSt 1 def
0 0 0 SCN
80 w 1 J 1 j [] 0 d
7666 4388 m
7745 4388 l
B*
1 1 1 scn
/BSt 1 def
0 0 0 SCN
1 w 2 J 2 j [] 0 d
7732 4388 m
7732 4402.35940 7720.35940 4414 7706 4414 c
7691.64059 4414 7680 4402.35940 7680 4388 c
7680 4373.64059 7691.64059 4362 7706 4362 c
7720.35940 4362 7732 4373.64059 7732 4388 c
h
B*
0 0 0 scn
/BSt 1 def
0 0 0 SCN
80 w 1 J 1 j [] 0 d
7666 4508 m
7745 4508 l
B*
1 1 1 scn
/BSt 1 def
0 0 0 SCN
1 w 2 J 2 j [] 0 d
7732 4508 m
7732 4522.35940 7720.35940 4534 7706 4534 c
7691.64059 4534 7680 4522.35940 7680 4508 c
7680 4493.64059 7691.64059 4482 7706 4482 c
7720.35940 4482 7732 4493.64059 7732 4508 c
h
B*
0 0 0 scn
/BSt 1 def
0 0 0 SCN
80 w 1 J 1 j [] 0 d
7666 4628 m
7745 4628 l
B*
1 1 1 scn
/BSt 1 def
0 0 0 SCN
1 w 2 J 2 j [] 0 d
7732 4628 m
7732 4642.35940 7720.35940 4654 7706 4654 c
7691.64059 4654 7680 4642.35940 7680 4628 c
7680 4613.64059 7691.64059 4602 7706 4602 c
7720.35940 4602 7732 4613.64059 7732 4628 c
h
B*
0 0 0 scn
/BSt 1 def
0 0 0 SCN
80 w 1 J 1 j [] 0 d
7666 4988 m
7745 4988 l
B*
1 1 1 scn
/BSt 1 def
0 0 0 SCN
1 w 2 J 2 j [] 0 d
7732 4988 m
7732 5002.35940 7720.35940 5014 7706 5014 c
7691.64059 5014 7680 5002.35940 7680 4988 c
7680 4973.64059 7691.64059 4962 7706 4962 c
7720.35940 4962 7732 4973.64059 7732 4988 c
h
B*
0 0 0 scn
/BSt 1 def
0 0 0 SCN
80 w 1 J 1 j [] 0 d
7666 5108 m
7745 5108 l
B*
1 1 1 scn
/BSt 1 def
0 0 0 SCN
1 w 2 J 2 j [] 0 d
7732 5108 m
7732 5122.35940 7720.35940 5134 7706 5134 c
7691.64059 5134 7680 5122.35940 7680 5108 c
7680 5093.64059 7691.64059 5082 7706 5082 c
7720.35940 5082 7732 5093.64059 7732 5108 c
h
B*
0 0 0 scn
/BSt 1 def
0 0 0 SCN
80 w 1 J 1 j [] 0 d
7666 5228 m
7745 5228 l
B*
1 1 1 scn
/BSt 1 def
0 0 0 SCN
1 w 2 J 2 j [] 0 d
7732 5228 m
7732 5242.35940 7720.35940 5254 7706 5254 c
7691.64059 5254 7680 5242.35940 7680 5228 c
7680 5213.64059 7691.64059 5202 7706 5202 c
7720.35940 5202 7732 5213.64059 7732 5228 c
h
B*
0 0 0 scn
/BSt 1 def
0 0 0 SCN
80 w 1 J 1 j [] 0 d
7666 5588 m
7745 5588 l
B*
1 1 1 scn
/BSt 1 def
0 0 0 SCN
1 w 2 J 2 j [] 0 d
7732 5588 m
7732 5602.35940 7720.35940 5614 7706 5614 c
7691.64059 5614 7680 5602.35940 7680 5588 c
7680 5573.64059 7691.64059 5562 7706 5562 c
7720.35940 5562 7732 5573.64059 7732 5588 c
h
B*
0 0 0 scn
/BSt 1 def
0 0 0 SCN
80 w 1 J 1 j [] 0 d
7666 5707 m
7745 5707 l
B*
1 1 1 scn
/BSt 1 def
0 0 0 SCN
1 w 2 J 2 j [] 0 d
7732 5707 m
7732 5721.35940 7720.35940 5733 7706 5733 c
7691.64059 5733 7680 5721.35940 7680 5707 c
7680 5692.64059 7691.64059 5681 7706 5681 c
7720.35940 5681 7732 5692.64059 7732 5707 c
h
B*
0 0 0 scn
/BSt 1 def
0 0 0 SCN
80 w 1 J 1 j [] 0 d
7666 5827 m
7745 5827 l
B*
1 1 1 scn
/BSt 1 def
0 0 0 SCN
1 w 2 J 2 j [] 0 d
7732 5827 m
7732 5841.35940 7720.35940 5853 7706 5853 c
7691.64059 5853 7680 5841.35940 7680 5827 c
7680 5812.64059 7691.64059 5801 7706 5801 c
7720.35940 5801 7732 5812.64059 7732 5827 c
h
B*
0 0 0 scn
/BSt 1 def
0 0 0 SCN
0 w 1 J 1 j [] 0 d
7565 4207 m
7565 4228.53910 7547.53910 4246 7526 4246 c
7504.46089 4246 7487 4228.53910 7487 4207 c
7487 4185.46089 7504.46089 4168 7526 4168 c
7547.53910 4168 7565 4185.46089 7565 4207 c
h
B*
1 1 1 scn
/BSt 1 def
0 0 0 SCN
1 w 2 J 2 j [] 0 d
7543 4207 m
7543 4216.38884 7535.38884 4224 7526 4224 c
7516.61115 4224 7509 4216.38884 7509 4207 c
7509 4197.61115 7516.61115 4190 7526 4190 c
7535.38884 4190 7543 4197.61115 7543 4207 c
h
B*
0 0 0 scn
/BSt 1 def
0 0 0 SCN
0 w 1 J 1 j [] 0 d
7565 3971 m
7565 3992.53910 7547.53910 4010 7526 4010 c
7504.46089 4010 7487 3992.53910 7487 3971 c
7487 3949.46089 7504.46089 3932 7526 3932 c
7547.53910 3932 7565 3949.46089 7565 3971 c
h
B*
1 1 1 scn
/BSt 1 def
0 0 0 SCN
1 w 2 J 2 j [] 0 d
7543 3971 m
7543 3980.38884 7535.38884 3988 7526 3988 c
7516.61115 3988 7509 3980.38884 7509 3971 c
7509 3961.61115 7516.61115 3954 7526 3954 c
7535.38884 3954 7543 3961.61115 7543 3971 c
h
B*
0 0 0 scn
/BSt 1 def
0 0 0 SCN
0 w 1 J 1 j [] 0 d
8437 4101 m
8533 4101 l
8533 4197 l
8437 4197 l
8437 4101 l
h
B*
1 1 1 scn
/BSt 1 def
0 0 0 SCN
1 w 2 J 2 j [] 0 d
8516 4149 m
8516 4166.12082 8502.12082 4180 8485 4180 c
8467.87917 4180 8454 4166.12082 8454 4149 c
8454 4131.87917 8467.87917 4118 8485 4118 c
8502.12082 4118 8516 4131.87917 8516 4149 c
h
B*
0 0 0 scn
/BSt 1 def
0 0 0 SCN
0 w 1 J 1 j [] 0 d
8533 4385 m
8533 4411.50966 8511.50966 4433 8485 4433 c
8458.49033 4433 8437 4411.50966 8437 4385 c
8437 4358.49033 8458.49033 4337 8485 4337 c
8511.50966 4337 8533 4358.49033 8533 4385 c
h
B*
1 1 1 scn
/BSt 1 def
0 0 0 SCN
1 w 2 J 2 j [] 0 d
8516 4385 m
8516 4402.12082 8502.12082 4416 8485 4416 c
8467.87917 4416 8454 4402.12082 8454 4385 c
8454 4367.87917 8467.87917 4354 8485 4354 c
8502.12082 4354 8516 4367.87917 8516 4385 c
h
B*
0 0 0 scn
/BSt 1 def
0 0 0 SCN
0 w 1 J 1 j [] 0 d
8437 4940 m
8533 4940 l
8533 5036 l
8437 5036 l
8437 4940 l
h
B*
1 1 1 scn
/BSt 1 def
0 0 0 SCN
1 w 2 J 2 j [] 0 d
8516 4988 m
8516 5005.12082 8502.12082 5019 8485 5019 c
8467.87917 5019 8454 5005.12082 8454 4988 c
8454 4970.87917 8467.87917 4957 8485 4957 c
8502.12082 4957 8516 4970.87917 8516 4988 c
h
B*
0 0 0 scn
/BSt 1 def
0 0 0 SCN
0 w 1 J 1 j [] 0 d
8533 5224 m
8533 5250.50966 8511.50966 5272 8485 5272 c
8458.49033 5272 8437 5250.50966 8437 5224 c
8437 5197.49033 8458.49033 5176 8485 5176 c
8511.50966 5176 8533 5197.49033 8533 5224 c
h
B*
1 1 1 scn
/BSt 1 def
0 0 0 SCN
1 w 2 J 2 j [] 0 d
8516 5224 m
8516 5241.12082 8502.12082 5255 8485 5255 c
8467.87917 5255 8454 5241.12082 8454 5224 c
8454 5206.87917 8467.87917 5193 8485 5193 c
8502.12082 5193 8516 5206.87917 8516 5224 c
h
B*
0 0 0 scn
/BSt 1 def
0 0 0 SCN
0 w 1 J 1 j [] 0 d
8437 5540 m
8533 5540 l
8533 5636 l
8437 5636 l
8437 5540 l
h
B*
1 1 1 scn
/BSt 1 def
0 0 0 SCN
1 w 2 J 2 j [] 0 d
8516 5588 m
8516 5605.12082 8502.12082 5619 8485 5619 c
8467.87917 5619 8454 5605.12082 8454 5588 c
8454 5570.87917 8467.87917 5557 8485 5557 c
8502.12082 5557 8516 5570.87917 8516 5588 c
h
B*
0 0 0 scn
/BSt 1 def
0 0 0 SCN
0 w 1 J 1 j [] 0 d
8533 5824 m
8533 5850.50966 8511.50966 5872 8485 5872 c
8458.49033 5872 8437 5850.50966 8437 5824 c
8437 5797.49033 8458.49033 5776 8485 5776 c
8511.50966 5776 8533 5797.49033 8533 5824 c
h
B*
1 1 1 scn
/BSt 1 def
0 0 0 SCN
1 w 2 J 2 j [] 0 d
8516 5824 m
8516 5841.12082 8502.12082 5855 8485 5855 c
8467.87917 5855 8454 5841.12082 8454 5824 c
8454 5806.87917 8467.87917 5793 8485 5793 c
8502.12082 5793 8516 5806.87917 8516 5824 c
h
B*
0 0 0 scn
/BSt 1 def
0 0 0 SCN
0 w 1 J 1 j [] 0 d
8405 4808 m
8405 4830.09138 8387.09138 4848 8365 4848 c
8342.90861 4848 8325 4830.09138 8325 4808 c
8325 4785.90861 8342.90861 4768 8365 4768 c
8387.09138 4768 8405 4785.90861 8405 4808 c
h
B*
1 1 1 scn
/BSt 1 def
0 0 0 SCN
1 w 2 J 2 j [] 0 d
8379 4808 m
8379 4815.73198 8372.73198 4822 8365 4822 c
8357.26801 4822 8351 4815.73198 8351 4808 c
8351 4800.26801 8357.26801 4794 8365 4794 c
8372.73198 4794 8379 4800.26801 8379 4808 c
h
B*
0 0 0 scn
/BSt 1 def
0 0 0 SCN
0 w 1 J 1 j [] 0 d
7806 3969 m
7806 3991.09138 7788.09138 4009 7766 4009 c
7743.90861 4009 7726 3991.09138 7726 3969 c
7726 3946.90861 7743.90861 3929 7766 3929 c
7788.09138 3929 7806 3946.90861 7806 3969 c
h
B*
1 1 1 scn
/BSt 1 def
0 0 0 SCN
1 w 2 J 2 j [] 0 d
7787 3969 m
7787 3980.59797 7777.59797 3990 7766 3990 c
7754.40202 3990 7745 3980.59797 7745 3969 c
7745 3957.40202 7754.40202 3948 7766 3948 c
7777.59797 3948 7787 3957.40202 7787 3969 c
h
B*
0 0 0 scn
/BSt 1 def
0 0 0 SCN
0 w 1 J 1 j [] 0 d
6426 3819 m
6426 3841.09138 6408.09138 3859 6386 3859 c
6363.90861 3859 6346 3841.09138 6346 3819 c
6346 3796.90861 6363.90861 3779 6386 3779 c
6408.09138 3779 6426 3796.90861 6426 3819 c
h
B*
1 1 1 scn
/BSt 1 def
0 0 0 SCN
1 w 2 J 2 j [] 0 d
6407 3819 m
6407 3830.59797 6397.59797 3840 6386 3840 c
6374.40202 3840 6365 3830.59797 6365 3819 c
6365 3807.40202 6374.40202 3798 6386 3798 c
6397.59797 3798 6407 3807.40202 6407 3819 c
h
B*
0 0 0 scn
/BSt 1 def
0 0 0 SCN
0 w 1 J 1 j [] 0 d
6426 4029 m
6426 4051.09138 6408.09138 4069 6386 4069 c
6363.90861 4069 6346 4051.09138 6346 4029 c
6346 4006.90861 6363.90861 3989 6386 3989 c
6408.09138 3989 6426 4006.90861 6426 4029 c
h
B*
1 1 1 scn
/BSt 1 def
0 0 0 SCN
1 w 2 J 2 j [] 0 d
6407 4029 m
6407 4040.59797 6397.59797 4050 6386 4050 c
6374.40202 4050 6365 4040.59797 6365 4029 c
6365 4017.40202 6374.40202 4008 6386 4008 c
6397.59797 4008 6407 4017.40202 6407 4029 c
h
B*
0 0 0 scn
/BSt 1 def
0 0 0 SCN
0 w 1 J 1 j [] 0 d
7086 4388 m
7086 4410.09138 7068.09138 4428 7046 4428 c
7023.90861 4428 7006 4410.09138 7006 4388 c
7006 4365.90861 7023.90861 4348 7046 4348 c
7068.09138 4348 7086 4365.90861 7086 4388 c
h
B*
1 1 1 scn
/BSt 1 def
0 0 0 SCN
1 w 2 J 2 j [] 0 d
7067 4388 m
7067 4399.59797 7057.59797 4409 7046 4409 c
7034.40202 4409 7025 4399.59797 7025 4388 c
7025 4376.40202 7034.40202 4367 7046 4367 c
7057.59797 4367 7067 4376.40202 7067 4388 c
h
B*
0 0 0 scn
/BSt 1 def
0 0 0 SCN
0 w 1 J 1 j [] 0 d
6846 4388 m
6846 4410.09138 6828.09138 4428 6806 4428 c
6783.90861 4428 6766 4410.09138 6766 4388 c
6766 4365.90861 6783.90861 4348 6806 4348 c
6828.09138 4348 6846 4365.90861 6846 4388 c
h
B*
1 1 1 scn
/BSt 1 def
0 0 0 SCN
1 w 2 J 2 j [] 0 d
6827 4388 m
6827 4399.59797 6817.59797 4409 6806 4409 c
6794.40202 4409 6785 4399.59797 6785 4388 c
6785 4376.40202 6794.40202 4367 6806 4367 c
6817.59797 4367 6827 4376.40202 6827 4388 c
h
B*
0 0 0 scn
/BSt 1 def
0 0 0 SCN
0 w 1 J 1 j [] 0 d
7086 4269 m
7086 4291.09138 7068.09138 4309 7046 4309 c
7023.90861 4309 7006 4291.09138 7006 4269 c
7006 4246.90861 7023.90861 4229 7046 4229 c
7068.09138 4229 7086 4246.90861 7086 4269 c
h
B*
1 1 1 scn
/BSt 1 def
0 0 0 SCN
1 w 2 J 2 j [] 0 d
7067 4269 m
7067 4280.59797 7057.59797 4290 7046 4290 c
7034.40202 4290 7025 4280.59797 7025 4269 c
7025 4257.40202 7034.40202 4248 7046 4248 c
7057.59797 4248 7067 4257.40202 7067 4269 c
h
B*
0 0 0 scn
/BSt 1 def
0 0 0 SCN
0 w 1 J 1 j [] 0 d
6846 4269 m
6846 4291.09138 6828.09138 4309 6806 4309 c
6783.90861 4309 6766 4291.09138 6766 4269 c
6766 4246.90861 6783.90861 4229 6806 4229 c
6828.09138 4229 6846 4246.90861 6846 4269 c
h
B*
1 1 1 scn
/BSt 1 def
0 0 0 SCN
1 w 2 J 2 j [] 0 d
6827 4269 m
6827 4280.59797 6817.59797 4290 6806 4290 c
6794.40202 4290 6785 4280.59797 6785 4269 c
6785 4257.40202 6794.40202 4248 6806 4248 c
6817.59797 4248 6827 4257.40202 6827 4269 c
h
B*
0 0 0 scn
/BSt 1 def
0 0 0 SCN
0 w 1 J 1 j [] 0 d
6786 5228 m
6786 5250.09138 6768.09138 5268 6746 5268 c
6723.90861 5268 6706 5250.09138 6706 5228 c
6706 5205.90861 6723.90861 5188 6746 5188 c
6768.09138 5188 6786 5205.90861 6786 5228 c
h
B*
1 1 1 scn
/BSt 1 def
0 0 0 SCN
1 w 2 J 2 j [] 0 d
6767 5228 m
6767 5239.59797 6757.59797 5249 6746 5249 c
6734.40202 5249 6725 5239.59797 6725 5228 c
6725 5216.40202 6734.40202 5207 6746 5207 c
6757.59797 5207 6767 5216.40202 6767 5228 c
h
B*
0 0 0 scn
/BSt 1 def
0 0 0 SCN
0 w 1 J 1 j [] 0 d
6786 4988 m
6786 5010.09138 6768.09138 5028 6746 5028 c
6723.90861 5028 6706 5010.09138 6706 4988 c
6706 4965.90861 6723.90861 4948 6746 4948 c
6768.09138 4948 6786 4965.90861 6786 4988 c
h
B*
1 1 1 scn
/BSt 1 def
0 0 0 SCN
1 w 2 J 2 j [] 0 d
6767 4988 m
6767 4999.59797 6757.59797 5009 6746 5009 c
6734.40202 5009 6725 4999.59797 6725 4988 c
6725 4976.40202 6734.40202 4967 6746 4967 c
6757.59797 4967 6767 4976.40202 6767 4988 c
h
B*
0 0 0 scn
/BSt 1 def
0 0 0 SCN
0 w 1 J 1 j [] 0 d
6786 4748 m
6786 4770.09138 6768.09138 4788 6746 4788 c
6723.90861 4788 6706 4770.09138 6706 4748 c
6706 4725.90861 6723.90861 4708 6746 4708 c
6768.09138 4708 6786 4725.90861 6786 4748 c
h
B*
1 1 1 scn
/BSt 1 def
0 0 0 SCN
1 w 2 J 2 j [] 0 d
6767 4748 m
6767 4759.59797 6757.59797 4769 6746 4769 c
6734.40202 4769 6725 4759.59797 6725 4748 c
6725 4736.40202 6734.40202 4727 6746 4727 c
6757.59797 4727 6767 4736.40202 6767 4748 c
h
B*
0 0 0 scn
/BSt 1 def
0 0 0 SCN
0 w 1 J 1 j [] 0 d
5527 5647 m
5527 5669.09138 5509.09138 5687 5487 5687 c
5464.90861 5687 5447 5669.09138 5447 5647 c
5447 5624.90861 5464.90861 5607 5487 5607 c
5509.09138 5607 5527 5624.90861 5527 5647 c
h
B*
1 1 1 scn
/BSt 1 def
0 0 0 SCN
1 w 2 J 2 j [] 0 d
5508 5647 m
5508 5658.59797 5498.59797 5668 5487 5668 c
5475.40202 5668 5466 5658.59797 5466 5647 c
5466 5635.40202 5475.40202 5626 5487 5626 c
5498.59797 5626 5508 5635.40202 5508 5647 c
h
B*
0 0 0 scn
/BSt 1 def
0 0 0 SCN
0 w 1 J 1 j [] 0 d
5587 3909 m
5587 3964.22847 5542.22847 4009 5487 4009 c
5431.77152 4009 5387 3964.22847 5387 3909 c
5387 3853.77152 5431.77152 3809 5487 3809 c
5542.22847 3809 5587 3853.77152 5587 3909 c
h
B*
1 1 1 scn
/BSt 1 def
0 0 0 SCN
1 w 2 J 2 j [] 0 d
5563 3909 m
5563 3950.97364 5528.97364 3985 5487 3985 c
5445.02635 3985 5411 3950.97364 5411 3909 c
5411 3867.02635 5445.02635 3833 5487 3833 c
5528.97364 3833 5563 3867.02635 5563 3909 c
h
B*
0 0 0 scn
/BSt 1 def
0 0 0 SCN
0 w 1 J 1 j [] 0 d
5587 6067 m
5587 6122.22847 5542.22847 6167 5487 6167 c
5431.77152 6167 5387 6122.22847 5387 6067 c
5387 6011.77152 5431.77152 5967 5487 5967 c
5542.22847 5967 5587 6011.77152 5587 6067 c
h
B*
1 1 1 scn
/BSt 1 def
0 0 0 SCN
1 w 2 J 2 j [] 0 d
5563 6067 m
5563 6108.97364 5528.97364 6143 5487 6143 c
5445.02635 6143 5411 6108.97364 5411 6067 c
5411 6025.02635 5445.02635 5991 5487 5991 c
5528.97364 5991 5563 6025.02635 5563 6067 c
h
B*
0 0 0 scn
/BSt 1 def
0 0 0 SCN
0 w 1 J 1 j [] 0 d
7806 6067 m
7806 6122.22847 7761.22847 6167 7706 6167 c
7650.77152 6167 7606 6122.22847 7606 6067 c
7606 6011.77152 7650.77152 5967 7706 5967 c
7761.22847 5967 7806 6011.77152 7806 6067 c
h
B*
1 1 1 scn
/BSt 1 def
0 0 0 SCN
1 w 2 J 2 j [] 0 d
7782 6067 m
7782 6108.97364 7747.97364 6143 7706 6143 c
7664.02635 6143 7630 6108.97364 7630 6067 c
7630 6025.02635 7664.02635 5991 7706 5991 c
7747.97364 5991 7782 6025.02635 7782 6067 c
h
B*
0 0 0 scn
/BSt 1 def
0 0 0 SCN
0 w 1 J 1 j [] 0 d
8225 4089 m
8225 4144.22847 8180.22847 4189 8125 4189 c
8069.77152 4189 8025 4144.22847 8025 4089 c
8025 4033.77152 8069.77152 3989 8125 3989 c
8180.22847 3989 8225 4033.77152 8225 4089 c
h
B*
1 1 1 scn
/BSt 1 def
0 0 0 SCN
1 w 2 J 2 j [] 0 d
8201 4089 m
8201 4130.97364 8166.97364 4165 8125 4165 c
8083.02635 4165 8049 4130.97364 8049 4089 c
8049 4047.02635 8083.02635 4013 8125 4013 c
8166.97364 4013 8201 4047.02635 8201 4089 c
h
B*
0 0 0 scn
/BSt 1 def
0 0 0 SCN
0 w 1 J 1 j [] 0 d
5247 6307 m
7945 6307 l
B*
5247 3609 m
5247 6307 l
B*
7886 3609 m
8245 3969 l
B*
8245 3969 m
8665 3969 l
B*
8665 3969 m
8785 4089 l
B*
8785 4089 m
8785 5887 l
B*
8785 5887 m
8665 6007 l
B*
8665 6007 m
8245 6007 l
B*
8245 6007 m
7945 6307 l
B*
7886 3609 m
5247 3609 l
B*
Q
Q q
q
0 0 0 scn
/BSt 1 def
0 0 0 SCN
0 w 1 J 1 j [] 0 d
Q
q
0 0 0 scn
/BSt 1 def
0 0 0 SCN
0 w 1 J 1 j [] 0 d
Q
Q q
q
0.080000000 0 0 0.080000000 0 0 cm
0 0 0 scn
/BSt 0 def
0 0 0 SCN
0 w 2 J 2 j [] 0 d
Q
Q q
q
0 0 0 scn
/BSt 0 def
0 0 0 SCN
0 w 2 J 2 j [] 0 d
Q
Q q
402 402 m
13631 402 l
13631 9515 l
402 9515 l
402 402 l
h
W* n
q
0 0 0 scn
/BSt 0 def
0 0 0 SCN
0 w 2 J 2 j [] 0 d
Q
Q q
402 402 m
13631 402 l
13631 9515 l
402 9515 l
402 402 l
h
W* n
5246 3608 m
8786 3608 l
8786 6308 l
5246 6308 l
5246 3608 l
h
W* n
q
0 0 0 scn
/BSt 0 def
0 0 0 SCN
0 w 2 J 2 j [] 0 d
Q
q
0 0 0 scn
/BSt 1 def
0 0 0 SCN
0 w 1 J 1 j [] 0 d

Q QP
%%Trailer
%%Pages: 1 
%%DocumentFonts:
%%EOF
