%
M48
M72
T01C0.0197
T02C0.0276
T03C0.0320
T04C0.0400
%
T01
X7660Y10252
X8660Y9752
X6660Y10752
X5660Y11252
X12410Y20127
X12660Y20627
X12660Y21127
X12660Y22252
X12660Y22752
X12660Y23752
X12660Y24252
X12660Y25127
X12660Y25627
X12035Y25377
X10660Y21252
T02
X16160Y8744
X16160Y7760
T03
X11160Y17252
X10160Y17252
X9160Y17252
X8160Y17252
X7160Y17252
X6160Y17252
X5160Y17252
X4160Y17252
X4160Y20252
X5160Y20252
X6160Y20252
X7160Y20252
X8160Y20252
X9160Y20252
X10160Y20252
X11160Y20252
X11160Y22252
X10160Y22252
X9160Y22252
X8160Y22252
X7160Y22252
X6160Y22252
X5160Y22252
X5160Y25252
X6160Y25252
X7160Y25252
X8160Y25252
X9160Y25252
X10160Y25252
X11160Y25252
T04
X5160Y7752
X5160Y8752
X6160Y8752
X6160Y7752
X7160Y7752
X7160Y8752
X8160Y8752
X8160Y7752
X9160Y7752
X9160Y8752
X10160Y8752
X10160Y7752
X11160Y7752
X11160Y8752
X12160Y8752
X12160Y7752
X12160Y12752
X11160Y12752
X11160Y13752
X12160Y13752
X10160Y13752
X10160Y12752
X9160Y12752
X9160Y13752
X8160Y13752
X8160Y12752
X7160Y12752
X7160Y13752
X6160Y13752
X6160Y12752
X5160Y12752
X5160Y13752
X1660Y13252
X1660Y12252
X1660Y11252
X1660Y10252
X1660Y14252
X1660Y15252
X1660Y16252
X1660Y17252
X1660Y18252
X1660Y19252
X1660Y20752
X1660Y21752
X1660Y22752
X1660Y23752
X1660Y24752
X1660Y25752
X1660Y26752
X1660Y27752
X4660Y27752
X5660Y27752
X14660Y18752
X14660Y17752
X14660Y16752
X14660Y15752
X15660Y15752
X15660Y16752
X15660Y17752
X15660Y18752
X17160Y22252
X17160Y23252
X17160Y24252
X17160Y25252
X18160Y25252
X18160Y24252
X18160Y23252
X18160Y22252
X20660Y22752
X20660Y23752
X20660Y24752
X20660Y25752
X20660Y26752
X20660Y27752
X20660Y20752
X20660Y19752
X20660Y18752
X20660Y17752
X20660Y16752
X20660Y15752
X20660Y14752
X20660Y13752
X19160Y12252
X19160Y11252
X19160Y9752
X19160Y8752
M30
