G75*
%MOIN*%
%OFA0B0*%
%FSLAX25Y25*%
%IPPOS*%
%LPD*%
%AMOC8*
5,1,8,0,0,1.08239X$1,22.5*
%
%ADD10C,0.05200*%
%ADD11C,0.07400*%
%ADD12R,0.07400X0.07400*%
%ADD13R,0.06500X0.06500*%
%ADD14C,0.06500*%
%ADD15R,0.03937X0.04331*%
%ADD16R,0.04331X0.03937*%
%ADD17C,0.01200*%
%ADD18C,0.03569*%
%ADD19C,0.01000*%
%ADD20C,0.02400*%
%ADD21C,0.03200*%
D10*
X0041600Y0169924D02*
X0041600Y0175124D01*
X0051600Y0175124D02*
X0051600Y0169924D01*
X0061600Y0169924D02*
X0061600Y0175124D01*
X0071600Y0175124D02*
X0071600Y0169924D01*
X0081600Y0169924D02*
X0081600Y0175124D01*
X0091600Y0175124D02*
X0091600Y0169924D01*
X0101600Y0169924D02*
X0101600Y0175124D01*
X0111600Y0175124D02*
X0111600Y0169924D01*
X0111600Y0199924D02*
X0111600Y0205124D01*
X0101600Y0205124D02*
X0101600Y0199924D01*
X0091600Y0199924D02*
X0091600Y0205124D01*
X0081600Y0205124D02*
X0081600Y0199924D01*
X0071600Y0199924D02*
X0071600Y0205124D01*
X0061600Y0205124D02*
X0061600Y0199924D01*
X0051600Y0199924D02*
X0051600Y0205124D01*
X0041600Y0205124D02*
X0041600Y0199924D01*
X0051600Y0219924D02*
X0051600Y0225124D01*
X0061600Y0225124D02*
X0061600Y0219924D01*
X0071600Y0219924D02*
X0071600Y0225124D01*
X0081600Y0225124D02*
X0081600Y0219924D01*
X0091600Y0219924D02*
X0091600Y0225124D01*
X0101600Y0225124D02*
X0101600Y0219924D01*
X0111600Y0219924D02*
X0111600Y0225124D01*
X0111600Y0249924D02*
X0111600Y0255124D01*
X0101600Y0255124D02*
X0101600Y0249924D01*
X0091600Y0249924D02*
X0091600Y0255124D01*
X0081600Y0255124D02*
X0081600Y0249924D01*
X0071600Y0249924D02*
X0071600Y0255124D01*
X0061600Y0255124D02*
X0061600Y0249924D01*
X0051600Y0249924D02*
X0051600Y0255124D01*
D11*
X0046600Y0277524D03*
X0016600Y0277524D03*
X0016600Y0267524D03*
X0016600Y0257524D03*
X0016600Y0247524D03*
X0016600Y0237524D03*
X0016600Y0227524D03*
X0016600Y0217524D03*
X0016600Y0207524D03*
X0016600Y0192524D03*
X0016600Y0182524D03*
X0016600Y0172524D03*
X0016600Y0162524D03*
X0016600Y0152524D03*
X0016600Y0142524D03*
X0016600Y0132524D03*
X0016600Y0122524D03*
X0016600Y0112524D03*
X0016600Y0102524D03*
X0051600Y0087524D03*
X0051600Y0077524D03*
X0061600Y0077524D03*
X0061600Y0087524D03*
X0071600Y0087524D03*
X0071600Y0077524D03*
X0081600Y0077524D03*
X0081600Y0087524D03*
X0091600Y0087524D03*
X0091600Y0077524D03*
X0101600Y0077524D03*
X0101600Y0087524D03*
X0111600Y0087524D03*
X0111600Y0077524D03*
X0121600Y0077524D03*
X0121600Y0087524D03*
X0121600Y0127524D03*
X0121600Y0137524D03*
X0111600Y0137524D03*
X0111600Y0127524D03*
X0101600Y0127524D03*
X0101600Y0137524D03*
X0091600Y0137524D03*
X0091600Y0127524D03*
X0081600Y0127524D03*
X0081600Y0137524D03*
X0071600Y0137524D03*
X0071600Y0127524D03*
X0061600Y0127524D03*
X0061600Y0137524D03*
X0051600Y0137524D03*
X0051600Y0127524D03*
X0146600Y0157524D03*
X0146600Y0167524D03*
X0146600Y0177524D03*
X0146600Y0187524D03*
X0156600Y0187524D03*
X0156600Y0177524D03*
X0156600Y0167524D03*
X0156600Y0157524D03*
X0191600Y0122524D03*
X0206600Y0137524D03*
X0206600Y0147524D03*
X0206600Y0157524D03*
X0206600Y0167524D03*
X0206600Y0177524D03*
X0206600Y0187524D03*
X0206600Y0197524D03*
X0206600Y0207524D03*
X0206600Y0227524D03*
X0206600Y0237524D03*
X0206600Y0247524D03*
X0206600Y0257524D03*
X0206600Y0267524D03*
X0206600Y0277524D03*
X0181600Y0252524D03*
X0181600Y0242524D03*
X0181600Y0232524D03*
X0181600Y0222524D03*
X0171600Y0222524D03*
X0171600Y0232524D03*
X0171600Y0242524D03*
X0171600Y0252524D03*
X0191600Y0097524D03*
D12*
X0191600Y0087524D03*
X0191600Y0112524D03*
X0056600Y0277524D03*
D13*
X0161600Y0087445D03*
D14*
X0161600Y0077602D03*
D15*
X0041600Y0184177D03*
X0041600Y0190870D03*
D16*
X0038254Y0242524D03*
X0044946Y0242524D03*
D17*
X0003400Y0300684D02*
X0003400Y0059324D01*
X0218501Y0059324D01*
X0218501Y0300684D01*
X0003400Y0300684D01*
X0003400Y0299623D02*
X0218501Y0299623D01*
X0218501Y0298424D02*
X0003400Y0298424D01*
X0003400Y0297226D02*
X0218501Y0297226D01*
X0218501Y0296027D02*
X0003400Y0296027D01*
X0003400Y0294829D02*
X0218501Y0294829D01*
X0218501Y0293630D02*
X0003400Y0293630D01*
X0003400Y0292432D02*
X0218501Y0292432D01*
X0218501Y0291233D02*
X0003400Y0291233D01*
X0003400Y0290035D02*
X0218501Y0290035D01*
X0218501Y0288836D02*
X0053681Y0288836D01*
X0052959Y0289558D02*
X0052077Y0289924D01*
X0026123Y0289924D01*
X0025241Y0289558D01*
X0024565Y0288883D01*
X0018410Y0282727D01*
X0017694Y0283024D01*
X0015506Y0283024D01*
X0013484Y0282186D01*
X0011937Y0280639D01*
X0011100Y0278618D01*
X0011100Y0276430D01*
X0011937Y0274408D01*
X0013484Y0272861D01*
X0014299Y0272524D01*
X0013484Y0272186D01*
X0011937Y0270639D01*
X0011100Y0268618D01*
X0011100Y0266430D01*
X0011937Y0264408D01*
X0013484Y0262861D01*
X0014299Y0262524D01*
X0013484Y0262186D01*
X0011937Y0260639D01*
X0011100Y0258618D01*
X0011100Y0256430D01*
X0011937Y0254408D01*
X0013484Y0252861D01*
X0014299Y0252524D01*
X0013484Y0252186D01*
X0011937Y0250639D01*
X0011100Y0248618D01*
X0011100Y0246430D01*
X0011937Y0244408D01*
X0013484Y0242861D01*
X0014299Y0242524D01*
X0013484Y0242186D01*
X0011937Y0240639D01*
X0011100Y0238618D01*
X0011100Y0236430D01*
X0011937Y0234408D01*
X0013484Y0232861D01*
X0014299Y0232524D01*
X0013484Y0232186D01*
X0011937Y0230639D01*
X0011100Y0228618D01*
X0011100Y0226430D01*
X0011937Y0224408D01*
X0013484Y0222861D01*
X0014299Y0222524D01*
X0013484Y0222186D01*
X0011937Y0220639D01*
X0011100Y0218618D01*
X0011100Y0216430D01*
X0011937Y0214408D01*
X0013484Y0212861D01*
X0014299Y0212524D01*
X0013484Y0212186D01*
X0011937Y0210639D01*
X0011100Y0208618D01*
X0011100Y0206430D01*
X0011937Y0204408D01*
X0013484Y0202861D01*
X0015506Y0202024D01*
X0017694Y0202024D01*
X0019715Y0202861D01*
X0021263Y0204408D01*
X0022100Y0206430D01*
X0022100Y0208618D01*
X0021263Y0210639D01*
X0019715Y0212186D01*
X0018901Y0212524D01*
X0019715Y0212861D01*
X0021263Y0214408D01*
X0022100Y0216430D01*
X0022100Y0218618D01*
X0021263Y0220639D01*
X0019715Y0222186D01*
X0018901Y0222524D01*
X0019715Y0222861D01*
X0021263Y0224408D01*
X0022100Y0226430D01*
X0022100Y0228618D01*
X0021263Y0230639D01*
X0019715Y0232186D01*
X0018901Y0232524D01*
X0019715Y0232861D01*
X0021263Y0234408D01*
X0022100Y0236430D01*
X0022100Y0238618D01*
X0021263Y0240639D01*
X0019715Y0242186D01*
X0018901Y0242524D01*
X0019715Y0242861D01*
X0021263Y0244408D01*
X0022100Y0246430D01*
X0022100Y0248618D01*
X0021263Y0250639D01*
X0019715Y0252186D01*
X0018901Y0252524D01*
X0019715Y0252861D01*
X0021263Y0254408D01*
X0022100Y0256430D01*
X0022100Y0258618D01*
X0021263Y0260639D01*
X0019715Y0262186D01*
X0018901Y0262524D01*
X0019715Y0262861D01*
X0021263Y0264408D01*
X0021559Y0265124D01*
X0042077Y0265124D01*
X0042959Y0265489D01*
X0047959Y0270489D01*
X0048635Y0271164D01*
X0049000Y0272046D01*
X0049000Y0272565D01*
X0049715Y0272861D01*
X0051100Y0274245D01*
X0051100Y0273078D01*
X0052154Y0272024D01*
X0061046Y0272024D01*
X0062100Y0273078D01*
X0062100Y0281969D01*
X0061046Y0283024D01*
X0058991Y0283024D01*
X0058900Y0283242D01*
X0058900Y0283476D01*
X0058735Y0283642D01*
X0058635Y0283883D01*
X0052959Y0289558D01*
X0051600Y0287524D02*
X0056600Y0282524D01*
X0058475Y0284042D02*
X0218501Y0284042D01*
X0218501Y0282844D02*
X0208128Y0282844D01*
X0207694Y0283024D02*
X0205506Y0283024D01*
X0203484Y0282186D01*
X0201937Y0280639D01*
X0201100Y0278618D01*
X0201100Y0276430D01*
X0201937Y0274408D01*
X0203484Y0272861D01*
X0204299Y0272524D01*
X0203484Y0272186D01*
X0201937Y0270639D01*
X0201100Y0268618D01*
X0201100Y0266430D01*
X0201937Y0264408D01*
X0203484Y0262861D01*
X0204299Y0262524D01*
X0203484Y0262186D01*
X0201937Y0260639D01*
X0201100Y0258618D01*
X0201100Y0256430D01*
X0201937Y0254408D01*
X0203484Y0252861D01*
X0204299Y0252524D01*
X0203484Y0252186D01*
X0201937Y0250639D01*
X0201100Y0248618D01*
X0201100Y0246430D01*
X0201937Y0244408D01*
X0203484Y0242861D01*
X0204299Y0242524D01*
X0203484Y0242186D01*
X0201937Y0240639D01*
X0201100Y0238618D01*
X0201100Y0236430D01*
X0201937Y0234408D01*
X0203484Y0232861D01*
X0204299Y0232524D01*
X0203484Y0232186D01*
X0201937Y0230639D01*
X0201100Y0228618D01*
X0201100Y0226430D01*
X0201937Y0224408D01*
X0203484Y0222861D01*
X0205506Y0222024D01*
X0207694Y0222024D01*
X0209715Y0222861D01*
X0211263Y0224408D01*
X0212100Y0226430D01*
X0212100Y0228618D01*
X0211263Y0230639D01*
X0209715Y0232186D01*
X0208901Y0232524D01*
X0209715Y0232861D01*
X0211263Y0234408D01*
X0212100Y0236430D01*
X0212100Y0238618D01*
X0211263Y0240639D01*
X0209715Y0242186D01*
X0208901Y0242524D01*
X0209715Y0242861D01*
X0211263Y0244408D01*
X0212100Y0246430D01*
X0212100Y0248618D01*
X0211263Y0250639D01*
X0209715Y0252186D01*
X0208901Y0252524D01*
X0209715Y0252861D01*
X0211263Y0254408D01*
X0212100Y0256430D01*
X0212100Y0258618D01*
X0211263Y0260639D01*
X0209715Y0262186D01*
X0208901Y0262524D01*
X0209715Y0262861D01*
X0211263Y0264408D01*
X0212100Y0266430D01*
X0212100Y0268618D01*
X0211263Y0270639D01*
X0209715Y0272186D01*
X0208901Y0272524D01*
X0209715Y0272861D01*
X0211263Y0274408D01*
X0212100Y0276430D01*
X0212100Y0278618D01*
X0211263Y0280639D01*
X0209715Y0282186D01*
X0207694Y0283024D01*
X0210257Y0281645D02*
X0218501Y0281645D01*
X0218501Y0280447D02*
X0211342Y0280447D01*
X0211839Y0279248D02*
X0218501Y0279248D01*
X0218501Y0278050D02*
X0212100Y0278050D01*
X0212100Y0276851D02*
X0218501Y0276851D01*
X0218501Y0275653D02*
X0211778Y0275653D01*
X0211282Y0274454D02*
X0218501Y0274454D01*
X0218501Y0273256D02*
X0210110Y0273256D01*
X0209845Y0272057D02*
X0218501Y0272057D01*
X0218501Y0270859D02*
X0211043Y0270859D01*
X0211668Y0269660D02*
X0218501Y0269660D01*
X0218501Y0268462D02*
X0212100Y0268462D01*
X0212100Y0267263D02*
X0218501Y0267263D01*
X0218501Y0266065D02*
X0211949Y0266065D01*
X0211452Y0264866D02*
X0218501Y0264866D01*
X0218501Y0263668D02*
X0210522Y0263668D01*
X0209033Y0262469D02*
X0218501Y0262469D01*
X0218501Y0261271D02*
X0210631Y0261271D01*
X0211498Y0260072D02*
X0218501Y0260072D01*
X0218501Y0258874D02*
X0211994Y0258874D01*
X0212100Y0257675D02*
X0218501Y0257675D01*
X0218501Y0256477D02*
X0212100Y0256477D01*
X0211623Y0255278D02*
X0218501Y0255278D01*
X0218501Y0254079D02*
X0210934Y0254079D01*
X0209736Y0252881D02*
X0218501Y0252881D01*
X0218501Y0251682D02*
X0210219Y0251682D01*
X0211327Y0250484D02*
X0218501Y0250484D01*
X0218501Y0249285D02*
X0211823Y0249285D01*
X0212100Y0248087D02*
X0218501Y0248087D01*
X0218501Y0246888D02*
X0212100Y0246888D01*
X0211794Y0245690D02*
X0218501Y0245690D01*
X0218501Y0244491D02*
X0211297Y0244491D01*
X0210147Y0243293D02*
X0218501Y0243293D01*
X0218501Y0242094D02*
X0209807Y0242094D01*
X0211006Y0240896D02*
X0218501Y0240896D01*
X0218501Y0239697D02*
X0211653Y0239697D01*
X0212100Y0238499D02*
X0218501Y0238499D01*
X0218501Y0237300D02*
X0212100Y0237300D01*
X0211964Y0236102D02*
X0218501Y0236102D01*
X0218501Y0234903D02*
X0211468Y0234903D01*
X0210559Y0233705D02*
X0218501Y0233705D01*
X0218501Y0232506D02*
X0208943Y0232506D01*
X0210594Y0231308D02*
X0218501Y0231308D01*
X0218501Y0230109D02*
X0211482Y0230109D01*
X0211979Y0228911D02*
X0218501Y0228911D01*
X0218501Y0227712D02*
X0212100Y0227712D01*
X0212100Y0226514D02*
X0218501Y0226514D01*
X0218501Y0225315D02*
X0211638Y0225315D01*
X0210971Y0224117D02*
X0218501Y0224117D01*
X0218501Y0222918D02*
X0209773Y0222918D01*
X0203427Y0222918D02*
X0187100Y0222918D01*
X0187100Y0223618D02*
X0186263Y0225639D01*
X0184715Y0227186D01*
X0183901Y0227524D01*
X0184715Y0227861D01*
X0186263Y0229408D01*
X0187100Y0231430D01*
X0187100Y0233618D01*
X0186263Y0235639D01*
X0184715Y0237186D01*
X0183901Y0237524D01*
X0184715Y0237861D01*
X0186263Y0239408D01*
X0187100Y0241430D01*
X0187100Y0243618D01*
X0186263Y0245639D01*
X0184715Y0247186D01*
X0183901Y0247524D01*
X0184715Y0247861D01*
X0186263Y0249408D01*
X0187100Y0251430D01*
X0187100Y0253618D01*
X0186263Y0255639D01*
X0184715Y0257186D01*
X0182694Y0258024D01*
X0180506Y0258024D01*
X0178484Y0257186D01*
X0176937Y0255639D01*
X0176600Y0254825D01*
X0176263Y0255639D01*
X0174715Y0257186D01*
X0172694Y0258024D01*
X0170506Y0258024D01*
X0168484Y0257186D01*
X0166937Y0255639D01*
X0166100Y0253618D01*
X0166100Y0251430D01*
X0166937Y0249408D01*
X0168484Y0247861D01*
X0169299Y0247524D01*
X0168484Y0247186D01*
X0166937Y0245639D01*
X0166100Y0243618D01*
X0166100Y0241430D01*
X0166937Y0239408D01*
X0168484Y0237861D01*
X0169299Y0237524D01*
X0168484Y0237186D01*
X0166937Y0235639D01*
X0166100Y0233618D01*
X0166100Y0231430D01*
X0166937Y0229408D01*
X0168484Y0227861D01*
X0169299Y0227524D01*
X0168484Y0227186D01*
X0166937Y0225639D01*
X0166100Y0223618D01*
X0166100Y0221430D01*
X0166937Y0219408D01*
X0168484Y0217861D01*
X0170506Y0217024D01*
X0172694Y0217024D01*
X0174715Y0217861D01*
X0176263Y0219408D01*
X0176600Y0220223D01*
X0176937Y0219408D01*
X0178484Y0217861D01*
X0180506Y0217024D01*
X0182694Y0217024D01*
X0184715Y0217861D01*
X0186263Y0219408D01*
X0187100Y0221430D01*
X0187100Y0223618D01*
X0186893Y0224117D02*
X0202229Y0224117D01*
X0201562Y0225315D02*
X0186397Y0225315D01*
X0185388Y0226514D02*
X0201100Y0226514D01*
X0201100Y0227712D02*
X0184356Y0227712D01*
X0185765Y0228911D02*
X0201221Y0228911D01*
X0201718Y0230109D02*
X0186553Y0230109D01*
X0187050Y0231308D02*
X0202606Y0231308D01*
X0204257Y0232506D02*
X0187100Y0232506D01*
X0187064Y0233705D02*
X0202641Y0233705D01*
X0201732Y0234903D02*
X0186567Y0234903D01*
X0185800Y0236102D02*
X0201236Y0236102D01*
X0201100Y0237300D02*
X0184440Y0237300D01*
X0185353Y0238499D02*
X0201100Y0238499D01*
X0201547Y0239697D02*
X0186382Y0239697D01*
X0186879Y0240896D02*
X0202194Y0240896D01*
X0203393Y0242094D02*
X0187100Y0242094D01*
X0187100Y0243293D02*
X0203053Y0243293D01*
X0201903Y0244491D02*
X0186738Y0244491D01*
X0186212Y0245690D02*
X0201406Y0245690D01*
X0201100Y0246888D02*
X0185013Y0246888D01*
X0184941Y0248087D02*
X0201100Y0248087D01*
X0201377Y0249285D02*
X0186140Y0249285D01*
X0186708Y0250484D02*
X0201873Y0250484D01*
X0202981Y0251682D02*
X0187100Y0251682D01*
X0187100Y0252881D02*
X0203464Y0252881D01*
X0202266Y0254079D02*
X0186909Y0254079D01*
X0186412Y0255278D02*
X0201577Y0255278D01*
X0201100Y0256477D02*
X0185425Y0256477D01*
X0183536Y0257675D02*
X0201100Y0257675D01*
X0201206Y0258874D02*
X0114045Y0258874D01*
X0114092Y0258854D02*
X0112475Y0259524D01*
X0110725Y0259524D01*
X0109108Y0258854D01*
X0107870Y0257616D01*
X0107200Y0255999D01*
X0107200Y0250176D01*
X0106000Y0251376D01*
X0106000Y0255999D01*
X0105330Y0257616D01*
X0104092Y0258854D01*
X0102475Y0259524D01*
X0100725Y0259524D01*
X0099108Y0258854D01*
X0097870Y0257616D01*
X0097200Y0255999D01*
X0097200Y0249048D01*
X0097870Y0247431D01*
X0099108Y0246193D01*
X0100725Y0245524D01*
X0102475Y0245524D01*
X0104092Y0246193D01*
X0104300Y0246401D01*
X0104300Y0228646D01*
X0104092Y0228854D01*
X0102475Y0229524D01*
X0100725Y0229524D01*
X0099108Y0228854D01*
X0097870Y0227616D01*
X0097200Y0225999D01*
X0097200Y0219048D01*
X0097870Y0217431D01*
X0099108Y0216193D01*
X0100725Y0215524D01*
X0102475Y0215524D01*
X0104092Y0216193D01*
X0104300Y0216401D01*
X0104300Y0215293D01*
X0103561Y0214554D01*
X0103016Y0213237D01*
X0103016Y0211811D01*
X0103561Y0210493D01*
X0104570Y0209485D01*
X0105887Y0208939D01*
X0107313Y0208939D01*
X0108630Y0209485D01*
X0109639Y0210493D01*
X0110184Y0211811D01*
X0110184Y0213237D01*
X0109639Y0214554D01*
X0108900Y0215293D01*
X0108900Y0246401D01*
X0109108Y0246193D01*
X0110725Y0245524D01*
X0112475Y0245524D01*
X0114092Y0246193D01*
X0115330Y0247431D01*
X0116000Y0249048D01*
X0116000Y0255999D01*
X0115330Y0257616D01*
X0114092Y0258854D01*
X0115271Y0257675D02*
X0169664Y0257675D01*
X0167775Y0256477D02*
X0115802Y0256477D01*
X0116000Y0255278D02*
X0166788Y0255278D01*
X0166291Y0254079D02*
X0116000Y0254079D01*
X0116000Y0252881D02*
X0166100Y0252881D01*
X0166100Y0251682D02*
X0116000Y0251682D01*
X0116000Y0250484D02*
X0166492Y0250484D01*
X0167060Y0249285D02*
X0116000Y0249285D01*
X0115602Y0248087D02*
X0168259Y0248087D01*
X0168187Y0246888D02*
X0114787Y0246888D01*
X0112877Y0245690D02*
X0166988Y0245690D01*
X0166462Y0244491D02*
X0108900Y0244491D01*
X0108900Y0243293D02*
X0166100Y0243293D01*
X0166100Y0242094D02*
X0108900Y0242094D01*
X0108900Y0240896D02*
X0166321Y0240896D01*
X0166818Y0239697D02*
X0108900Y0239697D01*
X0108900Y0238499D02*
X0167847Y0238499D01*
X0168760Y0237300D02*
X0108900Y0237300D01*
X0108900Y0236102D02*
X0167400Y0236102D01*
X0166633Y0234903D02*
X0108900Y0234903D01*
X0108900Y0233705D02*
X0166136Y0233705D01*
X0166100Y0232506D02*
X0108900Y0232506D01*
X0108900Y0231308D02*
X0166150Y0231308D01*
X0166647Y0230109D02*
X0108900Y0230109D01*
X0108900Y0228911D02*
X0167435Y0228911D01*
X0168844Y0227712D02*
X0108900Y0227712D01*
X0108900Y0226514D02*
X0167812Y0226514D01*
X0166803Y0225315D02*
X0108900Y0225315D01*
X0108900Y0224117D02*
X0166307Y0224117D01*
X0166100Y0222918D02*
X0108900Y0222918D01*
X0108900Y0221720D02*
X0166100Y0221720D01*
X0166476Y0220521D02*
X0108900Y0220521D01*
X0108900Y0219323D02*
X0167023Y0219323D01*
X0168221Y0218124D02*
X0108900Y0218124D01*
X0108900Y0216926D02*
X0218501Y0216926D01*
X0218501Y0218124D02*
X0184979Y0218124D01*
X0186177Y0219323D02*
X0218501Y0219323D01*
X0218501Y0220521D02*
X0186724Y0220521D01*
X0187100Y0221720D02*
X0218501Y0221720D01*
X0218501Y0215727D02*
X0108900Y0215727D01*
X0109649Y0214529D02*
X0218501Y0214529D01*
X0218501Y0213330D02*
X0110146Y0213330D01*
X0110184Y0212132D02*
X0203430Y0212132D01*
X0203484Y0212186D02*
X0201937Y0210639D01*
X0201100Y0208618D01*
X0201100Y0206430D01*
X0201937Y0204408D01*
X0203484Y0202861D01*
X0205506Y0202024D01*
X0207694Y0202024D01*
X0209715Y0202861D01*
X0211263Y0204408D01*
X0212100Y0206430D01*
X0212100Y0208618D01*
X0211263Y0210639D01*
X0209715Y0212186D01*
X0207694Y0213024D01*
X0205506Y0213024D01*
X0203484Y0212186D01*
X0202231Y0210933D02*
X0109821Y0210933D01*
X0108880Y0209735D02*
X0201563Y0209735D01*
X0201100Y0208536D02*
X0114410Y0208536D01*
X0114092Y0208854D02*
X0112475Y0209524D01*
X0110725Y0209524D01*
X0109108Y0208854D01*
X0107870Y0207616D01*
X0107200Y0205999D01*
X0107200Y0199048D01*
X0107870Y0197431D01*
X0109108Y0196193D01*
X0110725Y0195524D01*
X0112475Y0195524D01*
X0114092Y0196193D01*
X0115330Y0197431D01*
X0116000Y0199048D01*
X0116000Y0205999D01*
X0115330Y0207616D01*
X0114092Y0208854D01*
X0115445Y0207338D02*
X0201100Y0207338D01*
X0201220Y0206139D02*
X0115942Y0206139D01*
X0116000Y0204941D02*
X0134209Y0204941D01*
X0134674Y0205406D02*
X0120192Y0190924D01*
X0052201Y0190924D01*
X0049372Y0193752D01*
X0048123Y0194270D01*
X0045000Y0194270D01*
X0045000Y0197101D01*
X0045330Y0197431D01*
X0046000Y0199048D01*
X0046000Y0205999D01*
X0045330Y0207616D01*
X0044600Y0208346D01*
X0044600Y0231281D01*
X0046646Y0233327D01*
X0047490Y0234171D01*
X0047946Y0235273D01*
X0047946Y0238844D01*
X0048912Y0239810D01*
X0048912Y0245238D01*
X0047946Y0246203D01*
X0047946Y0247355D01*
X0049108Y0246193D01*
X0050725Y0245524D01*
X0052475Y0245524D01*
X0054092Y0246193D01*
X0055330Y0247431D01*
X0056000Y0249048D01*
X0056000Y0255999D01*
X0055330Y0257616D01*
X0054092Y0258854D01*
X0052475Y0259524D01*
X0050725Y0259524D01*
X0049108Y0258854D01*
X0047870Y0257616D01*
X0047200Y0255999D01*
X0047200Y0255524D01*
X0046003Y0255524D01*
X0044901Y0255067D01*
X0044057Y0254223D01*
X0042403Y0252569D01*
X0041946Y0251467D01*
X0041946Y0246203D01*
X0040981Y0245238D01*
X0040981Y0239810D01*
X0041946Y0238844D01*
X0041946Y0237113D01*
X0039901Y0235067D01*
X0039901Y0235067D01*
X0039057Y0234223D01*
X0038600Y0233120D01*
X0038600Y0208346D01*
X0037870Y0207616D01*
X0037200Y0205999D01*
X0037200Y0199048D01*
X0037870Y0197431D01*
X0038200Y0197101D01*
X0038200Y0194150D01*
X0037831Y0193781D01*
X0037831Y0187959D01*
X0038886Y0186905D01*
X0044314Y0186905D01*
X0044879Y0187470D01*
X0046038Y0187470D01*
X0048867Y0184641D01*
X0050117Y0184124D01*
X0122276Y0184124D01*
X0123526Y0184641D01*
X0138008Y0199124D01*
X0170192Y0199124D01*
X0194674Y0174641D01*
X0195924Y0174124D01*
X0202222Y0174124D01*
X0203484Y0172861D01*
X0204299Y0172524D01*
X0203484Y0172186D01*
X0201937Y0170639D01*
X0201889Y0170524D01*
X0161310Y0170524D01*
X0161263Y0170639D01*
X0159715Y0172186D01*
X0158901Y0172524D01*
X0159715Y0172861D01*
X0161263Y0174408D01*
X0162100Y0176430D01*
X0162100Y0178618D01*
X0161263Y0180639D01*
X0159715Y0182186D01*
X0158901Y0182524D01*
X0159715Y0182861D01*
X0161263Y0184408D01*
X0162100Y0186430D01*
X0162100Y0188618D01*
X0161263Y0190639D01*
X0159715Y0192186D01*
X0157694Y0193024D01*
X0155506Y0193024D01*
X0153484Y0192186D01*
X0151937Y0190639D01*
X0151600Y0189825D01*
X0151263Y0190639D01*
X0149715Y0192186D01*
X0147694Y0193024D01*
X0145506Y0193024D01*
X0143484Y0192186D01*
X0141937Y0190639D01*
X0141100Y0188618D01*
X0141100Y0186430D01*
X0141765Y0184824D01*
X0140647Y0184824D01*
X0130647Y0174824D01*
X0129300Y0173476D01*
X0129300Y0163476D01*
X0125647Y0159824D01*
X0037553Y0159824D01*
X0033900Y0163476D01*
X0033900Y0183476D01*
X0023900Y0193476D01*
X0022553Y0194824D01*
X0021600Y0194824D01*
X0021263Y0195639D01*
X0019715Y0197186D01*
X0017694Y0198024D01*
X0015506Y0198024D01*
X0013484Y0197186D01*
X0011937Y0195639D01*
X0011100Y0193618D01*
X0011100Y0191430D01*
X0011937Y0189408D01*
X0013484Y0187861D01*
X0014299Y0187524D01*
X0013484Y0187186D01*
X0011937Y0185639D01*
X0011100Y0183618D01*
X0011100Y0181430D01*
X0011937Y0179408D01*
X0013484Y0177861D01*
X0014299Y0177524D01*
X0013484Y0177186D01*
X0011937Y0175639D01*
X0011100Y0173618D01*
X0011100Y0171430D01*
X0011937Y0169408D01*
X0013484Y0167861D01*
X0014299Y0167524D01*
X0013484Y0167186D01*
X0011937Y0165639D01*
X0011100Y0163618D01*
X0011100Y0161430D01*
X0011937Y0159408D01*
X0013484Y0157861D01*
X0014299Y0157524D01*
X0013484Y0157186D01*
X0011937Y0155639D01*
X0011100Y0153618D01*
X0011100Y0151430D01*
X0011937Y0149408D01*
X0013484Y0147861D01*
X0014299Y0147524D01*
X0013484Y0147186D01*
X0011937Y0145639D01*
X0011100Y0143618D01*
X0011100Y0141430D01*
X0011937Y0139408D01*
X0013484Y0137861D01*
X0015506Y0137024D01*
X0017694Y0137024D01*
X0019715Y0137861D01*
X0021263Y0139408D01*
X0022100Y0141430D01*
X0022100Y0143618D01*
X0021263Y0145639D01*
X0019715Y0147186D01*
X0018901Y0147524D01*
X0019715Y0147861D01*
X0021263Y0149408D01*
X0022100Y0151430D01*
X0022100Y0153618D01*
X0021263Y0155639D01*
X0019715Y0157186D01*
X0018901Y0157524D01*
X0019715Y0157861D01*
X0021263Y0159408D01*
X0022100Y0161430D01*
X0022100Y0163618D01*
X0021263Y0165639D01*
X0019715Y0167186D01*
X0018901Y0167524D01*
X0019715Y0167861D01*
X0021263Y0169408D01*
X0022100Y0171430D01*
X0022100Y0173618D01*
X0021992Y0173879D01*
X0024300Y0171571D01*
X0024300Y0156571D01*
X0025647Y0155224D01*
X0030647Y0150224D01*
X0132553Y0150224D01*
X0133900Y0151571D01*
X0138900Y0156571D01*
X0138900Y0166571D01*
X0141208Y0168879D01*
X0141100Y0168618D01*
X0141100Y0166430D01*
X0141937Y0164408D01*
X0143484Y0162861D01*
X0144299Y0162524D01*
X0143484Y0162186D01*
X0141937Y0160639D01*
X0141100Y0158618D01*
X0141100Y0156430D01*
X0141937Y0154408D01*
X0143484Y0152861D01*
X0145506Y0152024D01*
X0147694Y0152024D01*
X0149715Y0152861D01*
X0151263Y0154408D01*
X0152100Y0156430D01*
X0152100Y0158618D01*
X0151263Y0160639D01*
X0149715Y0162186D01*
X0148901Y0162524D01*
X0149715Y0162861D01*
X0151263Y0164408D01*
X0151600Y0165223D01*
X0151937Y0164408D01*
X0153484Y0162861D01*
X0155506Y0162024D01*
X0157694Y0162024D01*
X0159715Y0162861D01*
X0161263Y0164408D01*
X0161310Y0164524D01*
X0201889Y0164524D01*
X0201937Y0164408D01*
X0203484Y0162861D01*
X0204299Y0162524D01*
X0203484Y0162186D01*
X0201937Y0160639D01*
X0201100Y0158618D01*
X0201100Y0156430D01*
X0201937Y0154408D01*
X0203484Y0152861D01*
X0204299Y0152524D01*
X0203484Y0152186D01*
X0201937Y0150639D01*
X0201100Y0148618D01*
X0201100Y0146430D01*
X0201937Y0144408D01*
X0203484Y0142861D01*
X0204299Y0142524D01*
X0203484Y0142186D01*
X0201937Y0140639D01*
X0201100Y0138618D01*
X0201100Y0136430D01*
X0201937Y0134408D01*
X0203484Y0132861D01*
X0205506Y0132024D01*
X0207694Y0132024D01*
X0209715Y0132861D01*
X0211263Y0134408D01*
X0212100Y0136430D01*
X0212100Y0138618D01*
X0211263Y0140639D01*
X0209715Y0142186D01*
X0208901Y0142524D01*
X0209715Y0142861D01*
X0211263Y0144408D01*
X0212100Y0146430D01*
X0212100Y0148618D01*
X0211263Y0150639D01*
X0209715Y0152186D01*
X0208901Y0152524D01*
X0209715Y0152861D01*
X0211263Y0154408D01*
X0212100Y0156430D01*
X0212100Y0158618D01*
X0211263Y0160639D01*
X0209715Y0162186D01*
X0208901Y0162524D01*
X0209715Y0162861D01*
X0211263Y0164408D01*
X0212100Y0166430D01*
X0212100Y0168618D01*
X0211263Y0170639D01*
X0209715Y0172186D01*
X0208901Y0172524D01*
X0209715Y0172861D01*
X0211263Y0174408D01*
X0212100Y0176430D01*
X0212100Y0178618D01*
X0211263Y0180639D01*
X0209715Y0182186D01*
X0207694Y0183024D01*
X0205506Y0183024D01*
X0203484Y0182186D01*
X0202222Y0180924D01*
X0198008Y0180924D01*
X0174482Y0204450D01*
X0173526Y0205406D01*
X0172276Y0205924D01*
X0135924Y0205924D01*
X0134674Y0205406D01*
X0133010Y0203742D02*
X0116000Y0203742D01*
X0116000Y0202543D02*
X0131812Y0202543D01*
X0130613Y0201345D02*
X0116000Y0201345D01*
X0116000Y0200146D02*
X0129415Y0200146D01*
X0128216Y0198948D02*
X0115958Y0198948D01*
X0115462Y0197749D02*
X0127018Y0197749D01*
X0125819Y0196551D02*
X0114450Y0196551D01*
X0108750Y0196551D02*
X0104450Y0196551D01*
X0104092Y0196193D02*
X0105330Y0197431D01*
X0106000Y0199048D01*
X0106000Y0205999D01*
X0105330Y0207616D01*
X0104092Y0208854D01*
X0102475Y0209524D01*
X0100725Y0209524D01*
X0099108Y0208854D01*
X0097870Y0207616D01*
X0097200Y0205999D01*
X0097200Y0199048D01*
X0097870Y0197431D01*
X0099108Y0196193D01*
X0100725Y0195524D01*
X0102475Y0195524D01*
X0104092Y0196193D01*
X0105462Y0197749D02*
X0107738Y0197749D01*
X0107242Y0198948D02*
X0105958Y0198948D01*
X0106000Y0200146D02*
X0107200Y0200146D01*
X0107200Y0201345D02*
X0106000Y0201345D01*
X0106000Y0202543D02*
X0107200Y0202543D01*
X0107200Y0203742D02*
X0106000Y0203742D01*
X0106000Y0204941D02*
X0107200Y0204941D01*
X0107258Y0206139D02*
X0105942Y0206139D01*
X0105445Y0207338D02*
X0107755Y0207338D01*
X0108790Y0208536D02*
X0104410Y0208536D01*
X0104320Y0209735D02*
X0044600Y0209735D01*
X0044600Y0210933D02*
X0103379Y0210933D01*
X0103016Y0212132D02*
X0044600Y0212132D01*
X0044600Y0213330D02*
X0103054Y0213330D01*
X0103551Y0214529D02*
X0044600Y0214529D01*
X0044600Y0215727D02*
X0050233Y0215727D01*
X0050725Y0215524D02*
X0052475Y0215524D01*
X0054092Y0216193D01*
X0055330Y0217431D01*
X0056000Y0219048D01*
X0056000Y0225999D01*
X0055330Y0227616D01*
X0054092Y0228854D01*
X0052475Y0229524D01*
X0050725Y0229524D01*
X0049108Y0228854D01*
X0047870Y0227616D01*
X0047200Y0225999D01*
X0047200Y0219048D01*
X0047870Y0217431D01*
X0049108Y0216193D01*
X0050725Y0215524D01*
X0052966Y0215727D02*
X0060233Y0215727D01*
X0060725Y0215524D02*
X0059108Y0216193D01*
X0057870Y0217431D01*
X0057200Y0219048D01*
X0057200Y0225999D01*
X0057870Y0227616D01*
X0059108Y0228854D01*
X0060725Y0229524D01*
X0062475Y0229524D01*
X0064092Y0228854D01*
X0065330Y0227616D01*
X0066000Y0225999D01*
X0066000Y0219048D01*
X0065330Y0217431D01*
X0064092Y0216193D01*
X0062475Y0215524D01*
X0060725Y0215524D01*
X0062966Y0215727D02*
X0070233Y0215727D01*
X0070725Y0215524D02*
X0072475Y0215524D01*
X0074092Y0216193D01*
X0075330Y0217431D01*
X0076000Y0219048D01*
X0076000Y0225999D01*
X0075330Y0227616D01*
X0074092Y0228854D01*
X0072475Y0229524D01*
X0070725Y0229524D01*
X0069108Y0228854D01*
X0067870Y0227616D01*
X0067200Y0225999D01*
X0067200Y0219048D01*
X0067870Y0217431D01*
X0069108Y0216193D01*
X0070725Y0215524D01*
X0072966Y0215727D02*
X0080233Y0215727D01*
X0080725Y0215524D02*
X0079108Y0216193D01*
X0077870Y0217431D01*
X0077200Y0219048D01*
X0077200Y0225999D01*
X0077870Y0227616D01*
X0079108Y0228854D01*
X0080725Y0229524D01*
X0082475Y0229524D01*
X0084092Y0228854D01*
X0085330Y0227616D01*
X0086000Y0225999D01*
X0086000Y0219048D01*
X0085330Y0217431D01*
X0084092Y0216193D01*
X0082475Y0215524D01*
X0080725Y0215524D01*
X0082966Y0215727D02*
X0090233Y0215727D01*
X0090725Y0215524D02*
X0092475Y0215524D01*
X0094092Y0216193D01*
X0095330Y0217431D01*
X0096000Y0219048D01*
X0096000Y0225999D01*
X0095330Y0227616D01*
X0094092Y0228854D01*
X0092475Y0229524D01*
X0090725Y0229524D01*
X0089108Y0228854D01*
X0087870Y0227616D01*
X0087200Y0225999D01*
X0087200Y0219048D01*
X0087870Y0217431D01*
X0089108Y0216193D01*
X0090725Y0215524D01*
X0092966Y0215727D02*
X0100233Y0215727D01*
X0098375Y0216926D02*
X0094825Y0216926D01*
X0095617Y0218124D02*
X0097583Y0218124D01*
X0097200Y0219323D02*
X0096000Y0219323D01*
X0096000Y0220521D02*
X0097200Y0220521D01*
X0097200Y0221720D02*
X0096000Y0221720D01*
X0096000Y0222918D02*
X0097200Y0222918D01*
X0097200Y0224117D02*
X0096000Y0224117D01*
X0096000Y0225315D02*
X0097200Y0225315D01*
X0097413Y0226514D02*
X0095787Y0226514D01*
X0095234Y0227712D02*
X0097966Y0227712D01*
X0099245Y0228911D02*
X0093955Y0228911D01*
X0089245Y0228911D02*
X0083955Y0228911D01*
X0085234Y0227712D02*
X0087966Y0227712D01*
X0087413Y0226514D02*
X0085787Y0226514D01*
X0086000Y0225315D02*
X0087200Y0225315D01*
X0087200Y0224117D02*
X0086000Y0224117D01*
X0086000Y0222918D02*
X0087200Y0222918D01*
X0087200Y0221720D02*
X0086000Y0221720D01*
X0086000Y0220521D02*
X0087200Y0220521D01*
X0087200Y0219323D02*
X0086000Y0219323D01*
X0085617Y0218124D02*
X0087583Y0218124D01*
X0088375Y0216926D02*
X0084825Y0216926D01*
X0078375Y0216926D02*
X0074825Y0216926D01*
X0075617Y0218124D02*
X0077583Y0218124D01*
X0077200Y0219323D02*
X0076000Y0219323D01*
X0076000Y0220521D02*
X0077200Y0220521D01*
X0077200Y0221720D02*
X0076000Y0221720D01*
X0076000Y0222918D02*
X0077200Y0222918D01*
X0077200Y0224117D02*
X0076000Y0224117D01*
X0076000Y0225315D02*
X0077200Y0225315D01*
X0077413Y0226514D02*
X0075787Y0226514D01*
X0075234Y0227712D02*
X0077966Y0227712D01*
X0079245Y0228911D02*
X0073955Y0228911D01*
X0069245Y0228911D02*
X0063955Y0228911D01*
X0065234Y0227712D02*
X0067966Y0227712D01*
X0067413Y0226514D02*
X0065787Y0226514D01*
X0066000Y0225315D02*
X0067200Y0225315D01*
X0067200Y0224117D02*
X0066000Y0224117D01*
X0066000Y0222918D02*
X0067200Y0222918D01*
X0067200Y0221720D02*
X0066000Y0221720D01*
X0066000Y0220521D02*
X0067200Y0220521D01*
X0067200Y0219323D02*
X0066000Y0219323D01*
X0065617Y0218124D02*
X0067583Y0218124D01*
X0068375Y0216926D02*
X0064825Y0216926D01*
X0058375Y0216926D02*
X0054825Y0216926D01*
X0055617Y0218124D02*
X0057583Y0218124D01*
X0057200Y0219323D02*
X0056000Y0219323D01*
X0056000Y0220521D02*
X0057200Y0220521D01*
X0057200Y0221720D02*
X0056000Y0221720D01*
X0056000Y0222918D02*
X0057200Y0222918D01*
X0057200Y0224117D02*
X0056000Y0224117D01*
X0056000Y0225315D02*
X0057200Y0225315D01*
X0057413Y0226514D02*
X0055787Y0226514D01*
X0055234Y0227712D02*
X0057966Y0227712D01*
X0059245Y0228911D02*
X0053955Y0228911D01*
X0049245Y0228911D02*
X0044600Y0228911D01*
X0044600Y0230109D02*
X0104300Y0230109D01*
X0104300Y0228911D02*
X0103955Y0228911D01*
X0104300Y0231308D02*
X0044627Y0231308D01*
X0045825Y0232506D02*
X0104300Y0232506D01*
X0104300Y0233705D02*
X0047024Y0233705D01*
X0046646Y0233327D02*
X0046646Y0233327D01*
X0047793Y0234903D02*
X0104300Y0234903D01*
X0104300Y0236102D02*
X0047946Y0236102D01*
X0047946Y0237300D02*
X0104300Y0237300D01*
X0104300Y0238499D02*
X0047946Y0238499D01*
X0048800Y0239697D02*
X0104300Y0239697D01*
X0104300Y0240896D02*
X0048912Y0240896D01*
X0048912Y0242094D02*
X0104300Y0242094D01*
X0104300Y0243293D02*
X0048912Y0243293D01*
X0048912Y0244491D02*
X0104300Y0244491D01*
X0104300Y0245690D02*
X0102877Y0245690D01*
X0100323Y0245690D02*
X0092877Y0245690D01*
X0092475Y0245524D02*
X0094092Y0246193D01*
X0095330Y0247431D01*
X0096000Y0249048D01*
X0096000Y0255999D01*
X0095330Y0257616D01*
X0094092Y0258854D01*
X0092475Y0259524D01*
X0090725Y0259524D01*
X0089108Y0258854D01*
X0087870Y0257616D01*
X0087200Y0255999D01*
X0087200Y0249048D01*
X0087870Y0247431D01*
X0089108Y0246193D01*
X0090725Y0245524D01*
X0092475Y0245524D01*
X0090323Y0245690D02*
X0082877Y0245690D01*
X0082475Y0245524D02*
X0084092Y0246193D01*
X0085330Y0247431D01*
X0086000Y0249048D01*
X0086000Y0255999D01*
X0085330Y0257616D01*
X0084092Y0258854D01*
X0082475Y0259524D01*
X0080725Y0259524D01*
X0079108Y0258854D01*
X0077870Y0257616D01*
X0077200Y0255999D01*
X0077200Y0249048D01*
X0077870Y0247431D01*
X0079108Y0246193D01*
X0080725Y0245524D01*
X0082475Y0245524D01*
X0080323Y0245690D02*
X0072877Y0245690D01*
X0072475Y0245524D02*
X0074092Y0246193D01*
X0075330Y0247431D01*
X0076000Y0249048D01*
X0076000Y0255999D01*
X0075330Y0257616D01*
X0074092Y0258854D01*
X0072475Y0259524D01*
X0070725Y0259524D01*
X0069108Y0258854D01*
X0067870Y0257616D01*
X0067200Y0255999D01*
X0067200Y0249048D01*
X0067870Y0247431D01*
X0069108Y0246193D01*
X0070725Y0245524D01*
X0072475Y0245524D01*
X0070323Y0245690D02*
X0062877Y0245690D01*
X0062475Y0245524D02*
X0064092Y0246193D01*
X0065330Y0247431D01*
X0066000Y0249048D01*
X0066000Y0255999D01*
X0065330Y0257616D01*
X0064092Y0258854D01*
X0062475Y0259524D01*
X0060725Y0259524D01*
X0059108Y0258854D01*
X0057870Y0257616D01*
X0057200Y0255999D01*
X0057200Y0249048D01*
X0057870Y0247431D01*
X0059108Y0246193D01*
X0060725Y0245524D01*
X0062475Y0245524D01*
X0060323Y0245690D02*
X0052877Y0245690D01*
X0054787Y0246888D02*
X0058413Y0246888D01*
X0057598Y0248087D02*
X0055602Y0248087D01*
X0056000Y0249285D02*
X0057200Y0249285D01*
X0057200Y0250484D02*
X0056000Y0250484D01*
X0056000Y0251682D02*
X0057200Y0251682D01*
X0057200Y0252881D02*
X0056000Y0252881D01*
X0056000Y0254079D02*
X0057200Y0254079D01*
X0057200Y0255278D02*
X0056000Y0255278D01*
X0055802Y0256477D02*
X0057398Y0256477D01*
X0057929Y0257675D02*
X0055271Y0257675D01*
X0054045Y0258874D02*
X0059155Y0258874D01*
X0064045Y0258874D02*
X0069155Y0258874D01*
X0067929Y0257675D02*
X0065271Y0257675D01*
X0065802Y0256477D02*
X0067398Y0256477D01*
X0067200Y0255278D02*
X0066000Y0255278D01*
X0066000Y0254079D02*
X0067200Y0254079D01*
X0067200Y0252881D02*
X0066000Y0252881D01*
X0066000Y0251682D02*
X0067200Y0251682D01*
X0067200Y0250484D02*
X0066000Y0250484D01*
X0066000Y0249285D02*
X0067200Y0249285D01*
X0067598Y0248087D02*
X0065602Y0248087D01*
X0064787Y0246888D02*
X0068413Y0246888D01*
X0074787Y0246888D02*
X0078413Y0246888D01*
X0077598Y0248087D02*
X0075602Y0248087D01*
X0076000Y0249285D02*
X0077200Y0249285D01*
X0077200Y0250484D02*
X0076000Y0250484D01*
X0076000Y0251682D02*
X0077200Y0251682D01*
X0077200Y0252881D02*
X0076000Y0252881D01*
X0076000Y0254079D02*
X0077200Y0254079D01*
X0077200Y0255278D02*
X0076000Y0255278D01*
X0075802Y0256477D02*
X0077398Y0256477D01*
X0077929Y0257675D02*
X0075271Y0257675D01*
X0074045Y0258874D02*
X0079155Y0258874D01*
X0084045Y0258874D02*
X0089155Y0258874D01*
X0087929Y0257675D02*
X0085271Y0257675D01*
X0085802Y0256477D02*
X0087398Y0256477D01*
X0087200Y0255278D02*
X0086000Y0255278D01*
X0086000Y0254079D02*
X0087200Y0254079D01*
X0087200Y0252881D02*
X0086000Y0252881D01*
X0086000Y0251682D02*
X0087200Y0251682D01*
X0087200Y0250484D02*
X0086000Y0250484D01*
X0086000Y0249285D02*
X0087200Y0249285D01*
X0087598Y0248087D02*
X0085602Y0248087D01*
X0084787Y0246888D02*
X0088413Y0246888D01*
X0094787Y0246888D02*
X0098413Y0246888D01*
X0097598Y0248087D02*
X0095602Y0248087D01*
X0096000Y0249285D02*
X0097200Y0249285D01*
X0097200Y0250484D02*
X0096000Y0250484D01*
X0096000Y0251682D02*
X0097200Y0251682D01*
X0097200Y0252881D02*
X0096000Y0252881D01*
X0096000Y0254079D02*
X0097200Y0254079D01*
X0097200Y0255278D02*
X0096000Y0255278D01*
X0095802Y0256477D02*
X0097398Y0256477D01*
X0097929Y0257675D02*
X0095271Y0257675D01*
X0094045Y0258874D02*
X0099155Y0258874D01*
X0104045Y0258874D02*
X0109155Y0258874D01*
X0107929Y0257675D02*
X0105271Y0257675D01*
X0105802Y0256477D02*
X0107398Y0256477D01*
X0107200Y0255278D02*
X0106000Y0255278D01*
X0106000Y0254079D02*
X0107200Y0254079D01*
X0107200Y0252881D02*
X0106000Y0252881D01*
X0106000Y0251682D02*
X0107200Y0251682D01*
X0107200Y0250484D02*
X0106892Y0250484D01*
X0108900Y0245690D02*
X0110323Y0245690D01*
X0104300Y0215727D02*
X0102966Y0215727D01*
X0098790Y0208536D02*
X0094410Y0208536D01*
X0094092Y0208854D02*
X0092475Y0209524D01*
X0090725Y0209524D01*
X0089108Y0208854D01*
X0087870Y0207616D01*
X0087200Y0205999D01*
X0087200Y0199048D01*
X0087870Y0197431D01*
X0089108Y0196193D01*
X0090725Y0195524D01*
X0092475Y0195524D01*
X0094092Y0196193D01*
X0095330Y0197431D01*
X0096000Y0199048D01*
X0096000Y0205999D01*
X0095330Y0207616D01*
X0094092Y0208854D01*
X0095445Y0207338D02*
X0097755Y0207338D01*
X0097258Y0206139D02*
X0095942Y0206139D01*
X0096000Y0204941D02*
X0097200Y0204941D01*
X0097200Y0203742D02*
X0096000Y0203742D01*
X0096000Y0202543D02*
X0097200Y0202543D01*
X0097200Y0201345D02*
X0096000Y0201345D01*
X0096000Y0200146D02*
X0097200Y0200146D01*
X0097242Y0198948D02*
X0095958Y0198948D01*
X0095462Y0197749D02*
X0097738Y0197749D01*
X0098750Y0196551D02*
X0094450Y0196551D01*
X0088750Y0196551D02*
X0084450Y0196551D01*
X0084092Y0196193D02*
X0085330Y0197431D01*
X0086000Y0199048D01*
X0086000Y0205999D01*
X0085330Y0207616D01*
X0084092Y0208854D01*
X0082475Y0209524D01*
X0080725Y0209524D01*
X0079108Y0208854D01*
X0077870Y0207616D01*
X0077200Y0205999D01*
X0077200Y0199048D01*
X0077870Y0197431D01*
X0079108Y0196193D01*
X0080725Y0195524D01*
X0082475Y0195524D01*
X0084092Y0196193D01*
X0085462Y0197749D02*
X0087738Y0197749D01*
X0087242Y0198948D02*
X0085958Y0198948D01*
X0086000Y0200146D02*
X0087200Y0200146D01*
X0087200Y0201345D02*
X0086000Y0201345D01*
X0086000Y0202543D02*
X0087200Y0202543D01*
X0087200Y0203742D02*
X0086000Y0203742D01*
X0086000Y0204941D02*
X0087200Y0204941D01*
X0087258Y0206139D02*
X0085942Y0206139D01*
X0085445Y0207338D02*
X0087755Y0207338D01*
X0088790Y0208536D02*
X0084410Y0208536D01*
X0078790Y0208536D02*
X0074410Y0208536D01*
X0074092Y0208854D02*
X0072475Y0209524D01*
X0070725Y0209524D01*
X0069108Y0208854D01*
X0067870Y0207616D01*
X0067200Y0205999D01*
X0067200Y0199048D01*
X0067870Y0197431D01*
X0069108Y0196193D01*
X0070725Y0195524D01*
X0072475Y0195524D01*
X0074092Y0196193D01*
X0075330Y0197431D01*
X0076000Y0199048D01*
X0076000Y0205999D01*
X0075330Y0207616D01*
X0074092Y0208854D01*
X0075445Y0207338D02*
X0077755Y0207338D01*
X0077258Y0206139D02*
X0075942Y0206139D01*
X0076000Y0204941D02*
X0077200Y0204941D01*
X0077200Y0203742D02*
X0076000Y0203742D01*
X0076000Y0202543D02*
X0077200Y0202543D01*
X0077200Y0201345D02*
X0076000Y0201345D01*
X0076000Y0200146D02*
X0077200Y0200146D01*
X0077242Y0198948D02*
X0075958Y0198948D01*
X0075462Y0197749D02*
X0077738Y0197749D01*
X0078750Y0196551D02*
X0074450Y0196551D01*
X0068750Y0196551D02*
X0064450Y0196551D01*
X0064092Y0196193D02*
X0065330Y0197431D01*
X0066000Y0199048D01*
X0066000Y0205999D01*
X0065330Y0207616D01*
X0064092Y0208854D01*
X0062475Y0209524D01*
X0060725Y0209524D01*
X0059108Y0208854D01*
X0057870Y0207616D01*
X0057200Y0205999D01*
X0057200Y0199048D01*
X0057870Y0197431D01*
X0059108Y0196193D01*
X0060725Y0195524D01*
X0062475Y0195524D01*
X0064092Y0196193D01*
X0065462Y0197749D02*
X0067738Y0197749D01*
X0067242Y0198948D02*
X0065958Y0198948D01*
X0066000Y0200146D02*
X0067200Y0200146D01*
X0067200Y0201345D02*
X0066000Y0201345D01*
X0066000Y0202543D02*
X0067200Y0202543D01*
X0067200Y0203742D02*
X0066000Y0203742D01*
X0066000Y0204941D02*
X0067200Y0204941D01*
X0067258Y0206139D02*
X0065942Y0206139D01*
X0065445Y0207338D02*
X0067755Y0207338D01*
X0068790Y0208536D02*
X0064410Y0208536D01*
X0058790Y0208536D02*
X0054410Y0208536D01*
X0054092Y0208854D02*
X0052475Y0209524D01*
X0050725Y0209524D01*
X0049108Y0208854D01*
X0047870Y0207616D01*
X0047200Y0205999D01*
X0047200Y0199048D01*
X0047870Y0197431D01*
X0049108Y0196193D01*
X0050725Y0195524D01*
X0052475Y0195524D01*
X0054092Y0196193D01*
X0055330Y0197431D01*
X0056000Y0199048D01*
X0056000Y0205999D01*
X0055330Y0207616D01*
X0054092Y0208854D01*
X0055445Y0207338D02*
X0057755Y0207338D01*
X0057258Y0206139D02*
X0055942Y0206139D01*
X0056000Y0204941D02*
X0057200Y0204941D01*
X0057200Y0203742D02*
X0056000Y0203742D01*
X0056000Y0202543D02*
X0057200Y0202543D01*
X0057200Y0201345D02*
X0056000Y0201345D01*
X0056000Y0200146D02*
X0057200Y0200146D01*
X0057242Y0198948D02*
X0055958Y0198948D01*
X0055462Y0197749D02*
X0057738Y0197749D01*
X0058750Y0196551D02*
X0054450Y0196551D01*
X0051368Y0191757D02*
X0121025Y0191757D01*
X0122223Y0192955D02*
X0050169Y0192955D01*
X0048403Y0194154D02*
X0123422Y0194154D01*
X0124620Y0195352D02*
X0045000Y0195352D01*
X0045000Y0196551D02*
X0048750Y0196551D01*
X0047738Y0197749D02*
X0045462Y0197749D01*
X0045958Y0198948D02*
X0047242Y0198948D01*
X0047200Y0200146D02*
X0046000Y0200146D01*
X0046000Y0201345D02*
X0047200Y0201345D01*
X0047200Y0202543D02*
X0046000Y0202543D01*
X0046000Y0203742D02*
X0047200Y0203742D01*
X0047200Y0204941D02*
X0046000Y0204941D01*
X0045942Y0206139D02*
X0047258Y0206139D01*
X0047755Y0207338D02*
X0045445Y0207338D01*
X0044600Y0208536D02*
X0048790Y0208536D01*
X0048375Y0216926D02*
X0044600Y0216926D01*
X0044600Y0218124D02*
X0047583Y0218124D01*
X0047200Y0219323D02*
X0044600Y0219323D01*
X0044600Y0220521D02*
X0047200Y0220521D01*
X0047200Y0221720D02*
X0044600Y0221720D01*
X0044600Y0222918D02*
X0047200Y0222918D01*
X0047200Y0224117D02*
X0044600Y0224117D01*
X0044600Y0225315D02*
X0047200Y0225315D01*
X0047413Y0226514D02*
X0044600Y0226514D01*
X0044600Y0227712D02*
X0047966Y0227712D01*
X0040936Y0236102D02*
X0021964Y0236102D01*
X0022100Y0237300D02*
X0041946Y0237300D01*
X0041946Y0238499D02*
X0022100Y0238499D01*
X0021653Y0239697D02*
X0041093Y0239697D01*
X0040981Y0240896D02*
X0021006Y0240896D01*
X0019807Y0242094D02*
X0040981Y0242094D01*
X0040981Y0243293D02*
X0020147Y0243293D01*
X0021297Y0244491D02*
X0040981Y0244491D01*
X0041433Y0245690D02*
X0021794Y0245690D01*
X0022100Y0246888D02*
X0041946Y0246888D01*
X0041946Y0248087D02*
X0022100Y0248087D01*
X0021823Y0249285D02*
X0041946Y0249285D01*
X0041946Y0250484D02*
X0021327Y0250484D01*
X0020219Y0251682D02*
X0042036Y0251682D01*
X0042715Y0252881D02*
X0019736Y0252881D01*
X0020934Y0254079D02*
X0043913Y0254079D01*
X0044057Y0254223D02*
X0044057Y0254223D01*
X0045410Y0255278D02*
X0021623Y0255278D01*
X0022100Y0256477D02*
X0047398Y0256477D01*
X0047929Y0257675D02*
X0022100Y0257675D01*
X0021994Y0258874D02*
X0049155Y0258874D01*
X0044734Y0267263D02*
X0201100Y0267263D01*
X0201100Y0268462D02*
X0045932Y0268462D01*
X0047131Y0269660D02*
X0201532Y0269660D01*
X0202157Y0270859D02*
X0048329Y0270859D01*
X0049000Y0272057D02*
X0052121Y0272057D01*
X0051100Y0273256D02*
X0050110Y0273256D01*
X0046600Y0272524D02*
X0046600Y0277524D01*
X0046600Y0272524D02*
X0041600Y0267524D01*
X0016600Y0267524D01*
X0014167Y0262469D02*
X0003400Y0262469D01*
X0003400Y0261271D02*
X0012569Y0261271D01*
X0011702Y0260072D02*
X0003400Y0260072D01*
X0003400Y0258874D02*
X0011206Y0258874D01*
X0011100Y0257675D02*
X0003400Y0257675D01*
X0003400Y0256477D02*
X0011100Y0256477D01*
X0011577Y0255278D02*
X0003400Y0255278D01*
X0003400Y0254079D02*
X0012266Y0254079D01*
X0013464Y0252881D02*
X0003400Y0252881D01*
X0003400Y0251682D02*
X0012981Y0251682D01*
X0011873Y0250484D02*
X0003400Y0250484D01*
X0003400Y0249285D02*
X0011377Y0249285D01*
X0011100Y0248087D02*
X0003400Y0248087D01*
X0003400Y0246888D02*
X0011100Y0246888D01*
X0011406Y0245690D02*
X0003400Y0245690D01*
X0003400Y0244491D02*
X0011903Y0244491D01*
X0013053Y0243293D02*
X0003400Y0243293D01*
X0003400Y0242094D02*
X0013393Y0242094D01*
X0012194Y0240896D02*
X0003400Y0240896D01*
X0003400Y0239697D02*
X0011547Y0239697D01*
X0011100Y0238499D02*
X0003400Y0238499D01*
X0003400Y0237300D02*
X0011100Y0237300D01*
X0011236Y0236102D02*
X0003400Y0236102D01*
X0003400Y0234903D02*
X0011732Y0234903D01*
X0012641Y0233705D02*
X0003400Y0233705D01*
X0003400Y0232506D02*
X0014257Y0232506D01*
X0012606Y0231308D02*
X0003400Y0231308D01*
X0003400Y0230109D02*
X0011718Y0230109D01*
X0011221Y0228911D02*
X0003400Y0228911D01*
X0003400Y0227712D02*
X0011100Y0227712D01*
X0011100Y0226514D02*
X0003400Y0226514D01*
X0003400Y0225315D02*
X0011562Y0225315D01*
X0012229Y0224117D02*
X0003400Y0224117D01*
X0003400Y0222918D02*
X0013427Y0222918D01*
X0013018Y0221720D02*
X0003400Y0221720D01*
X0003400Y0220521D02*
X0011888Y0220521D01*
X0011392Y0219323D02*
X0003400Y0219323D01*
X0003400Y0218124D02*
X0011100Y0218124D01*
X0011100Y0216926D02*
X0003400Y0216926D01*
X0003400Y0215727D02*
X0011391Y0215727D01*
X0011887Y0214529D02*
X0003400Y0214529D01*
X0003400Y0213330D02*
X0013015Y0213330D01*
X0013430Y0212132D02*
X0003400Y0212132D01*
X0003400Y0210933D02*
X0012231Y0210933D01*
X0011563Y0209735D02*
X0003400Y0209735D01*
X0003400Y0208536D02*
X0011100Y0208536D01*
X0011100Y0207338D02*
X0003400Y0207338D01*
X0003400Y0206139D02*
X0011220Y0206139D01*
X0011717Y0204941D02*
X0003400Y0204941D01*
X0003400Y0203742D02*
X0012603Y0203742D01*
X0014251Y0202543D02*
X0003400Y0202543D01*
X0003400Y0201345D02*
X0037200Y0201345D01*
X0037200Y0202543D02*
X0018949Y0202543D01*
X0020597Y0203742D02*
X0037200Y0203742D01*
X0037200Y0204941D02*
X0021483Y0204941D01*
X0021980Y0206139D02*
X0037258Y0206139D01*
X0037755Y0207338D02*
X0022100Y0207338D01*
X0022100Y0208536D02*
X0038600Y0208536D01*
X0038600Y0209735D02*
X0021637Y0209735D01*
X0020969Y0210933D02*
X0038600Y0210933D01*
X0038600Y0212132D02*
X0019770Y0212132D01*
X0020185Y0213330D02*
X0038600Y0213330D01*
X0038600Y0214529D02*
X0021313Y0214529D01*
X0021809Y0215727D02*
X0038600Y0215727D01*
X0038600Y0216926D02*
X0022100Y0216926D01*
X0022100Y0218124D02*
X0038600Y0218124D01*
X0038600Y0219323D02*
X0021808Y0219323D01*
X0021312Y0220521D02*
X0038600Y0220521D01*
X0038600Y0221720D02*
X0020182Y0221720D01*
X0019773Y0222918D02*
X0038600Y0222918D01*
X0038600Y0224117D02*
X0020971Y0224117D01*
X0021638Y0225315D02*
X0038600Y0225315D01*
X0038600Y0226514D02*
X0022100Y0226514D01*
X0022100Y0227712D02*
X0038600Y0227712D01*
X0038600Y0228911D02*
X0021979Y0228911D01*
X0021482Y0230109D02*
X0038600Y0230109D01*
X0038600Y0231308D02*
X0020594Y0231308D01*
X0018943Y0232506D02*
X0038600Y0232506D01*
X0038842Y0233705D02*
X0020559Y0233705D01*
X0021468Y0234903D02*
X0039737Y0234903D01*
X0048460Y0245690D02*
X0050323Y0245690D01*
X0048413Y0246888D02*
X0047946Y0246888D01*
X0043535Y0266065D02*
X0201251Y0266065D01*
X0201748Y0264866D02*
X0021452Y0264866D01*
X0020522Y0263668D02*
X0202678Y0263668D01*
X0204167Y0262469D02*
X0019033Y0262469D01*
X0020631Y0261271D02*
X0202569Y0261271D01*
X0201702Y0260072D02*
X0021498Y0260072D01*
X0012678Y0263668D02*
X0003400Y0263668D01*
X0003400Y0264866D02*
X0011748Y0264866D01*
X0011251Y0266065D02*
X0003400Y0266065D01*
X0003400Y0267263D02*
X0011100Y0267263D01*
X0011100Y0268462D02*
X0003400Y0268462D01*
X0003400Y0269660D02*
X0011532Y0269660D01*
X0012157Y0270859D02*
X0003400Y0270859D01*
X0003400Y0272057D02*
X0013355Y0272057D01*
X0013090Y0273256D02*
X0003400Y0273256D01*
X0003400Y0274454D02*
X0011918Y0274454D01*
X0011422Y0275653D02*
X0003400Y0275653D01*
X0003400Y0276851D02*
X0011100Y0276851D01*
X0011100Y0278050D02*
X0003400Y0278050D01*
X0003400Y0279248D02*
X0011361Y0279248D01*
X0011858Y0280447D02*
X0003400Y0280447D01*
X0003400Y0281645D02*
X0012943Y0281645D01*
X0015072Y0282844D02*
X0003400Y0282844D01*
X0003400Y0284042D02*
X0019725Y0284042D01*
X0020923Y0285241D02*
X0003400Y0285241D01*
X0003400Y0286439D02*
X0022122Y0286439D01*
X0023320Y0287638D02*
X0003400Y0287638D01*
X0003400Y0288836D02*
X0024519Y0288836D01*
X0026600Y0287524D02*
X0051600Y0287524D01*
X0054880Y0287638D02*
X0218501Y0287638D01*
X0218501Y0286439D02*
X0056078Y0286439D01*
X0057277Y0285241D02*
X0218501Y0285241D01*
X0205072Y0282844D02*
X0061225Y0282844D01*
X0062100Y0281645D02*
X0202943Y0281645D01*
X0201858Y0280447D02*
X0062100Y0280447D01*
X0062100Y0279248D02*
X0201361Y0279248D01*
X0201100Y0278050D02*
X0062100Y0278050D01*
X0062100Y0276851D02*
X0201100Y0276851D01*
X0201422Y0275653D02*
X0062100Y0275653D01*
X0062100Y0274454D02*
X0201918Y0274454D01*
X0203090Y0273256D02*
X0062100Y0273256D01*
X0061079Y0272057D02*
X0203355Y0272057D01*
X0179664Y0257675D02*
X0173536Y0257675D01*
X0175425Y0256477D02*
X0177775Y0256477D01*
X0176788Y0255278D02*
X0176412Y0255278D01*
X0176177Y0219323D02*
X0177023Y0219323D01*
X0178221Y0218124D02*
X0174979Y0218124D01*
X0173991Y0204941D02*
X0201717Y0204941D01*
X0202603Y0203742D02*
X0175190Y0203742D01*
X0176388Y0202543D02*
X0204251Y0202543D01*
X0208949Y0202543D02*
X0218501Y0202543D01*
X0218501Y0201345D02*
X0177587Y0201345D01*
X0178785Y0200146D02*
X0218501Y0200146D01*
X0218501Y0198948D02*
X0179984Y0198948D01*
X0181182Y0197749D02*
X0218501Y0197749D01*
X0218501Y0196551D02*
X0182381Y0196551D01*
X0183580Y0195352D02*
X0218501Y0195352D01*
X0218501Y0194154D02*
X0184778Y0194154D01*
X0185977Y0192955D02*
X0218501Y0192955D01*
X0218501Y0191757D02*
X0187175Y0191757D01*
X0188374Y0190558D02*
X0218501Y0190558D01*
X0218501Y0189360D02*
X0189572Y0189360D01*
X0190771Y0188161D02*
X0218501Y0188161D01*
X0218501Y0186963D02*
X0191969Y0186963D01*
X0193168Y0185764D02*
X0218501Y0185764D01*
X0218501Y0184566D02*
X0194366Y0184566D01*
X0195565Y0183367D02*
X0218501Y0183367D01*
X0218501Y0182169D02*
X0209733Y0182169D01*
X0210931Y0180970D02*
X0218501Y0180970D01*
X0218501Y0179772D02*
X0211622Y0179772D01*
X0212100Y0178573D02*
X0218501Y0178573D01*
X0218501Y0177375D02*
X0212100Y0177375D01*
X0211995Y0176176D02*
X0218501Y0176176D01*
X0218501Y0174978D02*
X0211499Y0174978D01*
X0210634Y0173779D02*
X0218501Y0173779D01*
X0218501Y0172581D02*
X0209039Y0172581D01*
X0210520Y0171382D02*
X0218501Y0171382D01*
X0218501Y0170184D02*
X0211451Y0170184D01*
X0211948Y0168985D02*
X0218501Y0168985D01*
X0218501Y0167787D02*
X0212100Y0167787D01*
X0212100Y0166588D02*
X0218501Y0166588D01*
X0218501Y0165390D02*
X0211669Y0165390D01*
X0211046Y0164191D02*
X0218501Y0164191D01*
X0218501Y0162993D02*
X0209847Y0162993D01*
X0210108Y0161794D02*
X0218501Y0161794D01*
X0218501Y0160596D02*
X0211281Y0160596D01*
X0211777Y0159397D02*
X0218501Y0159397D01*
X0218501Y0158199D02*
X0212100Y0158199D01*
X0212100Y0157000D02*
X0218501Y0157000D01*
X0218501Y0155802D02*
X0211840Y0155802D01*
X0211343Y0154603D02*
X0218501Y0154603D01*
X0218501Y0153405D02*
X0210259Y0153405D01*
X0209668Y0152206D02*
X0218501Y0152206D01*
X0218501Y0151008D02*
X0210894Y0151008D01*
X0211607Y0149809D02*
X0218501Y0149809D01*
X0218501Y0148610D02*
X0212100Y0148610D01*
X0212100Y0147412D02*
X0218501Y0147412D01*
X0218501Y0146213D02*
X0212010Y0146213D01*
X0211514Y0145015D02*
X0218501Y0145015D01*
X0218501Y0143816D02*
X0210671Y0143816D01*
X0209129Y0142618D02*
X0218501Y0142618D01*
X0218501Y0141419D02*
X0210482Y0141419D01*
X0211436Y0140221D02*
X0218501Y0140221D01*
X0218501Y0139022D02*
X0211932Y0139022D01*
X0212100Y0137824D02*
X0218501Y0137824D01*
X0218501Y0136625D02*
X0212100Y0136625D01*
X0211685Y0135427D02*
X0218501Y0135427D01*
X0218501Y0134228D02*
X0211083Y0134228D01*
X0209884Y0133030D02*
X0218501Y0133030D01*
X0218501Y0131831D02*
X0125070Y0131831D01*
X0124715Y0132186D02*
X0126263Y0130639D01*
X0127100Y0128618D01*
X0127100Y0126430D01*
X0126263Y0124408D01*
X0124715Y0122861D01*
X0123900Y0122523D01*
X0123900Y0092524D01*
X0124715Y0092186D01*
X0126263Y0090639D01*
X0127100Y0088618D01*
X0127100Y0086430D01*
X0126263Y0084408D01*
X0124715Y0082861D01*
X0123901Y0082524D01*
X0124715Y0082186D01*
X0126263Y0080639D01*
X0127100Y0078618D01*
X0127100Y0076430D01*
X0126263Y0074408D01*
X0124715Y0072861D01*
X0122694Y0072024D01*
X0120506Y0072024D01*
X0118484Y0072861D01*
X0116937Y0074408D01*
X0116600Y0075223D01*
X0116263Y0074408D01*
X0114715Y0072861D01*
X0112694Y0072024D01*
X0110506Y0072024D01*
X0108484Y0072861D01*
X0106937Y0074408D01*
X0106600Y0075223D01*
X0106263Y0074408D01*
X0104715Y0072861D01*
X0102694Y0072024D01*
X0100506Y0072024D01*
X0098484Y0072861D01*
X0096937Y0074408D01*
X0096600Y0075223D01*
X0096263Y0074408D01*
X0094715Y0072861D01*
X0092694Y0072024D01*
X0090506Y0072024D01*
X0088484Y0072861D01*
X0086937Y0074408D01*
X0086600Y0075223D01*
X0086263Y0074408D01*
X0084715Y0072861D01*
X0082694Y0072024D01*
X0080506Y0072024D01*
X0078484Y0072861D01*
X0076937Y0074408D01*
X0076600Y0075223D01*
X0076263Y0074408D01*
X0074715Y0072861D01*
X0072694Y0072024D01*
X0070506Y0072024D01*
X0068484Y0072861D01*
X0066937Y0074408D01*
X0066600Y0075223D01*
X0066263Y0074408D01*
X0064715Y0072861D01*
X0062694Y0072024D01*
X0060506Y0072024D01*
X0058484Y0072861D01*
X0056937Y0074408D01*
X0056600Y0075223D01*
X0056263Y0074408D01*
X0054715Y0072861D01*
X0052694Y0072024D01*
X0050506Y0072024D01*
X0048484Y0072861D01*
X0046937Y0074408D01*
X0046100Y0076430D01*
X0046100Y0078618D01*
X0046937Y0080639D01*
X0048484Y0082186D01*
X0049299Y0082524D01*
X0048484Y0082861D01*
X0046937Y0084408D01*
X0046100Y0086430D01*
X0046100Y0088618D01*
X0046937Y0090639D01*
X0048484Y0092186D01*
X0049300Y0092524D01*
X0049300Y0122523D01*
X0048484Y0122861D01*
X0046937Y0124408D01*
X0046100Y0126430D01*
X0046100Y0128618D01*
X0046937Y0130639D01*
X0048484Y0132186D01*
X0049299Y0132524D01*
X0048484Y0132861D01*
X0046937Y0134408D01*
X0046100Y0136430D01*
X0046100Y0138618D01*
X0046937Y0140639D01*
X0048484Y0142186D01*
X0050506Y0143024D01*
X0052694Y0143024D01*
X0054715Y0142186D01*
X0056263Y0140639D01*
X0056600Y0139825D01*
X0056937Y0140639D01*
X0058484Y0142186D01*
X0060506Y0143024D01*
X0062694Y0143024D01*
X0064715Y0142186D01*
X0066263Y0140639D01*
X0066600Y0139825D01*
X0066937Y0140639D01*
X0068484Y0142186D01*
X0070506Y0143024D01*
X0072694Y0143024D01*
X0074715Y0142186D01*
X0076263Y0140639D01*
X0076600Y0139825D01*
X0076937Y0140639D01*
X0078484Y0142186D01*
X0080506Y0143024D01*
X0082694Y0143024D01*
X0084715Y0142186D01*
X0086263Y0140639D01*
X0086600Y0139825D01*
X0086937Y0140639D01*
X0088484Y0142186D01*
X0090506Y0143024D01*
X0092694Y0143024D01*
X0094715Y0142186D01*
X0096263Y0140639D01*
X0096600Y0139825D01*
X0096937Y0140639D01*
X0098484Y0142186D01*
X0100506Y0143024D01*
X0102694Y0143024D01*
X0104715Y0142186D01*
X0106263Y0140639D01*
X0106600Y0139825D01*
X0106937Y0140639D01*
X0108484Y0142186D01*
X0110506Y0143024D01*
X0112694Y0143024D01*
X0114715Y0142186D01*
X0116263Y0140639D01*
X0116600Y0139825D01*
X0116937Y0140639D01*
X0118484Y0142186D01*
X0120506Y0143024D01*
X0122694Y0143024D01*
X0124715Y0142186D01*
X0126263Y0140639D01*
X0127100Y0138618D01*
X0127100Y0136430D01*
X0126263Y0134408D01*
X0124715Y0132861D01*
X0123901Y0132524D01*
X0124715Y0132186D01*
X0124884Y0133030D02*
X0203316Y0133030D01*
X0202117Y0134228D02*
X0126083Y0134228D01*
X0126685Y0135427D02*
X0201515Y0135427D01*
X0201100Y0136625D02*
X0127100Y0136625D01*
X0127100Y0137824D02*
X0201100Y0137824D01*
X0201268Y0139022D02*
X0126932Y0139022D01*
X0126436Y0140221D02*
X0201764Y0140221D01*
X0202718Y0141419D02*
X0125482Y0141419D01*
X0123673Y0142618D02*
X0204071Y0142618D01*
X0202529Y0143816D02*
X0022018Y0143816D01*
X0022100Y0142618D02*
X0049527Y0142618D01*
X0047718Y0141419D02*
X0022096Y0141419D01*
X0021599Y0140221D02*
X0046764Y0140221D01*
X0046268Y0139022D02*
X0020877Y0139022D01*
X0019626Y0137824D02*
X0046100Y0137824D01*
X0046100Y0136625D02*
X0003400Y0136625D01*
X0003400Y0135427D02*
X0046515Y0135427D01*
X0047117Y0134228D02*
X0003400Y0134228D01*
X0003400Y0133030D02*
X0048316Y0133030D01*
X0048130Y0131831D02*
X0003400Y0131831D01*
X0003400Y0130633D02*
X0046935Y0130633D01*
X0046438Y0129434D02*
X0003400Y0129434D01*
X0003400Y0128236D02*
X0046100Y0128236D01*
X0046100Y0127037D02*
X0019864Y0127037D01*
X0019715Y0127186D02*
X0017694Y0128024D01*
X0015506Y0128024D01*
X0013484Y0127186D01*
X0011937Y0125639D01*
X0011100Y0123618D01*
X0011100Y0121430D01*
X0011937Y0119408D01*
X0013484Y0117861D01*
X0014299Y0117524D01*
X0013484Y0117186D01*
X0011937Y0115639D01*
X0011100Y0113618D01*
X0011100Y0111430D01*
X0011937Y0109408D01*
X0013484Y0107861D01*
X0003400Y0107861D01*
X0003400Y0106663D02*
X0012961Y0106663D01*
X0013484Y0107186D02*
X0011937Y0105639D01*
X0011100Y0103618D01*
X0011100Y0101430D01*
X0011937Y0099408D01*
X0013484Y0097861D01*
X0015506Y0097024D01*
X0017694Y0097024D01*
X0019715Y0097861D01*
X0021263Y0099408D01*
X0022100Y0101430D01*
X0022100Y0103618D01*
X0021263Y0105639D01*
X0019715Y0107186D01*
X0018901Y0107524D01*
X0019715Y0107861D01*
X0021263Y0109408D01*
X0022100Y0111430D01*
X0022100Y0113618D01*
X0021263Y0115639D01*
X0019715Y0117186D01*
X0018901Y0117524D01*
X0019715Y0117861D01*
X0021263Y0119408D01*
X0022100Y0121430D01*
X0022100Y0123618D01*
X0021263Y0125639D01*
X0019715Y0127186D01*
X0021063Y0125839D02*
X0046345Y0125839D01*
X0046841Y0124640D02*
X0021676Y0124640D01*
X0022100Y0123442D02*
X0047904Y0123442D01*
X0049300Y0122243D02*
X0022100Y0122243D01*
X0021941Y0121045D02*
X0049300Y0121045D01*
X0049300Y0119846D02*
X0021444Y0119846D01*
X0020502Y0118648D02*
X0049300Y0118648D01*
X0049300Y0117449D02*
X0019081Y0117449D01*
X0020651Y0116251D02*
X0049300Y0116251D01*
X0049300Y0115052D02*
X0021506Y0115052D01*
X0022002Y0113854D02*
X0049300Y0113854D01*
X0049300Y0112655D02*
X0022100Y0112655D01*
X0022100Y0111457D02*
X0049300Y0111457D01*
X0049300Y0110258D02*
X0021615Y0110258D01*
X0020914Y0109060D02*
X0049300Y0109060D01*
X0049300Y0107861D02*
X0019716Y0107861D01*
X0020239Y0106663D02*
X0049300Y0106663D01*
X0049300Y0105464D02*
X0021335Y0105464D01*
X0021832Y0104266D02*
X0049300Y0104266D01*
X0049300Y0103067D02*
X0022100Y0103067D01*
X0022100Y0101869D02*
X0049300Y0101869D01*
X0049300Y0100670D02*
X0021785Y0100670D01*
X0021289Y0099472D02*
X0049300Y0099472D01*
X0049300Y0098273D02*
X0020128Y0098273D01*
X0017817Y0097074D02*
X0049300Y0097074D01*
X0049300Y0095876D02*
X0003400Y0095876D01*
X0003400Y0097074D02*
X0015383Y0097074D01*
X0013072Y0098273D02*
X0003400Y0098273D01*
X0003400Y0099472D02*
X0011911Y0099472D01*
X0011415Y0100670D02*
X0003400Y0100670D01*
X0003400Y0101869D02*
X0011100Y0101869D01*
X0011100Y0103067D02*
X0003400Y0103067D01*
X0003400Y0104266D02*
X0011368Y0104266D01*
X0011865Y0105464D02*
X0003400Y0105464D01*
X0003400Y0109060D02*
X0012286Y0109060D01*
X0011585Y0110258D02*
X0003400Y0110258D01*
X0003400Y0111457D02*
X0011100Y0111457D01*
X0011100Y0112655D02*
X0003400Y0112655D01*
X0003400Y0113854D02*
X0011198Y0113854D01*
X0011694Y0115052D02*
X0003400Y0115052D01*
X0003400Y0116251D02*
X0012549Y0116251D01*
X0014119Y0117449D02*
X0003400Y0117449D01*
X0003400Y0118648D02*
X0012698Y0118648D01*
X0011756Y0119846D02*
X0003400Y0119846D01*
X0003400Y0121045D02*
X0011259Y0121045D01*
X0011100Y0122243D02*
X0003400Y0122243D01*
X0003400Y0123442D02*
X0011100Y0123442D01*
X0011524Y0124640D02*
X0003400Y0124640D01*
X0003400Y0125839D02*
X0012137Y0125839D01*
X0013335Y0127037D02*
X0003400Y0127037D01*
X0003400Y0137824D02*
X0013574Y0137824D01*
X0012323Y0139022D02*
X0003400Y0139022D01*
X0003400Y0140221D02*
X0011601Y0140221D01*
X0011104Y0141419D02*
X0003400Y0141419D01*
X0003400Y0142618D02*
X0011100Y0142618D01*
X0011182Y0143816D02*
X0003400Y0143816D01*
X0003400Y0145015D02*
X0011679Y0145015D01*
X0012512Y0146213D02*
X0003400Y0146213D01*
X0003400Y0147412D02*
X0014029Y0147412D01*
X0012735Y0148610D02*
X0003400Y0148610D01*
X0003400Y0149809D02*
X0011771Y0149809D01*
X0011275Y0151008D02*
X0003400Y0151008D01*
X0003400Y0152206D02*
X0011100Y0152206D01*
X0011100Y0153405D02*
X0003400Y0153405D01*
X0003400Y0154603D02*
X0011508Y0154603D01*
X0012100Y0155802D02*
X0003400Y0155802D01*
X0003400Y0157000D02*
X0013298Y0157000D01*
X0013147Y0158199D02*
X0003400Y0158199D01*
X0003400Y0159397D02*
X0011948Y0159397D01*
X0011445Y0160596D02*
X0003400Y0160596D01*
X0003400Y0161794D02*
X0011100Y0161794D01*
X0011100Y0162993D02*
X0003400Y0162993D01*
X0003400Y0164191D02*
X0011338Y0164191D01*
X0011834Y0165390D02*
X0003400Y0165390D01*
X0003400Y0166588D02*
X0012886Y0166588D01*
X0013664Y0167787D02*
X0003400Y0167787D01*
X0003400Y0168985D02*
X0012360Y0168985D01*
X0011616Y0170184D02*
X0003400Y0170184D01*
X0003400Y0171382D02*
X0011120Y0171382D01*
X0011100Y0172581D02*
X0003400Y0172581D01*
X0003400Y0173779D02*
X0011167Y0173779D01*
X0011663Y0174978D02*
X0003400Y0174978D01*
X0003400Y0176176D02*
X0012474Y0176176D01*
X0013940Y0177375D02*
X0003400Y0177375D01*
X0003400Y0178573D02*
X0012772Y0178573D01*
X0011787Y0179772D02*
X0003400Y0179772D01*
X0003400Y0180970D02*
X0011290Y0180970D01*
X0011100Y0182169D02*
X0003400Y0182169D01*
X0003400Y0183367D02*
X0011100Y0183367D01*
X0011493Y0184566D02*
X0003400Y0184566D01*
X0003400Y0185764D02*
X0012063Y0185764D01*
X0013261Y0186963D02*
X0003400Y0186963D01*
X0003400Y0188161D02*
X0013184Y0188161D01*
X0011986Y0189360D02*
X0003400Y0189360D01*
X0003400Y0190558D02*
X0011461Y0190558D01*
X0011100Y0191757D02*
X0003400Y0191757D01*
X0003400Y0192955D02*
X0011100Y0192955D01*
X0011322Y0194154D02*
X0003400Y0194154D01*
X0003400Y0195352D02*
X0011819Y0195352D01*
X0012849Y0196551D02*
X0003400Y0196551D01*
X0003400Y0197749D02*
X0014844Y0197749D01*
X0018356Y0197749D02*
X0037738Y0197749D01*
X0038200Y0196551D02*
X0020351Y0196551D01*
X0021381Y0195352D02*
X0038200Y0195352D01*
X0038200Y0194154D02*
X0023222Y0194154D01*
X0024421Y0192955D02*
X0037831Y0192955D01*
X0037831Y0191757D02*
X0025619Y0191757D01*
X0026818Y0190558D02*
X0037831Y0190558D01*
X0037831Y0189360D02*
X0028016Y0189360D01*
X0029215Y0188161D02*
X0037831Y0188161D01*
X0038828Y0186963D02*
X0030413Y0186963D01*
X0031612Y0185764D02*
X0047744Y0185764D01*
X0046545Y0186963D02*
X0044372Y0186963D01*
X0049049Y0184566D02*
X0032810Y0184566D01*
X0033900Y0183367D02*
X0139191Y0183367D01*
X0137992Y0182169D02*
X0033900Y0182169D01*
X0033900Y0180970D02*
X0136794Y0180970D01*
X0135595Y0179772D02*
X0033900Y0179772D01*
X0033900Y0178573D02*
X0038827Y0178573D01*
X0039108Y0178854D02*
X0037870Y0177616D01*
X0037200Y0175999D01*
X0037200Y0169048D01*
X0037870Y0167431D01*
X0039108Y0166193D01*
X0040725Y0165524D01*
X0042475Y0165524D01*
X0044092Y0166193D01*
X0045330Y0167431D01*
X0046000Y0169048D01*
X0046000Y0175999D01*
X0045330Y0177616D01*
X0044092Y0178854D01*
X0042475Y0179524D01*
X0040725Y0179524D01*
X0039108Y0178854D01*
X0037770Y0177375D02*
X0033900Y0177375D01*
X0033900Y0176176D02*
X0037273Y0176176D01*
X0037200Y0174978D02*
X0033900Y0174978D01*
X0033900Y0173779D02*
X0037200Y0173779D01*
X0037200Y0172581D02*
X0033900Y0172581D01*
X0033900Y0171382D02*
X0037200Y0171382D01*
X0037200Y0170184D02*
X0033900Y0170184D01*
X0033900Y0168985D02*
X0037226Y0168985D01*
X0037723Y0167787D02*
X0033900Y0167787D01*
X0033900Y0166588D02*
X0038713Y0166588D01*
X0033900Y0165390D02*
X0129300Y0165390D01*
X0129300Y0166588D02*
X0104487Y0166588D01*
X0104092Y0166193D02*
X0105330Y0167431D01*
X0106000Y0169048D01*
X0106000Y0175999D01*
X0105330Y0177616D01*
X0104092Y0178854D01*
X0102475Y0179524D01*
X0100725Y0179524D01*
X0099108Y0178854D01*
X0097870Y0177616D01*
X0097200Y0175999D01*
X0097200Y0169048D01*
X0097870Y0167431D01*
X0099108Y0166193D01*
X0100725Y0165524D01*
X0102475Y0165524D01*
X0104092Y0166193D01*
X0105477Y0167787D02*
X0129300Y0167787D01*
X0129300Y0168985D02*
X0105974Y0168985D01*
X0106000Y0170184D02*
X0129300Y0170184D01*
X0129300Y0171382D02*
X0106000Y0171382D01*
X0106000Y0172581D02*
X0129300Y0172581D01*
X0129603Y0173779D02*
X0106000Y0173779D01*
X0106000Y0174978D02*
X0130801Y0174978D01*
X0132000Y0176176D02*
X0105927Y0176176D01*
X0105430Y0177375D02*
X0133198Y0177375D01*
X0134397Y0178573D02*
X0104373Y0178573D01*
X0098827Y0178573D02*
X0094373Y0178573D01*
X0094092Y0178854D02*
X0092475Y0179524D01*
X0090725Y0179524D01*
X0089108Y0178854D01*
X0087870Y0177616D01*
X0087200Y0175999D01*
X0087200Y0169048D01*
X0087870Y0167431D01*
X0089108Y0166193D01*
X0090725Y0165524D01*
X0092475Y0165524D01*
X0094092Y0166193D01*
X0095330Y0167431D01*
X0096000Y0169048D01*
X0096000Y0175999D01*
X0095330Y0177616D01*
X0094092Y0178854D01*
X0095430Y0177375D02*
X0097770Y0177375D01*
X0097273Y0176176D02*
X0095927Y0176176D01*
X0096000Y0174978D02*
X0097200Y0174978D01*
X0097200Y0173779D02*
X0096000Y0173779D01*
X0096000Y0172581D02*
X0097200Y0172581D01*
X0097200Y0171382D02*
X0096000Y0171382D01*
X0096000Y0170184D02*
X0097200Y0170184D01*
X0097226Y0168985D02*
X0095974Y0168985D01*
X0095477Y0167787D02*
X0097723Y0167787D01*
X0098713Y0166588D02*
X0094487Y0166588D01*
X0088713Y0166588D02*
X0084487Y0166588D01*
X0084092Y0166193D02*
X0085330Y0167431D01*
X0086000Y0169048D01*
X0086000Y0175999D01*
X0085330Y0177616D01*
X0084092Y0178854D01*
X0082475Y0179524D01*
X0080725Y0179524D01*
X0079108Y0178854D01*
X0077870Y0177616D01*
X0077200Y0175999D01*
X0077200Y0169048D01*
X0077870Y0167431D01*
X0079108Y0166193D01*
X0080725Y0165524D01*
X0082475Y0165524D01*
X0084092Y0166193D01*
X0085477Y0167787D02*
X0087723Y0167787D01*
X0087226Y0168985D02*
X0085974Y0168985D01*
X0086000Y0170184D02*
X0087200Y0170184D01*
X0087200Y0171382D02*
X0086000Y0171382D01*
X0086000Y0172581D02*
X0087200Y0172581D01*
X0087200Y0173779D02*
X0086000Y0173779D01*
X0086000Y0174978D02*
X0087200Y0174978D01*
X0087273Y0176176D02*
X0085927Y0176176D01*
X0085430Y0177375D02*
X0087770Y0177375D01*
X0088827Y0178573D02*
X0084373Y0178573D01*
X0078827Y0178573D02*
X0074373Y0178573D01*
X0074092Y0178854D02*
X0072475Y0179524D01*
X0070725Y0179524D01*
X0069108Y0178854D01*
X0067870Y0177616D01*
X0067200Y0175999D01*
X0067200Y0169048D01*
X0067870Y0167431D01*
X0069108Y0166193D01*
X0070725Y0165524D01*
X0072475Y0165524D01*
X0074092Y0166193D01*
X0075330Y0167431D01*
X0076000Y0169048D01*
X0076000Y0175999D01*
X0075330Y0177616D01*
X0074092Y0178854D01*
X0075430Y0177375D02*
X0077770Y0177375D01*
X0077273Y0176176D02*
X0075927Y0176176D01*
X0076000Y0174978D02*
X0077200Y0174978D01*
X0077200Y0173779D02*
X0076000Y0173779D01*
X0076000Y0172581D02*
X0077200Y0172581D01*
X0077200Y0171382D02*
X0076000Y0171382D01*
X0076000Y0170184D02*
X0077200Y0170184D01*
X0077226Y0168985D02*
X0075974Y0168985D01*
X0075477Y0167787D02*
X0077723Y0167787D01*
X0078713Y0166588D02*
X0074487Y0166588D01*
X0068713Y0166588D02*
X0064487Y0166588D01*
X0064092Y0166193D02*
X0065330Y0167431D01*
X0066000Y0169048D01*
X0066000Y0175999D01*
X0065330Y0177616D01*
X0064092Y0178854D01*
X0062475Y0179524D01*
X0060725Y0179524D01*
X0059108Y0178854D01*
X0057870Y0177616D01*
X0057200Y0175999D01*
X0057200Y0169048D01*
X0057870Y0167431D01*
X0059108Y0166193D01*
X0060725Y0165524D01*
X0062475Y0165524D01*
X0064092Y0166193D01*
X0065477Y0167787D02*
X0067723Y0167787D01*
X0067226Y0168985D02*
X0065974Y0168985D01*
X0066000Y0170184D02*
X0067200Y0170184D01*
X0067200Y0171382D02*
X0066000Y0171382D01*
X0066000Y0172581D02*
X0067200Y0172581D01*
X0067200Y0173779D02*
X0066000Y0173779D01*
X0066000Y0174978D02*
X0067200Y0174978D01*
X0067273Y0176176D02*
X0065927Y0176176D01*
X0065430Y0177375D02*
X0067770Y0177375D01*
X0068827Y0178573D02*
X0064373Y0178573D01*
X0058827Y0178573D02*
X0054373Y0178573D01*
X0054092Y0178854D02*
X0052475Y0179524D01*
X0050725Y0179524D01*
X0049108Y0178854D01*
X0047870Y0177616D01*
X0047200Y0175999D01*
X0047200Y0169048D01*
X0047870Y0167431D01*
X0049108Y0166193D01*
X0050725Y0165524D01*
X0052475Y0165524D01*
X0054092Y0166193D01*
X0055330Y0167431D01*
X0056000Y0169048D01*
X0056000Y0175999D01*
X0055330Y0177616D01*
X0054092Y0178854D01*
X0055430Y0177375D02*
X0057770Y0177375D01*
X0057273Y0176176D02*
X0055927Y0176176D01*
X0056000Y0174978D02*
X0057200Y0174978D01*
X0057200Y0173779D02*
X0056000Y0173779D01*
X0056000Y0172581D02*
X0057200Y0172581D01*
X0057200Y0171382D02*
X0056000Y0171382D01*
X0056000Y0170184D02*
X0057200Y0170184D01*
X0057226Y0168985D02*
X0055974Y0168985D01*
X0055477Y0167787D02*
X0057723Y0167787D01*
X0058713Y0166588D02*
X0054487Y0166588D01*
X0048713Y0166588D02*
X0044487Y0166588D01*
X0045477Y0167787D02*
X0047723Y0167787D01*
X0047226Y0168985D02*
X0045974Y0168985D01*
X0046000Y0170184D02*
X0047200Y0170184D01*
X0047200Y0171382D02*
X0046000Y0171382D01*
X0046000Y0172581D02*
X0047200Y0172581D01*
X0047200Y0173779D02*
X0046000Y0173779D01*
X0046000Y0174978D02*
X0047200Y0174978D01*
X0047273Y0176176D02*
X0045927Y0176176D01*
X0045430Y0177375D02*
X0047770Y0177375D01*
X0048827Y0178573D02*
X0044373Y0178573D01*
X0033900Y0164191D02*
X0129300Y0164191D01*
X0128816Y0162993D02*
X0034384Y0162993D01*
X0035582Y0161794D02*
X0127618Y0161794D01*
X0126419Y0160596D02*
X0036781Y0160596D01*
X0029863Y0151008D02*
X0021925Y0151008D01*
X0022100Y0152206D02*
X0028665Y0152206D01*
X0027466Y0153405D02*
X0022100Y0153405D01*
X0021692Y0154603D02*
X0026268Y0154603D01*
X0025069Y0155802D02*
X0021100Y0155802D01*
X0019902Y0157000D02*
X0024300Y0157000D01*
X0024300Y0158199D02*
X0020053Y0158199D01*
X0021252Y0159397D02*
X0024300Y0159397D01*
X0024300Y0160596D02*
X0021755Y0160596D01*
X0022100Y0161794D02*
X0024300Y0161794D01*
X0024300Y0162993D02*
X0022100Y0162993D01*
X0021862Y0164191D02*
X0024300Y0164191D01*
X0024300Y0165390D02*
X0021366Y0165390D01*
X0020314Y0166588D02*
X0024300Y0166588D01*
X0024300Y0167787D02*
X0019536Y0167787D01*
X0020840Y0168985D02*
X0024300Y0168985D01*
X0024300Y0170184D02*
X0021584Y0170184D01*
X0022080Y0171382D02*
X0024300Y0171382D01*
X0023290Y0172581D02*
X0022100Y0172581D01*
X0022092Y0173779D02*
X0022033Y0173779D01*
X0021429Y0149809D02*
X0201593Y0149809D01*
X0201100Y0148610D02*
X0020465Y0148610D01*
X0019171Y0147412D02*
X0201100Y0147412D01*
X0201190Y0146213D02*
X0020688Y0146213D01*
X0021521Y0145015D02*
X0201686Y0145015D01*
X0202306Y0151008D02*
X0133337Y0151008D01*
X0134535Y0152206D02*
X0145066Y0152206D01*
X0142941Y0153405D02*
X0135734Y0153405D01*
X0136932Y0154603D02*
X0141857Y0154603D01*
X0141360Y0155802D02*
X0138131Y0155802D01*
X0138900Y0157000D02*
X0141100Y0157000D01*
X0141100Y0158199D02*
X0138900Y0158199D01*
X0138900Y0159397D02*
X0141423Y0159397D01*
X0141919Y0160596D02*
X0138900Y0160596D01*
X0138900Y0161794D02*
X0143092Y0161794D01*
X0143353Y0162993D02*
X0138900Y0162993D01*
X0138900Y0164191D02*
X0142154Y0164191D01*
X0141531Y0165390D02*
X0138900Y0165390D01*
X0138917Y0166588D02*
X0141100Y0166588D01*
X0141100Y0167787D02*
X0140116Y0167787D01*
X0149847Y0162993D02*
X0153353Y0162993D01*
X0152154Y0164191D02*
X0151046Y0164191D01*
X0150108Y0161794D02*
X0203092Y0161794D01*
X0203353Y0162993D02*
X0159847Y0162993D01*
X0161046Y0164191D02*
X0202154Y0164191D01*
X0201919Y0160596D02*
X0151281Y0160596D01*
X0151777Y0159397D02*
X0201423Y0159397D01*
X0201100Y0158199D02*
X0152100Y0158199D01*
X0152100Y0157000D02*
X0201100Y0157000D01*
X0201360Y0155802D02*
X0151840Y0155802D01*
X0151343Y0154603D02*
X0201857Y0154603D01*
X0202941Y0153405D02*
X0150259Y0153405D01*
X0148134Y0152206D02*
X0203532Y0152206D01*
X0202680Y0171382D02*
X0160520Y0171382D01*
X0159039Y0172581D02*
X0204161Y0172581D01*
X0202566Y0173779D02*
X0160634Y0173779D01*
X0161499Y0174978D02*
X0194338Y0174978D01*
X0193139Y0176176D02*
X0161995Y0176176D01*
X0162100Y0177375D02*
X0191941Y0177375D01*
X0190742Y0178573D02*
X0162100Y0178573D01*
X0161622Y0179772D02*
X0189544Y0179772D01*
X0188345Y0180970D02*
X0160931Y0180970D01*
X0159733Y0182169D02*
X0187146Y0182169D01*
X0185948Y0183367D02*
X0160222Y0183367D01*
X0161328Y0184566D02*
X0184749Y0184566D01*
X0183551Y0185764D02*
X0161824Y0185764D01*
X0162100Y0186963D02*
X0182352Y0186963D01*
X0181154Y0188161D02*
X0162100Y0188161D01*
X0161793Y0189360D02*
X0179955Y0189360D01*
X0178757Y0190558D02*
X0161296Y0190558D01*
X0160145Y0191757D02*
X0177558Y0191757D01*
X0176360Y0192955D02*
X0157859Y0192955D01*
X0155341Y0192955D02*
X0147859Y0192955D01*
X0145341Y0192955D02*
X0131840Y0192955D01*
X0130642Y0191757D02*
X0143055Y0191757D01*
X0141904Y0190558D02*
X0129443Y0190558D01*
X0128245Y0189360D02*
X0141407Y0189360D01*
X0141100Y0188161D02*
X0127046Y0188161D01*
X0125848Y0186963D02*
X0141100Y0186963D01*
X0141376Y0185764D02*
X0124649Y0185764D01*
X0123344Y0184566D02*
X0140390Y0184566D01*
X0133039Y0194154D02*
X0175161Y0194154D01*
X0173963Y0195352D02*
X0134237Y0195352D01*
X0135436Y0196551D02*
X0172764Y0196551D01*
X0171566Y0197749D02*
X0136634Y0197749D01*
X0137833Y0198948D02*
X0170367Y0198948D01*
X0153055Y0191757D02*
X0150145Y0191757D01*
X0151296Y0190558D02*
X0151904Y0190558D01*
X0119527Y0142618D02*
X0113673Y0142618D01*
X0115482Y0141419D02*
X0117718Y0141419D01*
X0116764Y0140221D02*
X0116436Y0140221D01*
X0109527Y0142618D02*
X0103673Y0142618D01*
X0105482Y0141419D02*
X0107718Y0141419D01*
X0106764Y0140221D02*
X0106436Y0140221D01*
X0099527Y0142618D02*
X0093673Y0142618D01*
X0095482Y0141419D02*
X0097718Y0141419D01*
X0096764Y0140221D02*
X0096436Y0140221D01*
X0089527Y0142618D02*
X0083673Y0142618D01*
X0085482Y0141419D02*
X0087718Y0141419D01*
X0086764Y0140221D02*
X0086436Y0140221D01*
X0079527Y0142618D02*
X0073673Y0142618D01*
X0075482Y0141419D02*
X0077718Y0141419D01*
X0076764Y0140221D02*
X0076436Y0140221D01*
X0069527Y0142618D02*
X0063673Y0142618D01*
X0065482Y0141419D02*
X0067718Y0141419D01*
X0066764Y0140221D02*
X0066436Y0140221D01*
X0059527Y0142618D02*
X0053673Y0142618D01*
X0055482Y0141419D02*
X0057718Y0141419D01*
X0056764Y0140221D02*
X0056436Y0140221D01*
X0049300Y0094677D02*
X0003400Y0094677D01*
X0003400Y0093479D02*
X0049300Y0093479D01*
X0048712Y0092280D02*
X0003400Y0092280D01*
X0003400Y0091082D02*
X0047380Y0091082D01*
X0046624Y0089883D02*
X0003400Y0089883D01*
X0003400Y0088685D02*
X0046128Y0088685D01*
X0046100Y0087486D02*
X0003400Y0087486D01*
X0003400Y0086288D02*
X0046159Y0086288D01*
X0046655Y0085089D02*
X0003400Y0085089D01*
X0003400Y0083891D02*
X0047455Y0083891D01*
X0048891Y0082692D02*
X0003400Y0082692D01*
X0003400Y0081494D02*
X0047792Y0081494D01*
X0046795Y0080295D02*
X0003400Y0080295D01*
X0003400Y0079097D02*
X0046298Y0079097D01*
X0046100Y0077898D02*
X0003400Y0077898D01*
X0003400Y0076700D02*
X0046100Y0076700D01*
X0046485Y0075501D02*
X0003400Y0075501D01*
X0003400Y0074303D02*
X0047043Y0074303D01*
X0048241Y0073104D02*
X0003400Y0073104D01*
X0003400Y0071906D02*
X0218501Y0071906D01*
X0218501Y0073104D02*
X0124959Y0073104D01*
X0126157Y0074303D02*
X0218501Y0074303D01*
X0218501Y0075501D02*
X0126715Y0075501D01*
X0127100Y0076700D02*
X0218501Y0076700D01*
X0218501Y0077898D02*
X0127100Y0077898D01*
X0126902Y0079097D02*
X0218501Y0079097D01*
X0218501Y0080295D02*
X0126405Y0080295D01*
X0125408Y0081494D02*
X0218501Y0081494D01*
X0218501Y0082692D02*
X0196714Y0082692D01*
X0197100Y0083078D02*
X0197100Y0091969D01*
X0196046Y0093024D01*
X0187154Y0093024D01*
X0186100Y0091969D01*
X0186100Y0083078D01*
X0187154Y0082024D01*
X0196046Y0082024D01*
X0197100Y0083078D01*
X0197100Y0083891D02*
X0218501Y0083891D01*
X0218501Y0085089D02*
X0197100Y0085089D01*
X0197100Y0086288D02*
X0218501Y0086288D01*
X0218501Y0087486D02*
X0197100Y0087486D01*
X0197100Y0088685D02*
X0218501Y0088685D01*
X0218501Y0089883D02*
X0197100Y0089883D01*
X0197100Y0091082D02*
X0218501Y0091082D01*
X0218501Y0092280D02*
X0196789Y0092280D01*
X0186411Y0092280D02*
X0165810Y0092280D01*
X0165596Y0092495D02*
X0166650Y0091440D01*
X0166650Y0083449D01*
X0165596Y0082395D01*
X0157604Y0082395D01*
X0156550Y0083449D01*
X0156550Y0091440D01*
X0157604Y0092495D01*
X0165596Y0092495D01*
X0166650Y0091082D02*
X0186100Y0091082D01*
X0186100Y0089883D02*
X0166650Y0089883D01*
X0166650Y0088685D02*
X0186100Y0088685D01*
X0186100Y0087486D02*
X0166650Y0087486D01*
X0166650Y0086288D02*
X0186100Y0086288D01*
X0186100Y0085089D02*
X0166650Y0085089D01*
X0166650Y0083891D02*
X0186100Y0083891D01*
X0186486Y0082692D02*
X0165893Y0082692D01*
X0157307Y0082692D02*
X0124308Y0082692D01*
X0125745Y0083891D02*
X0156550Y0083891D01*
X0156550Y0085089D02*
X0126545Y0085089D01*
X0127041Y0086288D02*
X0156550Y0086288D01*
X0156550Y0087486D02*
X0127100Y0087486D01*
X0127072Y0088685D02*
X0156550Y0088685D01*
X0156550Y0089883D02*
X0126576Y0089883D01*
X0125820Y0091082D02*
X0156550Y0091082D01*
X0157390Y0092280D02*
X0124488Y0092280D01*
X0123900Y0093479D02*
X0218501Y0093479D01*
X0218501Y0094677D02*
X0123900Y0094677D01*
X0123900Y0095876D02*
X0218501Y0095876D01*
X0218501Y0097074D02*
X0123900Y0097074D01*
X0123900Y0098273D02*
X0218501Y0098273D01*
X0218501Y0099472D02*
X0123900Y0099472D01*
X0123900Y0100670D02*
X0218501Y0100670D01*
X0218501Y0101869D02*
X0123900Y0101869D01*
X0123900Y0103067D02*
X0218501Y0103067D01*
X0218501Y0104266D02*
X0123900Y0104266D01*
X0123900Y0105464D02*
X0218501Y0105464D01*
X0218501Y0106663D02*
X0123900Y0106663D01*
X0123900Y0107861D02*
X0186317Y0107861D01*
X0186100Y0108078D02*
X0187154Y0107024D01*
X0196046Y0107024D01*
X0197100Y0108078D01*
X0197100Y0116969D01*
X0196046Y0118024D01*
X0187154Y0118024D01*
X0186100Y0116969D01*
X0186100Y0108078D01*
X0186100Y0109060D02*
X0123900Y0109060D01*
X0123900Y0110258D02*
X0186100Y0110258D01*
X0186100Y0111457D02*
X0123900Y0111457D01*
X0123900Y0112655D02*
X0186100Y0112655D01*
X0186100Y0113854D02*
X0123900Y0113854D01*
X0123900Y0115052D02*
X0186100Y0115052D01*
X0186100Y0116251D02*
X0123900Y0116251D01*
X0123900Y0117449D02*
X0186580Y0117449D01*
X0196620Y0117449D02*
X0218501Y0117449D01*
X0218501Y0116251D02*
X0197100Y0116251D01*
X0197100Y0115052D02*
X0218501Y0115052D01*
X0218501Y0113854D02*
X0197100Y0113854D01*
X0197100Y0112655D02*
X0218501Y0112655D01*
X0218501Y0111457D02*
X0197100Y0111457D01*
X0197100Y0110258D02*
X0218501Y0110258D01*
X0218501Y0109060D02*
X0197100Y0109060D01*
X0196883Y0107861D02*
X0218501Y0107861D01*
X0218501Y0118648D02*
X0123900Y0118648D01*
X0123900Y0119846D02*
X0218501Y0119846D01*
X0218501Y0121045D02*
X0123900Y0121045D01*
X0123900Y0122243D02*
X0218501Y0122243D01*
X0218501Y0123442D02*
X0125296Y0123442D01*
X0126359Y0124640D02*
X0218501Y0124640D01*
X0218501Y0125839D02*
X0126855Y0125839D01*
X0127100Y0127037D02*
X0218501Y0127037D01*
X0218501Y0128236D02*
X0127100Y0128236D01*
X0126762Y0129434D02*
X0218501Y0129434D01*
X0218501Y0130633D02*
X0126265Y0130633D01*
X0117043Y0074303D02*
X0116157Y0074303D01*
X0114959Y0073104D02*
X0118241Y0073104D01*
X0108241Y0073104D02*
X0104959Y0073104D01*
X0106157Y0074303D02*
X0107043Y0074303D01*
X0098241Y0073104D02*
X0094959Y0073104D01*
X0096157Y0074303D02*
X0097043Y0074303D01*
X0088241Y0073104D02*
X0084959Y0073104D01*
X0086157Y0074303D02*
X0087043Y0074303D01*
X0078241Y0073104D02*
X0074959Y0073104D01*
X0076157Y0074303D02*
X0077043Y0074303D01*
X0068241Y0073104D02*
X0064959Y0073104D01*
X0066157Y0074303D02*
X0067043Y0074303D01*
X0058241Y0073104D02*
X0054959Y0073104D01*
X0056157Y0074303D02*
X0057043Y0074303D01*
X0014299Y0107524D02*
X0013484Y0107186D01*
X0013484Y0107861D02*
X0014299Y0107524D01*
X0003400Y0070707D02*
X0218501Y0070707D01*
X0218501Y0069509D02*
X0003400Y0069509D01*
X0003400Y0068310D02*
X0218501Y0068310D01*
X0218501Y0067112D02*
X0003400Y0067112D01*
X0003400Y0065913D02*
X0218501Y0065913D01*
X0218501Y0064715D02*
X0003400Y0064715D01*
X0003400Y0063516D02*
X0218501Y0063516D01*
X0218501Y0062318D02*
X0003400Y0062318D01*
X0003400Y0061119D02*
X0218501Y0061119D01*
X0218501Y0059921D02*
X0003400Y0059921D01*
X0003400Y0198948D02*
X0037242Y0198948D01*
X0037200Y0200146D02*
X0003400Y0200146D01*
X0016600Y0277524D02*
X0026600Y0287524D01*
X0018526Y0282844D02*
X0018128Y0282844D01*
X0196763Y0182169D02*
X0203467Y0182169D01*
X0202269Y0180970D02*
X0197962Y0180970D01*
X0210597Y0203742D02*
X0218501Y0203742D01*
X0218501Y0204941D02*
X0211483Y0204941D01*
X0211980Y0206139D02*
X0218501Y0206139D01*
X0218501Y0207338D02*
X0212100Y0207338D01*
X0212100Y0208536D02*
X0218501Y0208536D01*
X0218501Y0209735D02*
X0211637Y0209735D01*
X0210969Y0210933D02*
X0218501Y0210933D01*
X0218501Y0212132D02*
X0209770Y0212132D01*
D18*
X0126600Y0211274D03*
X0126600Y0206274D03*
X0124100Y0201274D03*
X0126600Y0222524D03*
X0126600Y0227524D03*
X0126600Y0237524D03*
X0126600Y0242524D03*
X0126600Y0251274D03*
X0126600Y0256274D03*
X0120350Y0253774D03*
X0106600Y0212524D03*
X0056600Y0112524D03*
X0066600Y0107524D03*
X0076600Y0102524D03*
X0086600Y0097524D03*
D19*
X0084100Y0097524D01*
X0081600Y0100024D01*
X0081600Y0087524D01*
X0071600Y0087524D02*
X0071600Y0105024D01*
X0074100Y0102524D01*
X0076600Y0102524D01*
X0071600Y0105024D02*
X0071600Y0127524D01*
X0081600Y0127524D02*
X0081600Y0100024D01*
X0091600Y0087524D02*
X0091600Y0127524D01*
X0101600Y0127524D02*
X0101600Y0087524D01*
X0111600Y0087524D02*
X0111600Y0127524D01*
X0121600Y0127524D02*
X0121600Y0087524D01*
X0131600Y0152524D02*
X0031600Y0152524D01*
X0026600Y0157524D01*
X0026600Y0172524D01*
X0016600Y0182524D01*
X0016600Y0192524D02*
X0021600Y0192524D01*
X0031600Y0182524D01*
X0031600Y0162524D01*
X0036600Y0157524D01*
X0126600Y0157524D01*
X0131600Y0162524D01*
X0131600Y0172524D01*
X0141600Y0182524D01*
X0151600Y0182524D01*
X0156600Y0187524D01*
X0156600Y0177524D02*
X0153671Y0177524D01*
X0148671Y0172524D01*
X0141600Y0172524D01*
X0136600Y0167524D01*
X0136600Y0157524D01*
X0131600Y0152524D01*
X0106600Y0212524D02*
X0106600Y0247524D01*
X0101600Y0252524D01*
X0056600Y0277524D02*
X0056600Y0282524D01*
X0051600Y0127524D02*
X0051600Y0115024D01*
X0054100Y0112524D01*
X0056600Y0112524D01*
X0061600Y0112524D02*
X0061600Y0127524D01*
X0061600Y0110024D01*
X0064100Y0107524D01*
X0066600Y0107524D01*
X0061600Y0110024D02*
X0061600Y0087524D01*
X0051600Y0087524D02*
X0051600Y0127524D01*
D20*
X0041600Y0202524D02*
X0041600Y0232524D01*
X0044946Y0235870D01*
X0044946Y0242524D01*
X0044946Y0250870D01*
X0046600Y0252524D01*
X0051600Y0252524D01*
X0156600Y0167524D02*
X0206600Y0167524D01*
D21*
X0206600Y0177524D02*
X0196600Y0177524D01*
X0171600Y0202524D01*
X0136600Y0202524D01*
X0121600Y0187524D01*
X0050793Y0187524D01*
X0047446Y0190870D01*
X0041600Y0190870D01*
X0041600Y0202524D01*
M02*
