%
M48
M72
T01C0.0315
T02C0.0400
T03C0.0470
T04C0.1378
%
T01
X1650Y10150
X2650Y10150
X3650Y10150
X4650Y10150
X5650Y10150
X6650Y10150
X7650Y10150
X8650Y10150
X9650Y10150
X10650Y10150
X11650Y10150
X12650Y10150
X13650Y10150
X14650Y10150
X15650Y10150
X15150Y12150
X15150Y13150
X15150Y14150
X16150Y14150
X16150Y13150
X16150Y12150
X15650Y16150
X14650Y16150
X13650Y16150
X12650Y16150
X11650Y16150
X10650Y16150
X9650Y16150
X8650Y16150
X7650Y16150
X6650Y16150
X5650Y16150
X4650Y16150
X3650Y16150
X2650Y16150
X1650Y16150
T02
X7750Y19050
X8750Y19050
X9750Y19050
X10750Y19050
X6900Y3244
X5900Y3244
X4900Y3244
T03
X9681Y3142
X11650Y3142
X13619Y3142
T04
X1650Y1650
X16650Y1650
X16650Y19150
X1650Y19150
M30
