G75*
%MOIN*%
%OFA0B0*%
%FSLAX25Y25*%
%IPPOS*%
%LPD*%
%AMOC8*
5,1,8,0,0,1.08239X$1,22.5*
%
%ADD10C,0.07400*%
%ADD11C,0.01600*%
D10*
X0064000Y0011000D03*
X0074000Y0011000D03*
X0084000Y0011000D03*
X0094000Y0011000D03*
X0078677Y0031000D03*
X0078677Y0041000D03*
X0137732Y0041000D03*
X0137732Y0031000D03*
X0019622Y0031000D03*
X0019622Y0041000D03*
D11*
X0019622Y0031000D02*
X0039622Y0011000D01*
X0064000Y0011000D01*
X0074000Y0011000D02*
X0074000Y0026323D01*
X0078677Y0031000D01*
X0084000Y0014000D02*
X0101000Y0031000D01*
X0137732Y0031000D01*
X0146000Y0041000D02*
X0151000Y0036000D01*
X0151000Y0021000D01*
X0141000Y0011000D01*
X0094000Y0011000D01*
X0084000Y0011000D02*
X0084000Y0014000D01*
X0078677Y0041000D02*
X0019622Y0041000D01*
X0078677Y0041000D02*
X0137732Y0041000D01*
X0146000Y0041000D01*
M02*
