%
M48
M72
T01C0.0157
T02C0.0354
T03C0.0394
T04C0.0400
T05C0.1260
%
T01
X4313Y4010
X4463Y5160
X4963Y5160
X5463Y5160
X4963Y5660
X4463Y5660
X4463Y6160
X6813Y6760
X8463Y6160
X9463Y6160
X10963Y7910
X7963Y11160
X8813Y12560
X8463Y14110
X5613Y12960
X2463Y11160
T02
X2463Y9026
X2463Y7294
T03
X15463Y6910
X16463Y6410
X16463Y7410
X15463Y7910
X16463Y8410
X15463Y8910
X16463Y9410
X15463Y9910
T04
X3463Y13160
X2463Y13160
X2463Y14160
X3463Y14160
X3463Y15160
X2463Y15160
T05
X18963Y10410
X18963Y5910
M30
