%!PS-Adobe-3.0 EPSF-3.0
%%Title: EAGLE Drawing /home/agustin/eagle/placa KE02/placa KE02.brd
%%Creator: EAGLE
%%Pages: 1
%%BoundingBox: 0 0 576 810
%%EndComments

% Coordinate transfer:

/EU { 254 div 0.072 mul } def
/inch { 72 mul } def

% Linestyle:

1 setlinecap
1 setlinejoin

% Drawing functions:

/l {  % draw a line
   /lw exch def
   /y2 exch def
   /x2 exch def
   /y1 exch def
   /x1 exch def
   newpath
   x1 EU y1 EU moveto
   x2 EU y2 EU lineto
   lw EU setlinewidth
   stroke
   } def

/h {  % draw a hole
   /d  exch def
   /y  exch def
   /x  exch def
   d 0 gt {
     newpath
     x EU y EU d 2 div EU 0 360 arc
     currentgray dup
     1 exch sub setgray
     fill
     setgray
     } if
   } def

/b {  % draw a bar
   /an exch def
   /y2 exch def
   /x2 exch def
   /y1 exch def
   /x1 exch def
   /w2 x2 x1 sub 2 div EU def
   /h2 y2 y1 sub 2 div EU def
   gsave
   x1 x2 add 2 div EU y1 y2 add 2 div EU translate
   an rotate
   newpath
   w2     h2     moveto
   w2 neg h2     lineto
   w2 neg h2 neg lineto
   w2     h2 neg lineto
   closepath
   fill
   grestore
   } def

/c {  % draw a circle
   /lw exch def
   /rd exch def
   /y  exch def
   /x  exch def
   newpath
   lw EU setlinewidth
   x EU y EU rd EU 0 360 arc
   stroke
   } def

/a {  % draw an arc
   /lc exch def
   /ae exch def
   /as exch def
   /lw exch def
   /rd exch def
   /y  exch def
   /x  exch def
   lw rd 2 mul gt {
     /rd rd lw 2 div add 2 div def
     /lw rd 2 mul def
     } if
   currentlinecap currentlinejoin
   lc setlinecap 0 setlinejoin
   newpath
   lw EU setlinewidth
   x EU y EU rd EU as ae arc
   stroke
   setlinejoin setlinecap
   } def

/p {  % draw a pie
   /d exch def
   /y exch def
   /x exch def
   newpath
   x EU y EU d 2 div EU 0 360 arc
   fill
   } def

/edge { 0.20710678119 mul } def

/o {  % draw an octagon
   /an exch def
   /dy exch def
   /dx exch def
   /y  exch def
   /x  exch def
   gsave
   x EU y EU translate
   an dx dy lt { 90 add /dx dy /dy dx def def } if rotate
   newpath
      0 dx 2 div sub EU                    0 dy edge  add EU moveto
      0 dx dy sub 2 div sub dy edge sub EU 0 dy 2 div add EU lineto
      0 dx dy sub 2 div add dy edge add EU 0 dy 2 div add EU lineto
      0 dx 2 div add EU                    0 dy edge  add EU lineto
      0 dx 2 div add EU                    0 dy edge  sub EU lineto
      0 dx dy sub 2 div add dy edge add EU 0 dy 2 div sub EU lineto
      0 dx dy sub 2 div sub dy edge sub EU 0 dy 2 div sub EU lineto
      0 dx 2 div sub EU                    0 dy edge  sub EU lineto
   closepath
   fill
   grestore
   } def

% the real drawing size:

/MinDrawX      0 EU def
/MinDrawY      0 EU def
/MaxDrawX 703072 EU def
/MaxDrawY 434594 EU def

% the usable page size:

/LeftMargin 0.25 inch def  % change these if drawing gets clipped!
/BotMargin  0.25 inch def
/PageWidth   7.7500 inch def
/PageHeight 11.0000 inch def

% are we going to rotate?:

/RotateDrawing 0 0 ne def

% Media size functions:

/AbortMessage {  % Show a message in a box and stop printing
   /h 100 def
   /Courier findfont 12 scalefont setfont
   mediawidth pagemargin sub h 1 setpage
   newpath
   0 0 moveto
   0 h rlineto
   mediawidth pagemargin sub 0 rlineto
   0 h neg rlineto
   closepath
   5 setlinewidth
   stroke
   newpath 50 60 moveto (ERROR: Jobsize exceeds physical printing area!) show
   newpath 50 40 moveto (       Job has been aborted!) show
   showpage
   stop
   } def

/SelectPage {  % Select the page identified by Row and Column
   /Column exch def
   /Row    exch def

   % the actually exposed area (if the machine knows these parameters!):

   /DrawX MaxDrawX MinDrawX sub def
   /DrawY MaxDrawY MinDrawY sub def
   statusdict /setpage known
   statusdict /mediawidth known and
   statusdict /medialength known and
   statusdict /pagemargin known and {
      % this is for machines that can tell the media size:
      statusdict begin
         /MediaW mediawidth pagemargin sub def
         DrawX DrawY ge {
            DrawX MediaW le DrawY medialength le and {
               MediaW DrawY 1 setpage
               MediaW DrawX sub 2 div 0 translate
               }{
            DrawY MediaW le DrawX medialength le and {
               MediaW DrawX 0 setpage
               0 MediaW DrawY sub 2 div translate
               }{
               AbortMessage
               } ifelse
               } ifelse
            }{
            DrawY MediaW le DrawX medialength le and {
               MediaW DrawX 0 setpage
               0 MediaW DrawY sub 2 div translate
               }{
            DrawX MediaW le DrawY medialength le and {
               MediaW DrawY 1 setpage
               MediaW DrawX sub 2 div 0 translate
               }{
               AbortMessage
               } ifelse
               } ifelse
            } ifelse
         end
      }{
      % this is for machines that can NOT tell the media size:
      % (Ghostscript doesn't like this!)
      /Product product length string def
      /i 0 def
      product { dup 97 lt { 32 add } if Product exch i exch put /i i 1 add def } forall 
      Product (ghostscript) search dup /IsGhostscript exch def
      { pop pop } if
      pop
      IsGhostscript not {
         statusdict /setpage known {
            statusdict begin
               RotateDrawing {
                  LeftMargin PageHeight add BotMargin DrawY add
                  }{
                  BotMargin DrawY add LeftMargin DrawX add 
                  } ifelse
               0 setpage
               end
            } if
         } if
      % set clipping boundary:
      newpath
      LeftMargin BotMargin moveto
      0 PageHeight rlineto
      PageWidth  0 rlineto
      0 PageHeight neg rlineto
      closepath
      clip
      % set the origin:
      LeftMargin BotMargin translate
      RotateDrawing {
         0 PageHeight translate
         -90 rotate
         PageHeight Column mul neg PageWidth Row mul neg translate
         }{
         PageWidth Column mul neg PageHeight Row mul neg translate
         } ifelse
      } ifelse
   % move the lower left corner of the drawing to the origin:
   MinDrawX neg MinDrawY neg translate
   
   % Linestyle:
   
   1 setlinecap
   1 setlinejoin
   
   % invert drawing:
   newpath
   MinDrawX MinDrawY moveto
   MaxDrawX MinDrawY lineto
   MaxDrawX MaxDrawY lineto
   MinDrawX MaxDrawY lineto
   0 setgray
   closepath fill
   1 setgray
   
   } def

% TheDrawing

gsave 0 0 SelectPage
247650 239522 237490 239522 10160 l
247650 252222 237490 252222 10160 l
247650 264922 237490 264922 10160 l
247650 277622 237490 277622 10160 l
247650 290322 237490 290322 10160 l
260350 290322 270510 290322 10160 l
260350 277622 270510 277622 10160 l
260350 264922 270510 264922 10160 l
260350 252222 270510 252222 10160 l
260350 239522 270510 239522 10160 l
279400 182372 18796 p
254000 182372 18796 p
228600 182372 18796 p
215900 55372 18796 p
241300 55372 18796 p
266700 55372 18796 p
292100 55372 18796 p
317500 55372 18796 p
342900 55372 18796 p
368300 55372 18796 p
393700 55372 18796 p
419100 55372 18796 p
444500 55372 18796 p
469900 55372 18796 p
495300 55372 18796 p
520700 55372 18796 p
546100 55372 18796 p
571500 55372 18796 p
596900 55372 18796 p
215900 385572 18796 p
241300 385572 18796 p
266700 385572 18796 p
292100 385572 18796 p
317500 385572 18796 p
342900 385572 18796 p
368300 385572 18796 p
393700 385572 18796 p
419100 385572 18796 p
444500 385572 18796 p
469900 385572 18796 p
495300 385572 18796 p
520700 385572 18796 p
546100 385572 18796 p
571500 385572 18796 p
596900 385572 18796 p
149700 290322 43180 p
89700 290322 43180 p
119700 243322 43180 p
615950 131572 18796 18796 0.0 o
590550 131572 18796 18796 0.0 o
615950 156972 18796 18796 0.0 o
590550 156972 18796 18796 0.0 o
615950 182372 18796 18796 0.0 o
590550 182372 18796 18796 0.0 o
361950 144272 14224 p
361950 144272 273050 144272 6096 l
273050 144272 254000 163322 6096 l
254000 163322 254000 182372 6096 l
228600 182372 222250 188722 3048 l
222250 188722 222250 283972 3048 l
222250 283972 228600 290322 3048 l
228600 290322 247650 290322 3048 l
298450 239522 14224 p
298450 239522 285750 252222 3048 l
285750 252222 285750 277622 3048 l
285750 277622 273050 290322 3048 l
273050 290322 260350 290322 3048 l
539750 144272 14224 p
539750 144272 552450 144272 3048 l
552450 144272 565150 156972 3048 l
565150 156972 565150 195072 3048 l
565150 195072 571500 201422 3048 l
571500 201422 609600 201422 3048 l
609600 201422 615950 195072 3048 l
615950 195072 615950 182372 3048 l
683008 16764 24892 16764 4064 l
24892 16764 24892 417730 4064 l
24892 417730 683008 417730 4064 l
683008 417730 683008 16764 4064 l
228130 403875 220195 407162 4064 l
220195 407162 211605 407162 4064 l
211605 407162 203670 403875 4064 l
203670 403875 197597 397802 4064 l
197597 397802 194310 389867 4064 l
194310 389867 194310 381277 4064 l
194310 381277 197597 373342 4064 l
197597 373342 203670 367269 4064 l
203670 367269 211605 363982 4064 l
211605 363982 220195 363982 4064 l
220195 363982 228130 367269 4064 l
228130 367269 228600 367739 4064 l
228600 367739 229070 367269 4064 l
229070 367269 237005 363982 4064 l
237005 363982 245595 363982 4064 l
245595 363982 253530 367269 4064 l
253530 367269 254000 367739 4064 l
254000 367739 254470 367269 4064 l
254470 367269 262405 363982 4064 l
262405 363982 270995 363982 4064 l
270995 363982 278930 367269 4064 l
278930 367269 279400 367739 4064 l
279400 367739 279870 367269 4064 l
279870 367269 287805 363982 4064 l
287805 363982 296395 363982 4064 l
296395 363982 304330 367269 4064 l
304330 367269 304800 367739 4064 l
304800 367739 305270 367269 4064 l
305270 367269 313205 363982 4064 l
313205 363982 321795 363982 4064 l
321795 363982 329730 367269 4064 l
329730 367269 330200 367739 4064 l
330200 367739 330670 367269 4064 l
330670 367269 338605 363982 4064 l
338605 363982 347195 363982 4064 l
347195 363982 355130 367269 4064 l
355130 367269 355600 367739 4064 l
355600 367739 356070 367269 4064 l
356070 367269 364005 363982 4064 l
364005 363982 372595 363982 4064 l
372595 363982 380530 367269 4064 l
380530 367269 381000 367739 4064 l
381000 367739 381470 367269 4064 l
381470 367269 389405 363982 4064 l
389405 363982 397995 363982 4064 l
397995 363982 405930 367269 4064 l
405930 367269 406400 367739 4064 l
406400 367739 406870 367269 4064 l
406870 367269 414805 363982 4064 l
414805 363982 423395 363982 4064 l
423395 363982 431330 367269 4064 l
431330 367269 431800 367739 4064 l
431800 367739 432270 367269 4064 l
432270 367269 440205 363982 4064 l
440205 363982 448795 363982 4064 l
448795 363982 456730 367269 4064 l
456730 367269 457200 367739 4064 l
457200 367739 457670 367269 4064 l
457670 367269 465605 363982 4064 l
465605 363982 474195 363982 4064 l
474195 363982 482130 367269 4064 l
482130 367269 482600 367739 4064 l
482600 367739 483070 367269 4064 l
483070 367269 491005 363982 4064 l
491005 363982 499595 363982 4064 l
499595 363982 507530 367269 4064 l
507530 367269 508000 367739 4064 l
508000 367739 508470 367269 4064 l
508470 367269 516405 363982 4064 l
516405 363982 524995 363982 4064 l
524995 363982 532930 367269 4064 l
532930 367269 533400 367739 4064 l
533400 367739 533870 367269 4064 l
533870 367269 541805 363982 4064 l
541805 363982 550395 363982 4064 l
550395 363982 558330 367269 4064 l
558330 367269 558800 367739 4064 l
558800 367739 559270 367269 4064 l
559270 367269 567205 363982 4064 l
567205 363982 575795 363982 4064 l
575795 363982 583730 367269 4064 l
583730 367269 584200 367739 4064 l
584200 367739 584670 367269 4064 l
584670 367269 592605 363982 4064 l
592605 363982 601195 363982 4064 l
601195 363982 609130 367269 4064 l
609130 367269 615203 373342 4064 l
615203 373342 618490 381277 4064 l
618490 381277 618490 389867 4064 l
618490 389867 615203 397802 4064 l
615203 397802 609130 403875 4064 l
609130 403875 601195 407162 4064 l
601195 407162 592605 407162 4064 l
592605 407162 584670 403875 4064 l
584670 403875 584200 403405 4064 l
584200 403405 583730 403875 4064 l
583730 403875 575795 407162 4064 l
575795 407162 567205 407162 4064 l
567205 407162 559270 403875 4064 l
559270 403875 558800 403405 4064 l
558800 403405 558330 403875 4064 l
558330 403875 550395 407162 4064 l
550395 407162 541805 407162 4064 l
541805 407162 533870 403875 4064 l
533870 403875 533400 403405 4064 l
533400 403405 532930 403875 4064 l
532930 403875 524995 407162 4064 l
524995 407162 516405 407162 4064 l
516405 407162 508470 403875 4064 l
508470 403875 508000 403405 4064 l
508000 403405 507530 403875 4064 l
507530 403875 499595 407162 4064 l
499595 407162 491005 407162 4064 l
491005 407162 483070 403875 4064 l
483070 403875 482600 403405 4064 l
482600 403405 482130 403875 4064 l
482130 403875 474195 407162 4064 l
474195 407162 465605 407162 4064 l
465605 407162 457670 403875 4064 l
457670 403875 457200 403405 4064 l
457200 403405 456730 403875 4064 l
456730 403875 448795 407162 4064 l
448795 407162 440205 407162 4064 l
440205 407162 432270 403875 4064 l
432270 403875 431800 403405 4064 l
431800 403405 431330 403875 4064 l
431330 403875 423395 407162 4064 l
423395 407162 414805 407162 4064 l
414805 407162 406870 403875 4064 l
406870 403875 406400 403405 4064 l
406400 403405 405930 403875 4064 l
405930 403875 397995 407162 4064 l
397995 407162 389405 407162 4064 l
389405 407162 381470 403875 4064 l
381470 403875 381000 403405 4064 l
381000 403405 380530 403875 4064 l
380530 403875 372595 407162 4064 l
372595 407162 364005 407162 4064 l
364005 407162 356070 403875 4064 l
356070 403875 355600 403405 4064 l
355600 403405 355130 403875 4064 l
355130 403875 347195 407162 4064 l
347195 407162 338605 407162 4064 l
338605 407162 330670 403875 4064 l
330670 403875 330200 403405 4064 l
330200 403405 329730 403875 4064 l
329730 403875 321795 407162 4064 l
321795 407162 313205 407162 4064 l
313205 407162 305270 403875 4064 l
305270 403875 304800 403405 4064 l
304800 403405 304330 403875 4064 l
304330 403875 296395 407162 4064 l
296395 407162 287805 407162 4064 l
287805 407162 279870 403875 4064 l
279870 403875 279400 403405 4064 l
279400 403405 278930 403875 4064 l
278930 403875 270995 407162 4064 l
270995 407162 262405 407162 4064 l
262405 407162 254470 403875 4064 l
254470 403875 254000 403405 4064 l
254000 403405 253530 403875 4064 l
253530 403875 245595 407162 4064 l
245595 407162 237005 407162 4064 l
237005 407162 229070 403875 4064 l
229070 403875 228600 403405 4064 l
228600 403405 228130 403875 4064 l
251086 222250 254000 223457 4064 l
254000 223457 256914 222250 4064 l
256914 222250 273946 222250 4064 l
273946 222250 280294 224880 4064 l
280294 224880 283043 227629 4064 l
283043 227629 287515 223157 4064 l
287515 223157 294610 220218 4064 l
294610 220218 302290 220218 4064 l
302290 220218 309385 223157 4064 l
309385 223157 314815 228587 4064 l
314815 228587 317754 235682 4064 l
317754 235682 317754 243362 4064 l
317754 243362 314815 250457 4064 l
314815 250457 309385 255887 4064 l
309385 255887 302290 258826 4064 l
302290 258826 299466 258826 4064 l
299466 258826 299466 280350 4064 l
299466 280350 297378 285391 4064 l
297378 285391 286912 295857 4064 l
286912 295857 285152 300106 4064 l
285152 300106 280294 304964 4064 l
280294 304964 273946 307594 4064 l
273946 307594 256914 307594 4064 l
256914 307594 254000 306387 4064 l
254000 306387 251086 307594 4064 l
251086 307594 234054 307594 4064 l
234054 307594 227706 304964 4064 l
227706 304964 226780 304038 4064 l
226780 304038 225872 304038 4064 l
225872 304038 220831 301950 4064 l
220831 301950 216972 298091 4064 l
216972 298091 210622 291741 4064 l
210622 291741 208534 286700 4064 l
208534 286700 208534 190346 4064 l
208534 190346 207010 186667 4064 l
207010 186667 207010 178077 4064 l
207010 178077 210297 170142 4064 l
210297 170142 216370 164069 4064 l
216370 164069 224305 160782 4064 l
224305 160782 232895 160782 4064 l
232895 160782 238760 163212 4064 l
238760 163212 238760 160291 4064 l
238760 160291 241080 154689 4064 l
241080 154689 245367 150402 4064 l
245367 150402 264417 131352 4064 l
264417 131352 270019 129032 4064 l
270019 129032 349890 129032 4064 l
349890 129032 351015 127907 4064 l
351015 127907 358110 124968 4064 l
358110 124968 365790 124968 4064 l
365790 124968 372885 127907 4064 l
372885 127907 378315 133337 4064 l
378315 133337 381254 140432 4064 l
381254 140432 381254 148112 4064 l
381254 148112 378315 155207 4064 l
378315 155207 372885 160637 4064 l
372885 160637 365790 163576 4064 l
365790 163576 358110 163576 4064 l
358110 163576 351015 160637 4064 l
351015 160637 349890 159512 4064 l
349890 159512 279363 159512 4064 l
279363 159512 278093 160782 4064 l
278093 160782 283695 160782 4064 l
283695 160782 291630 164069 4064 l
291630 164069 297703 170142 4064 l
297703 170142 300990 178077 4064 l
300990 178077 300990 186667 4064 l
300990 186667 297703 194602 4064 l
297703 194602 291630 200675 4064 l
291630 200675 283695 203962 4064 l
283695 203962 275105 203962 4064 l
275105 203962 267170 200675 4064 l
267170 200675 266700 200205 4064 l
266700 200205 266230 200675 4064 l
266230 200675 258295 203962 4064 l
258295 203962 249705 203962 4064 l
249705 203962 241770 200675 4064 l
241770 200675 241300 200205 4064 l
241300 200205 240830 200675 4064 l
240830 200675 235966 202690 4064 l
235966 202690 235966 222250 4064 l
235966 222250 251086 222250 4064 l
228130 73675 220195 76962 4064 l
220195 76962 211605 76962 4064 l
211605 76962 203670 73675 4064 l
203670 73675 197597 67602 4064 l
197597 67602 194310 59667 4064 l
194310 59667 194310 51077 4064 l
194310 51077 197597 43142 4064 l
197597 43142 203670 37069 4064 l
203670 37069 211605 33782 4064 l
211605 33782 220195 33782 4064 l
220195 33782 228130 37069 4064 l
228130 37069 228600 37539 4064 l
228600 37539 229070 37069 4064 l
229070 37069 237005 33782 4064 l
237005 33782 245595 33782 4064 l
245595 33782 253530 37069 4064 l
253530 37069 254000 37539 4064 l
254000 37539 254470 37069 4064 l
254470 37069 262405 33782 4064 l
262405 33782 270995 33782 4064 l
270995 33782 278930 37069 4064 l
278930 37069 279400 37539 4064 l
279400 37539 279870 37069 4064 l
279870 37069 287805 33782 4064 l
287805 33782 296395 33782 4064 l
296395 33782 304330 37069 4064 l
304330 37069 304800 37539 4064 l
304800 37539 305270 37069 4064 l
305270 37069 313205 33782 4064 l
313205 33782 321795 33782 4064 l
321795 33782 329730 37069 4064 l
329730 37069 330200 37539 4064 l
330200 37539 330670 37069 4064 l
330670 37069 338605 33782 4064 l
338605 33782 347195 33782 4064 l
347195 33782 355130 37069 4064 l
355130 37069 355600 37539 4064 l
355600 37539 356070 37069 4064 l
356070 37069 364005 33782 4064 l
364005 33782 372595 33782 4064 l
372595 33782 380530 37069 4064 l
380530 37069 381000 37539 4064 l
381000 37539 381470 37069 4064 l
381470 37069 389405 33782 4064 l
389405 33782 397995 33782 4064 l
397995 33782 405930 37069 4064 l
405930 37069 406400 37539 4064 l
406400 37539 406870 37069 4064 l
406870 37069 414805 33782 4064 l
414805 33782 423395 33782 4064 l
423395 33782 431330 37069 4064 l
431330 37069 431800 37539 4064 l
431800 37539 432270 37069 4064 l
432270 37069 440205 33782 4064 l
440205 33782 448795 33782 4064 l
448795 33782 456730 37069 4064 l
456730 37069 457200 37539 4064 l
457200 37539 457670 37069 4064 l
457670 37069 465605 33782 4064 l
465605 33782 474195 33782 4064 l
474195 33782 482130 37069 4064 l
482130 37069 482600 37539 4064 l
482600 37539 483070 37069 4064 l
483070 37069 491005 33782 4064 l
491005 33782 499595 33782 4064 l
499595 33782 507530 37069 4064 l
507530 37069 508000 37539 4064 l
508000 37539 508470 37069 4064 l
508470 37069 516405 33782 4064 l
516405 33782 524995 33782 4064 l
524995 33782 532930 37069 4064 l
532930 37069 533400 37539 4064 l
533400 37539 533870 37069 4064 l
533870 37069 541805 33782 4064 l
541805 33782 550395 33782 4064 l
550395 33782 558330 37069 4064 l
558330 37069 558800 37539 4064 l
558800 37539 559270 37069 4064 l
559270 37069 567205 33782 4064 l
567205 33782 575795 33782 4064 l
575795 33782 583730 37069 4064 l
583730 37069 584200 37539 4064 l
584200 37539 584670 37069 4064 l
584670 37069 592605 33782 4064 l
592605 33782 601195 33782 4064 l
601195 33782 609130 37069 4064 l
609130 37069 615203 43142 4064 l
615203 43142 618490 51077 4064 l
618490 51077 618490 59667 4064 l
618490 59667 615203 67602 4064 l
615203 67602 609130 73675 4064 l
609130 73675 601195 76962 4064 l
601195 76962 592605 76962 4064 l
592605 76962 584670 73675 4064 l
584670 73675 584200 73205 4064 l
584200 73205 583730 73675 4064 l
583730 73675 575795 76962 4064 l
575795 76962 567205 76962 4064 l
567205 76962 559270 73675 4064 l
559270 73675 558800 73205 4064 l
558800 73205 558330 73675 4064 l
558330 73675 550395 76962 4064 l
550395 76962 541805 76962 4064 l
541805 76962 533870 73675 4064 l
533870 73675 533400 73205 4064 l
533400 73205 532930 73675 4064 l
532930 73675 524995 76962 4064 l
524995 76962 516405 76962 4064 l
516405 76962 508470 73675 4064 l
508470 73675 508000 73205 4064 l
508000 73205 507530 73675 4064 l
507530 73675 499595 76962 4064 l
499595 76962 491005 76962 4064 l
491005 76962 483070 73675 4064 l
483070 73675 482600 73205 4064 l
482600 73205 482130 73675 4064 l
482130 73675 474195 76962 4064 l
474195 76962 465605 76962 4064 l
465605 76962 457670 73675 4064 l
457670 73675 457200 73205 4064 l
457200 73205 456730 73675 4064 l
456730 73675 448795 76962 4064 l
448795 76962 440205 76962 4064 l
440205 76962 432270 73675 4064 l
432270 73675 431800 73205 4064 l
431800 73205 431330 73675 4064 l
431330 73675 423395 76962 4064 l
423395 76962 414805 76962 4064 l
414805 76962 406870 73675 4064 l
406870 73675 406400 73205 4064 l
406400 73205 405930 73675 4064 l
405930 73675 397995 76962 4064 l
397995 76962 389405 76962 4064 l
389405 76962 381470 73675 4064 l
381470 73675 381000 73205 4064 l
381000 73205 380530 73675 4064 l
380530 73675 372595 76962 4064 l
372595 76962 364005 76962 4064 l
364005 76962 356070 73675 4064 l
356070 73675 355600 73205 4064 l
355600 73205 355130 73675 4064 l
355130 73675 347195 76962 4064 l
347195 76962 338605 76962 4064 l
338605 76962 330670 73675 4064 l
330670 73675 330200 73205 4064 l
330200 73205 329730 73675 4064 l
329730 73675 321795 76962 4064 l
321795 76962 313205 76962 4064 l
313205 76962 305270 73675 4064 l
305270 73675 304800 73205 4064 l
304800 73205 304330 73675 4064 l
304330 73675 296395 76962 4064 l
296395 76962 287805 76962 4064 l
287805 76962 279870 73675 4064 l
279870 73675 279400 73205 4064 l
279400 73205 278930 73675 4064 l
278930 73675 270995 76962 4064 l
270995 76962 262405 76962 4064 l
262405 76962 254470 73675 4064 l
254470 73675 254000 73205 4064 l
254000 73205 253530 73675 4064 l
253530 73675 245595 76962 4064 l
245595 76962 237005 76962 4064 l
237005 76962 229070 73675 4064 l
229070 73675 228600 73205 4064 l
228600 73205 228130 73675 4064 l
183482 285875 183482 294769 4064 l
183482 294769 181180 303361 4064 l
181180 303361 176732 311065 4064 l
176732 311065 170443 317354 4064 l
170443 317354 162739 321802 4064 l
162739 321802 154147 324104 4064 l
154147 324104 145253 324104 4064 l
145253 324104 136661 321802 4064 l
136661 321802 128957 317354 4064 l
128957 317354 122668 311065 4064 l
122668 311065 119700 305924 4064 l
119700 305924 116732 311065 4064 l
116732 311065 110443 317354 4064 l
110443 317354 102739 321802 4064 l
102739 321802 94147 324104 4064 l
94147 324104 85253 324104 4064 l
85253 324104 76661 321802 4064 l
76661 321802 68957 317354 4064 l
68957 317354 62668 311065 4064 l
62668 311065 58220 303361 4064 l
58220 303361 55918 294769 4064 l
55918 294769 55918 285875 4064 l
55918 285875 58220 277283 4064 l
58220 277283 62668 269579 4064 l
62668 269579 68957 263290 4064 l
68957 263290 76661 258842 4064 l
76661 258842 85253 256540 4064 l
85253 256540 88323 256540 4064 l
88323 256540 88220 256361 4064 l
88220 256361 85918 247769 4064 l
85918 247769 85918 238875 4064 l
85918 238875 88220 230283 4064 l
88220 230283 92668 222579 4064 l
92668 222579 98957 216290 4064 l
98957 216290 106661 211842 4064 l
106661 211842 115253 209540 4064 l
115253 209540 124147 209540 4064 l
124147 209540 132739 211842 4064 l
132739 211842 140443 216290 4064 l
140443 216290 146732 222579 4064 l
146732 222579 151180 230283 4064 l
151180 230283 153482 238875 4064 l
153482 238875 153482 247769 4064 l
153482 247769 151180 256361 4064 l
151180 256361 151077 256540 4064 l
151077 256540 154147 256540 4064 l
154147 256540 162739 258842 4064 l
162739 258842 170443 263290 4064 l
170443 263290 176732 269579 4064 l
176732 269579 181180 277283 4064 l
181180 277283 183482 285875 4064 l
637540 122629 637540 140515 4064 l
637540 140515 633783 144272 4064 l
633783 144272 637540 148029 4064 l
637540 148029 637540 165915 4064 l
637540 165915 633783 169672 4064 l
633783 169672 637540 173429 4064 l
637540 173429 637540 191315 4064 l
637540 191315 628684 200171 4064 l
628684 200171 627578 202841 4064 l
627578 202841 623719 206700 4064 l
623719 206700 617369 213050 4064 l
617369 213050 612328 215138 4064 l
612328 215138 568772 215138 4064 l
568772 215138 563731 213050 4064 l
563731 213050 559872 209191 4064 l
559872 209191 559872 209191 4064 l
559872 209191 553522 202841 4064 l
553522 202841 551434 197800 4064 l
551434 197800 551434 162653 4064 l
551434 162653 549789 161008 4064 l
549789 161008 543590 163576 4064 l
543590 163576 535910 163576 4064 l
535910 163576 528815 160637 4064 l
528815 160637 523385 155207 4064 l
523385 155207 520446 148112 4064 l
520446 148112 520446 140432 4064 l
520446 140432 523385 133337 4064 l
523385 133337 528815 127907 4064 l
528815 127907 535910 124968 4064 l
535910 124968 543590 124968 4064 l
543590 124968 550685 127907 4064 l
550685 127907 553334 130556 4064 l
553334 130556 555178 130556 4064 l
555178 130556 560219 132644 4064 l
560219 132644 564078 136503 4064 l
564078 136503 564078 136503 4064 l
564078 136503 572282 144707 4064 l
572282 144707 572717 144272 4064 l
572717 144272 568960 140515 4064 l
568960 140515 568960 122629 4064 l
568960 122629 581607 109982 4064 l
581607 109982 599493 109982 4064 l
599493 109982 603250 113739 4064 l
603250 113739 607007 109982 4064 l
607007 109982 624893 109982 4064 l
624893 109982 637540 122629 4064 l
87074 382146 87074 388998 4064 l
87074 388998 84452 395329 4064 l
84452 395329 79607 400174 4064 l
79607 400174 73276 402796 4064 l
73276 402796 66424 402796 4064 l
66424 402796 60093 400174 4064 l
60093 400174 55248 395329 4064 l
55248 395329 52626 388998 4064 l
52626 388998 52626 382146 4064 l
52626 382146 55248 375815 4064 l
55248 375815 60093 370970 4064 l
60093 370970 66424 368348 4064 l
66424 368348 73276 368348 4064 l
73276 368348 79607 370970 4064 l
79607 370970 84452 375815 4064 l
84452 375815 87074 382146 4064 l
671274 382146 671274 388998 4064 l
671274 388998 668652 395329 4064 l
668652 395329 663807 400174 4064 l
663807 400174 657476 402796 4064 l
657476 402796 650624 402796 4064 l
650624 402796 644293 400174 4064 l
644293 400174 639448 395329 4064 l
639448 395329 636826 388998 4064 l
636826 388998 636826 382146 4064 l
636826 382146 639448 375815 4064 l
639448 375815 644293 370970 4064 l
644293 370970 650624 368348 4064 l
650624 368348 657476 368348 4064 l
657476 368348 663807 370970 4064 l
663807 370970 668652 375815 4064 l
668652 375815 671274 382146 4064 l
671274 51946 671274 58798 4064 l
671274 58798 668652 65129 4064 l
668652 65129 663807 69974 4064 l
663807 69974 657476 72596 4064 l
657476 72596 650624 72596 4064 l
650624 72596 644293 69974 4064 l
644293 69974 639448 65129 4064 l
639448 65129 636826 58798 4064 l
636826 58798 636826 51946 4064 l
636826 51946 639448 45615 4064 l
639448 45615 644293 40770 4064 l
644293 40770 650624 38148 4064 l
650624 38148 657476 38148 4064 l
657476 38148 663807 40770 4064 l
663807 40770 668652 45615 4064 l
668652 45615 671274 51946 4064 l
87074 51946 87074 58798 4064 l
87074 58798 84452 65129 4064 l
84452 65129 79607 69974 4064 l
79607 69974 73276 72596 4064 l
73276 72596 66424 72596 4064 l
66424 72596 60093 69974 4064 l
60093 69974 55248 65129 4064 l
55248 65129 52626 58798 4064 l
52626 58798 52626 51946 4064 l
52626 51946 55248 45615 4064 l
55248 45615 60093 40770 4064 l
60093 40770 66424 38148 4064 l
66424 38148 73276 38148 4064 l
73276 38148 79607 40770 4064 l
79607 40770 84452 45615 4064 l
84452 45615 87074 51946 4064 l
24892 20780 683008 20780 4064 l
24892 24832 683008 24832 4064 l
24892 28884 683008 28884 4064 l
24892 32936 683008 32936 4064 l
24892 36988 203865 36988 4064 l
227934 36988 229265 36988 4064 l
253334 36988 254665 36988 4064 l
278734 36988 280065 36988 4064 l
304134 36988 305465 36988 4064 l
329534 36988 330865 36988 4064 l
354934 36988 356265 36988 4064 l
380334 36988 381665 36988 4064 l
405734 36988 407065 36988 4064 l
431134 36988 432465 36988 4064 l
456534 36988 457865 36988 4064 l
481934 36988 483265 36988 4064 l
507334 36988 508665 36988 4064 l
532734 36988 534065 36988 4064 l
558134 36988 559465 36988 4064 l
583534 36988 584865 36988 4064 l
608934 36988 683008 36988 4064 l
24892 41040 59824 41040 4064 l
79876 41040 199699 41040 4064 l
613101 41040 644024 41040 4064 l
664076 41040 683008 41040 4064 l
24892 45092 55772 45092 4064 l
83928 45092 196789 45092 4064 l
616011 45092 639972 45092 4064 l
668128 45092 683008 45092 4064 l
24892 49144 53787 49144 4064 l
85913 49144 195111 49144 4064 l
617689 49144 637987 49144 4064 l
670113 49144 683008 49144 4064 l
24892 53196 52626 53196 4064 l
87074 53196 194310 53196 4064 l
618490 53196 636826 53196 4064 l
671274 53196 683008 53196 4064 l
24892 57248 52626 57248 4064 l
87074 57248 194310 57248 4064 l
618490 57248 636826 57248 4064 l
671274 57248 683008 57248 4064 l
24892 61300 53662 61300 4064 l
86038 61300 194987 61300 4064 l
617813 61300 637862 61300 4064 l
670238 61300 683008 61300 4064 l
24892 65352 55472 65352 4064 l
84228 65352 196665 65352 4064 l
616135 65352 639672 65352 4064 l
668428 65352 683008 65352 4064 l
24892 69404 59524 69404 4064 l
80176 69404 199399 69404 4064 l
613401 69404 643724 69404 4064 l
664376 69404 683008 69404 4064 l
24892 73456 203451 73456 4064 l
228349 73456 228851 73456 4064 l
253749 73456 254251 73456 4064 l
279149 73456 279651 73456 4064 l
304549 73456 305051 73456 4064 l
329949 73456 330451 73456 4064 l
355349 73456 355851 73456 4064 l
380749 73456 381251 73456 4064 l
406149 73456 406651 73456 4064 l
431549 73456 432051 73456 4064 l
456949 73456 457451 73456 4064 l
482349 73456 482851 73456 4064 l
507749 73456 508251 73456 4064 l
533149 73456 533651 73456 4064 l
558549 73456 559051 73456 4064 l
583949 73456 584451 73456 4064 l
609349 73456 683008 73456 4064 l
24892 77508 683008 77508 4064 l
24892 81560 683008 81560 4064 l
24892 85612 683008 85612 4064 l
24892 89664 683008 89664 4064 l
24892 93716 683008 93716 4064 l
24892 97768 683008 97768 4064 l
24892 101820 683008 101820 4064 l
24892 105872 683008 105872 4064 l
24892 109924 683008 109924 4064 l
24892 113976 577613 113976 4064 l
628887 113976 683008 113976 4064 l
24892 118028 573561 118028 4064 l
632939 118028 683008 118028 4064 l
24892 122080 569509 122080 4064 l
636991 122080 683008 122080 4064 l
24892 126132 355300 126132 4064 l
368600 126132 533100 126132 4064 l
546400 126132 568960 126132 4064 l
637540 126132 683008 126132 4064 l
24892 130184 267237 130184 4064 l
375162 130184 526538 130184 4064 l
552962 130184 568960 130184 4064 l
637540 130184 683008 130184 4064 l
24892 134236 261533 134236 4064 l
378687 134236 523013 134236 4064 l
561811 134236 568960 134236 4064 l
637540 134236 683008 134236 4064 l
24892 138288 257481 138288 4064 l
380366 138288 521334 138288 4064 l
565863 138288 568960 138288 4064 l
637540 138288 683008 138288 4064 l
24892 142340 253429 142340 4064 l
381254 142340 520446 142340 4064 l
569915 142340 570785 142340 4064 l
635715 142340 683008 142340 4064 l
24892 146392 249377 146392 4064 l
381254 146392 520446 146392 4064 l
635903 146392 683008 146392 4064 l
24892 150444 245325 150444 4064 l
380288 150444 521412 150444 4064 l
637540 150444 683008 150444 4064 l
24892 154496 241273 154496 4064 l
378610 154496 523090 154496 4064 l
637540 154496 683008 154496 4064 l
24892 158548 239482 158548 4064 l
374974 158548 526726 158548 4064 l
637540 158548 683008 158548 4064 l
24892 162600 219916 162600 4064 l
237283 162600 238760 162600 4064 l
288084 162600 355754 162600 4064 l
368146 162600 533554 162600 4064 l
545946 162600 551381 162600 4064 l
637540 162600 683008 162600 4064 l
24892 166652 213787 166652 4064 l
294213 166652 551434 166652 4064 l
636803 166652 683008 166652 4064 l
24892 170704 210064 170704 4064 l
297936 170704 551434 170704 4064 l
634815 170704 683008 170704 4064 l
24892 174756 208386 174756 4064 l
299614 174756 551434 174756 4064 l
637540 174756 683008 174756 4064 l
24892 178808 207010 178808 4064 l
300990 178808 551434 178808 4064 l
637540 178808 683008 178808 4064 l
24892 182860 207010 182860 4064 l
300990 182860 551434 182860 4064 l
637540 182860 683008 182860 4064 l
24892 186912 207112 186912 4064 l
300888 186912 551434 186912 4064 l
637540 186912 683008 186912 4064 l
24892 190964 208534 190964 4064 l
299210 190964 551434 190964 4064 l
637540 190964 683008 190964 4064 l
24892 195016 208534 195016 4064 l
297289 195016 551434 195016 4064 l
633839 195016 683008 195016 4064 l
24892 199068 208534 199068 4064 l
293237 199068 551959 199068 4064 l
629787 199068 683008 199068 4064 l
24892 203120 208534 203120 4064 l
235966 203120 247673 203120 4064 l
260327 203120 273073 203120 4064 l
285727 203120 553801 203120 4064 l
627299 203120 683008 203120 4064 l
24892 207172 208534 207172 4064 l
235966 207172 557853 207172 4064 l
623247 207172 683008 207172 4064 l
24892 211224 108968 211224 4064 l
130432 211224 208534 211224 4064 l
235966 211224 561905 211224 4064 l
619195 211224 683008 211224 4064 l
24892 215276 100713 215276 4064 l
138687 215276 208534 215276 4064 l
235966 215276 683008 215276 4064 l
24892 219328 95919 219328 4064 l
143481 219328 208534 219328 4064 l
235966 219328 683008 219328 4064 l
24892 223380 92205 223380 4064 l
147195 223380 208534 223380 4064 l
253814 223380 254186 223380 4064 l
276674 223380 287292 223380 4064 l
309608 223380 683008 223380 4064 l
24892 227432 89866 227432 4064 l
149534 227432 208534 227432 4064 l
282846 227432 283240 227432 4064 l
313660 227432 683008 227432 4064 l
24892 231484 87898 231484 4064 l
151502 231484 208534 231484 4064 l
316015 231484 683008 231484 4064 l
24892 235536 86813 235536 4064 l
152587 235536 208534 235536 4064 l
317693 235536 683008 235536 4064 l
24892 239588 85918 239588 4064 l
153482 239588 208534 239588 4064 l
317754 239588 683008 239588 4064 l
24892 243640 85918 243640 4064 l
153482 243640 208534 243640 4064 l
317639 243640 683008 243640 4064 l
24892 247692 85918 247692 4064 l
153482 247692 208534 247692 4064 l
315960 247692 683008 247692 4064 l
24892 251744 86983 251744 4064 l
152417 251744 208534 251744 4064 l
313528 251744 683008 251744 4064 l
24892 255796 88069 255796 4064 l
151331 255796 208534 255796 4064 l
309476 255796 683008 255796 4064 l
24892 259848 74918 259848 4064 l
164481 259848 208534 259848 4064 l
299466 259848 683008 259848 4064 l
24892 263900 68347 263900 4064 l
171053 263900 208534 263900 4064 l
299466 263900 683008 263900 4064 l
24892 267952 64295 267952 4064 l
175105 267952 208534 267952 4064 l
299466 267952 683008 267952 4064 l
24892 272004 61268 272004 4064 l
178132 272004 208534 272004 4064 l
299466 272004 683008 272004 4064 l
24892 276056 58928 276056 4064 l
180472 276056 208534 276056 4064 l
299466 276056 683008 276056 4064 l
24892 280108 57463 280108 4064 l
181937 280108 208534 280108 4064 l
299466 280108 683008 280108 4064 l
24892 284160 56377 284160 4064 l
183023 284160 208534 284160 4064 l
297888 284160 683008 284160 4064 l
24892 288212 55918 288212 4064 l
183482 288212 209160 288212 4064 l
294557 288212 683008 288212 4064 l
24892 292264 55918 292264 4064 l
183482 292264 211145 292264 4064 l
290505 292264 683008 292264 4064 l
24892 296316 56332 296316 4064 l
183068 296316 215197 296316 4064 l
286722 296316 683008 296316 4064 l
24892 300368 57418 300368 4064 l
181982 300368 219249 300368 4064 l
284890 300368 683008 300368 4064 l
24892 304420 58831 304420 4064 l
180569 304420 227162 304420 4064 l
280838 304420 683008 304420 4064 l
24892 308472 61171 308472 4064 l
118229 308472 121171 308472 4064 l
178229 308472 683008 308472 4064 l
24892 312524 64127 312524 4064 l
115273 312524 124127 312524 4064 l
175273 312524 683008 312524 4064 l
24892 316576 68179 316576 4064 l
111221 316576 128179 316576 4064 l
171221 316576 683008 316576 4064 l
24892 320628 74628 320628 4064 l
104772 320628 134628 320628 4064 l
164772 320628 683008 320628 4064 l
24892 324680 683008 324680 4064 l
24892 328732 683008 328732 4064 l
24892 332784 683008 332784 4064 l
24892 336836 683008 336836 4064 l
24892 340888 683008 340888 4064 l
24892 344940 683008 344940 4064 l
24892 348992 683008 348992 4064 l
24892 353044 683008 353044 4064 l
24892 357096 683008 357096 4064 l
24892 361148 683008 361148 4064 l
24892 365200 208665 365200 4064 l
223135 365200 234065 365200 4064 l
248535 365200 259465 365200 4064 l
273935 365200 284865 365200 4064 l
299335 365200 310265 365200 4064 l
324735 365200 335665 365200 4064 l
350135 365200 361065 365200 4064 l
375535 365200 386465 365200 4064 l
400935 365200 411865 365200 4064 l
426335 365200 437265 365200 4064 l
451735 365200 462665 365200 4064 l
477135 365200 488065 365200 4064 l
502535 365200 513465 365200 4064 l
527935 365200 538865 365200 4064 l
553335 365200 564265 365200 4064 l
578735 365200 589665 365200 4064 l
604135 365200 683008 365200 4064 l
24892 369252 64241 369252 4064 l
75459 369252 201687 369252 4064 l
611113 369252 648441 369252 4064 l
659659 369252 683008 369252 4064 l
24892 373304 57760 373304 4064 l
81940 373304 197635 373304 4064 l
615165 373304 641960 373304 4064 l
666140 373304 683008 373304 4064 l
24892 377356 54610 377356 4064 l
85090 377356 195934 377356 4064 l
616866 377356 638810 377356 4064 l
669290 377356 683008 377356 4064 l
24892 381408 52932 381408 4064 l
86768 381408 194310 381408 4064 l
618490 381408 637132 381408 4064 l
670968 381408 683008 381408 4064 l
24892 385460 52626 385460 4064 l
87074 385460 194310 385460 4064 l
618490 385460 636826 385460 4064 l
671274 385460 683008 385460 4064 l
24892 389512 52839 389512 4064 l
86861 389512 194310 389512 4064 l
618490 389512 637039 389512 4064 l
671061 389512 683008 389512 4064 l
24892 393564 54517 393564 4064 l
85183 393564 195842 393564 4064 l
616958 393564 638717 393564 4064 l
669383 393564 683008 393564 4064 l
24892 397616 57536 397616 4064 l
82164 397616 197520 397616 4064 l
615280 397616 641736 397616 4064 l
666364 397616 683008 397616 4064 l
24892 401668 63701 401668 4064 l
75999 401668 201463 401668 4064 l
611337 401668 647901 401668 4064 l
660199 401668 683008 401668 4064 l
24892 405720 208124 405720 4064 l
223676 405720 233524 405720 4064 l
249076 405720 258924 405720 4064 l
274476 405720 284324 405720 4064 l
299876 405720 309724 405720 4064 l
325276 405720 335124 405720 4064 l
350676 405720 360524 405720 4064 l
376076 405720 385924 405720 4064 l
401476 405720 411324 405720 4064 l
426876 405720 436724 405720 4064 l
452276 405720 462124 405720 4064 l
477676 405720 487524 405720 4064 l
503076 405720 512924 405720 4064 l
528476 405720 538324 405720 4064 l
553876 405720 563724 405720 4064 l
579276 405720 589124 405720 4064 l
604676 405720 683008 405720 4064 l
24892 409772 683008 409772 4064 l
24892 413824 683008 413824 4064 l
69850 385572 10064 p
654050 385572 10064 p
654050 55372 10064 p
69850 55372 10064 p
showpage grestore
