%!PS-Adobe-3.0 EPSF-3.0
%%Title: EAGLE Drawing /home/agustin/eagle/placa KE02/placa KE02.brd
%%Creator: EAGLE
%%Pages: 1
%%BoundingBox: 0 0 576 810
%%EndComments

% Coordinate transfer:

/EU { 254 div 0.072 mul } def
/inch { 72 mul } def

% Linestyle:

1 setlinecap
1 setlinejoin

% Drawing functions:

/l {  % draw a line
   /lw exch def
   /y2 exch def
   /x2 exch def
   /y1 exch def
   /x1 exch def
   newpath
   x1 EU y1 EU moveto
   x2 EU y2 EU lineto
   lw EU setlinewidth
   stroke
   } def

/h {  % draw a hole
   /d  exch def
   /y  exch def
   /x  exch def
   d 0 gt {
     newpath
     x EU y EU d 2 div EU 0 360 arc
     currentgray dup
     1 exch sub setgray
     fill
     setgray
     } if
   } def

/b {  % draw a bar
   /an exch def
   /y2 exch def
   /x2 exch def
   /y1 exch def
   /x1 exch def
   /w2 x2 x1 sub 2 div EU def
   /h2 y2 y1 sub 2 div EU def
   gsave
   x1 x2 add 2 div EU y1 y2 add 2 div EU translate
   an rotate
   newpath
   w2     h2     moveto
   w2 neg h2     lineto
   w2 neg h2 neg lineto
   w2     h2 neg lineto
   closepath
   fill
   grestore
   } def

/c {  % draw a circle
   /lw exch def
   /rd exch def
   /y  exch def
   /x  exch def
   newpath
   lw EU setlinewidth
   x EU y EU rd EU 0 360 arc
   stroke
   } def

/a {  % draw an arc
   /lc exch def
   /ae exch def
   /as exch def
   /lw exch def
   /rd exch def
   /y  exch def
   /x  exch def
   lw rd 2 mul gt {
     /rd rd lw 2 div add 2 div def
     /lw rd 2 mul def
     } if
   currentlinecap currentlinejoin
   lc setlinecap 0 setlinejoin
   newpath
   lw EU setlinewidth
   x EU y EU rd EU as ae arc
   stroke
   setlinejoin setlinecap
   } def

/p {  % draw a pie
   /d exch def
   /y exch def
   /x exch def
   newpath
   x EU y EU d 2 div EU 0 360 arc
   fill
   } def

/edge { 0.20710678119 mul } def

/o {  % draw an octagon
   /an exch def
   /dy exch def
   /dx exch def
   /y  exch def
   /x  exch def
   gsave
   x EU y EU translate
   an dx dy lt { 90 add /dx dy /dy dx def def } if rotate
   newpath
      0 dx 2 div sub EU                    0 dy edge  add EU moveto
      0 dx dy sub 2 div sub dy edge sub EU 0 dy 2 div add EU lineto
      0 dx dy sub 2 div add dy edge add EU 0 dy 2 div add EU lineto
      0 dx 2 div add EU                    0 dy edge  add EU lineto
      0 dx 2 div add EU                    0 dy edge  sub EU lineto
      0 dx dy sub 2 div add dy edge add EU 0 dy 2 div sub EU lineto
      0 dx dy sub 2 div sub dy edge sub EU 0 dy 2 div sub EU lineto
      0 dx 2 div sub EU                    0 dy edge  sub EU lineto
   closepath
   fill
   grestore
   } def

% the real drawing size:

/MinDrawX      0 EU def
/MinDrawY      0 EU def
/MaxDrawX 703072 EU def
/MaxDrawY 434594 EU def

% the usable page size:

/LeftMargin 0.25 inch def  % change these if drawing gets clipped!
/BotMargin  0.25 inch def
/PageWidth   7.7500 inch def
/PageHeight 11.0000 inch def

% are we going to rotate?:

/RotateDrawing 0 0 ne def

% Media size functions:

/AbortMessage {  % Show a message in a box and stop printing
   /h 100 def
   /Courier findfont 12 scalefont setfont
   mediawidth pagemargin sub h 1 setpage
   newpath
   0 0 moveto
   0 h rlineto
   mediawidth pagemargin sub 0 rlineto
   0 h neg rlineto
   closepath
   5 setlinewidth
   stroke
   newpath 50 60 moveto (ERROR: Jobsize exceeds physical printing area!) show
   newpath 50 40 moveto (       Job has been aborted!) show
   showpage
   stop
   } def

/SelectPage {  % Select the page identified by Row and Column
   /Column exch def
   /Row    exch def

   % the actually exposed area (if the machine knows these parameters!):

   /DrawX MaxDrawX MinDrawX sub def
   /DrawY MaxDrawY MinDrawY sub def
   statusdict /setpage known
   statusdict /mediawidth known and
   statusdict /medialength known and
   statusdict /pagemargin known and {
      % this is for machines that can tell the media size:
      statusdict begin
         /MediaW mediawidth pagemargin sub def
         DrawX DrawY ge {
            DrawX MediaW le DrawY medialength le and {
               MediaW DrawY 1 setpage
               MediaW DrawX sub 2 div 0 translate
               }{
            DrawY MediaW le DrawX medialength le and {
               MediaW DrawX 0 setpage
               0 MediaW DrawY sub 2 div translate
               }{
               AbortMessage
               } ifelse
               } ifelse
            }{
            DrawY MediaW le DrawX medialength le and {
               MediaW DrawX 0 setpage
               0 MediaW DrawY sub 2 div translate
               }{
            DrawX MediaW le DrawY medialength le and {
               MediaW DrawY 1 setpage
               MediaW DrawX sub 2 div 0 translate
               }{
               AbortMessage
               } ifelse
               } ifelse
            } ifelse
         end
      }{
      % this is for machines that can NOT tell the media size:
      % (Ghostscript doesn't like this!)
      /Product product length string def
      /i 0 def
      product { dup 97 lt { 32 add } if Product exch i exch put /i i 1 add def } forall 
      Product (ghostscript) search dup /IsGhostscript exch def
      { pop pop } if
      pop
      IsGhostscript not {
         statusdict /setpage known {
            statusdict begin
               RotateDrawing {
                  LeftMargin PageHeight add BotMargin DrawY add
                  }{
                  BotMargin DrawY add LeftMargin DrawX add 
                  } ifelse
               0 setpage
               end
            } if
         } if
      % set clipping boundary:
      newpath
      LeftMargin BotMargin moveto
      0 PageHeight rlineto
      PageWidth  0 rlineto
      0 PageHeight neg rlineto
      closepath
      clip
      % set the origin:
      LeftMargin BotMargin translate
      RotateDrawing {
         0 PageHeight translate
         -90 rotate
         PageHeight Column mul neg PageWidth Row mul neg translate
         }{
         PageWidth Column mul neg PageHeight Row mul neg translate
         } ifelse
      } ifelse
   % move the lower left corner of the drawing to the origin:
   MinDrawX neg MinDrawY neg translate
   
   % Linestyle:
   
   1 setlinecap
   1 setlinejoin
   
   % invert drawing:
   newpath
   MinDrawX MinDrawY moveto
   MaxDrawX MinDrawY lineto
   MaxDrawX MaxDrawY lineto
   MinDrawX MaxDrawY lineto
   0 setgray
   closepath fill
   1 setgray
   
   } def

% TheDrawing

gsave 0 0 SelectPage
379310 280429 397090 284429 315.0 b
373653 274772 391433 278772 315.0 b
367996 269115 385776 273115 315.0 b
384967 286086 402747 290086 315.0 b
390624 291742 408404 295742 315.0 b
362340 263458 380120 267458 315.0 b
356683 257801 374463 261801 315.0 b
396281 297399 414061 301399 315.0 b
401938 303056 419718 307056 315.0 b
351026 252144 368806 256144 315.0 b
345369 246488 363149 250488 315.0 b
407594 308713 425374 312713 315.0 b
413251 314370 431031 318370 315.0 b
339712 240831 357492 244831 315.0 b
418908 320027 436688 324027 315.0 b
334055 235174 351835 239174 315.0 b
373653 162172 391433 166172 45.0 b
379310 156515 397090 160515 45.0 b
384967 150858 402747 154858 45.0 b
367996 167829 385776 171829 45.0 b
362340 173486 380120 177486 45.0 b
390624 145202 408404 149202 45.0 b
396281 139545 414061 143545 45.0 b
356683 179143 374463 183143 45.0 b
351026 184800 368806 188800 45.0 b
401938 133888 419718 137888 45.0 b
407594 128231 425374 132231 45.0 b
345369 190456 363149 194456 45.0 b
339712 196113 357492 200113 45.0 b
413251 122574 431031 126574 45.0 b
334055 201770 351835 205770 45.0 b
418908 116917 436688 120917 45.0 b
491910 156515 509690 160515 135.0 b
497567 162172 515347 166172 135.0 b
503224 167829 521004 171829 135.0 b
486253 150858 504033 154858 135.0 b
480596 145202 498376 149202 135.0 b
508880 173486 526660 177486 135.0 b
514537 179143 532317 183143 135.0 b
474939 139545 492719 143545 135.0 b
469282 133888 487062 137888 135.0 b
520194 184800 537974 188800 135.0 b
525851 190456 543631 194456 135.0 b
463626 128231 481406 132231 135.0 b
457969 122574 475749 126574 135.0 b
531508 196113 549288 200113 135.0 b
452312 116917 470092 120917 135.0 b
537165 201770 554945 205770 135.0 b
497567 274772 515347 278772 225.0 b
491910 280429 509690 284429 225.0 b
486253 286086 504033 290086 225.0 b
503224 269115 521004 273115 225.0 b
508880 263458 526660 267458 225.0 b
480596 291742 498376 295742 225.0 b
474939 297399 492719 301399 225.0 b
514537 257801 532317 261801 225.0 b
520194 252144 537974 256144 225.0 b
469282 303056 487062 307056 225.0 b
463626 308713 481406 312713 225.0 b
525851 246488 543631 250488 225.0 b
531508 240831 549288 244831 225.0 b
457969 314370 475749 318370 225.0 b
537165 235174 554945 239174 225.0 b
452312 320027 470092 324027 225.0 b
354300 113872 365300 123872 0.0 b
371300 113872 382300 123872 0.0 b
354300 88472 365300 98472 0.0 b
371300 88472 382300 98472 0.0 b
100203 124333 115189 144399 90.0 b
100203 147193 115189 167259 90.0 b
100203 170053 115189 190119 90.0 b
25654 146939 63754 167005 90.0 b
208750 208622 218750 219622 0.0 b
225750 208622 235750 219622 0.0 b
130200 90522 136500 98822 90.0 b
130200 113522 136500 121822 90.0 b
149250 179422 155550 187722 90.0 b
149250 202422 155550 210722 90.0 b
140550 154122 151550 164122 270.0 b
140550 137122 151550 147122 270.0 b
79200 202772 90200 212772 180.0 b
62200 202772 73200 212772 180.0 b
160100 109172 170100 120172 270.0 b
160100 92172 170100 103172 270.0 b
192850 170872 200850 178872 180.0 b
192850 185872 200850 193872 180.0 b
247650 239522 237490 239522 10160 l
247650 252222 237490 252222 10160 l
247650 264922 237490 264922 10160 l
247650 277622 237490 277622 10160 l
247650 290322 237490 290322 10160 l
260350 290322 270510 290322 10160 l
260350 277622 270510 277622 10160 l
260350 264922 270510 264922 10160 l
260350 252222 270510 252222 10160 l
260350 239522 270510 239522 10160 l
279400 182372 18796 p
254000 182372 18796 p
228600 182372 18796 p
215900 55372 18796 p
241300 55372 18796 p
266700 55372 18796 p
292100 55372 18796 p
317500 55372 18796 p
342900 55372 18796 p
368300 55372 18796 p
393700 55372 18796 p
419100 55372 18796 p
444500 55372 18796 p
469900 55372 18796 p
495300 55372 18796 p
520700 55372 18796 p
546100 55372 18796 p
571500 55372 18796 p
596900 55372 18796 p
215900 385572 18796 p
241300 385572 18796 p
266700 385572 18796 p
292100 385572 18796 p
317500 385572 18796 p
342900 385572 18796 p
368300 385572 18796 p
393700 385572 18796 p
419100 385572 18796 p
444500 385572 18796 p
469900 385572 18796 p
495300 385572 18796 p
520700 385572 18796 p
546100 385572 18796 p
571500 385572 18796 p
596900 385572 18796 p
149700 290322 43180 p
89700 290322 43180 p
119700 243322 43180 p
600400 297522 610400 308522 180.0 b
583400 297522 593400 308522 180.0 b
600400 265772 610400 276772 180.0 b
583400 265772 593400 276772 180.0 b
611950 221672 619950 229672 180.0 b
611950 236672 619950 244672 180.0 b
580200 221672 588200 229672 180.0 b
580200 236672 588200 244672 180.0 b
615950 131572 18796 18796 0.0 o
590550 131572 18796 18796 0.0 o
615950 156972 18796 18796 0.0 o
590550 156972 18796 18796 0.0 o
615950 182372 18796 18796 0.0 o
590550 182372 18796 18796 0.0 o
107696 180086 97536 180086 3048 l
97536 180086 84700 192922 3048 l
84700 207772 84700 192922 3048 l
152400 183572 134550 183572 6096 l
107696 180086 131064 180086 6096 l
131064 180086 134550 183572 6096 l
107696 157226 133350 157226 6096 l
133350 157226 144154 157226 6096 l
144154 157226 146050 159122 3048 l
133350 117672 133350 125222 6096 l
133350 125222 133350 157226 6096 l
165100 114672 165100 125222 6096 l
165100 125222 133350 125222 6096 l
158750 281272 149700 290322 6096 l
152400 206572 152400 233172 6096 l
152400 233172 158750 239522 6096 l
158750 239522 158750 281272 6096 l
196850 189872 196850 207772 3048 l
196850 207772 203200 214122 3048 l
203200 214122 213750 214122 3048 l
615950 131572 615950 156972 3048 l
506457 276772 488603 258919 3048 l
488603 258919 418753 189069 3048 l
418753 189069 402878 173194 3048 l
402878 173194 388200 158515 3048 l
393857 152858 402878 161880 3048 l
402878 161880 402878 173194 3048 l
410828 135888 418753 143814 3048 l
418753 143814 418753 189069 3048 l
89700 290322 82550 296672 10160 l
82550 296672 38100 296672 10160 l
38100 296672 38100 264922 10160 l
38100 264922 38100 207772 10160 l
38100 207772 67700 207772 10160 l
119700 243322 40650 243322 10160 l
67700 207772 67700 146422 10160 l
67700 146422 79756 134366 10160 l
107696 134366 79756 134366 10160 l
146050 142122 182000 142122 6096 l
247650 264922 247650 277622 6096 l
388200 158515 376800 147115 3048 l
376800 147115 376800 118872 3048 l
376800 118872 376800 93472 3048 l
40650 243322 38100 264922 3048 l
615950 225672 617100 225672 2540 l
617100 225672 622300 220472 2540 l
622300 220472 635000 207772 3048 l
635000 207772 635000 176022 3048 l
635000 176022 615950 156972 3048 l
527050 220472 488603 258919 3048 l
527050 220472 584200 220472 3048 l
584200 220472 622300 220472 3048 l
584200 225672 584200 220472 2540 l
376800 118872 376800 63872 4064 l
376800 63872 368300 55372 4064 l
368300 55372 368300 36322 4064 l
368300 36322 361950 29972 4064 l
361950 29972 139700 29972 4064 l
139700 29972 107950 61722 4064 l
107950 61722 107950 134112 4064 l
107950 134112 107696 134366 3048 l
247650 277622 209550 277622 6096 l
177800 322072 115100 322072 6096 l
115100 322072 89700 290322 6096 l
196850 174872 196850 156972 6096 l
196850 156972 182000 142122 6096 l
146050 142122 177800 142122 6096 l
177800 245872 209550 277622 6096 l
177800 245872 177800 182372 6096 l
177800 182372 185300 174872 6096 l
196850 174872 185300 174872 6096 l
177800 322072 209550 290322 6096 l
209550 290322 209550 277622 6096 l
133350 94672 165100 94672 6096 l
165100 94672 191700 94672 6096 l
191700 94672 279400 182372 6096 l
165100 97672 165100 94672 6096 l
500800 282429 397222 178850 3048 l
397222 178850 382543 164172 3048 l
376886 169829 385908 178850 3048 l
385908 178850 397222 178850 3048 l
376886 169829 361950 154893 3048 l
361950 154893 361950 144272 3048 l
361950 144272 14224 p
359800 93472 359800 118872 3048 l
359800 118872 359800 129422 3048 l
359800 129422 361950 131572 3048 l
361950 131572 361950 144272 3048 l
230750 214122 241300 214122 3048 l
241300 214122 254000 201422 3048 l
254000 201422 254000 182372 3048 l
342945 237174 334247 245872 3048 l
334247 245872 304800 245872 3048 l
304800 245872 298450 239522 3048 l
298450 239522 14224 p
348602 242831 339211 252222 3048 l
339211 252222 292100 252222 3048 l
292100 252222 279400 239522 3048 l
279400 239522 260350 239522 3048 l
354259 248488 325125 277622 3048 l
325125 277622 260350 277622 3048 l
342945 203770 283447 144272 3048 l
283447 144272 260350 144272 3048 l
260350 144272 215900 99822 3048 l
215900 99822 215900 55372 3048 l
348602 198113 288411 137922 3048 l
288411 137922 266700 137922 3048 l
266700 137922 241300 112522 3048 l
241300 112522 241300 55372 3048 l
354259 192456 293375 131572 3048 l
293375 131572 273050 131572 3048 l
273050 131572 266700 125222 3048 l
266700 125222 266700 55372 3048 l
365573 181143 317500 133070 3048 l
317500 133070 317500 55372 3048 l
371230 175486 342900 147156 3048 l
342900 147156 342900 55372 3048 l
422141 124574 406400 108833 3048 l
406400 108833 406400 87122 3048 l
406400 87122 425450 68072 3048 l
425450 68072 431800 68072 3048 l
431800 68072 444500 55372 3048 l
359916 186800 298338 125222 3048 l
298338 125222 298338 125110 3048 l
298338 125110 292100 118872 3048 l
292100 118872 292100 55372 3048 l
405171 141545 393700 130074 3048 l
393700 130074 393700 55372 3048 l
416484 130231 400050 113797 3048 l
400050 113797 400050 80772 3048 l
400050 80772 419100 61722 3048 l
419100 61722 419100 55372 3048 l
427798 118917 412750 103869 3048 l
412750 103869 412750 93472 3048 l
412750 93472 431800 74422 3048 l
431800 74422 457200 74422 3048 l
457200 74422 469900 61722 3048 l
469900 61722 469900 55372 3048 l
461202 118917 495300 84819 3048 l
495300 84819 495300 55372 3048 l
466859 124574 520700 70733 3048 l
520700 70733 520700 55372 3048 l
472516 130231 515625 87122 3048 l
515625 87122 527050 87122 3048 l
527050 87122 546100 68072 3048 l
546100 68072 546100 55372 3048 l
478172 135888 520588 93472 3048 l
520588 93472 533400 93472 3048 l
533400 93472 571500 55372 3048 l
483829 141545 525552 99822 3048 l
525552 99822 552450 99822 3048 l
552450 99822 596900 55372 3048 l
359916 254144 298338 315722 3048 l
298338 315722 260350 315722 3048 l
260350 315722 215900 360172 3048 l
215900 360172 215900 385572 3048 l
365573 259801 303302 322072 3048 l
303302 322072 266700 322072 3048 l
266700 322072 241300 347472 3048 l
241300 347472 241300 385572 3048 l
371230 265458 308266 328422 3048 l
308266 328422 279400 328422 3048 l
279400 328422 266700 341122 3048 l
266700 341122 266700 385572 3048 l
376886 271115 313229 334772 3048 l
313229 334772 298450 334772 3048 l
298450 334772 292100 341122 3048 l
292100 341122 292100 385572 3048 l
382543 276772 317500 341815 3048 l
317500 341815 317500 385572 3048 l
388200 282429 342900 327729 3048 l
342900 327729 342900 385572 3048 l
393857 288086 368300 313643 3048 l
368300 313643 368300 385572 3048 l
399514 293742 381000 312256 3048 l
381000 312256 381000 366522 3048 l
381000 366522 393700 379222 3048 l
393700 379222 393700 385572 3048 l
405171 299399 393700 310870 3048 l
393700 310870 393700 360172 3048 l
393700 360172 419100 385572 3048 l
410828 305056 400050 315834 3048 l
400050 315834 400050 353822 3048 l
400050 353822 412750 366522 3048 l
412750 366522 438150 366522 3048 l
438150 366522 444500 372872 3048 l
444500 372872 444500 385572 3048 l
416484 310713 406400 320797 3048 l
406400 320797 406400 347472 3048 l
406400 347472 419100 360172 3048 l
419100 360172 457200 360172 3048 l
457200 360172 469900 372872 3048 l
469900 372872 469900 385572 3048 l
422141 316370 412750 325761 3048 l
412750 325761 412750 341122 3048 l
412750 341122 425450 353822 3048 l
425450 353822 463550 353822 3048 l
463550 353822 495300 385572 3048 l
427798 322027 419100 330725 3048 l
419100 330725 419100 334772 3048 l
419100 334772 431800 347472 3048 l
431800 347472 476250 347472 3048 l
476250 347472 495300 366522 3048 l
495300 366522 508000 366522 3048 l
508000 366522 520700 379222 3048 l
520700 379222 520700 385572 3048 l
461202 322027 499347 360172 3048 l
499347 360172 533400 360172 3048 l
533400 360172 546100 372872 3048 l
546100 372872 546100 385572 3048 l
466859 316370 504311 353822 3048 l
504311 353822 558800 353822 3048 l
558800 353822 571500 366522 3048 l
571500 366522 571500 385572 3048 l
472516 310713 509275 347472 3048 l
509275 347472 577850 347472 3048 l
577850 347472 596900 366522 3048 l
596900 366522 596900 385572 3048 l
529084 254144 577962 303022 3048 l
577962 303022 588400 303022 3048 l
534741 248488 557525 271272 3048 l
557525 271272 588400 271272 3048 l
605400 303022 606550 304172 3048 l
615950 240672 615950 292472 3048 l
615950 292472 605400 303022 3048 l
584200 240672 591700 240672 3048 l
591700 240672 605400 254372 3048 l
605400 271272 605400 254372 3048 l
517770 175486 539750 153506 3048 l
539750 153506 539750 144272 3048 l
539750 144272 14224 p
523427 181143 572998 131572 3048 l
572998 131572 590550 131572 3048 l
529084 186800 558912 156972 3048 l
558912 156972 590550 156972 3048 l
534741 192456 544825 182372 3048 l
544825 182372 590550 182372 3048 l
69850 385572 10064 p
654050 385572 10064 p
654050 55372 10064 p
69850 55372 10064 p
showpage grestore
