%
M48
M72
T01C0.0236
T02C0.0354
T03C0.0400
T04C0.0470
T05C0.1260
%
T01
X8680Y8180
X14680Y12180
X16680Y10930
X16680Y9930
X19180Y10180
X21930Y7430
X23180Y8180
X23930Y8930
X22680Y3680
X22180Y2180
X17180Y13180
X11180Y16680
T02
X5180Y17400
X5180Y19960
T03
X14180Y17680
X15180Y17680
X16180Y17680
X18680Y17680
X19680Y17680
X20680Y17680
X21680Y11680
X22680Y11680
X22680Y10680
X21680Y10680
X21680Y9680
X22680Y9680
X21180Y5180
X21180Y4180
X20180Y4180
X19180Y4180
X19180Y5180
X20180Y5180
X18180Y5180
X18180Y4180
X17180Y4180
X17180Y5180
T04
X2930Y4680
X2930Y6680
X2930Y8680
X2930Y10680
X2930Y12680
X2930Y14680
T05
X4180Y2180
X25180Y2180
X25180Y19680
X10180Y19680
M30
